<?xml version="1.0" encoding="UTF-8"?>
<kml xmlns="http://www.opengis.net/kml/2.2" xmlns:gx="http://www.google.com/kml/ext/2.2">
    <Document id="feat_48">
        <Style id="stylesel_37">
            <IconStyle id="substyle_37">
                <colorMode>normal</colorMode>
                <scale>1</scale>
                <heading>0</heading>
                <Icon id="link_37">
                    <href>wifi4.png</href>
                </Icon>
            </IconStyle>
        </Style>
        <Placemark id="feat_49">
            <name>Z736563757265</name>
            <description>2017-07-21T04:21:20.000Z</description>
            <styleUrl>#stylesel_37</styleUrl>
            <Point id="geom_37">
                <coordinates>-97.73662567,30.26733017,0.0</coordinates>
            </Point>
        </Placemark>
    </Document>
</kml>
