<?xml version="1.0" encoding="UTF-8"?>
<kml xmlns="http://www.opengis.net/kml/2.2" xmlns:gx="http://www.google.com/kml/ext/2.2">
    <Document id="feat_74">
        <Style id="stylesel_50">
            <IconStyle id="substyle_50">
                <colorMode>normal</colorMode>
                <scale>1</scale>
                <heading>0</heading>
                <Icon id="link_50">
                    <href>wifi4.png</href>
                </Icon>
            </IconStyle>
        </Style>
        <Placemark id="feat_75">
            <name>Z736563757265</name>
            <description>2017-08-13T20:32:45.000Z</description>
            <styleUrl>#stylesel_50</styleUrl>
            <Point id="geom_50">
                <coordinates>0.0,0.0,0.0</coordinates>
            </Point>
        </Placemark>
    </Document>
</kml>
