<?xml version="1.0" encoding="UTF-8"?>
<kml xmlns="http://www.opengis.net/kml/2.2" xmlns:gx="http://www.google.com/kml/ext/2.2">
    <Document id="feat_38">
        <Style id="stylesel_32">
            <IconStyle id="substyle_32">
                <colorMode>normal</colorMode>
                <scale>1</scale>
                <heading>0</heading>
                <Icon id="link_32">
                    <href>wifi4.png</href>
                </Icon>
            </IconStyle>
        </Style>
        <Placemark id="feat_39">
            <name>Z736563757265</name>
            <description>2016-11-18T05:30:57.000Z</description>
            <styleUrl>#stylesel_32</styleUrl>
            <Point id="geom_32">
                <coordinates>0.0,0.0,0.0</coordinates>
            </Point>
        </Placemark>
    </Document>
</kml>
