<?xml version="1.0" encoding="UTF-8"?>
<kml xmlns="http://www.opengis.net/kml/2.2" xmlns:gx="http://www.google.com/kml/ext/2.2">
    <Document id="feat_32">
        <Style id="stylesel_29">
            <IconStyle id="substyle_29">
                <colorMode>normal</colorMode>
                <scale>1</scale>
                <heading>0</heading>
                <Icon id="link_29">
                    <href>wifi4.png</href>
                </Icon>
            </IconStyle>
        </Style>
        <Placemark id="feat_33">
            <name>Z736563757265</name>
            <description>2017-07-18T17:03:37.000Z</description>
            <styleUrl>#stylesel_29</styleUrl>
            <Point id="geom_29">
                <coordinates>-97.8193512,30.27739143,0.0</coordinates>
            </Point>
        </Placemark>
    </Document>
</kml>
