<?xml version="1.0" encoding="UTF-8"?>
<kml xmlns="http://www.opengis.net/kml/2.2" xmlns:gx="http://www.google.com/kml/ext/2.2">
    <Document id="feat_60">
        <Style id="stylesel_43">
            <IconStyle id="substyle_43">
                <colorMode>normal</colorMode>
                <scale>1</scale>
                <heading>0</heading>
                <Icon id="link_43">
                    <href>wifi4.png</href>
                </Icon>
            </IconStyle>
        </Style>
        <Placemark id="feat_61">
            <name>Z736563757265</name>
            <description>2017-05-11T16:10:33.000Z</description>
            <styleUrl>#stylesel_43</styleUrl>
            <Point id="geom_43">
                <coordinates>-97.82522583,30.3054409,0.0</coordinates>
            </Point>
        </Placemark>
    </Document>
</kml>
