BSSID	SSID	Latitude	Longitude	First Time	Last Time	Last Update	Vendor
14:07:08:04:0B:B1	Z736563757265	0	0	2017-06-29T15:49:36.000Z	2001-01-01T08:00:00.000Z	2017-06-29T14:06:33.000Z	Private
18:42:1D:6A:99:F3	Z736563757265	30.27739143	-97.8193512	2017-07-18T17:03:37.000Z	2017-07-18T15:06:16.000Z	2017-07-18T15:06:23.000Z	Private
00:24:FB:39:B3:B3	Z736563757265	30.30269814	-97.73830414	2017-05-07T17:17:24.000Z	2017-05-07T16:06:06.000Z	2017-05-07T16:06:09.000Z	Private
14:07:08:51:0F:20	Z736563757265	30.34234619	-97.7032547	2017-07-13T19:33:13.000Z	2017-07-13T18:14:20.000Z	2017-07-13T18:14:31.000Z	Private
14:30:C6:40:F8:45	Z736563757265	0	0	2016-11-18T05:30:57.000Z	2001-01-01T08:00:00.000Z	2017-04-23T12:18:12.000Z	Motorola Mobility LLC, a Lenovo Company
1C:F4:CA:AD:C8:06	Z736563757265	30.2016716	-97.81765747	2017-06-15T04:22:54.000Z	2017-06-15T03:06:03.000Z	2017-06-15T03:06:10.000Z	Private
00:A0:54:89:FE:B0	Z736563757265	0	0	2017-07-15T00:24:40.000Z	2001-01-01T08:00:00.000Z	2017-07-14T23:06:20.000Z	Private
8C:84:01:EA:6E:61	Z736563757265	30.23013306	-97.82025909	2017-06-25T21:21:05.000Z	2017-06-25T20:55:34.000Z	2017-06-25T20:55:54.000Z	Private
00:0E:2A:6F:F9:BD	Z736563757265	0	0	2017-05-23T18:42:20.000Z	2001-01-01T08:00:00.000Z	2017-05-23T19:01:36.000Z	Private
00:25:9D:49:0B:5D	Z736563757265	30.26733017	-97.73662567	2017-07-21T04:21:20.000Z	2017-07-21T11:00:12.000Z	2017-07-21T11:00:31.000Z	Private
48:76:04:E7:56:78	Z736563757265	30.23116493	-97.81724548	2017-05-06T00:58:47.000Z	2017-05-05T23:06:12.000Z	2017-05-05T23:06:18.000Z	Private
A4:68:BC:1F:37:AE	Z736563757265	30.30544472	-97.82522583	2017-05-11T16:10:28.000Z	2017-05-11T15:06:11.000Z	2017-05-11T15:06:15.000Z	Private
00:23:4A:86:D0:39	Z736563757265	0	0	2017-06-19T02:16:11.000Z	2001-01-01T08:00:00.000Z	2017-06-19T01:06:25.000Z	Private
00:24:FB:13:4D:34	Z736563757265	30.23357391	-97.8174057	2017-05-21T21:06:27.000Z	2017-05-21T20:06:12.000Z	2017-05-21T20:06:20.000Z	Private
00:17:61:4F:A8:78	Z736563757265	30.22554016	-97.80382538	2017-05-31T16:27:43.000Z	2017-05-31T15:07:10.000Z	2017-05-31T15:07:22.000Z	Private
50:E1:4A:CB:10:4F	Z736563757265	30.3054409	-97.82522583	2017-05-11T16:10:33.000Z	2017-05-11T15:06:10.000Z	2017-05-11T15:06:14.000Z	Private
DC:70:14:FC:71:6F	Z736563757265	0	0	2017-07-15T00:24:55.000Z	2001-01-01T08:00:00.000Z	2017-07-14T23:06:20.000Z	Private
00:50:C7:64:D5:9D	Z736563757265	0	0	2017-06-29T15:49:20.000Z	2001-01-01T08:00:00.000Z	2017-06-29T14:06:34.000Z	Private
F0:A2:25:9F:DA:D2	Z736563757265	0	0	2017-08-18T20:02:32.000Z	2001-01-01T08:00:00.000Z	2017-08-18T18:08:25.000Z	Private
20:D1:60:40:F9:21	Z736563757265	0	0	2017-08-29T19:57:13.000Z	2001-01-01T08:00:00.000Z	2017-08-29T18:06:15.000Z	Private
48:F3:17:2B:C5:42	Z736563757265	0	0	2017-08-29T19:57:13.000Z	2001-01-01T08:00:00.000Z	2017-08-29T18:06:15.000Z	Private
68:E1:66:0F:B5:26	Z736563757265	30.26981163	-97.81728363	2017-08-10T18:52:58.000Z	2017-08-10T17:46:49.000Z	2017-08-10T17:46:54.000Z	Private
10:00:00:5C:C9:C4	Z736563757265	0	0	2017-08-13T20:32:45.000Z	2001-01-01T08:00:00.000Z	2017-08-13T19:06:36.000Z	Private
00:05:78:1C:FB:9B	Z736563757265	47.26979828	-122.48778534	2017-08-26T18:39:42.000Z	2017-09-01T20:21:57.000Z	2017-09-01T20:22:08.000Z	Private
3C:B8:7A:62:04:BD	Z736563757265	0	0	2017-08-18T20:00:34.000Z	2001-01-01T08:00:00.000Z	2017-08-18T18:08:27.000Z	Private
DC:70:14:75:BD:B5	Z736563757265	45.37087631	-122.75955963	2017-09-03T03:10:49.000Z	2017-09-03T03:40:25.000Z	2017-09-03T03:40:33.000Z	Private
00:BB:3A:4D:63:62	Z736563757265	27.02350044	-98.13820648	2017-09-04T19:07:08.000Z	2017-09-04T22:06:57.000Z	2017-09-04T22:07:03.000Z	Private
00:05:78:1C:FB:18	Z736563757265	47.27091217	-122.48661041	2017-08-26T17:22:32.000Z	2017-09-01T20:21:55.000Z	2017-09-01T20:22:08.000Z	Private
