<?xml version="1.0" encoding="UTF-8"?>
<kml xmlns="http://www.opengis.net/kml/2.2" xmlns:gx="http://www.google.com/kml/ext/2.2">
    <Document id="feat_1">
        <Style id="stylesel_0">
            <IconStyle id="substyle_0">
                <colorMode>normal</colorMode>
                <scale>1</scale>
                <heading>0</heading>
                <Icon id="link_0">
                    <href>wifi4.png</href>
                </Icon>
            </IconStyle>
        </Style>
        <Style id="stylesel_1">
            <IconStyle id="substyle_1">
                <colorMode>normal</colorMode>
                <scale>1</scale>
                <heading>0</heading>
                <Icon id="link_1">
                    <href>wifi4.png</href>
                </Icon>
            </IconStyle>
        </Style>
        <Style id="stylesel_2">
            <IconStyle id="substyle_2">
                <colorMode>normal</colorMode>
                <scale>1</scale>
                <heading>0</heading>
                <Icon id="link_2">
                    <href>wifi4.png</href>
                </Icon>
            </IconStyle>
        </Style>
        <Style id="stylesel_3">
            <IconStyle id="substyle_3">
                <colorMode>normal</colorMode>
                <scale>1</scale>
                <heading>0</heading>
                <Icon id="link_3">
                    <href>wifi4.png</href>
                </Icon>
            </IconStyle>
        </Style>
        <Style id="stylesel_4">
            <IconStyle id="substyle_4">
                <colorMode>normal</colorMode>
                <scale>1</scale>
                <heading>0</heading>
                <Icon id="link_4">
                    <href>wifi4.png</href>
                </Icon>
            </IconStyle>
        </Style>
        <Style id="stylesel_5">
            <IconStyle id="substyle_5">
                <colorMode>normal</colorMode>
                <scale>1</scale>
                <heading>0</heading>
                <Icon id="link_5">
                    <href>wifi4.png</href>
                </Icon>
            </IconStyle>
        </Style>
        <Style id="stylesel_6">
            <IconStyle id="substyle_6">
                <colorMode>normal</colorMode>
                <scale>1</scale>
                <heading>0</heading>
                <Icon id="link_6">
                    <href>wifi4.png</href>
                </Icon>
            </IconStyle>
        </Style>
        <Style id="stylesel_7">
            <IconStyle id="substyle_7">
                <colorMode>normal</colorMode>
                <scale>1</scale>
                <heading>0</heading>
                <Icon id="link_7">
                    <href>wifi4.png</href>
                </Icon>
            </IconStyle>
        </Style>
        <Style id="stylesel_8">
            <IconStyle id="substyle_8">
                <colorMode>normal</colorMode>
                <scale>1</scale>
                <heading>0</heading>
                <Icon id="link_8">
                    <href>wifi4.png</href>
                </Icon>
            </IconStyle>
        </Style>
        <Style id="stylesel_9">
            <IconStyle id="substyle_9">
                <colorMode>normal</colorMode>
                <scale>1</scale>
                <heading>0</heading>
                <Icon id="link_9">
                    <href>wifi4.png</href>
                </Icon>
            </IconStyle>
        </Style>
        <Style id="stylesel_10">
            <IconStyle id="substyle_10">
                <colorMode>normal</colorMode>
                <scale>1</scale>
                <heading>0</heading>
                <Icon id="link_10">
                    <href>wifi4.png</href>
                </Icon>
            </IconStyle>
        </Style>
        <Style id="stylesel_11">
            <IconStyle id="substyle_11">
                <colorMode>normal</colorMode>
                <scale>1</scale>
                <heading>0</heading>
                <Icon id="link_11">
                    <href>wifi4.png</href>
                </Icon>
            </IconStyle>
        </Style>
        <Style id="stylesel_12">
            <IconStyle id="substyle_12">
                <colorMode>normal</colorMode>
                <scale>1</scale>
                <heading>0</heading>
                <Icon id="link_12">
                    <href>wifi4.png</href>
                </Icon>
            </IconStyle>
        </Style>
        <Style id="stylesel_13">
            <IconStyle id="substyle_13">
                <colorMode>normal</colorMode>
                <scale>1</scale>
                <heading>0</heading>
                <Icon id="link_13">
                    <href>wifi4.png</href>
                </Icon>
            </IconStyle>
        </Style>
        <Style id="stylesel_14">
            <IconStyle id="substyle_14">
                <colorMode>normal</colorMode>
                <scale>1</scale>
                <heading>0</heading>
                <Icon id="link_14">
                    <href>wifi4.png</href>
                </Icon>
            </IconStyle>
        </Style>
        <Style id="stylesel_15">
            <IconStyle id="substyle_15">
                <colorMode>normal</colorMode>
                <scale>1</scale>
                <heading>0</heading>
                <Icon id="link_15">
                    <href>wifi4.png</href>
                </Icon>
            </IconStyle>
        </Style>
        <Style id="stylesel_16">
            <IconStyle id="substyle_16">
                <colorMode>normal</colorMode>
                <scale>1</scale>
                <heading>0</heading>
                <Icon id="link_16">
                    <href>wifi4.png</href>
                </Icon>
            </IconStyle>
        </Style>
        <Style id="stylesel_17">
            <IconStyle id="substyle_17">
                <colorMode>normal</colorMode>
                <scale>1</scale>
                <heading>0</heading>
                <Icon id="link_17">
                    <href>wifi4.png</href>
                </Icon>
            </IconStyle>
        </Style>
        <Style id="stylesel_18">
            <IconStyle id="substyle_18">
                <colorMode>normal</colorMode>
                <scale>1</scale>
                <heading>0</heading>
                <Icon id="link_18">
                    <href>wifi4.png</href>
                </Icon>
            </IconStyle>
        </Style>
        <Placemark id="feat_2">
            <name>AndroidAP</name>
            <description>F8:DB:7F:54:08:8F</description>
            <styleUrl>#stylesel_0</styleUrl>
            <Point id="geom_0">
                <coordinates>-111.74680328,40.37331772,0.0</coordinates>
            </Point>
        </Placemark>
        <Placemark id="feat_3">
            <name>AndroidAP</name>
            <description>AC:37:43:A5:7E:47</description>
            <styleUrl>#stylesel_1</styleUrl>
            <Point id="geom_1">
                <coordinates>-111.77000427,40.34998322,0.0</coordinates>
            </Point>
        </Placemark>
        <Placemark id="feat_4">
            <name>AndroidAP</name>
            <description>02:1A:11:F3:69:75</description>
            <styleUrl>#stylesel_2</styleUrl>
            <Point id="geom_2">
                <coordinates>-111.76373291,40.34775543,0.0</coordinates>
            </Point>
        </Placemark>
        <Placemark id="feat_5">
            <name>AndroidAP</name>
            <description>02:1A:11:F8:65:4B</description>
            <styleUrl>#stylesel_3</styleUrl>
            <Point id="geom_3">
                <coordinates>-111.7621994,40.36397934,0.0</coordinates>
            </Point>
        </Placemark>
        <Placemark id="feat_6">
            <name>AndroidAP</name>
            <description>B4:07:F9:01:2D:F3</description>
            <styleUrl>#stylesel_4</styleUrl>
            <Point id="geom_4">
                <coordinates>-111.74797058,40.37561035,0.0</coordinates>
            </Point>
        </Placemark>
        <Placemark id="feat_7">
            <name>AndroidAP</name>
            <description>6C:B7:F4:EB:62:65</description>
            <styleUrl>#stylesel_5</styleUrl>
            <Point id="geom_5">
                <coordinates>-111.73914337,40.36398315,0.0</coordinates>
            </Point>
        </Placemark>
        <Placemark id="feat_8">
            <name>AndroidAP</name>
            <description>02:1A:11:F6:BC:96</description>
            <styleUrl>#stylesel_6</styleUrl>
            <Point id="geom_6">
                <coordinates>-111.76218414,40.34589767,0.0</coordinates>
            </Point>
        </Placemark>
        <Placemark id="feat_9">
            <name>AndroidAP</name>
            <description>92:68:C3:FA:BE:35</description>
            <styleUrl>#stylesel_7</styleUrl>
            <Point id="geom_7">
                <coordinates>-111.7407074,40.34999847,0.0</coordinates>
            </Point>
        </Placemark>
        <Placemark id="feat_10">
            <name>AndroidAP</name>
            <description>10:C6:1F:74:8C:17</description>
            <styleUrl>#stylesel_8</styleUrl>
            <Point id="geom_8">
                <coordinates>-111.76153564,40.36854553,0.0</coordinates>
            </Point>
        </Placemark>
        <Placemark id="feat_11">
            <name>AndroidAP</name>
            <description>02:1A:11:F3:5E:13</description>
            <styleUrl>#stylesel_9</styleUrl>
            <Point id="geom_9">
                <coordinates>-111.69743347,40.34485245,0.0</coordinates>
            </Point>
        </Placemark>
        <Placemark id="feat_12">
            <name>AndroidAP</name>
            <description>00:F4:6F:6F:C1:DF</description>
            <styleUrl>#stylesel_10</styleUrl>
            <Point id="geom_10">
                <coordinates>-111.74065399,40.35694122,0.0</coordinates>
            </Point>
        </Placemark>
        <Placemark id="feat_14">
            <name>AndroidAP</name>
            <description>2012-11-23T20:25:05.000Z</description>
            <styleUrl>#stylesel_11</styleUrl>
            <Point id="geom_11">
                <coordinates>-111.74680328,40.37331772,0.0</coordinates>
            </Point>
        </Placemark>
        <Placemark id="feat_16">
            <name>AndroidAP</name>
            <description>2017-02-01T00:41:58.000Z</description>
            <styleUrl>#stylesel_12</styleUrl>
            <Point id="geom_12">
                <coordinates>-111.77000427,40.34998322,0.0</coordinates>
            </Point>
        </Placemark>
        <Placemark id="feat_18">
            <name>AndroidAP</name>
            <description>2014-10-29T17:33:07.000Z</description>
            <styleUrl>#stylesel_13</styleUrl>
            <Point id="geom_13">
                <coordinates>-111.78546906,40.36315918,0.0</coordinates>
            </Point>
        </Placemark>
        <Placemark id="feat_19">
            <name>AndroidAP</name>
            <description>2014-10-29T04:27:42.000Z</description>
            <styleUrl>#stylesel_14</styleUrl>
            <Point id="geom_14">
                <coordinates>-111.74057007,40.3319397,0.0</coordinates>
            </Point>
        </Placemark>
        <Placemark id="feat_20">
            <name>AndroidAP</name>
            <description>2014-10-29T04:27:46.000Z</description>
            <styleUrl>#stylesel_15</styleUrl>
            <Point id="geom_15">
                <coordinates>-111.74181366,40.33274841,0.0</coordinates>
            </Point>
        </Placemark>
        <Placemark id="feat_21">
            <name>AndroidAP</name>
            <description>2014-10-29T17:32:59.000Z</description>
            <styleUrl>#stylesel_16</styleUrl>
            <Point id="geom_16">
                <coordinates>-111.78546906,40.36203384,0.0</coordinates>
            </Point>
        </Placemark>
        <Placemark id="feat_23">
            <name>AndroidAP</name>
            <description>2016-06-13T00:32:44.000Z</description>
            <styleUrl>#stylesel_17</styleUrl>
            <Point id="geom_17">
                <coordinates>-111.7621994,40.36397934,0.0</coordinates>
            </Point>
        </Placemark>
        <Placemark id="feat_25">
            <name>AndroidAP</name>
            <description>2014-08-23T20:29:17.000Z</description>
            <styleUrl>#stylesel_18</styleUrl>
            <Point id="geom_18">
                <coordinates>-111.74797058,40.37561035,0.0</coordinates>
            </Point>
        </Placemark>
    </Document>
</kml>
