<?xml version="1.0" encoding="UTF-8"?>
<kml xmlns="http://www.opengis.net/kml/2.2" xmlns:gx="http://www.google.com/kml/ext/2.2">
    <Document id="feat_579">
        <Style id="stylesel_518">
            <IconStyle id="substyle_518">
                <colorMode>normal</colorMode>
                <scale>1</scale>
                <heading>0</heading>
                <Icon id="link_518">
                    <href>wifi4.png</href>
                </Icon>
            </IconStyle>
        </Style>
        <Style id="stylesel_519">
            <IconStyle id="substyle_519">
                <colorMode>normal</colorMode>
                <scale>1</scale>
                <heading>0</heading>
                <Icon id="link_519">
                    <href>wifi4.png</href>
                </Icon>
            </IconStyle>
        </Style>
        <Style id="stylesel_520">
            <IconStyle id="substyle_520">
                <colorMode>normal</colorMode>
                <scale>1</scale>
                <heading>0</heading>
                <Icon id="link_520">
                    <href>wifi4.png</href>
                </Icon>
            </IconStyle>
        </Style>
        <Placemark id="feat_580">
            <name>FBI surveillance van</name>
            <description>2012-10-07T20:34:41.000Z</description>
            <styleUrl>#stylesel_518</styleUrl>
            <Point id="geom_518">
                <coordinates>-111.7241745,40.28286743,0.0</coordinates>
            </Point>
        </Placemark>
        <Placemark id="feat_581">
            <name>FBI surveillance van</name>
            <description>2012-10-07T20:34:32.000Z</description>
            <styleUrl>#stylesel_519</styleUrl>
            <Point id="geom_519">
                <coordinates>-111.72418976,40.28400421,0.0</coordinates>
            </Point>
        </Placemark>
        <Placemark id="feat_582">
            <name>FBI surveillance van</name>
            <description>2012-10-07T20:34:22.000Z</description>
            <styleUrl>#stylesel_520</styleUrl>
            <Point id="geom_520">
                <coordinates>-111.72422028,40.28518295,0.0</coordinates>
            </Point>
        </Placemark>
    </Document>
</kml>
