<?xml version="1.0" encoding="UTF-8"?>
<kml xmlns="http://www.opengis.net/kml/2.2" xmlns:gx="http://www.google.com/kml/ext/2.2">
    <Document id="feat_428">
        <Style id="stylesel_392">
            <IconStyle id="substyle_392">
                <colorMode>normal</colorMode>
                <scale>1</scale>
                <heading>0</heading>
                <Icon id="link_392">
                    <href>wifi4.png</href>
                </Icon>
            </IconStyle>
        </Style>
        <Style id="stylesel_393">
            <IconStyle id="substyle_393">
                <colorMode>normal</colorMode>
                <scale>1</scale>
                <heading>0</heading>
                <Icon id="link_393">
                    <href>wifi4.png</href>
                </Icon>
            </IconStyle>
        </Style>
        <Style id="stylesel_394">
            <IconStyle id="substyle_394">
                <colorMode>normal</colorMode>
                <scale>1</scale>
                <heading>0</heading>
                <Icon id="link_394">
                    <href>wifi4.png</href>
                </Icon>
            </IconStyle>
        </Style>
        <Placemark id="feat_429">
            <name>dlink</name>
            <description>2010-08-12T06:58:11.000Z</description>
            <styleUrl>#stylesel_392</styleUrl>
            <Point id="geom_392">
                <coordinates>-111.65171051,40.23596954,0.0</coordinates>
            </Point>
        </Placemark>
        <Placemark id="feat_430">
            <name>dlink</name>
            <description>2010-09-09T20:34:52.000Z</description>
            <styleUrl>#stylesel_393</styleUrl>
            <Point id="geom_393">
                <coordinates>-111.65156555,40.23612976,0.0</coordinates>
            </Point>
        </Placemark>
        <Placemark id="feat_431">
            <name>FBI Surveillance Van</name>
            <description>2012-02-16T02:07:54.000Z</description>
            <styleUrl>#stylesel_394</styleUrl>
            <Point id="geom_394">
                <coordinates>-111.65499878,40.24174881,0.0</coordinates>
            </Point>
        </Placemark>
    </Document>
</kml>
