<?xml version="1.0" encoding="UTF-8"?>
<kml xmlns="http://www.opengis.net/kml/2.2" xmlns:gx="http://www.google.com/kml/ext/2.2">
    <Document id="feat_328">
        <Style id="stylesel_305">
            <IconStyle id="substyle_305">
                <colorMode>normal</colorMode>
                <scale>1</scale>
                <heading>0</heading>
                <Icon id="link_305">
                    <href>wifi4.png</href>
                </Icon>
            </IconStyle>
        </Style>
        <Style id="stylesel_306">
            <IconStyle id="substyle_306">
                <colorMode>normal</colorMode>
                <scale>1</scale>
                <heading>0</heading>
                <Icon id="link_306">
                    <href>wifi4.png</href>
                </Icon>
            </IconStyle>
        </Style>
        <Placemark id="feat_329">
            <name>FBI Surveillance Van</name>
            <description>2017-03-16T14:53:01.000Z</description>
            <styleUrl>#stylesel_305</styleUrl>
            <Point id="geom_305">
                <coordinates>-111.6389389,40.2592392,0.0</coordinates>
            </Point>
        </Placemark>
        <Placemark id="feat_330">
            <name>FBI Surveillance Van</name>
            <description>2017-03-16T14:52:56.000Z</description>
            <styleUrl>#stylesel_306</styleUrl>
            <Point id="geom_306">
                <coordinates>-111.63880157,40.25894547,0.0</coordinates>
            </Point>
        </Placemark>
    </Document>
</kml>
