<?xml version="1.0" encoding="UTF-8"?>
<kml xmlns="http://www.opengis.net/kml/2.2" xmlns:gx="http://www.google.com/kml/ext/2.2">
    <Document id="feat_463">
        <Style id="stylesel_419">
            <IconStyle id="substyle_419">
                <colorMode>normal</colorMode>
                <scale>1</scale>
                <heading>0</heading>
                <Icon id="link_419">
                    <href>wifi4.png</href>
                </Icon>
            </IconStyle>
        </Style>
        <Style id="stylesel_420">
            <IconStyle id="substyle_420">
                <colorMode>normal</colorMode>
                <scale>1</scale>
                <heading>0</heading>
                <Icon id="link_420">
                    <href>wifi4.png</href>
                </Icon>
            </IconStyle>
        </Style>
        <Style id="stylesel_421">
            <IconStyle id="substyle_421">
                <colorMode>normal</colorMode>
                <scale>1</scale>
                <heading>0</heading>
                <Icon id="link_421">
                    <href>wifi4.png</href>
                </Icon>
            </IconStyle>
        </Style>
        <Style id="stylesel_422">
            <IconStyle id="substyle_422">
                <colorMode>normal</colorMode>
                <scale>1</scale>
                <heading>0</heading>
                <Icon id="link_422">
                    <href>wifi4.png</href>
                </Icon>
            </IconStyle>
        </Style>
        <Style id="stylesel_423">
            <IconStyle id="substyle_423">
                <colorMode>normal</colorMode>
                <scale>1</scale>
                <heading>0</heading>
                <Icon id="link_423">
                    <href>wifi4.png</href>
                </Icon>
            </IconStyle>
        </Style>
        <Placemark id="feat_464">
            <name>FBI surveillance van</name>
            <description>2012-10-07T20:47:15.000Z</description>
            <styleUrl>#stylesel_419</styleUrl>
            <Point id="geom_419">
                <coordinates>-111.66759491,40.24141312,0.0</coordinates>
            </Point>
        </Placemark>
        <Placemark id="feat_465">
            <name>FBI surveillance van</name>
            <description>2012-10-07T20:47:06.000Z</description>
            <styleUrl>#stylesel_420</styleUrl>
            <Point id="geom_420">
                <coordinates>-111.66759491,40.24254608,0.0</coordinates>
            </Point>
        </Placemark>
        <Placemark id="feat_466">
            <name>FBI surveillance van</name>
            <description>2012-10-07T21:25:09.000Z</description>
            <styleUrl>#stylesel_421</styleUrl>
            <Point id="geom_421">
                <coordinates>-111.66739655,40.24280167,0.0</coordinates>
            </Point>
        </Placemark>
        <Placemark id="feat_467">
            <name>FBI surveillance van</name>
            <description>2012-10-07T21:25:18.000Z</description>
            <styleUrl>#stylesel_422</styleUrl>
            <Point id="geom_422">
                <coordinates>-111.66738129,40.24390793,0.0</coordinates>
            </Point>
        </Placemark>
        <Placemark id="feat_468">
            <name>FBI surveillance van</name>
            <description>2012-12-19T17:50:43.000Z</description>
            <styleUrl>#stylesel_423</styleUrl>
            <Point id="geom_423">
                <coordinates>-111.66734314,40.2419548,0.0</coordinates>
            </Point>
        </Placemark>
    </Document>
</kml>
