<?xml version="1.0" encoding="UTF-8"?>
<kml xmlns="http://www.opengis.net/kml/2.2" xmlns:gx="http://www.google.com/kml/ext/2.2">
    <Document id="feat_461">
        <Style id="stylesel_418">
            <IconStyle id="substyle_418">
                <colorMode>normal</colorMode>
                <scale>1</scale>
                <heading>0</heading>
                <Icon id="link_418">
                    <href>wifi4.png</href>
                </Icon>
            </IconStyle>
        </Style>
        <Placemark id="feat_462">
            <name>FBI Surveillance Van</name>
            <description>2017-03-20T16:22:56.000Z</description>
            <styleUrl>#stylesel_418</styleUrl>
            <Point id="geom_418">
                <coordinates>-111.7227478,40.29857254,0.0</coordinates>
            </Point>
        </Placemark>
    </Document>
</kml>
