<?xml version="1.0" encoding="UTF-8"?>
<kml xmlns="http://www.opengis.net/kml/2.2" xmlns:gx="http://www.google.com/kml/ext/2.2">
    <Document id="feat_985">
        <Style id="stylesel_900">
            <IconStyle id="substyle_900">
                <colorMode>normal</colorMode>
                <scale>1</scale>
                <heading>0</heading>
                <Icon id="link_900">
                    <href>wifi4.png</href>
                </Icon>
            </IconStyle>
        </Style>
        <Style id="stylesel_901">
            <IconStyle id="substyle_901">
                <colorMode>normal</colorMode>
                <scale>1</scale>
                <heading>0</heading>
                <Icon id="link_901">
                    <href>wifi4.png</href>
                </Icon>
            </IconStyle>
        </Style>
        <Style id="stylesel_902">
            <IconStyle id="substyle_902">
                <colorMode>normal</colorMode>
                <scale>1</scale>
                <heading>0</heading>
                <Icon id="link_902">
                    <href>wifi4.png</href>
                </Icon>
            </IconStyle>
        </Style>
        <Style id="stylesel_903">
            <IconStyle id="substyle_903">
                <colorMode>normal</colorMode>
                <scale>1</scale>
                <heading>0</heading>
                <Icon id="link_903">
                    <href>wifi4.png</href>
                </Icon>
            </IconStyle>
        </Style>
        <Style id="stylesel_904">
            <IconStyle id="substyle_904">
                <colorMode>normal</colorMode>
                <scale>1</scale>
                <heading>0</heading>
                <Icon id="link_904">
                    <href>wifi4.png</href>
                </Icon>
            </IconStyle>
        </Style>
        <Style id="stylesel_905">
            <IconStyle id="substyle_905">
                <colorMode>normal</colorMode>
                <scale>1</scale>
                <heading>0</heading>
                <Icon id="link_905">
                    <href>wifi4.png</href>
                </Icon>
            </IconStyle>
        </Style>
        <Style id="stylesel_906">
            <IconStyle id="substyle_906">
                <colorMode>normal</colorMode>
                <scale>1</scale>
                <heading>0</heading>
                <Icon id="link_906">
                    <href>wifi4.png</href>
                </Icon>
            </IconStyle>
        </Style>
        <Style id="stylesel_907">
            <IconStyle id="substyle_907">
                <colorMode>normal</colorMode>
                <scale>1</scale>
                <heading>0</heading>
                <Icon id="link_907">
                    <href>wifi4.png</href>
                </Icon>
            </IconStyle>
        </Style>
        <Style id="stylesel_908">
            <IconStyle id="substyle_908">
                <colorMode>normal</colorMode>
                <scale>1</scale>
                <heading>0</heading>
                <Icon id="link_908">
                    <href>wifi4.png</href>
                </Icon>
            </IconStyle>
        </Style>
        <Style id="stylesel_909">
            <IconStyle id="substyle_909">
                <colorMode>normal</colorMode>
                <scale>1</scale>
                <heading>0</heading>
                <Icon id="link_909">
                    <href>wifi4.png</href>
                </Icon>
            </IconStyle>
        </Style>
        <Style id="stylesel_910">
            <IconStyle id="substyle_910">
                <colorMode>normal</colorMode>
                <scale>1</scale>
                <heading>0</heading>
                <Icon id="link_910">
                    <href>wifi4.png</href>
                </Icon>
            </IconStyle>
        </Style>
        <Style id="stylesel_911">
            <IconStyle id="substyle_911">
                <colorMode>normal</colorMode>
                <scale>1</scale>
                <heading>0</heading>
                <Icon id="link_911">
                    <href>wifi4.png</href>
                </Icon>
            </IconStyle>
        </Style>
        <Style id="stylesel_912">
            <IconStyle id="substyle_912">
                <colorMode>normal</colorMode>
                <scale>1</scale>
                <heading>0</heading>
                <Icon id="link_912">
                    <href>wifi4.png</href>
                </Icon>
            </IconStyle>
        </Style>
        <Style id="stylesel_913">
            <IconStyle id="substyle_913">
                <colorMode>normal</colorMode>
                <scale>1</scale>
                <heading>0</heading>
                <Icon id="link_913">
                    <href>wifi4.png</href>
                </Icon>
            </IconStyle>
        </Style>
        <Style id="stylesel_914">
            <IconStyle id="substyle_914">
                <colorMode>normal</colorMode>
                <scale>1</scale>
                <heading>0</heading>
                <Icon id="link_914">
                    <href>wifi4.png</href>
                </Icon>
            </IconStyle>
        </Style>
        <Style id="stylesel_915">
            <IconStyle id="substyle_915">
                <colorMode>normal</colorMode>
                <scale>1</scale>
                <heading>0</heading>
                <Icon id="link_915">
                    <href>wifi4.png</href>
                </Icon>
            </IconStyle>
        </Style>
        <Style id="stylesel_916">
            <IconStyle id="substyle_916">
                <colorMode>normal</colorMode>
                <scale>1</scale>
                <heading>0</heading>
                <Icon id="link_916">
                    <href>wifi4.png</href>
                </Icon>
            </IconStyle>
        </Style>
        <Style id="stylesel_917">
            <IconStyle id="substyle_917">
                <colorMode>normal</colorMode>
                <scale>1</scale>
                <heading>0</heading>
                <Icon id="link_917">
                    <href>wifi4.png</href>
                </Icon>
            </IconStyle>
        </Style>
        <Style id="stylesel_918">
            <IconStyle id="substyle_918">
                <colorMode>normal</colorMode>
                <scale>1</scale>
                <heading>0</heading>
                <Icon id="link_918">
                    <href>wifi4.png</href>
                </Icon>
            </IconStyle>
        </Style>
        <Style id="stylesel_919">
            <IconStyle id="substyle_919">
                <colorMode>normal</colorMode>
                <scale>1</scale>
                <heading>0</heading>
                <Icon id="link_919">
                    <href>wifi4.png</href>
                </Icon>
            </IconStyle>
        </Style>
        <Style id="stylesel_920">
            <IconStyle id="substyle_920">
                <colorMode>normal</colorMode>
                <scale>1</scale>
                <heading>0</heading>
                <Icon id="link_920">
                    <href>wifi4.png</href>
                </Icon>
            </IconStyle>
        </Style>
        <Style id="stylesel_921">
            <IconStyle id="substyle_921">
                <colorMode>normal</colorMode>
                <scale>1</scale>
                <heading>0</heading>
                <Icon id="link_921">
                    <href>wifi4.png</href>
                </Icon>
            </IconStyle>
        </Style>
        <Style id="stylesel_922">
            <IconStyle id="substyle_922">
                <colorMode>normal</colorMode>
                <scale>1</scale>
                <heading>0</heading>
                <Icon id="link_922">
                    <href>wifi4.png</href>
                </Icon>
            </IconStyle>
        </Style>
        <Style id="stylesel_923">
            <IconStyle id="substyle_923">
                <colorMode>normal</colorMode>
                <scale>1</scale>
                <heading>0</heading>
                <Icon id="link_923">
                    <href>wifi4.png</href>
                </Icon>
            </IconStyle>
        </Style>
        <Style id="stylesel_924">
            <IconStyle id="substyle_924">
                <colorMode>normal</colorMode>
                <scale>1</scale>
                <heading>0</heading>
                <Icon id="link_924">
                    <href>wifi4.png</href>
                </Icon>
            </IconStyle>
        </Style>
        <Style id="stylesel_925">
            <IconStyle id="substyle_925">
                <colorMode>normal</colorMode>
                <scale>1</scale>
                <heading>0</heading>
                <Icon id="link_925">
                    <href>wifi4.png</href>
                </Icon>
            </IconStyle>
        </Style>
        <Style id="stylesel_926">
            <IconStyle id="substyle_926">
                <colorMode>normal</colorMode>
                <scale>1</scale>
                <heading>0</heading>
                <Icon id="link_926">
                    <href>wifi4.png</href>
                </Icon>
            </IconStyle>
        </Style>
        <Style id="stylesel_927">
            <IconStyle id="substyle_927">
                <colorMode>normal</colorMode>
                <scale>1</scale>
                <heading>0</heading>
                <Icon id="link_927">
                    <href>wifi4.png</href>
                </Icon>
            </IconStyle>
        </Style>
        <Style id="stylesel_928">
            <IconStyle id="substyle_928">
                <colorMode>normal</colorMode>
                <scale>1</scale>
                <heading>0</heading>
                <Icon id="link_928">
                    <href>wifi4.png</href>
                </Icon>
            </IconStyle>
        </Style>
        <Placemark id="feat_986">
            <name>FBI Surveillance Van</name>
            <description>2017-05-20T16:30:39.000Z</description>
            <styleUrl>#stylesel_900</styleUrl>
            <Point id="geom_900">
                <coordinates>-111.69245911,40.29101562,0.0</coordinates>
            </Point>
        </Placemark>
        <Placemark id="feat_987">
            <name>FBI Surveillance Van</name>
            <description>2017-05-20T16:30:32.000Z</description>
            <styleUrl>#stylesel_901</styleUrl>
            <Point id="geom_901">
                <coordinates>-111.69290161,40.29204941,0.0</coordinates>
            </Point>
        </Placemark>
        <Placemark id="feat_988">
            <name>FBI Surveillance Van</name>
            <description>2017-04-08T20:43:15.000Z</description>
            <styleUrl>#stylesel_902</styleUrl>
            <Point id="geom_902">
                <coordinates>-111.69261932,40.29189682,0.0</coordinates>
            </Point>
        </Placemark>
        <Placemark id="feat_989">
            <name>FBI Surveillance Van</name>
            <description>2017-04-08T20:43:18.000Z</description>
            <styleUrl>#stylesel_903</styleUrl>
            <Point id="geom_903">
                <coordinates>-111.69278717,40.29231644,0.0</coordinates>
            </Point>
        </Placemark>
        <Placemark id="feat_990">
            <name>FBI Surveillance Van</name>
            <description>2017-03-11T20:34:44.000Z</description>
            <styleUrl>#stylesel_904</styleUrl>
            <Point id="geom_904">
                <coordinates>-111.69268799,40.2917366,0.0</coordinates>
            </Point>
        </Placemark>
        <Placemark id="feat_991">
            <name>FBI Surveillance Van</name>
            <description>2017-02-26T23:01:35.000Z</description>
            <styleUrl>#stylesel_905</styleUrl>
            <Point id="geom_905">
                <coordinates>-111.69232941,40.29088593,0.0</coordinates>
            </Point>
        </Placemark>
        <Placemark id="feat_992">
            <name>FBI Surveillance Van</name>
            <description>2017-02-26T23:01:29.000Z</description>
            <styleUrl>#stylesel_906</styleUrl>
            <Point id="geom_906">
                <coordinates>-111.6927948,40.29192734,0.0</coordinates>
            </Point>
        </Placemark>
        <Placemark id="feat_993">
            <name>FBI Surveillance Van</name>
            <description>2017-05-20T18:15:43.000Z</description>
            <styleUrl>#stylesel_907</styleUrl>
            <Point id="geom_907">
                <coordinates>-111.69215393,40.29177475,0.0</coordinates>
            </Point>
        </Placemark>
        <Placemark id="feat_994">
            <name>FBI Surveillance Van</name>
            <description>2017-07-26T18:07:57.000Z</description>
            <styleUrl>#stylesel_908</styleUrl>
            <Point id="geom_908">
                <coordinates>-111.69258118,40.29178619,0.0</coordinates>
            </Point>
        </Placemark>
        <Placemark id="feat_995">
            <name>FBI Surveillance Van</name>
            <description>2017-05-01T01:47:29.000Z</description>
            <styleUrl>#stylesel_909</styleUrl>
            <Point id="geom_909">
                <coordinates>-111.6930542,40.29293442,0.0</coordinates>
            </Point>
        </Placemark>
        <Placemark id="feat_996">
            <name>FBI Surveillance Van</name>
            <description>2017-07-26T17:23:55.000Z</description>
            <styleUrl>#stylesel_910</styleUrl>
            <Point id="geom_910">
                <coordinates>-111.69269562,40.29176712,0.0</coordinates>
            </Point>
        </Placemark>
        <Placemark id="feat_997">
            <name>FBI Surveillance Van</name>
            <description>2017-02-12T22:45:45.000Z</description>
            <styleUrl>#stylesel_911</styleUrl>
            <Point id="geom_911">
                <coordinates>-111.69291687,40.29250717,0.0</coordinates>
            </Point>
        </Placemark>
        <Placemark id="feat_998">
            <name>FBI Surveillance Van</name>
            <description>2017-03-25T21:03:28.000Z</description>
            <styleUrl>#stylesel_912</styleUrl>
            <Point id="geom_912">
                <coordinates>-111.69271851,40.29172897,0.0</coordinates>
            </Point>
        </Placemark>
        <Placemark id="feat_999">
            <name>FBI Surveillance Van</name>
            <description>2017-05-01T01:47:21.000Z</description>
            <styleUrl>#stylesel_913</styleUrl>
            <Point id="geom_913">
                <coordinates>-111.69247437,40.29161835,0.0</coordinates>
            </Point>
        </Placemark>
        <Placemark id="feat_1000">
            <name>FBI Surveillance Van</name>
            <description>2017-07-20T03:09:58.000Z</description>
            <styleUrl>#stylesel_914</styleUrl>
            <Point id="geom_914">
                <coordinates>-111.69270325,40.29138184,0.0</coordinates>
            </Point>
        </Placemark>
        <Placemark id="feat_1001">
            <name>FBI Surveillance Van</name>
            <description>2017-07-20T04:16:30.000Z</description>
            <styleUrl>#stylesel_915</styleUrl>
            <Point id="geom_915">
                <coordinates>-111.69312286,40.29292679,0.0</coordinates>
            </Point>
        </Placemark>
        <Placemark id="feat_1002">
            <name>FBI Surveillance Van</name>
            <description>2017-07-20T04:16:23.000Z</description>
            <styleUrl>#stylesel_916</styleUrl>
            <Point id="geom_916">
                <coordinates>-111.69263458,40.29184723,0.0</coordinates>
            </Point>
        </Placemark>
        <Placemark id="feat_1003">
            <name>FBI Surveillance Van</name>
            <description>2017-05-20T18:17:04.000Z</description>
            <styleUrl>#stylesel_917</styleUrl>
            <Point id="geom_917">
                <coordinates>-111.69302368,40.29290009,0.0</coordinates>
            </Point>
        </Placemark>
        <Placemark id="feat_1004">
            <name>FBI Surveillance Van</name>
            <description>2017-06-30T21:21:50.000Z</description>
            <styleUrl>#stylesel_918</styleUrl>
            <Point id="geom_918">
                <coordinates>-111.69254303,40.2916832,0.0</coordinates>
            </Point>
        </Placemark>
        <Placemark id="feat_1005">
            <name>FBI Surveillance Van</name>
            <description>2017-07-13T05:02:37.000Z</description>
            <styleUrl>#stylesel_919</styleUrl>
            <Point id="geom_919">
                <coordinates>-111.69302368,40.29288101,0.0</coordinates>
            </Point>
        </Placemark>
        <Placemark id="feat_1006">
            <name>FBI Surveillance Van</name>
            <description>2017-02-26T23:01:41.000Z</description>
            <styleUrl>#stylesel_920</styleUrl>
            <Point id="geom_920">
                <coordinates>-111.69185638,40.28984833,0.0</coordinates>
            </Point>
        </Placemark>
        <Placemark id="feat_1007">
            <name>FBI Surveillance Van</name>
            <description>2017-07-13T05:02:31.000Z</description>
            <styleUrl>#stylesel_921</styleUrl>
            <Point id="geom_921">
                <coordinates>-111.69250488,40.29171753,0.0</coordinates>
            </Point>
        </Placemark>
        <Placemark id="feat_1008">
            <name>Photolab1's Wi-Fi Network</name>
            <description>2014-07-18T13:26:06.000Z</description>
            <styleUrl>#stylesel_922</styleUrl>
            <Point id="geom_922">
                <coordinates>-105.22988129,39.98510361,0.0</coordinates>
            </Point>
        </Placemark>
        <Placemark id="feat_1009">
            <name>FBI Surveillance Van</name>
            <description>2017-07-26T18:07:57.000Z</description>
            <styleUrl>#stylesel_923</styleUrl>
            <Point id="geom_923">
                <coordinates>-111.69258881,40.29178238,0.0</coordinates>
            </Point>
        </Placemark>
        <Placemark id="feat_1010">
            <name>FBI Surveillance Van</name>
            <description>2017-05-20T18:09:46.000Z</description>
            <styleUrl>#stylesel_924</styleUrl>
            <Point id="geom_924">
                <coordinates>-111.6920166,40.2915802,0.0</coordinates>
            </Point>
        </Placemark>
        <Placemark id="feat_1011">
            <name>FBI Surveillance Van</name>
            <description>2017-02-26T23:01:33.000Z</description>
            <styleUrl>#stylesel_925</styleUrl>
            <Point id="geom_925">
                <coordinates>-111.69246674,40.29124069,0.0</coordinates>
            </Point>
        </Placemark>
        <Placemark id="feat_1012">
            <name>FBI Surveillance Van</name>
            <description>2017-07-31T18:32:21.000Z</description>
            <styleUrl>#stylesel_926</styleUrl>
            <Point id="geom_926">
                <coordinates>-111.69242096,40.29119492,0.0</coordinates>
            </Point>
        </Placemark>
        <Placemark id="feat_1013">
            <name>Photolab1's Wi-Fi Network</name>
            <description>2014-07-18T13:25:58.000Z</description>
            <styleUrl>#stylesel_927</styleUrl>
            <Point id="geom_927">
                <coordinates>-105.22879791,39.98426056,0.0</coordinates>
            </Point>
        </Placemark>
        <Placemark id="feat_1014">
            <name>Photolab1's Wi-Fi Network</name>
            <description>2014-07-18T13:28:57.000Z</description>
            <styleUrl>#stylesel_928</styleUrl>
            <Point id="geom_928">
                <coordinates>-105.23098755,39.98555756,0.0</coordinates>
            </Point>
        </Placemark>
    </Document>
</kml>
