<?xml version="1.0" encoding="UTF-8"?>
<kml xmlns="http://www.opengis.net/kml/2.2" xmlns:gx="http://www.google.com/kml/ext/2.2">
    <Document id="feat_423">
        <Style id="stylesel_389">
            <IconStyle id="substyle_389">
                <colorMode>normal</colorMode>
                <scale>1</scale>
                <heading>0</heading>
                <Icon id="link_389">
                    <href>wifi4.png</href>
                </Icon>
            </IconStyle>
        </Style>
        <Style id="stylesel_390">
            <IconStyle id="substyle_390">
                <colorMode>normal</colorMode>
                <scale>1</scale>
                <heading>0</heading>
                <Icon id="link_390">
                    <href>wifi4.png</href>
                </Icon>
            </IconStyle>
        </Style>
        <Placemark id="feat_424">
            <name>FBI Surveillance Van</name>
            <description>2013-03-24T02:03:38.000Z</description>
            <styleUrl>#stylesel_389</styleUrl>
            <Point id="geom_389">
                <coordinates>-111.72332764,40.27275848,0.0</coordinates>
            </Point>
        </Placemark>
        <Placemark id="feat_425">
            <name>FBI Surveillance Van</name>
            <description>2013-03-24T06:25:09.000Z</description>
            <styleUrl>#stylesel_390</styleUrl>
            <Point id="geom_390">
                <coordinates>-111.72296906,40.27276611,0.0</coordinates>
            </Point>
        </Placemark>
    </Document>
</kml>
