<?xml version="1.0" encoding="UTF-8"?>
<kml xmlns="http://www.opengis.net/kml/2.2" xmlns:gx="http://www.google.com/kml/ext/2.2">
    <Document id="feat_573">
        <Style id="stylesel_513">
            <IconStyle id="substyle_513">
                <colorMode>normal</colorMode>
                <scale>1</scale>
                <heading>0</heading>
                <Icon id="link_513">
                    <href>wifi4.png</href>
                </Icon>
            </IconStyle>
        </Style>
        <Style id="stylesel_514">
            <IconStyle id="substyle_514">
                <colorMode>normal</colorMode>
                <scale>1</scale>
                <heading>0</heading>
                <Icon id="link_514">
                    <href>wifi4.png</href>
                </Icon>
            </IconStyle>
        </Style>
        <Style id="stylesel_515">
            <IconStyle id="substyle_515">
                <colorMode>normal</colorMode>
                <scale>1</scale>
                <heading>0</heading>
                <Icon id="link_515">
                    <href>wifi4.png</href>
                </Icon>
            </IconStyle>
        </Style>
        <Style id="stylesel_516">
            <IconStyle id="substyle_516">
                <colorMode>normal</colorMode>
                <scale>1</scale>
                <heading>0</heading>
                <Icon id="link_516">
                    <href>wifi4.png</href>
                </Icon>
            </IconStyle>
        </Style>
        <Style id="stylesel_517">
            <IconStyle id="substyle_517">
                <colorMode>normal</colorMode>
                <scale>1</scale>
                <heading>0</heading>
                <Icon id="link_517">
                    <href>wifi4.png</href>
                </Icon>
            </IconStyle>
        </Style>
        <Placemark id="feat_574">
            <name>FBI Surveillance Van</name>
            <description>2014-02-04T03:05:02.000Z</description>
            <styleUrl>#stylesel_513</styleUrl>
            <Point id="geom_513">
                <coordinates>-111.6548996,40.24051285,0.0</coordinates>
            </Point>
        </Placemark>
        <Placemark id="feat_575">
            <name>FBI Surveillance Van</name>
            <description>2014-01-03T00:45:44.000Z</description>
            <styleUrl>#stylesel_514</styleUrl>
            <Point id="geom_514">
                <coordinates>-111.65517426,40.24036026,0.0</coordinates>
            </Point>
        </Placemark>
        <Placemark id="feat_576">
            <name>FBI Surveillance Van</name>
            <description>2014-03-25T15:25:00.000Z</description>
            <styleUrl>#stylesel_515</styleUrl>
            <Point id="geom_515">
                <coordinates>-111.65510559,40.24071121,0.0</coordinates>
            </Point>
        </Placemark>
        <Placemark id="feat_577">
            <name>antispatula</name>
            <description>2011-06-25T05:05:45.000Z</description>
            <styleUrl>#stylesel_516</styleUrl>
            <Point id="geom_516">
                <coordinates>-111.6619873,40.2571373,0.0</coordinates>
            </Point>
        </Placemark>
        <Placemark id="feat_578">
            <name>antispatula</name>
            <description>2011-06-25T05:05:21.000Z</description>
            <styleUrl>#stylesel_517</styleUrl>
            <Point id="geom_517">
                <coordinates>-111.66260529,40.258461,0.0</coordinates>
            </Point>
        </Placemark>
    </Document>
</kml>
