<?xml version="1.0" encoding="UTF-8"?>
<kml xmlns="http://www.opengis.net/kml/2.2" xmlns:gx="http://www.google.com/kml/ext/2.2">
    <Document id="feat_631">
        <Style id="stylesel_561">
            <IconStyle id="substyle_561">
                <colorMode>normal</colorMode>
                <scale>1</scale>
                <heading>0</heading>
                <Icon id="link_561">
                    <href>wifi4.png</href>
                </Icon>
            </IconStyle>
        </Style>
        <Placemark id="feat_632">
            <name>FBI Surveillance Van</name>
            <description>2016-09-30T18:15:22.000Z</description>
            <styleUrl>#stylesel_561</styleUrl>
            <Point id="geom_561">
                <coordinates>-111.65772247,40.23368073,0.0</coordinates>
            </Point>
        </Placemark>
    </Document>
</kml>
