<?xml version="1.0" encoding="UTF-8"?>
<kml xmlns="http://www.opengis.net/kml/2.2" xmlns:gx="http://www.google.com/kml/ext/2.2">
    <Document id="feat_643">
        <Style id="stylesel_569">
            <IconStyle id="substyle_569">
                <colorMode>normal</colorMode>
                <scale>1</scale>
                <heading>0</heading>
                <Icon id="link_569">
                    <href>wifi4.png</href>
                </Icon>
            </IconStyle>
        </Style>
        <Style id="stylesel_570">
            <IconStyle id="substyle_570">
                <colorMode>normal</colorMode>
                <scale>1</scale>
                <heading>0</heading>
                <Icon id="link_570">
                    <href>wifi4.png</href>
                </Icon>
            </IconStyle>
        </Style>
        <Style id="stylesel_571">
            <IconStyle id="substyle_571">
                <colorMode>normal</colorMode>
                <scale>1</scale>
                <heading>0</heading>
                <Icon id="link_571">
                    <href>wifi4.png</href>
                </Icon>
            </IconStyle>
        </Style>
        <Style id="stylesel_572">
            <IconStyle id="substyle_572">
                <colorMode>normal</colorMode>
                <scale>1</scale>
                <heading>0</heading>
                <Icon id="link_572">
                    <href>wifi4.png</href>
                </Icon>
            </IconStyle>
        </Style>
        <Placemark id="feat_644">
            <name>FBI Surveillance Van</name>
            <description>2016-05-21T00:32:04.000Z</description>
            <styleUrl>#stylesel_569</styleUrl>
            <Point id="geom_569">
                <coordinates>-111.69830322,40.29904556,0.0</coordinates>
            </Point>
        </Placemark>
        <Placemark id="feat_645">
            <name>FBI Surveillance Van</name>
            <description>2016-05-02T18:31:14.000Z</description>
            <styleUrl>#stylesel_570</styleUrl>
            <Point id="geom_570">
                <coordinates>-111.69754028,40.29719162,0.0</coordinates>
            </Point>
        </Placemark>
        <Placemark id="feat_646">
            <name>FBI Surveillance Van</name>
            <description>2016-05-12T19:03:47.000Z</description>
            <styleUrl>#stylesel_571</styleUrl>
            <Point id="geom_571">
                <coordinates>-111.69826508,40.29898834,0.0</coordinates>
            </Point>
        </Placemark>
        <Placemark id="feat_647">
            <name>FBI Surveillance Van</name>
            <description>2016-05-13T00:30:23.000Z</description>
            <styleUrl>#stylesel_572</styleUrl>
            <Point id="geom_572">
                <coordinates>-111.69843292,40.29924011,0.0</coordinates>
            </Point>
        </Placemark>
    </Document>
</kml>
