<?xml version="1.0" encoding="UTF-8"?>
<kml xmlns="http://www.opengis.net/kml/2.2" xmlns:gx="http://www.google.com/kml/ext/2.2">
    <Document id="feat_648">
        <Style id="stylesel_573">
            <IconStyle id="substyle_573">
                <colorMode>normal</colorMode>
                <scale>1</scale>
                <heading>0</heading>
                <Icon id="link_573">
                    <href>wifi4.png</href>
                </Icon>
            </IconStyle>
        </Style>
        <Placemark id="feat_649">
            <name>FBI Surveillance Van</name>
            <description>2014-01-03T00:52:11.000Z</description>
            <styleUrl>#stylesel_573</styleUrl>
            <Point id="geom_573">
                <coordinates>-111.65505981,40.22835922,0.0</coordinates>
            </Point>
        </Placemark>
    </Document>
</kml>
