<?xml version="1.0" encoding="UTF-8"?>
<kml xmlns="http://www.opengis.net/kml/2.2" xmlns:gx="http://www.google.com/kml/ext/2.2">
    <Document id="feat_334">
        <Style id="stylesel_309">
            <IconStyle id="substyle_309">
                <colorMode>normal</colorMode>
                <scale>1</scale>
                <heading>0</heading>
                <Icon id="link_309">
                    <href>wifi4.png</href>
                </Icon>
            </IconStyle>
        </Style>
        <Placemark id="feat_335">
            <name>FBI Surveillance Van</name>
            <description>2014-07-13T23:44:24.000Z</description>
            <styleUrl>#stylesel_309</styleUrl>
            <Point id="geom_309">
                <coordinates>-111.68898773,40.27341843,0.0</coordinates>
            </Point>
        </Placemark>
    </Document>
</kml>
