<?xml version="1.0" encoding="UTF-8"?>
<kml xmlns="http://www.opengis.net/kml/2.2" xmlns:gx="http://www.google.com/kml/ext/2.2">
    <Document id="feat_1134">
        <Style id="stylesel_1054">
            <IconStyle id="substyle_1054">
                <colorMode>normal</colorMode>
                <scale>1</scale>
                <heading>0</heading>
                <Icon id="link_1054">
                    <href>wifi4.png</href>
                </Icon>
            </IconStyle>
        </Style>
        <Style id="stylesel_1055">
            <IconStyle id="substyle_1055">
                <colorMode>normal</colorMode>
                <scale>1</scale>
                <heading>0</heading>
                <Icon id="link_1055">
                    <href>wifi4.png</href>
                </Icon>
            </IconStyle>
        </Style>
        <Style id="stylesel_1056">
            <IconStyle id="substyle_1056">
                <colorMode>normal</colorMode>
                <scale>1</scale>
                <heading>0</heading>
                <Icon id="link_1056">
                    <href>wifi4.png</href>
                </Icon>
            </IconStyle>
        </Style>
        <Style id="stylesel_1057">
            <IconStyle id="substyle_1057">
                <colorMode>normal</colorMode>
                <scale>1</scale>
                <heading>0</heading>
                <Icon id="link_1057">
                    <href>wifi4.png</href>
                </Icon>
            </IconStyle>
        </Style>
        <Style id="stylesel_1058">
            <IconStyle id="substyle_1058">
                <colorMode>normal</colorMode>
                <scale>1</scale>
                <heading>0</heading>
                <Icon id="link_1058">
                    <href>wifi4.png</href>
                </Icon>
            </IconStyle>
        </Style>
        <Style id="stylesel_1059">
            <IconStyle id="substyle_1059">
                <colorMode>normal</colorMode>
                <scale>1</scale>
                <heading>0</heading>
                <Icon id="link_1059">
                    <href>wifi4.png</href>
                </Icon>
            </IconStyle>
        </Style>
        <Style id="stylesel_1060">
            <IconStyle id="substyle_1060">
                <colorMode>normal</colorMode>
                <scale>1</scale>
                <heading>0</heading>
                <Icon id="link_1060">
                    <href>wifi4.png</href>
                </Icon>
            </IconStyle>
        </Style>
        <Style id="stylesel_1061">
            <IconStyle id="substyle_1061">
                <colorMode>normal</colorMode>
                <scale>1</scale>
                <heading>0</heading>
                <Icon id="link_1061">
                    <href>wifi4.png</href>
                </Icon>
            </IconStyle>
        </Style>
        <Style id="stylesel_1062">
            <IconStyle id="substyle_1062">
                <colorMode>normal</colorMode>
                <scale>1</scale>
                <heading>0</heading>
                <Icon id="link_1062">
                    <href>wifi4.png</href>
                </Icon>
            </IconStyle>
        </Style>
        <Style id="stylesel_1063">
            <IconStyle id="substyle_1063">
                <colorMode>normal</colorMode>
                <scale>1</scale>
                <heading>0</heading>
                <Icon id="link_1063">
                    <href>wifi4.png</href>
                </Icon>
            </IconStyle>
        </Style>
        <Style id="stylesel_1064">
            <IconStyle id="substyle_1064">
                <colorMode>normal</colorMode>
                <scale>1</scale>
                <heading>0</heading>
                <Icon id="link_1064">
                    <href>wifi4.png</href>
                </Icon>
            </IconStyle>
        </Style>
        <Style id="stylesel_1065">
            <IconStyle id="substyle_1065">
                <colorMode>normal</colorMode>
                <scale>1</scale>
                <heading>0</heading>
                <Icon id="link_1065">
                    <href>wifi4.png</href>
                </Icon>
            </IconStyle>
        </Style>
        <Style id="stylesel_1066">
            <IconStyle id="substyle_1066">
                <colorMode>normal</colorMode>
                <scale>1</scale>
                <heading>0</heading>
                <Icon id="link_1066">
                    <href>wifi4.png</href>
                </Icon>
            </IconStyle>
        </Style>
        <Placemark id="feat_1135">
            <name>NHP-14-446</name>
            <description>2016-07-23T04:15:00.000Z</description>
            <styleUrl>#stylesel_1054</styleUrl>
            <Point id="geom_1054">
                <coordinates>-119.78334045,39.52112961,0.0</coordinates>
            </Point>
        </Placemark>
        <Placemark id="feat_1136">
            <name>NHP-14-446</name>
            <description>2017-04-11T22:38:34.000Z</description>
            <styleUrl>#stylesel_1055</styleUrl>
            <Point id="geom_1055">
                <coordinates>-119.75846863,39.36906433,0.0</coordinates>
            </Point>
        </Placemark>
        <Placemark id="feat_1137">
            <name>NHP-14-446</name>
            <description>2016-07-23T04:15:07.000Z</description>
            <styleUrl>#stylesel_1056</styleUrl>
            <Point id="geom_1056">
                <coordinates>-119.78347015,39.52271271,0.0</coordinates>
            </Point>
        </Placemark>
        <Placemark id="feat_1138">
            <name>NHP-14-446</name>
            <description>2016-07-14T03:24:56.000Z</description>
            <styleUrl>#stylesel_1057</styleUrl>
            <Point id="geom_1057">
                <coordinates>-119.77050018,39.43939209,0.0</coordinates>
            </Point>
        </Placemark>
        <Placemark id="feat_1139">
            <name>NHP-14-446</name>
            <description>2016-07-23T03:57:41.000Z</description>
            <styleUrl>#stylesel_1058</styleUrl>
            <Point id="geom_1058">
                <coordinates>-119.7822876,39.52458191,0.0</coordinates>
            </Point>
        </Placemark>
        <Placemark id="feat_1140">
            <name>NHP-14-446</name>
            <description>2016-05-31T21:32:33.000Z</description>
            <styleUrl>#stylesel_1059</styleUrl>
            <Point id="geom_1059">
                <coordinates>-119.7804184,39.53336716,0.0</coordinates>
            </Point>
        </Placemark>
        <Placemark id="feat_1141">
            <name>NHP-14-446</name>
            <description>2016-07-23T04:15:08.000Z</description>
            <styleUrl>#stylesel_1060</styleUrl>
            <Point id="geom_1060">
                <coordinates>-119.7835083,39.52291107,0.0</coordinates>
            </Point>
        </Placemark>
        <Placemark id="feat_1142">
            <name>NHP-14-446</name>
            <description>2016-07-23T04:15:00.000Z</description>
            <styleUrl>#stylesel_1061</styleUrl>
            <Point id="geom_1061">
                <coordinates>-119.78336334,39.52110291,0.0</coordinates>
            </Point>
        </Placemark>
        <Placemark id="feat_1143">
            <name>NHP-14-446</name>
            <description>2016-07-07T02:10:24.000Z</description>
            <styleUrl>#stylesel_1062</styleUrl>
            <Point id="geom_1062">
                <coordinates>-119.79181671,39.47395325,0.0</coordinates>
            </Point>
        </Placemark>
        <Placemark id="feat_1144">
            <name>NHP-14-446</name>
            <description>2017-04-11T22:40:11.000Z</description>
            <styleUrl>#stylesel_1063</styleUrl>
            <Point id="geom_1063">
                <coordinates>-119.75676727,39.3891449,0.0</coordinates>
            </Point>
        </Placemark>
        <Placemark id="feat_1145">
            <name>NHP-14-446</name>
            <description>2016-05-31T21:32:23.000Z</description>
            <styleUrl>#stylesel_1064</styleUrl>
            <Point id="geom_1064">
                <coordinates>-119.78041077,39.53232193,0.0</coordinates>
            </Point>
        </Placemark>
        <Placemark id="feat_1146">
            <name>NHP-14-446</name>
            <description>2017-04-11T22:38:30.000Z</description>
            <styleUrl>#stylesel_1065</styleUrl>
            <Point id="geom_1065">
                <coordinates>-119.75949097,39.36860657,0.0</coordinates>
            </Point>
        </Placemark>
        <Placemark id="feat_1147">
            <name>NHP-14-446</name>
            <description>2017-04-11T22:40:23.000Z</description>
            <styleUrl>#stylesel_1066</styleUrl>
            <Point id="geom_1066">
                <coordinates>-119.75810242,39.39175797,0.0</coordinates>
            </Point>
        </Placemark>
    </Document>
</kml>
