<?xml version="1.0" encoding="UTF-8"?>
<kml xmlns="http://www.opengis.net/kml/2.2" xmlns:gx="http://www.google.com/kml/ext/2.2">
    <Document id="feat_1177">
        <Style id="stylesel_1093">
            <IconStyle id="substyle_1093">
                <colorMode>normal</colorMode>
                <scale>1</scale>
                <heading>0</heading>
                <Icon id="link_1093">
                    <href>wifi4.png</href>
                </Icon>
            </IconStyle>
        </Style>
        <Style id="stylesel_1094">
            <IconStyle id="substyle_1094">
                <colorMode>normal</colorMode>
                <scale>1</scale>
                <heading>0</heading>
                <Icon id="link_1094">
                    <href>wifi4.png</href>
                </Icon>
            </IconStyle>
        </Style>
        <Style id="stylesel_1095">
            <IconStyle id="substyle_1095">
                <colorMode>normal</colorMode>
                <scale>1</scale>
                <heading>0</heading>
                <Icon id="link_1095">
                    <href>wifi4.png</href>
                </Icon>
            </IconStyle>
        </Style>
        <Style id="stylesel_1096">
            <IconStyle id="substyle_1096">
                <colorMode>normal</colorMode>
                <scale>1</scale>
                <heading>0</heading>
                <Icon id="link_1096">
                    <href>wifi4.png</href>
                </Icon>
            </IconStyle>
        </Style>
        <Style id="stylesel_1097">
            <IconStyle id="substyle_1097">
                <colorMode>normal</colorMode>
                <scale>1</scale>
                <heading>0</heading>
                <Icon id="link_1097">
                    <href>wifi4.png</href>
                </Icon>
            </IconStyle>
        </Style>
        <Style id="stylesel_1098">
            <IconStyle id="substyle_1098">
                <colorMode>normal</colorMode>
                <scale>1</scale>
                <heading>0</heading>
                <Icon id="link_1098">
                    <href>wifi4.png</href>
                </Icon>
            </IconStyle>
        </Style>
        <Style id="stylesel_1099">
            <IconStyle id="substyle_1099">
                <colorMode>normal</colorMode>
                <scale>1</scale>
                <heading>0</heading>
                <Icon id="link_1099">
                    <href>wifi4.png</href>
                </Icon>
            </IconStyle>
        </Style>
        <Style id="stylesel_1100">
            <IconStyle id="substyle_1100">
                <colorMode>normal</colorMode>
                <scale>1</scale>
                <heading>0</heading>
                <Icon id="link_1100">
                    <href>wifi4.png</href>
                </Icon>
            </IconStyle>
        </Style>
        <Placemark id="feat_1178">
            <name>NHP-16-255</name>
            <description>2016-12-21T16:33:35.000Z</description>
            <styleUrl>#stylesel_1093</styleUrl>
            <Point id="geom_1093">
                <coordinates>-115.20793152,36.07066727,0.0</coordinates>
            </Point>
        </Placemark>
        <Placemark id="feat_1179">
            <name>NHP-16-255</name>
            <description>2016-06-26T17:37:05.000Z</description>
            <styleUrl>#stylesel_1094</styleUrl>
            <Point id="geom_1094">
                <coordinates>-115.18115234,36.07558441,0.0</coordinates>
            </Point>
        </Placemark>
        <Placemark id="feat_1180">
            <name>NHP-16-255</name>
            <description>2016-06-26T17:37:00.000Z</description>
            <styleUrl>#stylesel_1095</styleUrl>
            <Point id="geom_1095">
                <coordinates>-115.18112183,36.07694626,0.0</coordinates>
            </Point>
        </Placemark>
        <Placemark id="feat_1181">
            <name>NHP-16-255</name>
            <description>2016-12-30T00:04:13.000Z</description>
            <styleUrl>#stylesel_1096</styleUrl>
            <Point id="geom_1096">
                <coordinates>-115.16751862,36.14813232,0.0</coordinates>
            </Point>
        </Placemark>
        <Placemark id="feat_1182">
            <name>NHP-16-255</name>
            <description>2016-12-30T00:04:19.000Z</description>
            <styleUrl>#stylesel_1097</styleUrl>
            <Point id="geom_1097">
                <coordinates>-115.16633606,36.14949036,0.0</coordinates>
            </Point>
        </Placemark>
        <Placemark id="feat_1183">
            <name>NHP-16-255</name>
            <description>2016-12-21T00:10:45.000Z</description>
            <styleUrl>#stylesel_1098</styleUrl>
            <Point id="geom_1098">
                <coordinates>-115.24266052,36.08424377,0.0</coordinates>
            </Point>
        </Placemark>
        <Placemark id="feat_1184">
            <name>NHP-16-255</name>
            <description>2016-12-21T16:33:02.000Z</description>
            <styleUrl>#stylesel_1099</styleUrl>
            <Point id="geom_1099">
                <coordinates>-115.20796967,36.07223892,0.0</coordinates>
            </Point>
        </Placemark>
        <Placemark id="feat_1185">
            <name>NHP-16-255</name>
            <description>2016-12-21T16:33:42.000Z</description>
            <styleUrl>#stylesel_1100</styleUrl>
            <Point id="geom_1100">
                <coordinates>-115.20796967,36.06948471,0.0</coordinates>
            </Point>
        </Placemark>
    </Document>
</kml>
