<?xml version="1.0" encoding="UTF-8"?>
<kml xmlns="http://www.opengis.net/kml/2.2" xmlns:gx="http://www.google.com/kml/ext/2.2">
    <Document id="feat_1842">
        <Style id="stylesel_1689">
            <IconStyle id="substyle_1689">
                <colorMode>normal</colorMode>
                <scale>1</scale>
                <heading>0</heading>
                <Icon id="link_1689">
                    <href>wifi4.png</href>
                </Icon>
            </IconStyle>
        </Style>
        <Style id="stylesel_1690">
            <IconStyle id="substyle_1690">
                <colorMode>normal</colorMode>
                <scale>1</scale>
                <heading>0</heading>
                <Icon id="link_1690">
                    <href>wifi4.png</href>
                </Icon>
            </IconStyle>
        </Style>
        <Placemark id="feat_1843">
            <name>NHP-16-344A</name>
            <description>2017-07-05T20:27:33.000Z</description>
            <styleUrl>#stylesel_1689</styleUrl>
            <Point id="geom_1689">
                <coordinates>-119.84211731,39.60406876,0.0</coordinates>
            </Point>
        </Placemark>
        <Placemark id="feat_1844">
            <name>NHP-16-344A</name>
            <description>2017-07-05T20:27:39.000Z</description>
            <styleUrl>#stylesel_1690</styleUrl>
            <Point id="geom_1690">
                <coordinates>-119.84092712,39.60297775,0.0</coordinates>
            </Point>
        </Placemark>
    </Document>
</kml>
