<?xml version="1.0" encoding="UTF-8"?>
<kml xmlns="http://www.opengis.net/kml/2.2" xmlns:gx="http://www.google.com/kml/ext/2.2">
    <Document id="feat_1260">
        <Style id="stylesel_1171">
            <IconStyle id="substyle_1171">
                <colorMode>normal</colorMode>
                <scale>1</scale>
                <heading>0</heading>
                <Icon id="link_1171">
                    <href>wifi4.png</href>
                </Icon>
            </IconStyle>
        </Style>
        <Style id="stylesel_1172">
            <IconStyle id="substyle_1172">
                <colorMode>normal</colorMode>
                <scale>1</scale>
                <heading>0</heading>
                <Icon id="link_1172">
                    <href>wifi4.png</href>
                </Icon>
            </IconStyle>
        </Style>
        <Placemark id="feat_1261">
            <name>NHP-13-248</name>
            <description>2016-11-21T14:56:24.000Z</description>
            <styleUrl>#stylesel_1171</styleUrl>
            <Point id="geom_1171">
                <coordinates>-115.20796967,36.06945801,0.0</coordinates>
            </Point>
        </Placemark>
        <Placemark id="feat_1262">
            <name>NHP-13-248</name>
            <description>2016-11-21T14:56:09.000Z</description>
            <styleUrl>#stylesel_1172</styleUrl>
            <Point id="geom_1172">
                <coordinates>-115.20793152,36.07066727,0.0</coordinates>
            </Point>
        </Placemark>
    </Document>
</kml>
