<?xml version="1.0" encoding="UTF-8"?>
<kml xmlns="http://www.opengis.net/kml/2.2" xmlns:gx="http://www.google.com/kml/ext/2.2">
    <Document id="feat_417">
        <Style id="stylesel_415">
            <IconStyle id="substyle_415">
                <colorMode>normal</colorMode>
                <scale>1</scale>
                <heading>0</heading>
                <Icon id="link_415">
                    <href>wifi4.png</href>
                </Icon>
            </IconStyle>
        </Style>
        <Style id="stylesel_416">
            <IconStyle id="substyle_416">
                <colorMode>normal</colorMode>
                <scale>1</scale>
                <heading>0</heading>
                <Icon id="link_416">
                    <href>wifi4.png</href>
                </Icon>
            </IconStyle>
        </Style>
        <Style id="stylesel_417">
            <IconStyle id="substyle_417">
                <colorMode>normal</colorMode>
                <scale>1</scale>
                <heading>0</heading>
                <Icon id="link_417">
                    <href>wifi4.png</href>
                </Icon>
            </IconStyle>
        </Style>
        <Style id="stylesel_418">
            <IconStyle id="substyle_418">
                <colorMode>normal</colorMode>
                <scale>1</scale>
                <heading>0</heading>
                <Icon id="link_418">
                    <href>wifi4.png</href>
                </Icon>
            </IconStyle>
        </Style>
        <Style id="stylesel_419">
            <IconStyle id="substyle_419">
                <colorMode>normal</colorMode>
                <scale>1</scale>
                <heading>0</heading>
                <Icon id="link_419">
                    <href>wifi4.png</href>
                </Icon>
            </IconStyle>
        </Style>
        <Style id="stylesel_420">
            <IconStyle id="substyle_420">
                <colorMode>normal</colorMode>
                <scale>1</scale>
                <heading>0</heading>
                <Icon id="link_420">
                    <href>wifi4.png</href>
                </Icon>
            </IconStyle>
        </Style>
        <Style id="stylesel_421">
            <IconStyle id="substyle_421">
                <colorMode>normal</colorMode>
                <scale>1</scale>
                <heading>0</heading>
                <Icon id="link_421">
                    <href>wifi4.png</href>
                </Icon>
            </IconStyle>
        </Style>
        <Style id="stylesel_422">
            <IconStyle id="substyle_422">
                <colorMode>normal</colorMode>
                <scale>1</scale>
                <heading>0</heading>
                <Icon id="link_422">
                    <href>wifi4.png</href>
                </Icon>
            </IconStyle>
        </Style>
        <Style id="stylesel_423">
            <IconStyle id="substyle_423">
                <colorMode>normal</colorMode>
                <scale>1</scale>
                <heading>0</heading>
                <Icon id="link_423">
                    <href>wifi4.png</href>
                </Icon>
            </IconStyle>
        </Style>
        <Placemark id="feat_418">
            <name>NHP-14-229A</name>
            <description>2017-09-15T19:54:02.000Z</description>
            <styleUrl>#stylesel_415</styleUrl>
            <Point id="geom_415">
                <coordinates>-118.16634369,40.65129852,0.0</coordinates>
            </Point>
        </Placemark>
        <Placemark id="feat_419">
            <name>NHP-14-229A</name>
            <description>2017-09-15T19:54:07.000Z</description>
            <styleUrl>#stylesel_416</styleUrl>
            <Point id="geom_416">
                <coordinates>-118.16519165,40.65161133,0.0</coordinates>
            </Point>
        </Placemark>
        <Placemark id="feat_420">
            <name>NHP-14-229A</name>
            <description>1970-01-01T00:00:00.000Z</description>
            <styleUrl>#stylesel_417</styleUrl>
            <Point id="geom_417">
                <coordinates>-118.63123322,40.5233345,0.0</coordinates>
            </Point>
        </Placemark>
        <Placemark id="feat_421">
            <name>NHP-14-229A</name>
            <description>2017-09-15T19:53:57.000Z</description>
            <styleUrl>#stylesel_418</styleUrl>
            <Point id="geom_418">
                <coordinates>-118.16760254,40.6509819,0.0</coordinates>
            </Point>
        </Placemark>
        <Placemark id="feat_422">
            <name>NHP-14-229A</name>
            <description>2017-09-15T19:54:01.000Z</description>
            <styleUrl>#stylesel_419</styleUrl>
            <Point id="geom_419">
                <coordinates>-118.16659546,40.65121078,0.0</coordinates>
            </Point>
        </Placemark>
        <Placemark id="feat_423">
            <name>NHP-14-229A</name>
            <description>2017-09-15T19:54:01.000Z</description>
            <styleUrl>#stylesel_420</styleUrl>
            <Point id="geom_420">
                <coordinates>-118.16658783,40.65123367,0.0</coordinates>
            </Point>
        </Placemark>
        <Placemark id="feat_424">
            <name>NHP-14-229A</name>
            <description>2017-07-25T03:39:29.000Z</description>
            <styleUrl>#stylesel_421</styleUrl>
            <Point id="geom_421">
                <coordinates>-117.12723541,40.79123688,0.0</coordinates>
            </Point>
        </Placemark>
        <Placemark id="feat_425">
            <name>NHP-14-229A</name>
            <description>2017-09-15T19:53:55.000Z</description>
            <styleUrl>#stylesel_422</styleUrl>
            <Point id="geom_422">
                <coordinates>-118.16810608,40.65080643,0.0</coordinates>
            </Point>
        </Placemark>
        <Placemark id="feat_426">
            <name>NHP-14-229A</name>
            <description>2017-09-15T19:53:59.000Z</description>
            <styleUrl>#stylesel_423</styleUrl>
            <Point id="geom_423">
                <coordinates>-118.16709137,40.65108109,0.0</coordinates>
            </Point>
        </Placemark>
    </Document>
</kml>
