<?xml version="1.0" encoding="UTF-8"?>
<kml xmlns="http://www.opengis.net/kml/2.2" xmlns:gx="http://www.google.com/kml/ext/2.2">
    <Document id="feat_2837">
        <Style id="stylesel_2584">
            <IconStyle id="substyle_2584">
                <colorMode>normal</colorMode>
                <scale>1</scale>
                <heading>0</heading>
                <Icon id="link_2584">
                    <href>wifi4.png</href>
                </Icon>
            </IconStyle>
        </Style>
        <Style id="stylesel_2585">
            <IconStyle id="substyle_2585">
                <colorMode>normal</colorMode>
                <scale>1</scale>
                <heading>0</heading>
                <Icon id="link_2585">
                    <href>wifi4.png</href>
                </Icon>
            </IconStyle>
        </Style>
        <Style id="stylesel_2586">
            <IconStyle id="substyle_2586">
                <colorMode>normal</colorMode>
                <scale>1</scale>
                <heading>0</heading>
                <Icon id="link_2586">
                    <href>wifi4.png</href>
                </Icon>
            </IconStyle>
        </Style>
        <Style id="stylesel_2587">
            <IconStyle id="substyle_2587">
                <colorMode>normal</colorMode>
                <scale>1</scale>
                <heading>0</heading>
                <Icon id="link_2587">
                    <href>wifi4.png</href>
                </Icon>
            </IconStyle>
        </Style>
        <Style id="stylesel_2588">
            <IconStyle id="substyle_2588">
                <colorMode>normal</colorMode>
                <scale>1</scale>
                <heading>0</heading>
                <Icon id="link_2588">
                    <href>wifi4.png</href>
                </Icon>
            </IconStyle>
        </Style>
        <Style id="stylesel_2589">
            <IconStyle id="substyle_2589">
                <colorMode>normal</colorMode>
                <scale>1</scale>
                <heading>0</heading>
                <Icon id="link_2589">
                    <href>wifi4.png</href>
                </Icon>
            </IconStyle>
        </Style>
        <Style id="stylesel_2590">
            <IconStyle id="substyle_2590">
                <colorMode>normal</colorMode>
                <scale>1</scale>
                <heading>0</heading>
                <Icon id="link_2590">
                    <href>wifi4.png</href>
                </Icon>
            </IconStyle>
        </Style>
        <Style id="stylesel_2591">
            <IconStyle id="substyle_2591">
                <colorMode>normal</colorMode>
                <scale>1</scale>
                <heading>0</heading>
                <Icon id="link_2591">
                    <href>wifi4.png</href>
                </Icon>
            </IconStyle>
        </Style>
        <Placemark id="feat_2838">
            <name>NHP-13-005A</name>
            <description>2017-04-23T22:45:36.000Z</description>
            <styleUrl>#stylesel_2584</styleUrl>
            <Point id="geom_2584">
                <coordinates>-118.64968872,38.54683685,0.0</coordinates>
            </Point>
        </Placemark>
        <Placemark id="feat_2839">
            <name>NHP-13-005A</name>
            <description>2017-04-23T22:45:23.000Z</description>
            <styleUrl>#stylesel_2585</styleUrl>
            <Point id="geom_2585">
                <coordinates>-118.65211487,38.54817581,0.0</coordinates>
            </Point>
        </Placemark>
        <Placemark id="feat_2840">
            <name>NHP-13-005A</name>
            <description>2017-04-23T22:45:52.000Z</description>
            <styleUrl>#stylesel_2586</styleUrl>
            <Point id="geom_2586">
                <coordinates>-118.64669037,38.54515839,0.0</coordinates>
            </Point>
        </Placemark>
        <Placemark id="feat_2841">
            <name>NHP-13-005A</name>
            <description>2017-04-23T22:45:45.000Z</description>
            <styleUrl>#stylesel_2587</styleUrl>
            <Point id="geom_2587">
                <coordinates>-118.64801025,38.54589081,0.0</coordinates>
            </Point>
        </Placemark>
        <Placemark id="feat_2842">
            <name>NHP-13-005A</name>
            <description>2017-04-23T22:45:29.000Z</description>
            <styleUrl>#stylesel_2588</styleUrl>
            <Point id="geom_2588">
                <coordinates>-118.65100098,38.5475502,0.0</coordinates>
            </Point>
        </Placemark>
        <Placemark id="feat_2843">
            <name>NHP-13-005A</name>
            <description>2017-04-23T22:45:15.000Z</description>
            <styleUrl>#stylesel_2589</styleUrl>
            <Point id="geom_2589">
                <coordinates>-118.65361023,38.54901505,0.0</coordinates>
            </Point>
        </Placemark>
        <Placemark id="feat_2844">
            <name>NHP-13-005A</name>
            <description>2017-04-23T22:45:09.000Z</description>
            <styleUrl>#stylesel_2590</styleUrl>
            <Point id="geom_2590">
                <coordinates>-118.65473938,38.54964447,0.0</coordinates>
            </Point>
        </Placemark>
        <Placemark id="feat_2845">
            <name>NHP-13-005A</name>
            <description>2017-04-23T22:45:02.000Z</description>
            <styleUrl>#stylesel_2591</styleUrl>
            <Point id="geom_2591">
                <coordinates>-118.65606689,38.55038071,0.0</coordinates>
            </Point>
        </Placemark>
    </Document>
</kml>
