<?xml version="1.0" encoding="UTF-8"?>
<kml xmlns="http://www.opengis.net/kml/2.2" xmlns:gx="http://www.google.com/kml/ext/2.2">
    <Document id="feat_2888">
        <Style id="stylesel_2625">
            <IconStyle id="substyle_2625">
                <colorMode>normal</colorMode>
                <scale>1</scale>
                <heading>0</heading>
                <Icon id="link_2625">
                    <href>wifi4.png</href>
                </Icon>
            </IconStyle>
        </Style>
        <Style id="stylesel_2626">
            <IconStyle id="substyle_2626">
                <colorMode>normal</colorMode>
                <scale>1</scale>
                <heading>0</heading>
                <Icon id="link_2626">
                    <href>wifi4.png</href>
                </Icon>
            </IconStyle>
        </Style>
        <Style id="stylesel_2627">
            <IconStyle id="substyle_2627">
                <colorMode>normal</colorMode>
                <scale>1</scale>
                <heading>0</heading>
                <Icon id="link_2627">
                    <href>wifi4.png</href>
                </Icon>
            </IconStyle>
        </Style>
        <Style id="stylesel_2628">
            <IconStyle id="substyle_2628">
                <colorMode>normal</colorMode>
                <scale>1</scale>
                <heading>0</heading>
                <Icon id="link_2628">
                    <href>wifi4.png</href>
                </Icon>
            </IconStyle>
        </Style>
        <Placemark id="feat_2889">
            <name>NHP-15-263</name>
            <description>2017-07-30T01:36:06.000Z</description>
            <styleUrl>#stylesel_2625</styleUrl>
            <Point id="geom_2625">
                <coordinates>-115.18099213,36.0550766,0.0</coordinates>
            </Point>
        </Placemark>
        <Placemark id="feat_2890">
            <name>NHP-15-263</name>
            <description>2017-07-30T01:36:24.000Z</description>
            <styleUrl>#stylesel_2626</styleUrl>
            <Point id="geom_2626">
                <coordinates>-115.18106842,36.05041122,0.0</coordinates>
            </Point>
        </Placemark>
        <Placemark id="feat_2891">
            <name>NHP-15-263</name>
            <description>2017-07-30T01:36:18.000Z</description>
            <styleUrl>#stylesel_2627</styleUrl>
            <Point id="geom_2627">
                <coordinates>-115.18102264,36.05191422,0.0</coordinates>
            </Point>
        </Placemark>
        <Placemark id="feat_2892">
            <name>NHP-15-263</name>
            <description>2017-07-30T01:36:12.000Z</description>
            <styleUrl>#stylesel_2628</styleUrl>
            <Point id="geom_2628">
                <coordinates>-115.18096161,36.05347061,0.0</coordinates>
            </Point>
        </Placemark>
    </Document>
</kml>
