<?xml version="1.0" encoding="UTF-8"?>
<kml xmlns="http://www.opengis.net/kml/2.2" xmlns:gx="http://www.google.com/kml/ext/2.2">
    <Document id="feat_546">
        <Style id="stylesel_533">
            <IconStyle id="substyle_533">
                <colorMode>normal</colorMode>
                <scale>1</scale>
                <heading>0</heading>
                <Icon id="link_533">
                    <href>wifi4.png</href>
                </Icon>
            </IconStyle>
        </Style>
        <Placemark id="feat_547">
            <name>NHP-13-333A</name>
            <description>2016-06-02T03:37:47.000Z</description>
            <styleUrl>#stylesel_533</styleUrl>
            <Point id="geom_533">
                <coordinates>-119.78895569,39.52112579,0.0</coordinates>
            </Point>
        </Placemark>
    </Document>
</kml>
