<?xml version="1.0" encoding="UTF-8"?>
<kml xmlns="http://www.opengis.net/kml/2.2" xmlns:gx="http://www.google.com/kml/ext/2.2">
    <Document id="feat_1773">
        <Style id="stylesel_1629">
            <IconStyle id="substyle_1629">
                <colorMode>normal</colorMode>
                <scale>1</scale>
                <heading>0</heading>
                <Icon id="link_1629">
                    <href>wifi4.png</href>
                </Icon>
            </IconStyle>
        </Style>
        <Style id="stylesel_1630">
            <IconStyle id="substyle_1630">
                <colorMode>normal</colorMode>
                <scale>1</scale>
                <heading>0</heading>
                <Icon id="link_1630">
                    <href>wifi4.png</href>
                </Icon>
            </IconStyle>
        </Style>
        <Style id="stylesel_1631">
            <IconStyle id="substyle_1631">
                <colorMode>normal</colorMode>
                <scale>1</scale>
                <heading>0</heading>
                <Icon id="link_1631">
                    <href>wifi4.png</href>
                </Icon>
            </IconStyle>
        </Style>
        <Style id="stylesel_1632">
            <IconStyle id="substyle_1632">
                <colorMode>normal</colorMode>
                <scale>1</scale>
                <heading>0</heading>
                <Icon id="link_1632">
                    <href>wifi4.png</href>
                </Icon>
            </IconStyle>
        </Style>
        <Style id="stylesel_1633">
            <IconStyle id="substyle_1633">
                <colorMode>normal</colorMode>
                <scale>1</scale>
                <heading>0</heading>
                <Icon id="link_1633">
                    <href>wifi4.png</href>
                </Icon>
            </IconStyle>
        </Style>
        <Style id="stylesel_1634">
            <IconStyle id="substyle_1634">
                <colorMode>normal</colorMode>
                <scale>1</scale>
                <heading>0</heading>
                <Icon id="link_1634">
                    <href>wifi4.png</href>
                </Icon>
            </IconStyle>
        </Style>
        <Style id="stylesel_1635">
            <IconStyle id="substyle_1635">
                <colorMode>normal</colorMode>
                <scale>1</scale>
                <heading>0</heading>
                <Icon id="link_1635">
                    <href>wifi4.png</href>
                </Icon>
            </IconStyle>
        </Style>
        <Style id="stylesel_1636">
            <IconStyle id="substyle_1636">
                <colorMode>normal</colorMode>
                <scale>1</scale>
                <heading>0</heading>
                <Icon id="link_1636">
                    <href>wifi4.png</href>
                </Icon>
            </IconStyle>
        </Style>
        <Placemark id="feat_1774">
            <name>NHP-13-125</name>
            <description>2017-02-24T22:56:53.000Z</description>
            <styleUrl>#stylesel_1629</styleUrl>
            <Point id="geom_1629">
                <coordinates>-115.2977829,36.06377411,0.0</coordinates>
            </Point>
        </Placemark>
        <Placemark id="feat_1775">
            <name>NHP-13-125</name>
            <description>2017-02-24T22:57:52.000Z</description>
            <styleUrl>#stylesel_1630</styleUrl>
            <Point id="geom_1630">
                <coordinates>-115.29768372,36.06002045,0.0</coordinates>
            </Point>
        </Placemark>
        <Placemark id="feat_1776">
            <name>NHP-13-125</name>
            <description>2017-02-24T22:57:46.000Z</description>
            <styleUrl>#stylesel_1631</styleUrl>
            <Point id="geom_1631">
                <coordinates>-115.29768372,36.06106567,0.0</coordinates>
            </Point>
        </Placemark>
        <Placemark id="feat_1777">
            <name>NHP-13-125</name>
            <description>2017-02-24T22:57:37.000Z</description>
            <styleUrl>#stylesel_1632</styleUrl>
            <Point id="geom_1632">
                <coordinates>-115.29772186,36.06242752,0.0</coordinates>
            </Point>
        </Placemark>
        <Placemark id="feat_1778">
            <name>NHP-13-125</name>
            <description>2017-01-17T03:24:33.000Z</description>
            <styleUrl>#stylesel_1633</styleUrl>
            <Point id="geom_1633">
                <coordinates>-115.16072845,36.15906906,0.0</coordinates>
            </Point>
        </Placemark>
        <Placemark id="feat_1779">
            <name>NHP-13-125</name>
            <description>2017-05-10T19:40:22.000Z</description>
            <styleUrl>#stylesel_1634</styleUrl>
            <Point id="geom_1634">
                <coordinates>-115.25431061,36.02667999,0.0</coordinates>
            </Point>
        </Placemark>
        <Placemark id="feat_1780">
            <name>NHP-13-125</name>
            <description>2017-02-24T22:56:33.000Z</description>
            <styleUrl>#stylesel_1635</styleUrl>
            <Point id="geom_1635">
                <coordinates>-115.29782104,36.06665039,0.0</coordinates>
            </Point>
        </Placemark>
        <Placemark id="feat_1781">
            <name>NHP-13-125</name>
            <description>2017-02-24T22:56:27.000Z</description>
            <styleUrl>#stylesel_1636</styleUrl>
            <Point id="geom_1636">
                <coordinates>-115.29787445,36.06780624,0.0</coordinates>
            </Point>
        </Placemark>
    </Document>
</kml>
