<?xml version="1.0" encoding="UTF-8"?>
<kml xmlns="http://www.opengis.net/kml/2.2" xmlns:gx="http://www.google.com/kml/ext/2.2">
    <Document id="feat_1489">
        <Style id="stylesel_1369">
            <IconStyle id="substyle_1369">
                <colorMode>normal</colorMode>
                <scale>1</scale>
                <heading>0</heading>
                <Icon id="link_1369">
                    <href>wifi4.png</href>
                </Icon>
            </IconStyle>
        </Style>
        <Style id="stylesel_1370">
            <IconStyle id="substyle_1370">
                <colorMode>normal</colorMode>
                <scale>1</scale>
                <heading>0</heading>
                <Icon id="link_1370">
                    <href>wifi4.png</href>
                </Icon>
            </IconStyle>
        </Style>
        <Style id="stylesel_1371">
            <IconStyle id="substyle_1371">
                <colorMode>normal</colorMode>
                <scale>1</scale>
                <heading>0</heading>
                <Icon id="link_1371">
                    <href>wifi4.png</href>
                </Icon>
            </IconStyle>
        </Style>
        <Style id="stylesel_1372">
            <IconStyle id="substyle_1372">
                <colorMode>normal</colorMode>
                <scale>1</scale>
                <heading>0</heading>
                <Icon id="link_1372">
                    <href>wifi4.png</href>
                </Icon>
            </IconStyle>
        </Style>
        <Style id="stylesel_1373">
            <IconStyle id="substyle_1373">
                <colorMode>normal</colorMode>
                <scale>1</scale>
                <heading>0</heading>
                <Icon id="link_1373">
                    <href>wifi4.png</href>
                </Icon>
            </IconStyle>
        </Style>
        <Style id="stylesel_1374">
            <IconStyle id="substyle_1374">
                <colorMode>normal</colorMode>
                <scale>1</scale>
                <heading>0</heading>
                <Icon id="link_1374">
                    <href>wifi4.png</href>
                </Icon>
            </IconStyle>
        </Style>
        <Style id="stylesel_1375">
            <IconStyle id="substyle_1375">
                <colorMode>normal</colorMode>
                <scale>1</scale>
                <heading>0</heading>
                <Icon id="link_1375">
                    <href>wifi4.png</href>
                </Icon>
            </IconStyle>
        </Style>
        <Style id="stylesel_1376">
            <IconStyle id="substyle_1376">
                <colorMode>normal</colorMode>
                <scale>1</scale>
                <heading>0</heading>
                <Icon id="link_1376">
                    <href>wifi4.png</href>
                </Icon>
            </IconStyle>
        </Style>
        <Style id="stylesel_1377">
            <IconStyle id="substyle_1377">
                <colorMode>normal</colorMode>
                <scale>1</scale>
                <heading>0</heading>
                <Icon id="link_1377">
                    <href>wifi4.png</href>
                </Icon>
            </IconStyle>
        </Style>
        <Style id="stylesel_1378">
            <IconStyle id="substyle_1378">
                <colorMode>normal</colorMode>
                <scale>1</scale>
                <heading>0</heading>
                <Icon id="link_1378">
                    <href>wifi4.png</href>
                </Icon>
            </IconStyle>
        </Style>
        <Style id="stylesel_1379">
            <IconStyle id="substyle_1379">
                <colorMode>normal</colorMode>
                <scale>1</scale>
                <heading>0</heading>
                <Icon id="link_1379">
                    <href>wifi4.png</href>
                </Icon>
            </IconStyle>
        </Style>
        <Style id="stylesel_1380">
            <IconStyle id="substyle_1380">
                <colorMode>normal</colorMode>
                <scale>1</scale>
                <heading>0</heading>
                <Icon id="link_1380">
                    <href>wifi4.png</href>
                </Icon>
            </IconStyle>
        </Style>
        <Style id="stylesel_1381">
            <IconStyle id="substyle_1381">
                <colorMode>normal</colorMode>
                <scale>1</scale>
                <heading>0</heading>
                <Icon id="link_1381">
                    <href>wifi4.png</href>
                </Icon>
            </IconStyle>
        </Style>
        <Style id="stylesel_1382">
            <IconStyle id="substyle_1382">
                <colorMode>normal</colorMode>
                <scale>1</scale>
                <heading>0</heading>
                <Icon id="link_1382">
                    <href>wifi4.png</href>
                </Icon>
            </IconStyle>
        </Style>
        <Style id="stylesel_1383">
            <IconStyle id="substyle_1383">
                <colorMode>normal</colorMode>
                <scale>1</scale>
                <heading>0</heading>
                <Icon id="link_1383">
                    <href>wifi4.png</href>
                </Icon>
            </IconStyle>
        </Style>
        <Style id="stylesel_1384">
            <IconStyle id="substyle_1384">
                <colorMode>normal</colorMode>
                <scale>1</scale>
                <heading>0</heading>
                <Icon id="link_1384">
                    <href>wifi4.png</href>
                </Icon>
            </IconStyle>
        </Style>
        <Style id="stylesel_1385">
            <IconStyle id="substyle_1385">
                <colorMode>normal</colorMode>
                <scale>1</scale>
                <heading>0</heading>
                <Icon id="link_1385">
                    <href>wifi4.png</href>
                </Icon>
            </IconStyle>
        </Style>
        <Style id="stylesel_1386">
            <IconStyle id="substyle_1386">
                <colorMode>normal</colorMode>
                <scale>1</scale>
                <heading>0</heading>
                <Icon id="link_1386">
                    <href>wifi4.png</href>
                </Icon>
            </IconStyle>
        </Style>
        <Style id="stylesel_1387">
            <IconStyle id="substyle_1387">
                <colorMode>normal</colorMode>
                <scale>1</scale>
                <heading>0</heading>
                <Icon id="link_1387">
                    <href>wifi4.png</href>
                </Icon>
            </IconStyle>
        </Style>
        <Style id="stylesel_1388">
            <IconStyle id="substyle_1388">
                <colorMode>normal</colorMode>
                <scale>1</scale>
                <heading>0</heading>
                <Icon id="link_1388">
                    <href>wifi4.png</href>
                </Icon>
            </IconStyle>
        </Style>
        <Style id="stylesel_1389">
            <IconStyle id="substyle_1389">
                <colorMode>normal</colorMode>
                <scale>1</scale>
                <heading>0</heading>
                <Icon id="link_1389">
                    <href>wifi4.png</href>
                </Icon>
            </IconStyle>
        </Style>
        <Style id="stylesel_1390">
            <IconStyle id="substyle_1390">
                <colorMode>normal</colorMode>
                <scale>1</scale>
                <heading>0</heading>
                <Icon id="link_1390">
                    <href>wifi4.png</href>
                </Icon>
            </IconStyle>
        </Style>
        <Style id="stylesel_1391">
            <IconStyle id="substyle_1391">
                <colorMode>normal</colorMode>
                <scale>1</scale>
                <heading>0</heading>
                <Icon id="link_1391">
                    <href>wifi4.png</href>
                </Icon>
            </IconStyle>
        </Style>
        <Style id="stylesel_1392">
            <IconStyle id="substyle_1392">
                <colorMode>normal</colorMode>
                <scale>1</scale>
                <heading>0</heading>
                <Icon id="link_1392">
                    <href>wifi4.png</href>
                </Icon>
            </IconStyle>
        </Style>
        <Style id="stylesel_1393">
            <IconStyle id="substyle_1393">
                <colorMode>normal</colorMode>
                <scale>1</scale>
                <heading>0</heading>
                <Icon id="link_1393">
                    <href>wifi4.png</href>
                </Icon>
            </IconStyle>
        </Style>
        <Style id="stylesel_1394">
            <IconStyle id="substyle_1394">
                <colorMode>normal</colorMode>
                <scale>1</scale>
                <heading>0</heading>
                <Icon id="link_1394">
                    <href>wifi4.png</href>
                </Icon>
            </IconStyle>
        </Style>
        <Style id="stylesel_1395">
            <IconStyle id="substyle_1395">
                <colorMode>normal</colorMode>
                <scale>1</scale>
                <heading>0</heading>
                <Icon id="link_1395">
                    <href>wifi4.png</href>
                </Icon>
            </IconStyle>
        </Style>
        <Style id="stylesel_1396">
            <IconStyle id="substyle_1396">
                <colorMode>normal</colorMode>
                <scale>1</scale>
                <heading>0</heading>
                <Icon id="link_1396">
                    <href>wifi4.png</href>
                </Icon>
            </IconStyle>
        </Style>
        <Style id="stylesel_1397">
            <IconStyle id="substyle_1397">
                <colorMode>normal</colorMode>
                <scale>1</scale>
                <heading>0</heading>
                <Icon id="link_1397">
                    <href>wifi4.png</href>
                </Icon>
            </IconStyle>
        </Style>
        <Style id="stylesel_1398">
            <IconStyle id="substyle_1398">
                <colorMode>normal</colorMode>
                <scale>1</scale>
                <heading>0</heading>
                <Icon id="link_1398">
                    <href>wifi4.png</href>
                </Icon>
            </IconStyle>
        </Style>
        <Style id="stylesel_1399">
            <IconStyle id="substyle_1399">
                <colorMode>normal</colorMode>
                <scale>1</scale>
                <heading>0</heading>
                <Icon id="link_1399">
                    <href>wifi4.png</href>
                </Icon>
            </IconStyle>
        </Style>
        <Style id="stylesel_1400">
            <IconStyle id="substyle_1400">
                <colorMode>normal</colorMode>
                <scale>1</scale>
                <heading>0</heading>
                <Icon id="link_1400">
                    <href>wifi4.png</href>
                </Icon>
            </IconStyle>
        </Style>
        <Style id="stylesel_1401">
            <IconStyle id="substyle_1401">
                <colorMode>normal</colorMode>
                <scale>1</scale>
                <heading>0</heading>
                <Icon id="link_1401">
                    <href>wifi4.png</href>
                </Icon>
            </IconStyle>
        </Style>
        <Placemark id="feat_1490">
            <name>NHP-14-374</name>
            <description>2016-06-14T14:38:46.000Z</description>
            <styleUrl>#stylesel_1369</styleUrl>
            <Point id="geom_1369">
                <coordinates>-115.2412796,36.02298355,0.0</coordinates>
            </Point>
        </Placemark>
        <Placemark id="feat_1491">
            <name>NHP-14-374</name>
            <description>2016-06-14T14:38:40.000Z</description>
            <styleUrl>#stylesel_1370</styleUrl>
            <Point id="geom_1370">
                <coordinates>-115.24019623,36.02318192,0.0</coordinates>
            </Point>
        </Placemark>
        <Placemark id="feat_1492">
            <name>NHP-14-374</name>
            <description>2017-05-24T23:53:10.000Z</description>
            <styleUrl>#stylesel_1371</styleUrl>
            <Point id="geom_1371">
                <coordinates>-115.19087219,36.06689453,0.0</coordinates>
            </Point>
        </Placemark>
        <Placemark id="feat_1493">
            <name>NHP-14-374</name>
            <description>2017-02-03T05:05:21.000Z</description>
            <styleUrl>#stylesel_1372</styleUrl>
            <Point id="geom_1372">
                <coordinates>-115.18080902,36.10295868,0.0</coordinates>
            </Point>
        </Placemark>
        <Placemark id="feat_1494">
            <name>NHP-14-374</name>
            <description>2017-02-03T05:05:16.000Z</description>
            <styleUrl>#stylesel_1373</styleUrl>
            <Point id="geom_1373">
                <coordinates>-115.18081665,36.10403061,0.0</coordinates>
            </Point>
        </Placemark>
        <Placemark id="feat_1495">
            <name>NHP-14-374</name>
            <description>2016-06-14T14:38:34.000Z</description>
            <styleUrl>#stylesel_1374</styleUrl>
            <Point id="geom_1374">
                <coordinates>-115.23893738,36.02339172,0.0</coordinates>
            </Point>
        </Placemark>
        <Placemark id="feat_1496">
            <name>NHP-14-374</name>
            <description>2017-05-24T23:53:42.000Z</description>
            <styleUrl>#stylesel_1375</styleUrl>
            <Point id="geom_1375">
                <coordinates>-115.19219208,36.06726074,0.0</coordinates>
            </Point>
        </Placemark>
        <Placemark id="feat_1497">
            <name>NHP-14-374</name>
            <description>2017-05-24T23:53:30.000Z</description>
            <styleUrl>#stylesel_1376</styleUrl>
            <Point id="geom_1376">
                <coordinates>-115.19191742,36.06720352,0.0</coordinates>
            </Point>
        </Placemark>
        <Placemark id="feat_1498">
            <name>NHP-14-374</name>
            <description>2017-02-03T05:05:09.000Z</description>
            <styleUrl>#stylesel_1377</styleUrl>
            <Point id="geom_1377">
                <coordinates>-115.18082428,36.10546494,0.0</coordinates>
            </Point>
        </Placemark>
        <Placemark id="feat_1499">
            <name>NHP-14-374</name>
            <description>2017-05-24T23:53:13.000Z</description>
            <styleUrl>#stylesel_1378</styleUrl>
            <Point id="geom_1378">
                <coordinates>-115.19108582,36.06694794,0.0</coordinates>
            </Point>
        </Placemark>
        <Placemark id="feat_1500">
            <name>NHP-14-374</name>
            <description>2017-05-24T23:53:06.000Z</description>
            <styleUrl>#stylesel_1379</styleUrl>
            <Point id="geom_1379">
                <coordinates>-115.19061279,36.06682587,0.0</coordinates>
            </Point>
        </Placemark>
        <Placemark id="feat_1501">
            <name>NHP-14-374</name>
            <description>2017-05-24T23:54:07.000Z</description>
            <styleUrl>#stylesel_1380</styleUrl>
            <Point id="geom_1380">
                <coordinates>-115.1934433,36.06763458,0.0</coordinates>
            </Point>
        </Placemark>
        <Placemark id="feat_1502">
            <name>NHP-14-374</name>
            <description>2017-01-14T00:14:06.000Z</description>
            <styleUrl>#stylesel_1381</styleUrl>
            <Point id="geom_1381">
                <coordinates>-115.18320465,36.17533875,0.0</coordinates>
            </Point>
        </Placemark>
        <Placemark id="feat_1503">
            <name>NHP-14-374</name>
            <description>2017-01-14T00:13:54.000Z</description>
            <styleUrl>#stylesel_1382</styleUrl>
            <Point id="geom_1382">
                <coordinates>-115.17881775,36.17531967,0.0</coordinates>
            </Point>
        </Placemark>
        <Placemark id="feat_1504">
            <name>NHP-14-374</name>
            <description>2017-01-14T00:14:03.000Z</description>
            <styleUrl>#stylesel_1383</styleUrl>
            <Point id="geom_1383">
                <coordinates>-115.18211365,36.17528534,0.0</coordinates>
            </Point>
        </Placemark>
        <Placemark id="feat_1505">
            <name>NHP-14-374</name>
            <description>2017-01-14T00:14:00.000Z</description>
            <styleUrl>#stylesel_1384</styleUrl>
            <Point id="geom_1384">
                <coordinates>-115.18102264,36.17531586,0.0</coordinates>
            </Point>
        </Placemark>
        <Placemark id="feat_1506">
            <name>NHP-14-374</name>
            <description>2017-01-14T00:13:57.000Z</description>
            <styleUrl>#stylesel_1385</styleUrl>
            <Point id="geom_1385">
                <coordinates>-115.17992401,36.17534637,0.0</coordinates>
            </Point>
        </Placemark>
        <Placemark id="feat_1507">
            <name>NHP-14-374</name>
            <description>2017-05-24T23:52:42.000Z</description>
            <styleUrl>#stylesel_1386</styleUrl>
            <Point id="geom_1386">
                <coordinates>-115.18767548,36.06616974,0.0</coordinates>
            </Point>
        </Placemark>
        <Placemark id="feat_1508">
            <name>NHP-14-374</name>
            <description>2017-07-27T02:38:32.000Z</description>
            <styleUrl>#stylesel_1387</styleUrl>
            <Point id="geom_1387">
                <coordinates>-115.1799469,36.10886765,0.0</coordinates>
            </Point>
        </Placemark>
        <Placemark id="feat_1509">
            <name>NHP-14-374</name>
            <description>2017-05-24T23:55:18.000Z</description>
            <styleUrl>#stylesel_1388</styleUrl>
            <Point id="geom_1388">
                <coordinates>-115.20426178,36.06855011,0.0</coordinates>
            </Point>
        </Placemark>
        <Placemark id="feat_1510">
            <name>NHP-14-374</name>
            <description>2017-05-24T23:55:24.000Z</description>
            <styleUrl>#stylesel_1389</styleUrl>
            <Point id="geom_1389">
                <coordinates>-115.20539093,36.06868362,0.0</coordinates>
            </Point>
        </Placemark>
        <Placemark id="feat_1511">
            <name>NHP-14-374</name>
            <description>2017-05-24T23:52:25.000Z</description>
            <styleUrl>#stylesel_1390</styleUrl>
            <Point id="geom_1390">
                <coordinates>-115.18669128,36.06603241,0.0</coordinates>
            </Point>
        </Placemark>
        <Placemark id="feat_1512">
            <name>NHP-14-374</name>
            <description>2017-05-24T23:52:43.000Z</description>
            <styleUrl>#stylesel_1391</styleUrl>
            <Point id="geom_1391">
                <coordinates>-115.18780518,36.066185,0.0</coordinates>
            </Point>
        </Placemark>
        <Placemark id="feat_1513">
            <name>NHP-14-374</name>
            <description>2017-05-24T23:52:13.000Z</description>
            <styleUrl>#stylesel_1392</styleUrl>
            <Point id="geom_1392">
                <coordinates>-115.18560028,36.06599808,0.0</coordinates>
            </Point>
        </Placemark>
        <Placemark id="feat_1514">
            <name>NHP-14-374</name>
            <description>2017-05-24T23:52:55.000Z</description>
            <styleUrl>#stylesel_1393</styleUrl>
            <Point id="geom_1393">
                <coordinates>-115.18929291,36.06646347,0.0</coordinates>
            </Point>
        </Placemark>
        <Placemark id="feat_1515">
            <name>NHP-14-374</name>
            <description>2017-05-24T23:54:21.000Z</description>
            <styleUrl>#stylesel_1394</styleUrl>
            <Point id="geom_1394">
                <coordinates>-115.19464874,36.06797791,0.0</coordinates>
            </Point>
        </Placemark>
        <Placemark id="feat_1516">
            <name>NHP-14-374</name>
            <description>2017-05-24T23:54:06.000Z</description>
            <styleUrl>#stylesel_1395</styleUrl>
            <Point id="geom_1395">
                <coordinates>-115.19338226,36.06760406,0.0</coordinates>
            </Point>
        </Placemark>
        <Placemark id="feat_1517">
            <name>NHP-14-374</name>
            <description>2017-02-03T05:05:02.000Z</description>
            <styleUrl>#stylesel_1396</styleUrl>
            <Point id="geom_1396">
                <coordinates>-115.18082428,36.10691071,0.0</coordinates>
            </Point>
        </Placemark>
        <Placemark id="feat_1518">
            <name>NHP-14-374</name>
            <description>2017-07-27T02:38:30.000Z</description>
            <styleUrl>#stylesel_1397</styleUrl>
            <Point id="geom_1397">
                <coordinates>-115.17980194,36.10866165,0.0</coordinates>
            </Point>
        </Placemark>
        <Placemark id="feat_1519">
            <name>NHP-14-374</name>
            <description>2017-02-07T15:09:21.000Z</description>
            <styleUrl>#stylesel_1398</styleUrl>
            <Point id="geom_1398">
                <coordinates>-115.20797729,36.06645966,0.0</coordinates>
            </Point>
        </Placemark>
        <Placemark id="feat_1520">
            <name>NHP-14-374</name>
            <description>2017-05-24T23:53:04.000Z</description>
            <styleUrl>#stylesel_1399</styleUrl>
            <Point id="geom_1399">
                <coordinates>-115.1904068,36.06674576,0.0</coordinates>
            </Point>
        </Placemark>
        <Placemark id="feat_1521">
            <name>NHP-14-374</name>
            <description>2017-02-07T15:09:29.000Z</description>
            <styleUrl>#stylesel_1400</styleUrl>
            <Point id="geom_1400">
                <coordinates>-115.20789337,36.06496429,0.0</coordinates>
            </Point>
        </Placemark>
        <Placemark id="feat_1522">
            <name>NHP-14-374</name>
            <description>2017-07-27T02:38:57.000Z</description>
            <styleUrl>#stylesel_1401</styleUrl>
            <Point id="geom_1401">
                <coordinates>-115.17993927,36.11190414,0.0</coordinates>
            </Point>
        </Placemark>
    </Document>
</kml>
