<?xml version="1.0" encoding="UTF-8"?>
<kml xmlns="http://www.opengis.net/kml/2.2" xmlns:gx="http://www.google.com/kml/ext/2.2">
    <Document id="feat_438">
        <Style id="stylesel_434">
            <IconStyle id="substyle_434">
                <colorMode>normal</colorMode>
                <scale>1</scale>
                <heading>0</heading>
                <Icon id="link_434">
                    <href>wifi4.png</href>
                </Icon>
            </IconStyle>
        </Style>
        <Style id="stylesel_435">
            <IconStyle id="substyle_435">
                <colorMode>normal</colorMode>
                <scale>1</scale>
                <heading>0</heading>
                <Icon id="link_435">
                    <href>wifi4.png</href>
                </Icon>
            </IconStyle>
        </Style>
        <Style id="stylesel_436">
            <IconStyle id="substyle_436">
                <colorMode>normal</colorMode>
                <scale>1</scale>
                <heading>0</heading>
                <Icon id="link_436">
                    <href>wifi4.png</href>
                </Icon>
            </IconStyle>
        </Style>
        <Style id="stylesel_437">
            <IconStyle id="substyle_437">
                <colorMode>normal</colorMode>
                <scale>1</scale>
                <heading>0</heading>
                <Icon id="link_437">
                    <href>wifi4.png</href>
                </Icon>
            </IconStyle>
        </Style>
        <Style id="stylesel_438">
            <IconStyle id="substyle_438">
                <colorMode>normal</colorMode>
                <scale>1</scale>
                <heading>0</heading>
                <Icon id="link_438">
                    <href>wifi4.png</href>
                </Icon>
            </IconStyle>
        </Style>
        <Style id="stylesel_439">
            <IconStyle id="substyle_439">
                <colorMode>normal</colorMode>
                <scale>1</scale>
                <heading>0</heading>
                <Icon id="link_439">
                    <href>wifi4.png</href>
                </Icon>
            </IconStyle>
        </Style>
        <Style id="stylesel_440">
            <IconStyle id="substyle_440">
                <colorMode>normal</colorMode>
                <scale>1</scale>
                <heading>0</heading>
                <Icon id="link_440">
                    <href>wifi4.png</href>
                </Icon>
            </IconStyle>
        </Style>
        <Style id="stylesel_441">
            <IconStyle id="substyle_441">
                <colorMode>normal</colorMode>
                <scale>1</scale>
                <heading>0</heading>
                <Icon id="link_441">
                    <href>wifi4.png</href>
                </Icon>
            </IconStyle>
        </Style>
        <Style id="stylesel_442">
            <IconStyle id="substyle_442">
                <colorMode>normal</colorMode>
                <scale>1</scale>
                <heading>0</heading>
                <Icon id="link_442">
                    <href>wifi4.png</href>
                </Icon>
            </IconStyle>
        </Style>
        <Style id="stylesel_443">
            <IconStyle id="substyle_443">
                <colorMode>normal</colorMode>
                <scale>1</scale>
                <heading>0</heading>
                <Icon id="link_443">
                    <href>wifi4.png</href>
                </Icon>
            </IconStyle>
        </Style>
        <Style id="stylesel_444">
            <IconStyle id="substyle_444">
                <colorMode>normal</colorMode>
                <scale>1</scale>
                <heading>0</heading>
                <Icon id="link_444">
                    <href>wifi4.png</href>
                </Icon>
            </IconStyle>
        </Style>
        <Style id="stylesel_445">
            <IconStyle id="substyle_445">
                <colorMode>normal</colorMode>
                <scale>1</scale>
                <heading>0</heading>
                <Icon id="link_445">
                    <href>wifi4.png</href>
                </Icon>
            </IconStyle>
        </Style>
        <Style id="stylesel_446">
            <IconStyle id="substyle_446">
                <colorMode>normal</colorMode>
                <scale>1</scale>
                <heading>0</heading>
                <Icon id="link_446">
                    <href>wifi4.png</href>
                </Icon>
            </IconStyle>
        </Style>
        <Style id="stylesel_447">
            <IconStyle id="substyle_447">
                <colorMode>normal</colorMode>
                <scale>1</scale>
                <heading>0</heading>
                <Icon id="link_447">
                    <href>wifi4.png</href>
                </Icon>
            </IconStyle>
        </Style>
        <Style id="stylesel_448">
            <IconStyle id="substyle_448">
                <colorMode>normal</colorMode>
                <scale>1</scale>
                <heading>0</heading>
                <Icon id="link_448">
                    <href>wifi4.png</href>
                </Icon>
            </IconStyle>
        </Style>
        <Style id="stylesel_449">
            <IconStyle id="substyle_449">
                <colorMode>normal</colorMode>
                <scale>1</scale>
                <heading>0</heading>
                <Icon id="link_449">
                    <href>wifi4.png</href>
                </Icon>
            </IconStyle>
        </Style>
        <Style id="stylesel_450">
            <IconStyle id="substyle_450">
                <colorMode>normal</colorMode>
                <scale>1</scale>
                <heading>0</heading>
                <Icon id="link_450">
                    <href>wifi4.png</href>
                </Icon>
            </IconStyle>
        </Style>
        <Style id="stylesel_451">
            <IconStyle id="substyle_451">
                <colorMode>normal</colorMode>
                <scale>1</scale>
                <heading>0</heading>
                <Icon id="link_451">
                    <href>wifi4.png</href>
                </Icon>
            </IconStyle>
        </Style>
        <Style id="stylesel_452">
            <IconStyle id="substyle_452">
                <colorMode>normal</colorMode>
                <scale>1</scale>
                <heading>0</heading>
                <Icon id="link_452">
                    <href>wifi4.png</href>
                </Icon>
            </IconStyle>
        </Style>
        <Style id="stylesel_453">
            <IconStyle id="substyle_453">
                <colorMode>normal</colorMode>
                <scale>1</scale>
                <heading>0</heading>
                <Icon id="link_453">
                    <href>wifi4.png</href>
                </Icon>
            </IconStyle>
        </Style>
        <Style id="stylesel_454">
            <IconStyle id="substyle_454">
                <colorMode>normal</colorMode>
                <scale>1</scale>
                <heading>0</heading>
                <Icon id="link_454">
                    <href>wifi4.png</href>
                </Icon>
            </IconStyle>
        </Style>
        <Style id="stylesel_455">
            <IconStyle id="substyle_455">
                <colorMode>normal</colorMode>
                <scale>1</scale>
                <heading>0</heading>
                <Icon id="link_455">
                    <href>wifi4.png</href>
                </Icon>
            </IconStyle>
        </Style>
        <Style id="stylesel_456">
            <IconStyle id="substyle_456">
                <colorMode>normal</colorMode>
                <scale>1</scale>
                <heading>0</heading>
                <Icon id="link_456">
                    <href>wifi4.png</href>
                </Icon>
            </IconStyle>
        </Style>
        <Style id="stylesel_457">
            <IconStyle id="substyle_457">
                <colorMode>normal</colorMode>
                <scale>1</scale>
                <heading>0</heading>
                <Icon id="link_457">
                    <href>wifi4.png</href>
                </Icon>
            </IconStyle>
        </Style>
        <Style id="stylesel_458">
            <IconStyle id="substyle_458">
                <colorMode>normal</colorMode>
                <scale>1</scale>
                <heading>0</heading>
                <Icon id="link_458">
                    <href>wifi4.png</href>
                </Icon>
            </IconStyle>
        </Style>
        <Style id="stylesel_459">
            <IconStyle id="substyle_459">
                <colorMode>normal</colorMode>
                <scale>1</scale>
                <heading>0</heading>
                <Icon id="link_459">
                    <href>wifi4.png</href>
                </Icon>
            </IconStyle>
        </Style>
        <Style id="stylesel_460">
            <IconStyle id="substyle_460">
                <colorMode>normal</colorMode>
                <scale>1</scale>
                <heading>0</heading>
                <Icon id="link_460">
                    <href>wifi4.png</href>
                </Icon>
            </IconStyle>
        </Style>
        <Style id="stylesel_461">
            <IconStyle id="substyle_461">
                <colorMode>normal</colorMode>
                <scale>1</scale>
                <heading>0</heading>
                <Icon id="link_461">
                    <href>wifi4.png</href>
                </Icon>
            </IconStyle>
        </Style>
        <Style id="stylesel_462">
            <IconStyle id="substyle_462">
                <colorMode>normal</colorMode>
                <scale>1</scale>
                <heading>0</heading>
                <Icon id="link_462">
                    <href>wifi4.png</href>
                </Icon>
            </IconStyle>
        </Style>
        <Style id="stylesel_463">
            <IconStyle id="substyle_463">
                <colorMode>normal</colorMode>
                <scale>1</scale>
                <heading>0</heading>
                <Icon id="link_463">
                    <href>wifi4.png</href>
                </Icon>
            </IconStyle>
        </Style>
        <Style id="stylesel_464">
            <IconStyle id="substyle_464">
                <colorMode>normal</colorMode>
                <scale>1</scale>
                <heading>0</heading>
                <Icon id="link_464">
                    <href>wifi4.png</href>
                </Icon>
            </IconStyle>
        </Style>
        <Style id="stylesel_465">
            <IconStyle id="substyle_465">
                <colorMode>normal</colorMode>
                <scale>1</scale>
                <heading>0</heading>
                <Icon id="link_465">
                    <href>wifi4.png</href>
                </Icon>
            </IconStyle>
        </Style>
        <Style id="stylesel_466">
            <IconStyle id="substyle_466">
                <colorMode>normal</colorMode>
                <scale>1</scale>
                <heading>0</heading>
                <Icon id="link_466">
                    <href>wifi4.png</href>
                </Icon>
            </IconStyle>
        </Style>
        <Style id="stylesel_467">
            <IconStyle id="substyle_467">
                <colorMode>normal</colorMode>
                <scale>1</scale>
                <heading>0</heading>
                <Icon id="link_467">
                    <href>wifi4.png</href>
                </Icon>
            </IconStyle>
        </Style>
        <Style id="stylesel_468">
            <IconStyle id="substyle_468">
                <colorMode>normal</colorMode>
                <scale>1</scale>
                <heading>0</heading>
                <Icon id="link_468">
                    <href>wifi4.png</href>
                </Icon>
            </IconStyle>
        </Style>
        <Style id="stylesel_469">
            <IconStyle id="substyle_469">
                <colorMode>normal</colorMode>
                <scale>1</scale>
                <heading>0</heading>
                <Icon id="link_469">
                    <href>wifi4.png</href>
                </Icon>
            </IconStyle>
        </Style>
        <Style id="stylesel_470">
            <IconStyle id="substyle_470">
                <colorMode>normal</colorMode>
                <scale>1</scale>
                <heading>0</heading>
                <Icon id="link_470">
                    <href>wifi4.png</href>
                </Icon>
            </IconStyle>
        </Style>
        <Style id="stylesel_471">
            <IconStyle id="substyle_471">
                <colorMode>normal</colorMode>
                <scale>1</scale>
                <heading>0</heading>
                <Icon id="link_471">
                    <href>wifi4.png</href>
                </Icon>
            </IconStyle>
        </Style>
        <Style id="stylesel_472">
            <IconStyle id="substyle_472">
                <colorMode>normal</colorMode>
                <scale>1</scale>
                <heading>0</heading>
                <Icon id="link_472">
                    <href>wifi4.png</href>
                </Icon>
            </IconStyle>
        </Style>
        <Style id="stylesel_473">
            <IconStyle id="substyle_473">
                <colorMode>normal</colorMode>
                <scale>1</scale>
                <heading>0</heading>
                <Icon id="link_473">
                    <href>wifi4.png</href>
                </Icon>
            </IconStyle>
        </Style>
        <Style id="stylesel_474">
            <IconStyle id="substyle_474">
                <colorMode>normal</colorMode>
                <scale>1</scale>
                <heading>0</heading>
                <Icon id="link_474">
                    <href>wifi4.png</href>
                </Icon>
            </IconStyle>
        </Style>
        <Placemark id="feat_439">
            <name>NHP-13-120</name>
            <description>2016-09-06T18:09:06.000Z</description>
            <styleUrl>#stylesel_434</styleUrl>
            <Point id="geom_434">
                <coordinates>-114.7477951,41.78006363,0.0</coordinates>
            </Point>
        </Placemark>
        <Placemark id="feat_440">
            <name>NHP-13-120</name>
            <description>2016-09-18T17:05:01.000Z</description>
            <styleUrl>#stylesel_435</styleUrl>
            <Point id="geom_435">
                <coordinates>-114.85430908,41.10935593,0.0</coordinates>
            </Point>
        </Placemark>
        <Placemark id="feat_441">
            <name>NHP-13-120</name>
            <description>2016-10-17T18:27:53.000Z</description>
            <styleUrl>#stylesel_436</styleUrl>
            <Point id="geom_436">
                <coordinates>-114.85032654,41.10990143,0.0</coordinates>
            </Point>
        </Placemark>
        <Placemark id="feat_442">
            <name>NHP-13-120</name>
            <description>2016-10-17T18:27:49.000Z</description>
            <styleUrl>#stylesel_437</styleUrl>
            <Point id="geom_437">
                <coordinates>-114.85205841,41.1096611,0.0</coordinates>
            </Point>
        </Placemark>
        <Placemark id="feat_443">
            <name>NHP-13-120</name>
            <description>2016-09-20T18:10:35.000Z</description>
            <styleUrl>#stylesel_438</styleUrl>
            <Point id="geom_438">
                <coordinates>-114.70128632,41.08694458,0.0</coordinates>
            </Point>
        </Placemark>
        <Placemark id="feat_444">
            <name>NHP-13-120</name>
            <description>2016-09-18T17:04:58.000Z</description>
            <styleUrl>#stylesel_439</styleUrl>
            <Point id="geom_439">
                <coordinates>-114.85553741,41.10918045,0.0</coordinates>
            </Point>
        </Placemark>
        <Placemark id="feat_445">
            <name>NHP-13-120</name>
            <description>2017-03-19T23:08:04.000Z</description>
            <styleUrl>#stylesel_440</styleUrl>
            <Point id="geom_440">
                <coordinates>-114.94947052,41.10774612,0.0</coordinates>
            </Point>
        </Placemark>
        <Placemark id="feat_446">
            <name>NHP-13-120</name>
            <description>2017-06-05T23:31:31.000Z</description>
            <styleUrl>#stylesel_441</styleUrl>
            <Point id="geom_441">
                <coordinates>-115.5171814,40.95019531,0.0</coordinates>
            </Point>
        </Placemark>
        <Placemark id="feat_447">
            <name>NHP-13-120</name>
            <description>2016-09-06T18:09:01.000Z</description>
            <styleUrl>#stylesel_442</styleUrl>
            <Point id="geom_442">
                <coordinates>-114.74726105,41.78108215,0.0</coordinates>
            </Point>
        </Placemark>
        <Placemark id="feat_448">
            <name>NHP-13-120</name>
            <description>2016-09-06T18:09:11.000Z</description>
            <styleUrl>#stylesel_443</styleUrl>
            <Point id="geom_443">
                <coordinates>-114.74843597,41.77905655,0.0</coordinates>
            </Point>
        </Placemark>
        <Placemark id="feat_449">
            <name>NHP-13-120</name>
            <description>2017-03-19T23:07:57.000Z</description>
            <styleUrl>#stylesel_444</styleUrl>
            <Point id="geom_444">
                <coordinates>-114.94831085,41.10857391,0.0</coordinates>
            </Point>
        </Placemark>
        <Placemark id="feat_450">
            <name>NHP-13-120</name>
            <description>2016-09-18T19:05:12.000Z</description>
            <styleUrl>#stylesel_445</styleUrl>
            <Point id="geom_445">
                <coordinates>-114.8498764,41.10998154,0.0</coordinates>
            </Point>
        </Placemark>
        <Placemark id="feat_451">
            <name>NHP-13-120</name>
            <description>1970-01-01T02:00:00.000Z</description>
            <styleUrl>#stylesel_446</styleUrl>
            <Point id="geom_446">
                <coordinates>-114.85836029,41.1088562,0.0</coordinates>
            </Point>
        </Placemark>
        <Placemark id="feat_452">
            <name>NHP-13-120</name>
            <description>2016-09-20T18:10:28.000Z</description>
            <styleUrl>#stylesel_447</styleUrl>
            <Point id="geom_447">
                <coordinates>-114.70362854,41.08774185,0.0</coordinates>
            </Point>
        </Placemark>
        <Placemark id="feat_453">
            <name>NHP-13-120</name>
            <description>2017-03-19T23:08:12.000Z</description>
            <styleUrl>#stylesel_448</styleUrl>
            <Point id="geom_448">
                <coordinates>-114.95056915,41.10681915,0.0</coordinates>
            </Point>
        </Placemark>
        <Placemark id="feat_454">
            <name>NHP-13-120</name>
            <description>2016-09-20T18:10:25.000Z</description>
            <styleUrl>#stylesel_449</styleUrl>
            <Point id="geom_449">
                <coordinates>-114.70465088,41.08807373,0.0</coordinates>
            </Point>
        </Placemark>
        <Placemark id="feat_455">
            <name>NHP-13-120</name>
            <description>2017-03-19T23:07:51.000Z</description>
            <styleUrl>#stylesel_450</styleUrl>
            <Point id="geom_450">
                <coordinates>-114.94728088,41.10932541,0.0</coordinates>
            </Point>
        </Placemark>
        <Placemark id="feat_456">
            <name>NHP-13-120</name>
            <description>2016-09-18T17:04:55.000Z</description>
            <styleUrl>#stylesel_451</styleUrl>
            <Point id="geom_451">
                <coordinates>-114.85676575,41.10900879,0.0</coordinates>
            </Point>
        </Placemark>
        <Placemark id="feat_457">
            <name>NHP-13-120</name>
            <description>2016-09-18T17:05:04.000Z</description>
            <styleUrl>#stylesel_452</styleUrl>
            <Point id="geom_452">
                <coordinates>-114.85306549,41.10952759,0.0</coordinates>
            </Point>
        </Placemark>
        <Placemark id="feat_458">
            <name>NHP-13-120</name>
            <description>2017-06-05T23:31:50.000Z</description>
            <styleUrl>#stylesel_453</styleUrl>
            <Point id="geom_453">
                <coordinates>-115.51083374,40.95123672,0.0</coordinates>
            </Point>
        </Placemark>
        <Placemark id="feat_459">
            <name>NHP-13-120</name>
            <description>2017-06-05T23:31:37.000Z</description>
            <styleUrl>#stylesel_454</styleUrl>
            <Point id="geom_454">
                <coordinates>-115.51525116,40.95053864,0.0</coordinates>
            </Point>
        </Placemark>
        <Placemark id="feat_460">
            <name>NHP-13-120</name>
            <description>2017-06-05T23:31:41.000Z</description>
            <styleUrl>#stylesel_455</styleUrl>
            <Point id="geom_455">
                <coordinates>-115.5138855,40.95072556,0.0</coordinates>
            </Point>
        </Placemark>
        <Placemark id="feat_461">
            <name>NHP-13-120</name>
            <description>2017-06-05T23:31:44.000Z</description>
            <styleUrl>#stylesel_456</styleUrl>
            <Point id="geom_456">
                <coordinates>-115.51287079,40.95090485,0.0</coordinates>
            </Point>
        </Placemark>
        <Placemark id="feat_462">
            <name>NHP-13-120</name>
            <description>2017-06-05T23:31:54.000Z</description>
            <styleUrl>#stylesel_457</styleUrl>
            <Point id="geom_457">
                <coordinates>-115.50949097,40.95144653,0.0</coordinates>
            </Point>
        </Placemark>
        <Placemark id="feat_463">
            <name>NHP-13-120</name>
            <description>2016-10-17T18:27:45.000Z</description>
            <styleUrl>#stylesel_458</styleUrl>
            <Point id="geom_458">
                <coordinates>-114.85378265,41.10941315,0.0</coordinates>
            </Point>
        </Placemark>
        <Placemark id="feat_464">
            <name>NHP-13-120</name>
            <description>2016-09-20T18:10:22.000Z</description>
            <styleUrl>#stylesel_459</styleUrl>
            <Point id="geom_459">
                <coordinates>-114.70566559,41.08841324,0.0</coordinates>
            </Point>
        </Placemark>
        <Placemark id="feat_465">
            <name>NHP-13-120</name>
            <description>2016-09-20T18:10:18.000Z</description>
            <styleUrl>#stylesel_460</styleUrl>
            <Point id="geom_460">
                <coordinates>-114.7069931,41.08884811,0.0</coordinates>
            </Point>
        </Placemark>
        <Placemark id="feat_466">
            <name>NHP-13-120</name>
            <description>2016-09-20T18:10:32.000Z</description>
            <styleUrl>#stylesel_461</styleUrl>
            <Point id="geom_461">
                <coordinates>-114.7022934,41.08728027,0.0</coordinates>
            </Point>
        </Placemark>
        <Placemark id="feat_467">
            <name>NHP-13-120</name>
            <description>2016-09-20T18:10:47.000Z</description>
            <styleUrl>#stylesel_462</styleUrl>
            <Point id="geom_462">
                <coordinates>-114.69732666,41.08561325,0.0</coordinates>
            </Point>
        </Placemark>
        <Placemark id="feat_468">
            <name>NHP-13-120</name>
            <description>2016-09-20T18:10:50.000Z</description>
            <styleUrl>#stylesel_463</styleUrl>
            <Point id="geom_463">
                <coordinates>-114.69631195,41.08527374,0.0</coordinates>
            </Point>
        </Placemark>
        <Placemark id="feat_469">
            <name>NHP-13-120</name>
            <description>2016-09-20T18:10:43.000Z</description>
            <styleUrl>#stylesel_464</styleUrl>
            <Point id="geom_464">
                <coordinates>-114.6986618,41.08607864,0.0</coordinates>
            </Point>
        </Placemark>
        <Placemark id="feat_470">
            <name>NHP-13-120</name>
            <description>2016-09-18T17:05:22.000Z</description>
            <styleUrl>#stylesel_465</styleUrl>
            <Point id="geom_465">
                <coordinates>-114.84564209,41.11056137,0.0</coordinates>
            </Point>
        </Placemark>
        <Placemark id="feat_471">
            <name>NHP-13-120</name>
            <description>2016-09-18T17:05:10.000Z</description>
            <styleUrl>#stylesel_466</styleUrl>
            <Point id="geom_466">
                <coordinates>-114.85059357,41.10987854,0.0</coordinates>
            </Point>
        </Placemark>
        <Placemark id="feat_472">
            <name>NHP-13-120</name>
            <description>2016-09-18T17:05:25.000Z</description>
            <styleUrl>#stylesel_467</styleUrl>
            <Point id="geom_467">
                <coordinates>-114.8443985,41.11073685,0.0</coordinates>
            </Point>
        </Placemark>
        <Placemark id="feat_473">
            <name>NHP-13-120</name>
            <description>2016-09-18T17:05:19.000Z</description>
            <styleUrl>#stylesel_468</styleUrl>
            <Point id="geom_468">
                <coordinates>-114.84689331,41.11039352,0.0</coordinates>
            </Point>
        </Placemark>
        <Placemark id="feat_474">
            <name>NHP-13-120</name>
            <description>2016-09-18T17:05:16.000Z</description>
            <styleUrl>#stylesel_469</styleUrl>
            <Point id="geom_469">
                <coordinates>-114.84812164,41.11022186,0.0</coordinates>
            </Point>
        </Placemark>
        <Placemark id="feat_475">
            <name>NHP-13-120</name>
            <description>2016-09-18T17:05:13.000Z</description>
            <styleUrl>#stylesel_470</styleUrl>
            <Point id="geom_470">
                <coordinates>-114.8493576,41.11004639,0.0</coordinates>
            </Point>
        </Placemark>
        <Placemark id="feat_476">
            <name>NHP-13-120</name>
            <description>2016-09-18T17:05:07.000Z</description>
            <styleUrl>#stylesel_471</styleUrl>
            <Point id="geom_471">
                <coordinates>-114.8518219,41.10970688,0.0</coordinates>
            </Point>
        </Placemark>
        <Placemark id="feat_477">
            <name>NHP-13-120</name>
            <description>2016-09-18T19:04:51.000Z</description>
            <styleUrl>#stylesel_472</styleUrl>
            <Point id="geom_472">
                <coordinates>-114.85836029,41.1088562,0.0</coordinates>
            </Point>
        </Placemark>
        <Placemark id="feat_478">
            <name>NHP-13-120</name>
            <description>2017-03-29T19:50:12.000Z</description>
            <styleUrl>#stylesel_473</styleUrl>
            <Point id="geom_473">
                <coordinates>-114.07749176,40.73970032,0.0</coordinates>
            </Point>
        </Placemark>
        <Placemark id="feat_479">
            <name>NHP-13-120</name>
            <description>2016-09-20T18:10:39.000Z</description>
            <styleUrl>#stylesel_474</styleUrl>
            <Point id="geom_474">
                <coordinates>-114.69998169,41.0865097,0.0</coordinates>
            </Point>
        </Placemark>
    </Document>
</kml>
