<?xml version="1.0" encoding="UTF-8"?>
<kml xmlns="http://www.opengis.net/kml/2.2" xmlns:gx="http://www.google.com/kml/ext/2.2">
    <Document id="feat_1349">
        <Style id="stylesel_1245">
            <IconStyle id="substyle_1245">
                <colorMode>normal</colorMode>
                <scale>1</scale>
                <heading>0</heading>
                <Icon id="link_1245">
                    <href>wifi4.png</href>
                </Icon>
            </IconStyle>
        </Style>
        <Style id="stylesel_1246">
            <IconStyle id="substyle_1246">
                <colorMode>normal</colorMode>
                <scale>1</scale>
                <heading>0</heading>
                <Icon id="link_1246">
                    <href>wifi4.png</href>
                </Icon>
            </IconStyle>
        </Style>
        <Style id="stylesel_1247">
            <IconStyle id="substyle_1247">
                <colorMode>normal</colorMode>
                <scale>1</scale>
                <heading>0</heading>
                <Icon id="link_1247">
                    <href>wifi4.png</href>
                </Icon>
            </IconStyle>
        </Style>
        <Style id="stylesel_1248">
            <IconStyle id="substyle_1248">
                <colorMode>normal</colorMode>
                <scale>1</scale>
                <heading>0</heading>
                <Icon id="link_1248">
                    <href>wifi4.png</href>
                </Icon>
            </IconStyle>
        </Style>
        <Style id="stylesel_1249">
            <IconStyle id="substyle_1249">
                <colorMode>normal</colorMode>
                <scale>1</scale>
                <heading>0</heading>
                <Icon id="link_1249">
                    <href>wifi4.png</href>
                </Icon>
            </IconStyle>
        </Style>
        <Style id="stylesel_1250">
            <IconStyle id="substyle_1250">
                <colorMode>normal</colorMode>
                <scale>1</scale>
                <heading>0</heading>
                <Icon id="link_1250">
                    <href>wifi4.png</href>
                </Icon>
            </IconStyle>
        </Style>
        <Style id="stylesel_1251">
            <IconStyle id="substyle_1251">
                <colorMode>normal</colorMode>
                <scale>1</scale>
                <heading>0</heading>
                <Icon id="link_1251">
                    <href>wifi4.png</href>
                </Icon>
            </IconStyle>
        </Style>
        <Style id="stylesel_1252">
            <IconStyle id="substyle_1252">
                <colorMode>normal</colorMode>
                <scale>1</scale>
                <heading>0</heading>
                <Icon id="link_1252">
                    <href>wifi4.png</href>
                </Icon>
            </IconStyle>
        </Style>
        <Style id="stylesel_1253">
            <IconStyle id="substyle_1253">
                <colorMode>normal</colorMode>
                <scale>1</scale>
                <heading>0</heading>
                <Icon id="link_1253">
                    <href>wifi4.png</href>
                </Icon>
            </IconStyle>
        </Style>
        <Style id="stylesel_1254">
            <IconStyle id="substyle_1254">
                <colorMode>normal</colorMode>
                <scale>1</scale>
                <heading>0</heading>
                <Icon id="link_1254">
                    <href>wifi4.png</href>
                </Icon>
            </IconStyle>
        </Style>
        <Style id="stylesel_1255">
            <IconStyle id="substyle_1255">
                <colorMode>normal</colorMode>
                <scale>1</scale>
                <heading>0</heading>
                <Icon id="link_1255">
                    <href>wifi4.png</href>
                </Icon>
            </IconStyle>
        </Style>
        <Style id="stylesel_1256">
            <IconStyle id="substyle_1256">
                <colorMode>normal</colorMode>
                <scale>1</scale>
                <heading>0</heading>
                <Icon id="link_1256">
                    <href>wifi4.png</href>
                </Icon>
            </IconStyle>
        </Style>
        <Placemark id="feat_1350">
            <name>NHP-16-266</name>
            <description>2017-07-05T20:28:22.000Z</description>
            <styleUrl>#stylesel_1245</styleUrl>
            <Point id="geom_1245">
                <coordinates>-119.83197021,39.59472656,0.0</coordinates>
            </Point>
        </Placemark>
        <Placemark id="feat_1351">
            <name>NHP-16-266</name>
            <description>2017-07-05T20:28:17.000Z</description>
            <styleUrl>#stylesel_1246</styleUrl>
            <Point id="geom_1246">
                <coordinates>-119.83297729,39.59562683,0.0</coordinates>
            </Point>
        </Placemark>
        <Placemark id="feat_1352">
            <name>NHP-16-266</name>
            <description>2017-09-06T19:28:47.000Z</description>
            <styleUrl>#stylesel_1247</styleUrl>
            <Point id="geom_1247">
                <coordinates>-119.80804443,39.57383347,0.0</coordinates>
            </Point>
        </Placemark>
        <Placemark id="feat_1353">
            <name>NHP-16-266</name>
            <description>2017-07-05T20:28:14.000Z</description>
            <styleUrl>#stylesel_1248</styleUrl>
            <Point id="geom_1248">
                <coordinates>-119.83361053,39.59621048,0.0</coordinates>
            </Point>
        </Placemark>
        <Placemark id="feat_1354">
            <name>NHP-16-266</name>
            <description>2017-05-08T20:25:31.000Z</description>
            <styleUrl>#stylesel_1249</styleUrl>
            <Point id="geom_1249">
                <coordinates>-119.42134094,39.5899353,0.0</coordinates>
            </Point>
        </Placemark>
        <Placemark id="feat_1355">
            <name>NHP-16-266</name>
            <description>2017-05-08T20:25:35.000Z</description>
            <styleUrl>#stylesel_1250</styleUrl>
            <Point id="geom_1250">
                <coordinates>-119.41973114,39.59027481,0.0</coordinates>
            </Point>
        </Placemark>
        <Placemark id="feat_1356">
            <name>NHP-16-266</name>
            <description>2017-05-08T20:25:28.000Z</description>
            <styleUrl>#stylesel_1251</styleUrl>
            <Point id="geom_1251">
                <coordinates>-119.42254639,39.58969498,0.0</coordinates>
            </Point>
        </Placemark>
        <Placemark id="feat_1357">
            <name>NHP-16-266</name>
            <description>2017-05-08T20:25:42.000Z</description>
            <styleUrl>#stylesel_1252</styleUrl>
            <Point id="geom_1252">
                <coordinates>-119.41706848,39.59083557,0.0</coordinates>
            </Point>
        </Placemark>
        <Placemark id="feat_1358">
            <name>NHP-16-266</name>
            <description>2017-05-08T20:25:45.000Z</description>
            <styleUrl>#stylesel_1253</styleUrl>
            <Point id="geom_1253">
                <coordinates>-119.41593933,39.59106064,0.0</coordinates>
            </Point>
        </Placemark>
        <Placemark id="feat_1359">
            <name>NHP-16-266</name>
            <description>2017-05-08T20:25:25.000Z</description>
            <styleUrl>#stylesel_1254</styleUrl>
            <Point id="geom_1254">
                <coordinates>-119.42372131,39.5894928,0.0</coordinates>
            </Point>
        </Placemark>
        <Placemark id="feat_1360">
            <name>NHP-16-266</name>
            <description>2017-05-08T20:25:21.000Z</description>
            <styleUrl>#stylesel_1255</styleUrl>
            <Point id="geom_1255">
                <coordinates>-119.42524719,39.5893364,0.0</coordinates>
            </Point>
        </Placemark>
        <Placemark id="feat_1361">
            <name>NHP-16-266</name>
            <description>2017-05-08T20:25:38.000Z</description>
            <styleUrl>#stylesel_1256</styleUrl>
            <Point id="geom_1256">
                <coordinates>-119.41856384,39.59051895,0.0</coordinates>
            </Point>
        </Placemark>
    </Document>
</kml>
