<?xml version="1.0" encoding="UTF-8"?>
<kml xmlns="http://www.opengis.net/kml/2.2" xmlns:gx="http://www.google.com/kml/ext/2.2">
    <Document id="feat_1556">
        <Style id="stylesel_1431">
            <IconStyle id="substyle_1431">
                <colorMode>normal</colorMode>
                <scale>1</scale>
                <heading>0</heading>
                <Icon id="link_1431">
                    <href>wifi4.png</href>
                </Icon>
            </IconStyle>
        </Style>
        <Style id="stylesel_1432">
            <IconStyle id="substyle_1432">
                <colorMode>normal</colorMode>
                <scale>1</scale>
                <heading>0</heading>
                <Icon id="link_1432">
                    <href>wifi4.png</href>
                </Icon>
            </IconStyle>
        </Style>
        <Style id="stylesel_1433">
            <IconStyle id="substyle_1433">
                <colorMode>normal</colorMode>
                <scale>1</scale>
                <heading>0</heading>
                <Icon id="link_1433">
                    <href>wifi4.png</href>
                </Icon>
            </IconStyle>
        </Style>
        <Style id="stylesel_1434">
            <IconStyle id="substyle_1434">
                <colorMode>normal</colorMode>
                <scale>1</scale>
                <heading>0</heading>
                <Icon id="link_1434">
                    <href>wifi4.png</href>
                </Icon>
            </IconStyle>
        </Style>
        <Style id="stylesel_1435">
            <IconStyle id="substyle_1435">
                <colorMode>normal</colorMode>
                <scale>1</scale>
                <heading>0</heading>
                <Icon id="link_1435">
                    <href>wifi4.png</href>
                </Icon>
            </IconStyle>
        </Style>
        <Style id="stylesel_1436">
            <IconStyle id="substyle_1436">
                <colorMode>normal</colorMode>
                <scale>1</scale>
                <heading>0</heading>
                <Icon id="link_1436">
                    <href>wifi4.png</href>
                </Icon>
            </IconStyle>
        </Style>
        <Style id="stylesel_1437">
            <IconStyle id="substyle_1437">
                <colorMode>normal</colorMode>
                <scale>1</scale>
                <heading>0</heading>
                <Icon id="link_1437">
                    <href>wifi4.png</href>
                </Icon>
            </IconStyle>
        </Style>
        <Style id="stylesel_1438">
            <IconStyle id="substyle_1438">
                <colorMode>normal</colorMode>
                <scale>1</scale>
                <heading>0</heading>
                <Icon id="link_1438">
                    <href>wifi4.png</href>
                </Icon>
            </IconStyle>
        </Style>
        <Placemark id="feat_1557">
            <name>NHP-16-406A</name>
            <description>2017-05-06T22:42:23.000Z</description>
            <styleUrl>#stylesel_1431</styleUrl>
            <Point id="geom_1431">
                <coordinates>-118.65872192,40.05121994,0.0</coordinates>
            </Point>
        </Placemark>
        <Placemark id="feat_1558">
            <name>NHP-16-406A</name>
            <description>2017-05-06T22:42:19.000Z</description>
            <styleUrl>#stylesel_1432</styleUrl>
            <Point id="geom_1432">
                <coordinates>-118.6581192,40.05225754,0.0</coordinates>
            </Point>
        </Placemark>
        <Placemark id="feat_1559">
            <name>NHP-16-406A</name>
            <description>2017-05-06T22:42:13.000Z</description>
            <styleUrl>#stylesel_1433</styleUrl>
            <Point id="geom_1433">
                <coordinates>-118.65721893,40.05377579,0.0</coordinates>
            </Point>
        </Placemark>
        <Placemark id="feat_1560">
            <name>NHP-16-406A</name>
            <description>2017-05-06T22:42:09.000Z</description>
            <styleUrl>#stylesel_1434</styleUrl>
            <Point id="geom_1434">
                <coordinates>-118.65657043,40.05477524,0.0</coordinates>
            </Point>
        </Placemark>
        <Placemark id="feat_1561">
            <name>NHP-16-406A</name>
            <description>2017-05-06T22:42:04.000Z</description>
            <styleUrl>#stylesel_1435</styleUrl>
            <Point id="geom_1435">
                <coordinates>-118.65574646,40.05598068,0.0</coordinates>
            </Point>
        </Placemark>
        <Placemark id="feat_1562">
            <name>NHP-16-406A</name>
            <description>2016-10-06T13:42:11.000Z</description>
            <styleUrl>#stylesel_1436</styleUrl>
            <Point id="geom_1436">
                <coordinates>-118.69608307,39.97293854,0.0</coordinates>
            </Point>
        </Placemark>
        <Placemark id="feat_1563">
            <name>NHP-16-406A</name>
            <description>2017-05-06T22:42:04.000Z</description>
            <styleUrl>#stylesel_1437</styleUrl>
            <Point id="geom_1437">
                <coordinates>-118.65574646,40.05598068,0.0</coordinates>
            </Point>
        </Placemark>
        <Placemark id="feat_1564">
            <name>NHP-16-406A</name>
            <description>2017-05-06T22:41:59.000Z</description>
            <styleUrl>#stylesel_1438</styleUrl>
            <Point id="geom_1438">
                <coordinates>-118.65486908,40.05715942,0.0</coordinates>
            </Point>
        </Placemark>
    </Document>
</kml>
