<?xml version="1.0" encoding="UTF-8"?>
<kml xmlns="http://www.opengis.net/kml/2.2" xmlns:gx="http://www.google.com/kml/ext/2.2">
    <Document id="feat_1653">
        <Style id="stylesel_1517">
            <IconStyle id="substyle_1517">
                <colorMode>normal</colorMode>
                <scale>1</scale>
                <heading>0</heading>
                <Icon id="link_1517">
                    <href>wifi4.png</href>
                </Icon>
            </IconStyle>
        </Style>
        <Style id="stylesel_1518">
            <IconStyle id="substyle_1518">
                <colorMode>normal</colorMode>
                <scale>1</scale>
                <heading>0</heading>
                <Icon id="link_1518">
                    <href>wifi4.png</href>
                </Icon>
            </IconStyle>
        </Style>
        <Style id="stylesel_1519">
            <IconStyle id="substyle_1519">
                <colorMode>normal</colorMode>
                <scale>1</scale>
                <heading>0</heading>
                <Icon id="link_1519">
                    <href>wifi4.png</href>
                </Icon>
            </IconStyle>
        </Style>
        <Style id="stylesel_1520">
            <IconStyle id="substyle_1520">
                <colorMode>normal</colorMode>
                <scale>1</scale>
                <heading>0</heading>
                <Icon id="link_1520">
                    <href>wifi4.png</href>
                </Icon>
            </IconStyle>
        </Style>
        <Style id="stylesel_1521">
            <IconStyle id="substyle_1521">
                <colorMode>normal</colorMode>
                <scale>1</scale>
                <heading>0</heading>
                <Icon id="link_1521">
                    <href>wifi4.png</href>
                </Icon>
            </IconStyle>
        </Style>
        <Style id="stylesel_1522">
            <IconStyle id="substyle_1522">
                <colorMode>normal</colorMode>
                <scale>1</scale>
                <heading>0</heading>
                <Icon id="link_1522">
                    <href>wifi4.png</href>
                </Icon>
            </IconStyle>
        </Style>
        <Style id="stylesel_1523">
            <IconStyle id="substyle_1523">
                <colorMode>normal</colorMode>
                <scale>1</scale>
                <heading>0</heading>
                <Icon id="link_1523">
                    <href>wifi4.png</href>
                </Icon>
            </IconStyle>
        </Style>
        <Placemark id="feat_1654">
            <name>NHP-16-466A</name>
            <description>2016-09-06T20:59:48.000Z</description>
            <styleUrl>#stylesel_1517</styleUrl>
            <Point id="geom_1517">
                <coordinates>-116.83213806,40.61146545,0.0</coordinates>
            </Point>
        </Placemark>
        <Placemark id="feat_1655">
            <name>NHP-16-466A</name>
            <description>2016-09-06T20:59:51.000Z</description>
            <styleUrl>#stylesel_1518</styleUrl>
            <Point id="geom_1518">
                <coordinates>-116.83335114,40.61153412,0.0</coordinates>
            </Point>
        </Placemark>
        <Placemark id="feat_1656">
            <name>NHP-16-466A</name>
            <description>2016-09-06T20:59:42.000Z</description>
            <styleUrl>#stylesel_1519</styleUrl>
            <Point id="geom_1519">
                <coordinates>-116.82972717,40.61138153,0.0</coordinates>
            </Point>
        </Placemark>
        <Placemark id="feat_1657">
            <name>NHP-16-466A</name>
            <description>2016-09-06T20:59:45.000Z</description>
            <styleUrl>#stylesel_1520</styleUrl>
            <Point id="geom_1520">
                <coordinates>-116.83102417,40.61146545,0.0</coordinates>
            </Point>
        </Placemark>
        <Placemark id="feat_1658">
            <name>NHP-16-466A</name>
            <description>2017-07-25T05:59:22.000Z</description>
            <styleUrl>#stylesel_1521</styleUrl>
            <Point id="geom_1521">
                <coordinates>-116.94032288,40.63740158,0.0</coordinates>
            </Point>
        </Placemark>
        <Placemark id="feat_1659">
            <name>NHP-16-466A</name>
            <description>2016-04-17T19:09:29.000Z</description>
            <styleUrl>#stylesel_1522</styleUrl>
            <Point id="geom_1522">
                <coordinates>-117.7362442,40.97647095,0.0</coordinates>
            </Point>
        </Placemark>
        <Placemark id="feat_1660">
            <name>NHP-16-466A</name>
            <description>2016-04-17T19:09:33.000Z</description>
            <styleUrl>#stylesel_1523</styleUrl>
            <Point id="geom_1523">
                <coordinates>-117.73501587,40.9772644,0.0</coordinates>
            </Point>
        </Placemark>
    </Document>
</kml>
