<?xml version="1.0" encoding="UTF-8"?>
<kml xmlns="http://www.opengis.net/kml/2.2" xmlns:gx="http://www.google.com/kml/ext/2.2">
    <Document id="feat_2810">
        <Style id="stylesel_2561">
            <IconStyle id="substyle_2561">
                <colorMode>normal</colorMode>
                <scale>1</scale>
                <heading>0</heading>
                <Icon id="link_2561">
                    <href>wifi4.png</href>
                </Icon>
            </IconStyle>
        </Style>
        <Style id="stylesel_2562">
            <IconStyle id="substyle_2562">
                <colorMode>normal</colorMode>
                <scale>1</scale>
                <heading>0</heading>
                <Icon id="link_2562">
                    <href>wifi4.png</href>
                </Icon>
            </IconStyle>
        </Style>
        <Placemark id="feat_2811">
            <name>NHP-16-149a</name>
            <description>2017-08-29T18:03:13.000Z</description>
            <styleUrl>#stylesel_2561</styleUrl>
            <Point id="geom_2561">
                <coordinates>-115.25106812,36.19615555,0.0</coordinates>
            </Point>
        </Placemark>
        <Placemark id="feat_2812">
            <name>NHP-16-149a</name>
            <description>2017-08-29T18:03:20.000Z</description>
            <styleUrl>#stylesel_2562</styleUrl>
            <Point id="geom_2562">
                <coordinates>-115.25236511,36.19615173,0.0</coordinates>
            </Point>
        </Placemark>
    </Document>
</kml>
