<?xml version="1.0" encoding="UTF-8"?>
<kml xmlns="http://www.opengis.net/kml/2.2" xmlns:gx="http://www.google.com/kml/ext/2.2">
    <Document id="feat_957">
        <Style id="stylesel_900">
            <IconStyle id="substyle_900">
                <colorMode>normal</colorMode>
                <scale>1</scale>
                <heading>0</heading>
                <Icon id="link_900">
                    <href>wifi4.png</href>
                </Icon>
            </IconStyle>
        </Style>
        <Style id="stylesel_901">
            <IconStyle id="substyle_901">
                <colorMode>normal</colorMode>
                <scale>1</scale>
                <heading>0</heading>
                <Icon id="link_901">
                    <href>wifi4.png</href>
                </Icon>
            </IconStyle>
        </Style>
        <Style id="stylesel_902">
            <IconStyle id="substyle_902">
                <colorMode>normal</colorMode>
                <scale>1</scale>
                <heading>0</heading>
                <Icon id="link_902">
                    <href>wifi4.png</href>
                </Icon>
            </IconStyle>
        </Style>
        <Style id="stylesel_903">
            <IconStyle id="substyle_903">
                <colorMode>normal</colorMode>
                <scale>1</scale>
                <heading>0</heading>
                <Icon id="link_903">
                    <href>wifi4.png</href>
                </Icon>
            </IconStyle>
        </Style>
        <Style id="stylesel_904">
            <IconStyle id="substyle_904">
                <colorMode>normal</colorMode>
                <scale>1</scale>
                <heading>0</heading>
                <Icon id="link_904">
                    <href>wifi4.png</href>
                </Icon>
            </IconStyle>
        </Style>
        <Style id="stylesel_905">
            <IconStyle id="substyle_905">
                <colorMode>normal</colorMode>
                <scale>1</scale>
                <heading>0</heading>
                <Icon id="link_905">
                    <href>wifi4.png</href>
                </Icon>
            </IconStyle>
        </Style>
        <Style id="stylesel_906">
            <IconStyle id="substyle_906">
                <colorMode>normal</colorMode>
                <scale>1</scale>
                <heading>0</heading>
                <Icon id="link_906">
                    <href>wifi4.png</href>
                </Icon>
            </IconStyle>
        </Style>
        <Placemark id="feat_958">
            <name>NHP-14-370</name>
            <description>2017-05-29T17:55:34.000Z</description>
            <styleUrl>#stylesel_900</styleUrl>
            <Point id="geom_900">
                <coordinates>-115.18936157,36.17644501,0.0</coordinates>
            </Point>
        </Placemark>
        <Placemark id="feat_959">
            <name>NHP-14-370</name>
            <description>2017-05-29T17:55:39.000Z</description>
            <styleUrl>#stylesel_901</styleUrl>
            <Point id="geom_901">
                <coordinates>-115.19110107,36.17647171,0.0</coordinates>
            </Point>
        </Placemark>
        <Placemark id="feat_960">
            <name>NHP-14-370</name>
            <description>2017-05-29T17:55:45.000Z</description>
            <styleUrl>#stylesel_902</styleUrl>
            <Point id="geom_902">
                <coordinates>-115.19320679,36.17625046,0.0</coordinates>
            </Point>
        </Placemark>
        <Placemark id="feat_961">
            <name>NHP-14-370</name>
            <description>2017-05-29T17:55:29.000Z</description>
            <styleUrl>#stylesel_903</styleUrl>
            <Point id="geom_903">
                <coordinates>-115.18765259,36.17623138,0.0</coordinates>
            </Point>
        </Placemark>
        <Placemark id="feat_962">
            <name>NHP-14-370</name>
            <description>2017-05-29T17:56:00.000Z</description>
            <styleUrl>#stylesel_904</styleUrl>
            <Point id="geom_904">
                <coordinates>-115.19827271,36.17466354,0.0</coordinates>
            </Point>
        </Placemark>
        <Placemark id="feat_963">
            <name>NHP-14-370</name>
            <description>2017-05-29T17:55:55.000Z</description>
            <styleUrl>#stylesel_905</styleUrl>
            <Point id="geom_905">
                <coordinates>-115.19662476,36.17526627,0.0</coordinates>
            </Point>
        </Placemark>
        <Placemark id="feat_964">
            <name>NHP-14-370</name>
            <description>2017-05-29T17:55:50.000Z</description>
            <styleUrl>#stylesel_906</styleUrl>
            <Point id="geom_906">
                <coordinates>-115.19496155,36.17582321,0.0</coordinates>
            </Point>
        </Placemark>
    </Document>
</kml>
