<?xml version="1.0" encoding="UTF-8"?>
<kml xmlns="http://www.opengis.net/kml/2.2" xmlns:gx="http://www.google.com/kml/ext/2.2">
    <Document id="feat_1606">
        <Style id="stylesel_1474">
            <IconStyle id="substyle_1474">
                <colorMode>normal</colorMode>
                <scale>1</scale>
                <heading>0</heading>
                <Icon id="link_1474">
                    <href>wifi4.png</href>
                </Icon>
            </IconStyle>
        </Style>
        <Style id="stylesel_1475">
            <IconStyle id="substyle_1475">
                <colorMode>normal</colorMode>
                <scale>1</scale>
                <heading>0</heading>
                <Icon id="link_1475">
                    <href>wifi4.png</href>
                </Icon>
            </IconStyle>
        </Style>
        <Style id="stylesel_1476">
            <IconStyle id="substyle_1476">
                <colorMode>normal</colorMode>
                <scale>1</scale>
                <heading>0</heading>
                <Icon id="link_1476">
                    <href>wifi4.png</href>
                </Icon>
            </IconStyle>
        </Style>
        <Style id="stylesel_1477">
            <IconStyle id="substyle_1477">
                <colorMode>normal</colorMode>
                <scale>1</scale>
                <heading>0</heading>
                <Icon id="link_1477">
                    <href>wifi4.png</href>
                </Icon>
            </IconStyle>
        </Style>
        <Style id="stylesel_1478">
            <IconStyle id="substyle_1478">
                <colorMode>normal</colorMode>
                <scale>1</scale>
                <heading>0</heading>
                <Icon id="link_1478">
                    <href>wifi4.png</href>
                </Icon>
            </IconStyle>
        </Style>
        <Style id="stylesel_1479">
            <IconStyle id="substyle_1479">
                <colorMode>normal</colorMode>
                <scale>1</scale>
                <heading>0</heading>
                <Icon id="link_1479">
                    <href>wifi4.png</href>
                </Icon>
            </IconStyle>
        </Style>
        <Style id="stylesel_1480">
            <IconStyle id="substyle_1480">
                <colorMode>normal</colorMode>
                <scale>1</scale>
                <heading>0</heading>
                <Icon id="link_1480">
                    <href>wifi4.png</href>
                </Icon>
            </IconStyle>
        </Style>
        <Style id="stylesel_1481">
            <IconStyle id="substyle_1481">
                <colorMode>normal</colorMode>
                <scale>1</scale>
                <heading>0</heading>
                <Icon id="link_1481">
                    <href>wifi4.png</href>
                </Icon>
            </IconStyle>
        </Style>
        <Style id="stylesel_1482">
            <IconStyle id="substyle_1482">
                <colorMode>normal</colorMode>
                <scale>1</scale>
                <heading>0</heading>
                <Icon id="link_1482">
                    <href>wifi4.png</href>
                </Icon>
            </IconStyle>
        </Style>
        <Style id="stylesel_1483">
            <IconStyle id="substyle_1483">
                <colorMode>normal</colorMode>
                <scale>1</scale>
                <heading>0</heading>
                <Icon id="link_1483">
                    <href>wifi4.png</href>
                </Icon>
            </IconStyle>
        </Style>
        <Style id="stylesel_1484">
            <IconStyle id="substyle_1484">
                <colorMode>normal</colorMode>
                <scale>1</scale>
                <heading>0</heading>
                <Icon id="link_1484">
                    <href>wifi4.png</href>
                </Icon>
            </IconStyle>
        </Style>
        <Style id="stylesel_1485">
            <IconStyle id="substyle_1485">
                <colorMode>normal</colorMode>
                <scale>1</scale>
                <heading>0</heading>
                <Icon id="link_1485">
                    <href>wifi4.png</href>
                </Icon>
            </IconStyle>
        </Style>
        <Style id="stylesel_1486">
            <IconStyle id="substyle_1486">
                <colorMode>normal</colorMode>
                <scale>1</scale>
                <heading>0</heading>
                <Icon id="link_1486">
                    <href>wifi4.png</href>
                </Icon>
            </IconStyle>
        </Style>
        <Style id="stylesel_1487">
            <IconStyle id="substyle_1487">
                <colorMode>normal</colorMode>
                <scale>1</scale>
                <heading>0</heading>
                <Icon id="link_1487">
                    <href>wifi4.png</href>
                </Icon>
            </IconStyle>
        </Style>
        <Style id="stylesel_1488">
            <IconStyle id="substyle_1488">
                <colorMode>normal</colorMode>
                <scale>1</scale>
                <heading>0</heading>
                <Icon id="link_1488">
                    <href>wifi4.png</href>
                </Icon>
            </IconStyle>
        </Style>
        <Style id="stylesel_1489">
            <IconStyle id="substyle_1489">
                <colorMode>normal</colorMode>
                <scale>1</scale>
                <heading>0</heading>
                <Icon id="link_1489">
                    <href>wifi4.png</href>
                </Icon>
            </IconStyle>
        </Style>
        <Style id="stylesel_1490">
            <IconStyle id="substyle_1490">
                <colorMode>normal</colorMode>
                <scale>1</scale>
                <heading>0</heading>
                <Icon id="link_1490">
                    <href>wifi4.png</href>
                </Icon>
            </IconStyle>
        </Style>
        <Style id="stylesel_1491">
            <IconStyle id="substyle_1491">
                <colorMode>normal</colorMode>
                <scale>1</scale>
                <heading>0</heading>
                <Icon id="link_1491">
                    <href>wifi4.png</href>
                </Icon>
            </IconStyle>
        </Style>
        <Style id="stylesel_1492">
            <IconStyle id="substyle_1492">
                <colorMode>normal</colorMode>
                <scale>1</scale>
                <heading>0</heading>
                <Icon id="link_1492">
                    <href>wifi4.png</href>
                </Icon>
            </IconStyle>
        </Style>
        <Style id="stylesel_1493">
            <IconStyle id="substyle_1493">
                <colorMode>normal</colorMode>
                <scale>1</scale>
                <heading>0</heading>
                <Icon id="link_1493">
                    <href>wifi4.png</href>
                </Icon>
            </IconStyle>
        </Style>
        <Style id="stylesel_1494">
            <IconStyle id="substyle_1494">
                <colorMode>normal</colorMode>
                <scale>1</scale>
                <heading>0</heading>
                <Icon id="link_1494">
                    <href>wifi4.png</href>
                </Icon>
            </IconStyle>
        </Style>
        <Style id="stylesel_1495">
            <IconStyle id="substyle_1495">
                <colorMode>normal</colorMode>
                <scale>1</scale>
                <heading>0</heading>
                <Icon id="link_1495">
                    <href>wifi4.png</href>
                </Icon>
            </IconStyle>
        </Style>
        <Style id="stylesel_1496">
            <IconStyle id="substyle_1496">
                <colorMode>normal</colorMode>
                <scale>1</scale>
                <heading>0</heading>
                <Icon id="link_1496">
                    <href>wifi4.png</href>
                </Icon>
            </IconStyle>
        </Style>
        <Placemark id="feat_1607">
            <name>NHP-14-381</name>
            <description>2017-07-01T01:34:05.000Z</description>
            <styleUrl>#stylesel_1474</styleUrl>
            <Point id="geom_1474">
                <coordinates>-115.06717682,36.08885956,0.0</coordinates>
            </Point>
        </Placemark>
        <Placemark id="feat_1608">
            <name>NHP-14-381</name>
            <description>2017-07-01T01:34:03.000Z</description>
            <styleUrl>#stylesel_1475</styleUrl>
            <Point id="geom_1475">
                <coordinates>-115.06658936,36.08866119,0.0</coordinates>
            </Point>
        </Placemark>
        <Placemark id="feat_1609">
            <name>NHP-14-381</name>
            <description>2017-05-24T23:55:20.000Z</description>
            <styleUrl>#stylesel_1476</styleUrl>
            <Point id="geom_1476">
                <coordinates>-115.20464325,36.06856537,0.0</coordinates>
            </Point>
        </Placemark>
        <Placemark id="feat_1610">
            <name>NHP-14-381</name>
            <description>2017-05-24T23:55:28.000Z</description>
            <styleUrl>#stylesel_1477</styleUrl>
            <Point id="geom_1477">
                <coordinates>-115.20611572,36.06885529,0.0</coordinates>
            </Point>
        </Placemark>
        <Placemark id="feat_1611">
            <name>NHP-14-381</name>
            <description>2016-12-19T23:59:48.000Z</description>
            <styleUrl>#stylesel_1478</styleUrl>
            <Point id="geom_1478">
                <coordinates>-115.22245026,36.09996414,0.0</coordinates>
            </Point>
        </Placemark>
        <Placemark id="feat_1612">
            <name>NHP-14-381</name>
            <description>2017-05-24T23:57:10.000Z</description>
            <styleUrl>#stylesel_1479</styleUrl>
            <Point id="geom_1479">
                <coordinates>-115.20751953,36.06895828,0.0</coordinates>
            </Point>
        </Placemark>
        <Placemark id="feat_1613">
            <name>NHP-14-381</name>
            <description>2016-12-19T23:59:56.000Z</description>
            <styleUrl>#stylesel_1480</styleUrl>
            <Point id="geom_1480">
                <coordinates>-115.22121429,36.10002518,0.0</coordinates>
            </Point>
        </Placemark>
        <Placemark id="feat_1614">
            <name>NHP-14-381</name>
            <description>2017-07-28T23:02:57.000Z</description>
            <styleUrl>#stylesel_1481</styleUrl>
            <Point id="geom_1481">
                <coordinates>-115.18054962,36.10046005,0.0</coordinates>
            </Point>
        </Placemark>
        <Placemark id="feat_1615">
            <name>NHP-14-381</name>
            <description>2017-07-28T23:03:17.000Z</description>
            <styleUrl>#stylesel_1482</styleUrl>
            <Point id="geom_1482">
                <coordinates>-115.18048859,36.10356903,0.0</coordinates>
            </Point>
        </Placemark>
        <Placemark id="feat_1616">
            <name>NHP-14-381</name>
            <description>2016-12-19T23:59:45.000Z</description>
            <styleUrl>#stylesel_1483</styleUrl>
            <Point id="geom_1483">
                <coordinates>-115.22290039,36.09993362,0.0</coordinates>
            </Point>
        </Placemark>
        <Placemark id="feat_1617">
            <name>NHP-14-381</name>
            <description>2017-07-28T23:02:37.000Z</description>
            <styleUrl>#stylesel_1484</styleUrl>
            <Point id="geom_1484">
                <coordinates>-115.18054962,36.09746552,0.0</coordinates>
            </Point>
        </Placemark>
        <Placemark id="feat_1618">
            <name>NHP-14-381</name>
            <description>2017-07-28T23:03:38.000Z</description>
            <styleUrl>#stylesel_1485</styleUrl>
            <Point id="geom_1485">
                <coordinates>-115.18045807,36.10805511,0.0</coordinates>
            </Point>
        </Placemark>
        <Placemark id="feat_1619">
            <name>NHP-14-381</name>
            <description>2017-07-28T23:01:37.000Z</description>
            <styleUrl>#stylesel_1486</styleUrl>
            <Point id="geom_1486">
                <coordinates>-115.18053436,36.09264374,0.0</coordinates>
            </Point>
        </Placemark>
        <Placemark id="feat_1620">
            <name>NHP-14-381</name>
            <description>2017-04-06T15:00:32.000Z</description>
            <styleUrl>#stylesel_1487</styleUrl>
            <Point id="geom_1487">
                <coordinates>-115.20375061,36.07193375,0.0</coordinates>
            </Point>
        </Placemark>
        <Placemark id="feat_1621">
            <name>NHP-14-381</name>
            <description>2017-07-28T23:00:37.000Z</description>
            <styleUrl>#stylesel_1488</styleUrl>
            <Point id="geom_1488">
                <coordinates>-115.18055725,36.08847427,0.0</coordinates>
            </Point>
        </Placemark>
        <Placemark id="feat_1622">
            <name>NHP-14-381</name>
            <description>2017-07-28T23:01:17.000Z</description>
            <styleUrl>#stylesel_1489</styleUrl>
            <Point id="geom_1489">
                <coordinates>-115.1805191,36.09150314,0.0</coordinates>
            </Point>
        </Placemark>
        <Placemark id="feat_1623">
            <name>NHP-14-381</name>
            <description>2017-07-28T23:00:57.000Z</description>
            <styleUrl>#stylesel_1490</styleUrl>
            <Point id="geom_1490">
                <coordinates>-115.18054962,36.09016037,0.0</coordinates>
            </Point>
        </Placemark>
        <Placemark id="feat_1624">
            <name>NHP-14-381</name>
            <description>2017-07-01T01:34:00.000Z</description>
            <styleUrl>#stylesel_1491</styleUrl>
            <Point id="geom_1491">
                <coordinates>-115.06565094,36.08842468,0.0</coordinates>
            </Point>
        </Placemark>
        <Placemark id="feat_1625">
            <name>NHP-14-381</name>
            <description>2017-05-24T23:57:18.000Z</description>
            <styleUrl>#stylesel_1492</styleUrl>
            <Point id="geom_1492">
                <coordinates>-115.20748138,36.06895065,0.0</coordinates>
            </Point>
        </Placemark>
        <Placemark id="feat_1626">
            <name>NHP-14-381</name>
            <description>2017-07-01T01:34:09.000Z</description>
            <styleUrl>#stylesel_1493</styleUrl>
            <Point id="geom_1493">
                <coordinates>-115.06829834,36.08932495,0.0</coordinates>
            </Point>
        </Placemark>
        <Placemark id="feat_1627">
            <name>NHP-14-381</name>
            <description>1970-01-01T00:00:00.000Z</description>
            <styleUrl>#stylesel_1494</styleUrl>
            <Point id="geom_1494">
                <coordinates>-115.22381592,36.0996666,0.0</coordinates>
            </Point>
        </Placemark>
        <Placemark id="feat_1628">
            <name>NHP-14-381</name>
            <description>1970-01-01T00:00:00.000Z</description>
            <styleUrl>#stylesel_1495</styleUrl>
            <Point id="geom_1495">
                <coordinates>-115.22473907,36.09940338,0.0</coordinates>
            </Point>
        </Placemark>
        <Placemark id="feat_1629">
            <name>NHP-14-381</name>
            <description>2016-12-19T23:59:10.000Z</description>
            <styleUrl>#stylesel_1496</styleUrl>
            <Point id="geom_1496">
                <coordinates>-115.22428131,36.09951401,0.0</coordinates>
            </Point>
        </Placemark>
    </Document>
</kml>
