<?xml version="1.0" encoding="UTF-8"?>
<kml xmlns="http://www.opengis.net/kml/2.2" xmlns:gx="http://www.google.com/kml/ext/2.2">
    <Document id="feat_1424">
        <Style id="stylesel_1311">
            <IconStyle id="substyle_1311">
                <colorMode>normal</colorMode>
                <scale>1</scale>
                <heading>0</heading>
                <Icon id="link_1311">
                    <href>wifi4.png</href>
                </Icon>
            </IconStyle>
        </Style>
        <Style id="stylesel_1312">
            <IconStyle id="substyle_1312">
                <colorMode>normal</colorMode>
                <scale>1</scale>
                <heading>0</heading>
                <Icon id="link_1312">
                    <href>wifi4.png</href>
                </Icon>
            </IconStyle>
        </Style>
        <Style id="stylesel_1313">
            <IconStyle id="substyle_1313">
                <colorMode>normal</colorMode>
                <scale>1</scale>
                <heading>0</heading>
                <Icon id="link_1313">
                    <href>wifi4.png</href>
                </Icon>
            </IconStyle>
        </Style>
        <Style id="stylesel_1314">
            <IconStyle id="substyle_1314">
                <colorMode>normal</colorMode>
                <scale>1</scale>
                <heading>0</heading>
                <Icon id="link_1314">
                    <href>wifi4.png</href>
                </Icon>
            </IconStyle>
        </Style>
        <Style id="stylesel_1315">
            <IconStyle id="substyle_1315">
                <colorMode>normal</colorMode>
                <scale>1</scale>
                <heading>0</heading>
                <Icon id="link_1315">
                    <href>wifi4.png</href>
                </Icon>
            </IconStyle>
        </Style>
        <Style id="stylesel_1316">
            <IconStyle id="substyle_1316">
                <colorMode>normal</colorMode>
                <scale>1</scale>
                <heading>0</heading>
                <Icon id="link_1316">
                    <href>wifi4.png</href>
                </Icon>
            </IconStyle>
        </Style>
        <Style id="stylesel_1317">
            <IconStyle id="substyle_1317">
                <colorMode>normal</colorMode>
                <scale>1</scale>
                <heading>0</heading>
                <Icon id="link_1317">
                    <href>wifi4.png</href>
                </Icon>
            </IconStyle>
        </Style>
        <Style id="stylesel_1318">
            <IconStyle id="substyle_1318">
                <colorMode>normal</colorMode>
                <scale>1</scale>
                <heading>0</heading>
                <Icon id="link_1318">
                    <href>wifi4.png</href>
                </Icon>
            </IconStyle>
        </Style>
        <Style id="stylesel_1319">
            <IconStyle id="substyle_1319">
                <colorMode>normal</colorMode>
                <scale>1</scale>
                <heading>0</heading>
                <Icon id="link_1319">
                    <href>wifi4.png</href>
                </Icon>
            </IconStyle>
        </Style>
        <Placemark id="feat_1425">
            <name>NHP-15-343</name>
            <description>2017-07-30T13:22:01.000Z</description>
            <styleUrl>#stylesel_1311</styleUrl>
            <Point id="geom_1311">
                <coordinates>-115.1085434,36.02349091,0.0</coordinates>
            </Point>
        </Placemark>
        <Placemark id="feat_1426">
            <name>NHP-15-343</name>
            <description>2017-07-30T13:22:08.000Z</description>
            <styleUrl>#stylesel_1312</styleUrl>
            <Point id="geom_1312">
                <coordinates>-115.10642242,36.02348328,0.0</coordinates>
            </Point>
        </Placemark>
        <Placemark id="feat_1427">
            <name>NHP-15-343</name>
            <description>2017-07-30T13:21:57.000Z</description>
            <styleUrl>#stylesel_1313</styleUrl>
            <Point id="geom_1313">
                <coordinates>-115.10971069,36.02350998,0.0</coordinates>
            </Point>
        </Placemark>
        <Placemark id="feat_1428">
            <name>NHP-15-343</name>
            <description>2017-07-30T13:21:42.000Z</description>
            <styleUrl>#stylesel_1314</styleUrl>
            <Point id="geom_1314">
                <coordinates>-115.11459351,36.02354813,0.0</coordinates>
            </Point>
        </Placemark>
        <Placemark id="feat_1429">
            <name>NHP-15-343</name>
            <description>2017-07-30T13:21:38.000Z</description>
            <styleUrl>#stylesel_1315</styleUrl>
            <Point id="geom_1315">
                <coordinates>-115.11592865,36.02356339,0.0</coordinates>
            </Point>
        </Placemark>
        <Placemark id="feat_1430">
            <name>NHP-15-343</name>
            <description>2017-06-14T22:24:39.000Z</description>
            <styleUrl>#stylesel_1316</styleUrl>
            <Point id="geom_1316">
                <coordinates>-114.51917267,36.67188263,0.0</coordinates>
            </Point>
        </Placemark>
        <Placemark id="feat_1431">
            <name>NHP-15-343</name>
            <description>2017-06-14T22:24:45.000Z</description>
            <styleUrl>#stylesel_1317</styleUrl>
            <Point id="geom_1317">
                <coordinates>-114.51744843,36.67316055,0.0</coordinates>
            </Point>
        </Placemark>
        <Placemark id="feat_1432">
            <name>NHP-15-343</name>
            <description>2017-06-14T22:24:49.000Z</description>
            <styleUrl>#stylesel_1318</styleUrl>
            <Point id="geom_1318">
                <coordinates>-114.51642609,36.6741066,0.0</coordinates>
            </Point>
        </Placemark>
        <Placemark id="feat_1433">
            <name>NHP-15-343</name>
            <description>2017-06-14T22:24:55.000Z</description>
            <styleUrl>#stylesel_1319</styleUrl>
            <Point id="geom_1319">
                <coordinates>-114.51515961,36.67565918,0.0</coordinates>
            </Point>
        </Placemark>
    </Document>
</kml>
