<?xml version="1.0" encoding="UTF-8"?>
<kml xmlns="http://www.opengis.net/kml/2.2" xmlns:gx="http://www.google.com/kml/ext/2.2">
    <Document id="feat_2437">
        <Style id="stylesel_2237">
            <IconStyle id="substyle_2237">
                <colorMode>normal</colorMode>
                <scale>1</scale>
                <heading>0</heading>
                <Icon id="link_2237">
                    <href>wifi4.png</href>
                </Icon>
            </IconStyle>
        </Style>
        <Placemark id="feat_2438">
            <name>NHP-16-145</name>
            <description>2017-02-22T14:57:02.000Z</description>
            <styleUrl>#stylesel_2237</styleUrl>
            <Point id="geom_2237">
                <coordinates>-115.20801544,36.06897354,0.0</coordinates>
            </Point>
        </Placemark>
    </Document>
</kml>
