<?xml version="1.0" encoding="UTF-8"?>
<kml xmlns="http://www.opengis.net/kml/2.2" xmlns:gx="http://www.google.com/kml/ext/2.2">
    <Document id="feat_818">
        <Style id="stylesel_779">
            <IconStyle id="substyle_779">
                <colorMode>normal</colorMode>
                <scale>1</scale>
                <heading>0</heading>
                <Icon id="link_779">
                    <href>wifi4.png</href>
                </Icon>
            </IconStyle>
        </Style>
        <Style id="stylesel_780">
            <IconStyle id="substyle_780">
                <colorMode>normal</colorMode>
                <scale>1</scale>
                <heading>0</heading>
                <Icon id="link_780">
                    <href>wifi4.png</href>
                </Icon>
            </IconStyle>
        </Style>
        <Style id="stylesel_781">
            <IconStyle id="substyle_781">
                <colorMode>normal</colorMode>
                <scale>1</scale>
                <heading>0</heading>
                <Icon id="link_781">
                    <href>wifi4.png</href>
                </Icon>
            </IconStyle>
        </Style>
        <Style id="stylesel_782">
            <IconStyle id="substyle_782">
                <colorMode>normal</colorMode>
                <scale>1</scale>
                <heading>0</heading>
                <Icon id="link_782">
                    <href>wifi4.png</href>
                </Icon>
            </IconStyle>
        </Style>
        <Style id="stylesel_783">
            <IconStyle id="substyle_783">
                <colorMode>normal</colorMode>
                <scale>1</scale>
                <heading>0</heading>
                <Icon id="link_783">
                    <href>wifi4.png</href>
                </Icon>
            </IconStyle>
        </Style>
        <Style id="stylesel_784">
            <IconStyle id="substyle_784">
                <colorMode>normal</colorMode>
                <scale>1</scale>
                <heading>0</heading>
                <Icon id="link_784">
                    <href>wifi4.png</href>
                </Icon>
            </IconStyle>
        </Style>
        <Style id="stylesel_785">
            <IconStyle id="substyle_785">
                <colorMode>normal</colorMode>
                <scale>1</scale>
                <heading>0</heading>
                <Icon id="link_785">
                    <href>wifi4.png</href>
                </Icon>
            </IconStyle>
        </Style>
        <Style id="stylesel_786">
            <IconStyle id="substyle_786">
                <colorMode>normal</colorMode>
                <scale>1</scale>
                <heading>0</heading>
                <Icon id="link_786">
                    <href>wifi4.png</href>
                </Icon>
            </IconStyle>
        </Style>
        <Style id="stylesel_787">
            <IconStyle id="substyle_787">
                <colorMode>normal</colorMode>
                <scale>1</scale>
                <heading>0</heading>
                <Icon id="link_787">
                    <href>wifi4.png</href>
                </Icon>
            </IconStyle>
        </Style>
        <Style id="stylesel_788">
            <IconStyle id="substyle_788">
                <colorMode>normal</colorMode>
                <scale>1</scale>
                <heading>0</heading>
                <Icon id="link_788">
                    <href>wifi4.png</href>
                </Icon>
            </IconStyle>
        </Style>
        <Style id="stylesel_789">
            <IconStyle id="substyle_789">
                <colorMode>normal</colorMode>
                <scale>1</scale>
                <heading>0</heading>
                <Icon id="link_789">
                    <href>wifi4.png</href>
                </Icon>
            </IconStyle>
        </Style>
        <Style id="stylesel_790">
            <IconStyle id="substyle_790">
                <colorMode>normal</colorMode>
                <scale>1</scale>
                <heading>0</heading>
                <Icon id="link_790">
                    <href>wifi4.png</href>
                </Icon>
            </IconStyle>
        </Style>
        <Style id="stylesel_791">
            <IconStyle id="substyle_791">
                <colorMode>normal</colorMode>
                <scale>1</scale>
                <heading>0</heading>
                <Icon id="link_791">
                    <href>wifi4.png</href>
                </Icon>
            </IconStyle>
        </Style>
        <Style id="stylesel_792">
            <IconStyle id="substyle_792">
                <colorMode>normal</colorMode>
                <scale>1</scale>
                <heading>0</heading>
                <Icon id="link_792">
                    <href>wifi4.png</href>
                </Icon>
            </IconStyle>
        </Style>
        <Placemark id="feat_819">
            <name>NHP-15-346</name>
            <description>2017-09-05T03:17:00.000Z</description>
            <styleUrl>#stylesel_779</styleUrl>
            <Point id="geom_779">
                <coordinates>-115.22750092,36.06702423,0.0</coordinates>
            </Point>
        </Placemark>
        <Placemark id="feat_820">
            <name>NHP-15-346</name>
            <description>2017-09-05T03:17:10.000Z</description>
            <styleUrl>#stylesel_780</styleUrl>
            <Point id="geom_780">
                <coordinates>-115.23080444,36.06695175,0.0</coordinates>
            </Point>
        </Placemark>
        <Placemark id="feat_821">
            <name>NHP-15-346</name>
            <description>2017-09-05T03:17:07.000Z</description>
            <styleUrl>#stylesel_781</styleUrl>
            <Point id="geom_781">
                <coordinates>-115.22969818,36.06697083,0.0</coordinates>
            </Point>
        </Placemark>
        <Placemark id="feat_822">
            <name>NHP-15-346</name>
            <description>2017-09-05T03:17:13.000Z</description>
            <styleUrl>#stylesel_782</styleUrl>
            <Point id="geom_782">
                <coordinates>-115.23192596,36.06685638,0.0</coordinates>
            </Point>
        </Placemark>
        <Placemark id="feat_823">
            <name>NHP-15-346</name>
            <description>2017-09-05T03:17:04.000Z</description>
            <styleUrl>#stylesel_783</styleUrl>
            <Point id="geom_783">
                <coordinates>-115.22859955,36.06701279,0.0</coordinates>
            </Point>
        </Placemark>
        <Placemark id="feat_824">
            <name>NHP-15-346</name>
            <description>2017-09-05T00:43:59.000Z</description>
            <styleUrl>#stylesel_784</styleUrl>
            <Point id="geom_784">
                <coordinates>-115.1680069,36.06377411,0.0</coordinates>
            </Point>
        </Placemark>
        <Placemark id="feat_825">
            <name>NHP-15-346</name>
            <description>2017-09-05T00:44:02.000Z</description>
            <styleUrl>#stylesel_785</styleUrl>
            <Point id="geom_785">
                <coordinates>-115.16913605,36.06376648,0.0</coordinates>
            </Point>
        </Placemark>
        <Placemark id="feat_826">
            <name>NHP-15-346</name>
            <description>2017-09-05T00:43:56.000Z</description>
            <styleUrl>#stylesel_786</styleUrl>
            <Point id="geom_786">
                <coordinates>-115.16690063,36.06379318,0.0</coordinates>
            </Point>
        </Placemark>
        <Placemark id="feat_827">
            <name>NHP-15-346</name>
            <description>2017-09-05T00:44:05.000Z</description>
            <styleUrl>#stylesel_787</styleUrl>
            <Point id="geom_787">
                <coordinates>-115.17025757,36.06375122,0.0</coordinates>
            </Point>
        </Placemark>
        <Placemark id="feat_828">
            <name>NHP-15-346</name>
            <description>2017-09-05T00:43:53.000Z</description>
            <styleUrl>#stylesel_788</styleUrl>
            <Point id="geom_788">
                <coordinates>-115.16587067,36.06378937,0.0</coordinates>
            </Point>
        </Placemark>
        <Placemark id="feat_829">
            <name>NHP-15-346</name>
            <description>2017-09-05T00:43:47.000Z</description>
            <styleUrl>#stylesel_789</styleUrl>
            <Point id="geom_789">
                <coordinates>-115.16375732,36.0638237,0.0</coordinates>
            </Point>
        </Placemark>
        <Placemark id="feat_830">
            <name>NHP-15-346</name>
            <description>2017-09-05T00:43:50.000Z</description>
            <styleUrl>#stylesel_790</styleUrl>
            <Point id="geom_790">
                <coordinates>-115.16482544,36.06381607,0.0</coordinates>
            </Point>
        </Placemark>
        <Placemark id="feat_831">
            <name>NHP-15-346</name>
            <description>2017-07-26T06:07:00.000Z</description>
            <styleUrl>#stylesel_791</styleUrl>
            <Point id="geom_791">
                <coordinates>-115.07984924,36.02519989,0.0</coordinates>
            </Point>
        </Placemark>
        <Placemark id="feat_832">
            <name>NHP-15-346</name>
            <description>2017-07-26T06:06:54.000Z</description>
            <styleUrl>#stylesel_792</styleUrl>
            <Point id="geom_792">
                <coordinates>-115.08178711,36.02494431,0.0</coordinates>
            </Point>
        </Placemark>
    </Document>
</kml>
