<?xml version="1.0" encoding="UTF-8"?>
<kml xmlns="http://www.opengis.net/kml/2.2" xmlns:gx="http://www.google.com/kml/ext/2.2">
    <Document id="feat_883">
        <Style id="stylesel_837">
            <IconStyle id="substyle_837">
                <colorMode>normal</colorMode>
                <scale>1</scale>
                <heading>0</heading>
                <Icon id="link_837">
                    <href>wifi4.png</href>
                </Icon>
            </IconStyle>
        </Style>
        <Style id="stylesel_838">
            <IconStyle id="substyle_838">
                <colorMode>normal</colorMode>
                <scale>1</scale>
                <heading>0</heading>
                <Icon id="link_838">
                    <href>wifi4.png</href>
                </Icon>
            </IconStyle>
        </Style>
        <Style id="stylesel_839">
            <IconStyle id="substyle_839">
                <colorMode>normal</colorMode>
                <scale>1</scale>
                <heading>0</heading>
                <Icon id="link_839">
                    <href>wifi4.png</href>
                </Icon>
            </IconStyle>
        </Style>
        <Placemark id="feat_884">
            <name>NHP-16-261A</name>
            <description>2017-08-07T18:53:00.000Z</description>
            <styleUrl>#stylesel_837</styleUrl>
            <Point id="geom_837">
                <coordinates>-115.73416138,40.86359787,0.0</coordinates>
            </Point>
        </Placemark>
        <Placemark id="feat_885">
            <name>NHP-16-261A</name>
            <description>2017-08-07T18:52:49.000Z</description>
            <styleUrl>#stylesel_838</styleUrl>
            <Point id="geom_838">
                <coordinates>-115.7330246,40.86474228,0.0</coordinates>
            </Point>
        </Placemark>
        <Placemark id="feat_886">
            <name>NHP-16-261A</name>
            <description>2017-08-07T18:52:38.000Z</description>
            <styleUrl>#stylesel_839</styleUrl>
            <Point id="geom_839">
                <coordinates>-115.7317276,40.86592484,0.0</coordinates>
            </Point>
        </Placemark>
    </Document>
</kml>
