<?xml version="1.0" encoding="UTF-8"?>
<kml xmlns="http://www.opengis.net/kml/2.2" xmlns:gx="http://www.google.com/kml/ext/2.2">
    <Document id="feat_2403">
        <Style id="stylesel_2206">
            <IconStyle id="substyle_2206">
                <colorMode>normal</colorMode>
                <scale>1</scale>
                <heading>0</heading>
                <Icon id="link_2206">
                    <href>wifi4.png</href>
                </Icon>
            </IconStyle>
        </Style>
        <Style id="stylesel_2207">
            <IconStyle id="substyle_2207">
                <colorMode>normal</colorMode>
                <scale>1</scale>
                <heading>0</heading>
                <Icon id="link_2207">
                    <href>wifi4.png</href>
                </Icon>
            </IconStyle>
        </Style>
        <Style id="stylesel_2208">
            <IconStyle id="substyle_2208">
                <colorMode>normal</colorMode>
                <scale>1</scale>
                <heading>0</heading>
                <Icon id="link_2208">
                    <href>wifi4.png</href>
                </Icon>
            </IconStyle>
        </Style>
        <Style id="stylesel_2209">
            <IconStyle id="substyle_2209">
                <colorMode>normal</colorMode>
                <scale>1</scale>
                <heading>0</heading>
                <Icon id="link_2209">
                    <href>wifi4.png</href>
                </Icon>
            </IconStyle>
        </Style>
        <Style id="stylesel_2210">
            <IconStyle id="substyle_2210">
                <colorMode>normal</colorMode>
                <scale>1</scale>
                <heading>0</heading>
                <Icon id="link_2210">
                    <href>wifi4.png</href>
                </Icon>
            </IconStyle>
        </Style>
        <Style id="stylesel_2211">
            <IconStyle id="substyle_2211">
                <colorMode>normal</colorMode>
                <scale>1</scale>
                <heading>0</heading>
                <Icon id="link_2211">
                    <href>wifi4.png</href>
                </Icon>
            </IconStyle>
        </Style>
        <Style id="stylesel_2212">
            <IconStyle id="substyle_2212">
                <colorMode>normal</colorMode>
                <scale>1</scale>
                <heading>0</heading>
                <Icon id="link_2212">
                    <href>wifi4.png</href>
                </Icon>
            </IconStyle>
        </Style>
        <Style id="stylesel_2213">
            <IconStyle id="substyle_2213">
                <colorMode>normal</colorMode>
                <scale>1</scale>
                <heading>0</heading>
                <Icon id="link_2213">
                    <href>wifi4.png</href>
                </Icon>
            </IconStyle>
        </Style>
        <Style id="stylesel_2214">
            <IconStyle id="substyle_2214">
                <colorMode>normal</colorMode>
                <scale>1</scale>
                <heading>0</heading>
                <Icon id="link_2214">
                    <href>wifi4.png</href>
                </Icon>
            </IconStyle>
        </Style>
        <Style id="stylesel_2215">
            <IconStyle id="substyle_2215">
                <colorMode>normal</colorMode>
                <scale>1</scale>
                <heading>0</heading>
                <Icon id="link_2215">
                    <href>wifi4.png</href>
                </Icon>
            </IconStyle>
        </Style>
        <Style id="stylesel_2216">
            <IconStyle id="substyle_2216">
                <colorMode>normal</colorMode>
                <scale>1</scale>
                <heading>0</heading>
                <Icon id="link_2216">
                    <href>wifi4.png</href>
                </Icon>
            </IconStyle>
        </Style>
        <Style id="stylesel_2217">
            <IconStyle id="substyle_2217">
                <colorMode>normal</colorMode>
                <scale>1</scale>
                <heading>0</heading>
                <Icon id="link_2217">
                    <href>wifi4.png</href>
                </Icon>
            </IconStyle>
        </Style>
        <Style id="stylesel_2218">
            <IconStyle id="substyle_2218">
                <colorMode>normal</colorMode>
                <scale>1</scale>
                <heading>0</heading>
                <Icon id="link_2218">
                    <href>wifi4.png</href>
                </Icon>
            </IconStyle>
        </Style>
        <Style id="stylesel_2219">
            <IconStyle id="substyle_2219">
                <colorMode>normal</colorMode>
                <scale>1</scale>
                <heading>0</heading>
                <Icon id="link_2219">
                    <href>wifi4.png</href>
                </Icon>
            </IconStyle>
        </Style>
        <Style id="stylesel_2220">
            <IconStyle id="substyle_2220">
                <colorMode>normal</colorMode>
                <scale>1</scale>
                <heading>0</heading>
                <Icon id="link_2220">
                    <href>wifi4.png</href>
                </Icon>
            </IconStyle>
        </Style>
        <Style id="stylesel_2221">
            <IconStyle id="substyle_2221">
                <colorMode>normal</colorMode>
                <scale>1</scale>
                <heading>0</heading>
                <Icon id="link_2221">
                    <href>wifi4.png</href>
                </Icon>
            </IconStyle>
        </Style>
        <Style id="stylesel_2222">
            <IconStyle id="substyle_2222">
                <colorMode>normal</colorMode>
                <scale>1</scale>
                <heading>0</heading>
                <Icon id="link_2222">
                    <href>wifi4.png</href>
                </Icon>
            </IconStyle>
        </Style>
        <Style id="stylesel_2223">
            <IconStyle id="substyle_2223">
                <colorMode>normal</colorMode>
                <scale>1</scale>
                <heading>0</heading>
                <Icon id="link_2223">
                    <href>wifi4.png</href>
                </Icon>
            </IconStyle>
        </Style>
        <Style id="stylesel_2224">
            <IconStyle id="substyle_2224">
                <colorMode>normal</colorMode>
                <scale>1</scale>
                <heading>0</heading>
                <Icon id="link_2224">
                    <href>wifi4.png</href>
                </Icon>
            </IconStyle>
        </Style>
        <Style id="stylesel_2225">
            <IconStyle id="substyle_2225">
                <colorMode>normal</colorMode>
                <scale>1</scale>
                <heading>0</heading>
                <Icon id="link_2225">
                    <href>wifi4.png</href>
                </Icon>
            </IconStyle>
        </Style>
        <Style id="stylesel_2226">
            <IconStyle id="substyle_2226">
                <colorMode>normal</colorMode>
                <scale>1</scale>
                <heading>0</heading>
                <Icon id="link_2226">
                    <href>wifi4.png</href>
                </Icon>
            </IconStyle>
        </Style>
        <Style id="stylesel_2227">
            <IconStyle id="substyle_2227">
                <colorMode>normal</colorMode>
                <scale>1</scale>
                <heading>0</heading>
                <Icon id="link_2227">
                    <href>wifi4.png</href>
                </Icon>
            </IconStyle>
        </Style>
        <Style id="stylesel_2228">
            <IconStyle id="substyle_2228">
                <colorMode>normal</colorMode>
                <scale>1</scale>
                <heading>0</heading>
                <Icon id="link_2228">
                    <href>wifi4.png</href>
                </Icon>
            </IconStyle>
        </Style>
        <Style id="stylesel_2229">
            <IconStyle id="substyle_2229">
                <colorMode>normal</colorMode>
                <scale>1</scale>
                <heading>0</heading>
                <Icon id="link_2229">
                    <href>wifi4.png</href>
                </Icon>
            </IconStyle>
        </Style>
        <Style id="stylesel_2230">
            <IconStyle id="substyle_2230">
                <colorMode>normal</colorMode>
                <scale>1</scale>
                <heading>0</heading>
                <Icon id="link_2230">
                    <href>wifi4.png</href>
                </Icon>
            </IconStyle>
        </Style>
        <Placemark id="feat_2404">
            <name>NHP-16-467</name>
            <description>2016-10-17T18:18:07.000Z</description>
            <styleUrl>#stylesel_2206</styleUrl>
            <Point id="geom_2206">
                <coordinates>-115.04103088,41.11088181,0.0</coordinates>
            </Point>
        </Placemark>
        <Placemark id="feat_2405">
            <name>NHP-16-467</name>
            <description>2016-10-17T18:18:11.000Z</description>
            <styleUrl>#stylesel_2207</styleUrl>
            <Point id="geom_2207">
                <coordinates>-115.03980255,41.11086655,0.0</coordinates>
            </Point>
        </Placemark>
        <Placemark id="feat_2406">
            <name>NHP-16-467</name>
            <description>2016-10-17T18:18:39.000Z</description>
            <styleUrl>#stylesel_2208</styleUrl>
            <Point id="geom_2208">
                <coordinates>-115.03141022,41.10991287,0.0</coordinates>
            </Point>
        </Placemark>
        <Placemark id="feat_2407">
            <name>NHP-16-467</name>
            <description>2016-10-17T18:18:03.000Z</description>
            <styleUrl>#stylesel_2209</styleUrl>
            <Point id="geom_2209">
                <coordinates>-115.04225922,41.11087036,0.0</coordinates>
            </Point>
        </Placemark>
        <Placemark id="feat_2408">
            <name>NHP-16-467</name>
            <description>2016-10-17T18:18:15.000Z</description>
            <styleUrl>#stylesel_2210</styleUrl>
            <Point id="geom_2210">
                <coordinates>-115.03857422,41.11082077,0.0</coordinates>
            </Point>
        </Placemark>
        <Placemark id="feat_2409">
            <name>NHP-16-467</name>
            <description>2016-10-17T18:18:43.000Z</description>
            <styleUrl>#stylesel_2211</styleUrl>
            <Point id="geom_2211">
                <coordinates>-115.0302124,41.10972214,0.0</coordinates>
            </Point>
        </Placemark>
        <Placemark id="feat_2410">
            <name>NHP-16-467</name>
            <description>2016-10-17T18:18:35.000Z</description>
            <styleUrl>#stylesel_2212</styleUrl>
            <Point id="geom_2212">
                <coordinates>-115.0326004,41.11010742,0.0</coordinates>
            </Point>
        </Placemark>
        <Placemark id="feat_2411">
            <name>NHP-16-467</name>
            <description>2016-10-17T18:18:19.000Z</description>
            <styleUrl>#stylesel_2213</styleUrl>
            <Point id="geom_2213">
                <coordinates>-115.03736115,41.11074066,0.0</coordinates>
            </Point>
        </Placemark>
        <Placemark id="feat_2412">
            <name>NHP-16-467</name>
            <description>2016-10-17T18:17:59.000Z</description>
            <styleUrl>#stylesel_2214</styleUrl>
            <Point id="geom_2214">
                <coordinates>-115.04350281,41.11082458,0.0</coordinates>
            </Point>
        </Placemark>
        <Placemark id="feat_2413">
            <name>NHP-16-467</name>
            <description>2017-06-05T21:22:01.000Z</description>
            <styleUrl>#stylesel_2215</styleUrl>
            <Point id="geom_2215">
                <coordinates>-115.50259399,40.95298767,0.0</coordinates>
            </Point>
        </Placemark>
        <Placemark id="feat_2414">
            <name>NHP-16-467</name>
            <description>2017-06-05T21:21:58.000Z</description>
            <styleUrl>#stylesel_2216</styleUrl>
            <Point id="geom_2216">
                <coordinates>-115.50152588,40.95315933,0.0</coordinates>
            </Point>
        </Placemark>
        <Placemark id="feat_2415">
            <name>NHP-16-467</name>
            <description>2017-06-05T21:21:55.000Z</description>
            <styleUrl>#stylesel_2217</styleUrl>
            <Point id="geom_2217">
                <coordinates>-115.50045013,40.95333099,0.0</coordinates>
            </Point>
        </Placemark>
        <Placemark id="feat_2416">
            <name>NHP-16-467</name>
            <description>2017-06-05T21:21:52.000Z</description>
            <styleUrl>#stylesel_2218</styleUrl>
            <Point id="geom_2218">
                <coordinates>-115.49936676,40.95350647,0.0</coordinates>
            </Point>
        </Placemark>
        <Placemark id="feat_2417">
            <name>NHP-16-467</name>
            <description>2017-06-05T21:21:48.000Z</description>
            <styleUrl>#stylesel_2219</styleUrl>
            <Point id="geom_2219">
                <coordinates>-115.49791718,40.95373154,0.0</coordinates>
            </Point>
        </Placemark>
        <Placemark id="feat_2418">
            <name>NHP-16-467</name>
            <description>2017-06-05T21:21:42.000Z</description>
            <styleUrl>#stylesel_2220</styleUrl>
            <Point id="geom_2220">
                <coordinates>-115.49575043,40.95407104,0.0</coordinates>
            </Point>
        </Placemark>
        <Placemark id="feat_2419">
            <name>NHP-16-467</name>
            <description>2017-06-05T21:21:45.000Z</description>
            <styleUrl>#stylesel_2221</styleUrl>
            <Point id="geom_2221">
                <coordinates>-115.4968338,40.9539032,0.0</coordinates>
            </Point>
        </Placemark>
        <Placemark id="feat_2420">
            <name>NHP-16-467</name>
            <description>2016-10-17T18:18:55.000Z</description>
            <styleUrl>#stylesel_2222</styleUrl>
            <Point id="geom_2222">
                <coordinates>-115.02664185,41.10918427,0.0</coordinates>
            </Point>
        </Placemark>
        <Placemark id="feat_2421">
            <name>NHP-16-467</name>
            <description>2016-10-17T18:18:23.000Z</description>
            <styleUrl>#stylesel_2223</styleUrl>
            <Point id="geom_2223">
                <coordinates>-115.0361557,41.11062622,0.0</coordinates>
            </Point>
        </Placemark>
        <Placemark id="feat_2422">
            <name>NHP-16-467</name>
            <description>2016-10-17T18:18:27.000Z</description>
            <styleUrl>#stylesel_2224</styleUrl>
            <Point id="geom_2224">
                <coordinates>-115.03496552,41.11048508,0.0</coordinates>
            </Point>
        </Placemark>
        <Placemark id="feat_2423">
            <name>NHP-16-467</name>
            <description>2016-10-17T18:18:31.000Z</description>
            <styleUrl>#stylesel_2225</styleUrl>
            <Point id="geom_2225">
                <coordinates>-115.03378296,41.11030197,0.0</coordinates>
            </Point>
        </Placemark>
        <Placemark id="feat_2424">
            <name>NHP-16-467</name>
            <description>2016-10-17T18:19:03.000Z</description>
            <styleUrl>#stylesel_2226</styleUrl>
            <Point id="geom_2226">
                <coordinates>-115.02425385,41.10881042,0.0</coordinates>
            </Point>
        </Placemark>
        <Placemark id="feat_2425">
            <name>NHP-16-467</name>
            <description>2016-10-17T18:18:59.000Z</description>
            <styleUrl>#stylesel_2227</styleUrl>
            <Point id="geom_2227">
                <coordinates>-115.0254364,41.10899734,0.0</coordinates>
            </Point>
        </Placemark>
        <Placemark id="feat_2426">
            <name>NHP-16-467</name>
            <description>2016-10-17T18:18:51.000Z</description>
            <styleUrl>#stylesel_2228</styleUrl>
            <Point id="geom_2228">
                <coordinates>-115.0278244,41.10936737,0.0</coordinates>
            </Point>
        </Placemark>
        <Placemark id="feat_2427">
            <name>NHP-16-467</name>
            <description>2016-10-17T18:18:47.000Z</description>
            <styleUrl>#stylesel_2229</styleUrl>
            <Point id="geom_2229">
                <coordinates>-115.02902985,41.10954285,0.0</coordinates>
            </Point>
        </Placemark>
        <Placemark id="feat_2428">
            <name>NHP-16-467</name>
            <description>2017-06-05T21:21:38.000Z</description>
            <styleUrl>#stylesel_2230</styleUrl>
            <Point id="geom_2230">
                <coordinates>-115.49430847,40.95431519,0.0</coordinates>
            </Point>
        </Placemark>
    </Document>
</kml>
