<?xml version="1.0" encoding="UTF-8"?>
<kml xmlns="http://www.opengis.net/kml/2.2" xmlns:gx="http://www.google.com/kml/ext/2.2">
    <Document id="feat_887">
        <Style id="stylesel_840">
            <IconStyle id="substyle_840">
                <colorMode>normal</colorMode>
                <scale>1</scale>
                <heading>0</heading>
                <Icon id="link_840">
                    <href>wifi4.png</href>
                </Icon>
            </IconStyle>
        </Style>
        <Style id="stylesel_841">
            <IconStyle id="substyle_841">
                <colorMode>normal</colorMode>
                <scale>1</scale>
                <heading>0</heading>
                <Icon id="link_841">
                    <href>wifi4.png</href>
                </Icon>
            </IconStyle>
        </Style>
        <Style id="stylesel_842">
            <IconStyle id="substyle_842">
                <colorMode>normal</colorMode>
                <scale>1</scale>
                <heading>0</heading>
                <Icon id="link_842">
                    <href>wifi4.png</href>
                </Icon>
            </IconStyle>
        </Style>
        <Style id="stylesel_843">
            <IconStyle id="substyle_843">
                <colorMode>normal</colorMode>
                <scale>1</scale>
                <heading>0</heading>
                <Icon id="link_843">
                    <href>wifi4.png</href>
                </Icon>
            </IconStyle>
        </Style>
        <Placemark id="feat_888">
            <name>NHP-16-032</name>
            <description>2017-08-28T22:17:21.000Z</description>
            <styleUrl>#stylesel_840</styleUrl>
            <Point id="geom_840">
                <coordinates>-115.73305511,40.86528778,0.0</coordinates>
            </Point>
        </Placemark>
        <Placemark id="feat_889">
            <name>NHP-16-032</name>
            <description>2017-08-28T22:17:27.000Z</description>
            <styleUrl>#stylesel_841</styleUrl>
            <Point id="geom_841">
                <coordinates>-115.73175812,40.86648178,0.0</coordinates>
            </Point>
        </Placemark>
        <Placemark id="feat_890">
            <name>NHP-16-032</name>
            <description>2017-08-28T22:17:33.000Z</description>
            <styleUrl>#stylesel_842</styleUrl>
            <Point id="geom_842">
                <coordinates>-115.73046875,40.86769867,0.0</coordinates>
            </Point>
        </Placemark>
        <Placemark id="feat_891">
            <name>NHP-16-032</name>
            <description>2017-08-28T22:17:38.000Z</description>
            <styleUrl>#stylesel_843</styleUrl>
            <Point id="geom_843">
                <coordinates>-115.72937775,40.86870956,0.0</coordinates>
            </Point>
        </Placemark>
    </Document>
</kml>
