<?xml version="1.0" encoding="UTF-8"?>
<kml xmlns="http://www.opengis.net/kml/2.2" xmlns:gx="http://www.google.com/kml/ext/2.2">
    <Document id="feat_897">
        <Style id="stylesel_847">
            <IconStyle id="substyle_847">
                <colorMode>normal</colorMode>
                <scale>1</scale>
                <heading>0</heading>
                <Icon id="link_847">
                    <href>wifi4.png</href>
                </Icon>
            </IconStyle>
        </Style>
        <Style id="stylesel_848">
            <IconStyle id="substyle_848">
                <colorMode>normal</colorMode>
                <scale>1</scale>
                <heading>0</heading>
                <Icon id="link_848">
                    <href>wifi4.png</href>
                </Icon>
            </IconStyle>
        </Style>
        <Placemark id="feat_898">
            <name>NHP-16-149</name>
            <description>2017-08-29T18:03:13.000Z</description>
            <styleUrl>#stylesel_847</styleUrl>
            <Point id="geom_847">
                <coordinates>-115.25106812,36.19615555,0.0</coordinates>
            </Point>
        </Placemark>
        <Placemark id="feat_899">
            <name>NHP-16-149</name>
            <description>2017-08-29T18:03:11.000Z</description>
            <styleUrl>#stylesel_848</styleUrl>
            <Point id="geom_848">
                <coordinates>-115.2507019,36.19614792,0.0</coordinates>
            </Point>
        </Placemark>
    </Document>
</kml>
