<?xml version="1.0" encoding="UTF-8"?>
<kml xmlns="http://www.opengis.net/kml/2.2" xmlns:gx="http://www.google.com/kml/ext/2.2">
    <Document id="feat_724">
        <Style id="stylesel_694">
            <IconStyle id="substyle_694">
                <colorMode>normal</colorMode>
                <scale>1</scale>
                <heading>0</heading>
                <Icon id="link_694">
                    <href>wifi4.png</href>
                </Icon>
            </IconStyle>
        </Style>
        <Style id="stylesel_695">
            <IconStyle id="substyle_695">
                <colorMode>normal</colorMode>
                <scale>1</scale>
                <heading>0</heading>
                <Icon id="link_695">
                    <href>wifi4.png</href>
                </Icon>
            </IconStyle>
        </Style>
        <Style id="stylesel_696">
            <IconStyle id="substyle_696">
                <colorMode>normal</colorMode>
                <scale>1</scale>
                <heading>0</heading>
                <Icon id="link_696">
                    <href>wifi4.png</href>
                </Icon>
            </IconStyle>
        </Style>
        <Style id="stylesel_697">
            <IconStyle id="substyle_697">
                <colorMode>normal</colorMode>
                <scale>1</scale>
                <heading>0</heading>
                <Icon id="link_697">
                    <href>wifi4.png</href>
                </Icon>
            </IconStyle>
        </Style>
        <Style id="stylesel_698">
            <IconStyle id="substyle_698">
                <colorMode>normal</colorMode>
                <scale>1</scale>
                <heading>0</heading>
                <Icon id="link_698">
                    <href>wifi4.png</href>
                </Icon>
            </IconStyle>
        </Style>
        <Placemark id="feat_725">
            <name>NHP-16-370</name>
            <description>2016-08-03T19:53:13.000Z</description>
            <styleUrl>#stylesel_694</styleUrl>
            <Point id="geom_694">
                <coordinates>-114.65016174,36.58747482,0.0</coordinates>
            </Point>
        </Placemark>
        <Placemark id="feat_726">
            <name>NHP-16-370</name>
            <description>2016-08-03T19:53:19.000Z</description>
            <styleUrl>#stylesel_695</styleUrl>
            <Point id="geom_695">
                <coordinates>-114.65140533,36.58589935,0.0</coordinates>
            </Point>
        </Placemark>
        <Placemark id="feat_727">
            <name>NHP-16-370</name>
            <description>2017-03-31T23:09:27.000Z</description>
            <styleUrl>#stylesel_696</styleUrl>
            <Point id="geom_696">
                <coordinates>-114.51677704,36.67403793,0.0</coordinates>
            </Point>
        </Placemark>
        <Placemark id="feat_728">
            <name>NHP-16-370</name>
            <description>2017-03-31T23:09:23.000Z</description>
            <styleUrl>#stylesel_697</styleUrl>
            <Point id="geom_697">
                <coordinates>-114.51581573,36.6750946,0.0</coordinates>
            </Point>
        </Placemark>
        <Placemark id="feat_729">
            <name>NHP-16-370</name>
            <description>2017-03-09T21:22:22.000Z</description>
            <styleUrl>#stylesel_698</styleUrl>
            <Point id="geom_698">
                <coordinates>-114.96430969,36.30566788,0.0</coordinates>
            </Point>
        </Placemark>
    </Document>
</kml>
