<?xml version="1.0" encoding="UTF-8"?>
<kml xmlns="http://www.opengis.net/kml/2.2" xmlns:gx="http://www.google.com/kml/ext/2.2">
    <Document id="feat_2171">
        <Style id="stylesel_1991">
            <IconStyle id="substyle_1991">
                <colorMode>normal</colorMode>
                <scale>1</scale>
                <heading>0</heading>
                <Icon id="link_1991">
                    <href>wifi4.png</href>
                </Icon>
            </IconStyle>
        </Style>
        <Style id="stylesel_1992">
            <IconStyle id="substyle_1992">
                <colorMode>normal</colorMode>
                <scale>1</scale>
                <heading>0</heading>
                <Icon id="link_1992">
                    <href>wifi4.png</href>
                </Icon>
            </IconStyle>
        </Style>
        <Style id="stylesel_1993">
            <IconStyle id="substyle_1993">
                <colorMode>normal</colorMode>
                <scale>1</scale>
                <heading>0</heading>
                <Icon id="link_1993">
                    <href>wifi4.png</href>
                </Icon>
            </IconStyle>
        </Style>
        <Style id="stylesel_1994">
            <IconStyle id="substyle_1994">
                <colorMode>normal</colorMode>
                <scale>1</scale>
                <heading>0</heading>
                <Icon id="link_1994">
                    <href>wifi4.png</href>
                </Icon>
            </IconStyle>
        </Style>
        <Style id="stylesel_1995">
            <IconStyle id="substyle_1995">
                <colorMode>normal</colorMode>
                <scale>1</scale>
                <heading>0</heading>
                <Icon id="link_1995">
                    <href>wifi4.png</href>
                </Icon>
            </IconStyle>
        </Style>
        <Style id="stylesel_1996">
            <IconStyle id="substyle_1996">
                <colorMode>normal</colorMode>
                <scale>1</scale>
                <heading>0</heading>
                <Icon id="link_1996">
                    <href>wifi4.png</href>
                </Icon>
            </IconStyle>
        </Style>
        <Style id="stylesel_1997">
            <IconStyle id="substyle_1997">
                <colorMode>normal</colorMode>
                <scale>1</scale>
                <heading>0</heading>
                <Icon id="link_1997">
                    <href>wifi4.png</href>
                </Icon>
            </IconStyle>
        </Style>
        <Style id="stylesel_1998">
            <IconStyle id="substyle_1998">
                <colorMode>normal</colorMode>
                <scale>1</scale>
                <heading>0</heading>
                <Icon id="link_1998">
                    <href>wifi4.png</href>
                </Icon>
            </IconStyle>
        </Style>
        <Style id="stylesel_1999">
            <IconStyle id="substyle_1999">
                <colorMode>normal</colorMode>
                <scale>1</scale>
                <heading>0</heading>
                <Icon id="link_1999">
                    <href>wifi4.png</href>
                </Icon>
            </IconStyle>
        </Style>
        <Style id="stylesel_2000">
            <IconStyle id="substyle_2000">
                <colorMode>normal</colorMode>
                <scale>1</scale>
                <heading>0</heading>
                <Icon id="link_2000">
                    <href>wifi4.png</href>
                </Icon>
            </IconStyle>
        </Style>
        <Style id="stylesel_2001">
            <IconStyle id="substyle_2001">
                <colorMode>normal</colorMode>
                <scale>1</scale>
                <heading>0</heading>
                <Icon id="link_2001">
                    <href>wifi4.png</href>
                </Icon>
            </IconStyle>
        </Style>
        <Style id="stylesel_2002">
            <IconStyle id="substyle_2002">
                <colorMode>normal</colorMode>
                <scale>1</scale>
                <heading>0</heading>
                <Icon id="link_2002">
                    <href>wifi4.png</href>
                </Icon>
            </IconStyle>
        </Style>
        <Style id="stylesel_2003">
            <IconStyle id="substyle_2003">
                <colorMode>normal</colorMode>
                <scale>1</scale>
                <heading>0</heading>
                <Icon id="link_2003">
                    <href>wifi4.png</href>
                </Icon>
            </IconStyle>
        </Style>
        <Style id="stylesel_2004">
            <IconStyle id="substyle_2004">
                <colorMode>normal</colorMode>
                <scale>1</scale>
                <heading>0</heading>
                <Icon id="link_2004">
                    <href>wifi4.png</href>
                </Icon>
            </IconStyle>
        </Style>
        <Style id="stylesel_2005">
            <IconStyle id="substyle_2005">
                <colorMode>normal</colorMode>
                <scale>1</scale>
                <heading>0</heading>
                <Icon id="link_2005">
                    <href>wifi4.png</href>
                </Icon>
            </IconStyle>
        </Style>
        <Style id="stylesel_2006">
            <IconStyle id="substyle_2006">
                <colorMode>normal</colorMode>
                <scale>1</scale>
                <heading>0</heading>
                <Icon id="link_2006">
                    <href>wifi4.png</href>
                </Icon>
            </IconStyle>
        </Style>
        <Style id="stylesel_2007">
            <IconStyle id="substyle_2007">
                <colorMode>normal</colorMode>
                <scale>1</scale>
                <heading>0</heading>
                <Icon id="link_2007">
                    <href>wifi4.png</href>
                </Icon>
            </IconStyle>
        </Style>
        <Style id="stylesel_2008">
            <IconStyle id="substyle_2008">
                <colorMode>normal</colorMode>
                <scale>1</scale>
                <heading>0</heading>
                <Icon id="link_2008">
                    <href>wifi4.png</href>
                </Icon>
            </IconStyle>
        </Style>
        <Style id="stylesel_2009">
            <IconStyle id="substyle_2009">
                <colorMode>normal</colorMode>
                <scale>1</scale>
                <heading>0</heading>
                <Icon id="link_2009">
                    <href>wifi4.png</href>
                </Icon>
            </IconStyle>
        </Style>
        <Style id="stylesel_2010">
            <IconStyle id="substyle_2010">
                <colorMode>normal</colorMode>
                <scale>1</scale>
                <heading>0</heading>
                <Icon id="link_2010">
                    <href>wifi4.png</href>
                </Icon>
            </IconStyle>
        </Style>
        <Style id="stylesel_2011">
            <IconStyle id="substyle_2011">
                <colorMode>normal</colorMode>
                <scale>1</scale>
                <heading>0</heading>
                <Icon id="link_2011">
                    <href>wifi4.png</href>
                </Icon>
            </IconStyle>
        </Style>
        <Style id="stylesel_2012">
            <IconStyle id="substyle_2012">
                <colorMode>normal</colorMode>
                <scale>1</scale>
                <heading>0</heading>
                <Icon id="link_2012">
                    <href>wifi4.png</href>
                </Icon>
            </IconStyle>
        </Style>
        <Style id="stylesel_2013">
            <IconStyle id="substyle_2013">
                <colorMode>normal</colorMode>
                <scale>1</scale>
                <heading>0</heading>
                <Icon id="link_2013">
                    <href>wifi4.png</href>
                </Icon>
            </IconStyle>
        </Style>
        <Style id="stylesel_2014">
            <IconStyle id="substyle_2014">
                <colorMode>normal</colorMode>
                <scale>1</scale>
                <heading>0</heading>
                <Icon id="link_2014">
                    <href>wifi4.png</href>
                </Icon>
            </IconStyle>
        </Style>
        <Style id="stylesel_2015">
            <IconStyle id="substyle_2015">
                <colorMode>normal</colorMode>
                <scale>1</scale>
                <heading>0</heading>
                <Icon id="link_2015">
                    <href>wifi4.png</href>
                </Icon>
            </IconStyle>
        </Style>
        <Style id="stylesel_2016">
            <IconStyle id="substyle_2016">
                <colorMode>normal</colorMode>
                <scale>1</scale>
                <heading>0</heading>
                <Icon id="link_2016">
                    <href>wifi4.png</href>
                </Icon>
            </IconStyle>
        </Style>
        <Style id="stylesel_2017">
            <IconStyle id="substyle_2017">
                <colorMode>normal</colorMode>
                <scale>1</scale>
                <heading>0</heading>
                <Icon id="link_2017">
                    <href>wifi4.png</href>
                </Icon>
            </IconStyle>
        </Style>
        <Placemark id="feat_2172">
            <name>NHP-14-410</name>
            <description>2017-09-04T07:06:13.000Z</description>
            <styleUrl>#stylesel_1991</styleUrl>
            <Point id="geom_1991">
                <coordinates>-119.33742523,40.57168961,0.0</coordinates>
            </Point>
        </Placemark>
        <Placemark id="feat_2173">
            <name>NHP-14-410</name>
            <description>2017-09-04T07:06:10.000Z</description>
            <styleUrl>#stylesel_1992</styleUrl>
            <Point id="geom_1992">
                <coordinates>-119.33730316,40.57194519,0.0</coordinates>
            </Point>
        </Placemark>
        <Placemark id="feat_2174">
            <name>NHP-14-410</name>
            <description>2017-09-04T07:05:55.000Z</description>
            <styleUrl>#stylesel_1993</styleUrl>
            <Point id="geom_1993">
                <coordinates>-119.33693695,40.57270813,0.0</coordinates>
            </Point>
        </Placemark>
        <Placemark id="feat_2175">
            <name>NHP-14-410</name>
            <description>2017-09-04T07:06:25.000Z</description>
            <styleUrl>#stylesel_1994</styleUrl>
            <Point id="geom_1994">
                <coordinates>-119.33799744,40.57047653,0.0</coordinates>
            </Point>
        </Placemark>
        <Placemark id="feat_2176">
            <name>NHP-14-410</name>
            <description>2017-09-04T11:24:31.000Z</description>
            <styleUrl>#stylesel_1995</styleUrl>
            <Point id="geom_1995">
                <coordinates>-119.39071655,39.88243484,0.0</coordinates>
            </Point>
        </Placemark>
        <Placemark id="feat_2177">
            <name>NHP-14-410</name>
            <description>2017-09-04T11:24:43.000Z</description>
            <styleUrl>#stylesel_1996</styleUrl>
            <Point id="geom_1996">
                <coordinates>-119.39175415,39.88034058,0.0</coordinates>
            </Point>
        </Placemark>
        <Placemark id="feat_2178">
            <name>NHP-14-410</name>
            <description>2017-09-04T11:24:37.000Z</description>
            <styleUrl>#stylesel_1997</styleUrl>
            <Point id="geom_1997">
                <coordinates>-119.39125824,39.8813858,0.0</coordinates>
            </Point>
        </Placemark>
        <Placemark id="feat_2179">
            <name>NHP-14-410</name>
            <description>2017-09-04T07:05:49.000Z</description>
            <styleUrl>#stylesel_1998</styleUrl>
            <Point id="geom_1998">
                <coordinates>-119.33682251,40.57294464,0.0</coordinates>
            </Point>
        </Placemark>
        <Placemark id="feat_2180">
            <name>NHP-14-410</name>
            <description>2017-09-04T09:29:11.000Z</description>
            <styleUrl>#stylesel_1999</styleUrl>
            <Point id="geom_1999">
                <coordinates>-119.45458221,39.84735107,0.0</coordinates>
            </Point>
        </Placemark>
        <Placemark id="feat_2181">
            <name>NHP-14-410</name>
            <description>2017-09-04T11:24:49.000Z</description>
            <styleUrl>#stylesel_2000</styleUrl>
            <Point id="geom_2000">
                <coordinates>-119.39225769,39.87929535,0.0</coordinates>
            </Point>
        </Placemark>
        <Placemark id="feat_2182">
            <name>NHP-14-410</name>
            <description>2017-09-04T07:06:43.000Z</description>
            <styleUrl>#stylesel_2001</styleUrl>
            <Point id="geom_2001">
                <coordinates>-119.33893585,40.56835556,0.0</coordinates>
            </Point>
        </Placemark>
        <Placemark id="feat_2183">
            <name>NHP-14-410</name>
            <description>2017-09-04T07:06:34.000Z</description>
            <styleUrl>#stylesel_2002</styleUrl>
            <Point id="geom_2002">
                <coordinates>-119.33848572,40.56942749,0.0</coordinates>
            </Point>
        </Placemark>
        <Placemark id="feat_2184">
            <name>NHP-14-410</name>
            <description>2017-09-04T07:53:48.000Z</description>
            <styleUrl>#stylesel_2003</styleUrl>
            <Point id="geom_2003">
                <coordinates>-119.37494659,40.07056046,0.0</coordinates>
            </Point>
        </Placemark>
        <Placemark id="feat_2185">
            <name>NHP-14-410</name>
            <description>2017-09-04T07:41:57.000Z</description>
            <styleUrl>#stylesel_2004</styleUrl>
            <Point id="geom_2004">
                <coordinates>-119.36870575,40.18012238,0.0</coordinates>
            </Point>
        </Placemark>
        <Placemark id="feat_2186">
            <name>NHP-14-410</name>
            <description>2017-09-04T07:41:51.000Z</description>
            <styleUrl>#stylesel_2005</styleUrl>
            <Point id="geom_2005">
                <coordinates>-119.36899567,40.18115616,0.0</coordinates>
            </Point>
        </Placemark>
        <Placemark id="feat_2187">
            <name>NHP-14-410</name>
            <description>2017-09-04T11:24:55.000Z</description>
            <styleUrl>#stylesel_2006</styleUrl>
            <Point id="geom_2006">
                <coordinates>-119.39281464,39.87820053,0.0</coordinates>
            </Point>
        </Placemark>
        <Placemark id="feat_2188">
            <name>NHP-14-410</name>
            <description>2017-09-04T11:25:04.000Z</description>
            <styleUrl>#stylesel_2007</styleUrl>
            <Point id="geom_2007">
                <coordinates>-119.39350128,39.87679672,0.0</coordinates>
            </Point>
        </Placemark>
        <Placemark id="feat_2189">
            <name>NHP-14-410</name>
            <description>2017-09-04T07:53:33.000Z</description>
            <styleUrl>#stylesel_2008</styleUrl>
            <Point id="geom_2008">
                <coordinates>-119.37450409,40.07174301,0.0</coordinates>
            </Point>
        </Placemark>
        <Placemark id="feat_2190">
            <name>NHP-14-410</name>
            <description>2017-09-04T11:24:25.000Z</description>
            <styleUrl>#stylesel_2009</styleUrl>
            <Point id="geom_2009">
                <coordinates>-119.39011383,39.88351059,0.0</coordinates>
            </Point>
        </Placemark>
        <Placemark id="feat_2191">
            <name>NHP-14-410</name>
            <description>2017-09-04T07:41:45.000Z</description>
            <styleUrl>#stylesel_2010</styleUrl>
            <Point id="geom_2010">
                <coordinates>-119.3693161,40.18224335,0.0</coordinates>
            </Point>
        </Placemark>
        <Placemark id="feat_2192">
            <name>NHP-14-410</name>
            <description>2017-09-04T07:48:22.000Z</description>
            <styleUrl>#stylesel_2011</styleUrl>
            <Point id="geom_2011">
                <coordinates>-119.36872864,40.11865616,0.0</coordinates>
            </Point>
        </Placemark>
        <Placemark id="feat_2193">
            <name>NHP-14-410</name>
            <description>2017-09-04T07:54:00.000Z</description>
            <styleUrl>#stylesel_2012</styleUrl>
            <Point id="geom_2012">
                <coordinates>-119.37547302,40.06932831,0.0</coordinates>
            </Point>
        </Placemark>
        <Placemark id="feat_2194">
            <name>NHP-14-410</name>
            <description>2017-09-04T07:54:12.000Z</description>
            <styleUrl>#stylesel_2013</styleUrl>
            <Point id="geom_2013">
                <coordinates>-119.37599182,40.06803894,0.0</coordinates>
            </Point>
        </Placemark>
        <Placemark id="feat_2195">
            <name>NHP-14-410</name>
            <description>2017-09-04T11:22:28.000Z</description>
            <styleUrl>#stylesel_2014</styleUrl>
            <Point id="geom_2014">
                <coordinates>-119.38296509,39.90537643,0.0</coordinates>
            </Point>
        </Placemark>
        <Placemark id="feat_2196">
            <name>NHP-14-410</name>
            <description>2017-09-04T08:21:10.000Z</description>
            <styleUrl>#stylesel_2015</styleUrl>
            <Point id="geom_2015">
                <coordinates>-119.35839081,39.83641052,0.0</coordinates>
            </Point>
        </Placemark>
        <Placemark id="feat_2197">
            <name>NHP-14-410</name>
            <description>2017-09-04T11:22:22.000Z</description>
            <styleUrl>#stylesel_2016</styleUrl>
            <Point id="geom_2016">
                <coordinates>-119.38280487,39.90654373,0.0</coordinates>
            </Point>
        </Placemark>
        <Placemark id="feat_2198">
            <name>NHP-14-410</name>
            <description>2017-09-04T08:21:22.000Z</description>
            <styleUrl>#stylesel_2017</styleUrl>
            <Point id="geom_2017">
                <coordinates>-119.35826111,39.83538818,0.0</coordinates>
            </Point>
        </Placemark>
    </Document>
</kml>
