<?xml version="1.0" encoding="UTF-8"?>
<kml xmlns="http://www.opengis.net/kml/2.2" xmlns:gx="http://www.google.com/kml/ext/2.2">
    <Document id="feat_1029">
        <Style id="stylesel_961">
            <IconStyle id="substyle_961">
                <colorMode>normal</colorMode>
                <scale>1</scale>
                <heading>0</heading>
                <Icon id="link_961">
                    <href>wifi4.png</href>
                </Icon>
            </IconStyle>
        </Style>
        <Style id="stylesel_962">
            <IconStyle id="substyle_962">
                <colorMode>normal</colorMode>
                <scale>1</scale>
                <heading>0</heading>
                <Icon id="link_962">
                    <href>wifi4.png</href>
                </Icon>
            </IconStyle>
        </Style>
        <Style id="stylesel_963">
            <IconStyle id="substyle_963">
                <colorMode>normal</colorMode>
                <scale>1</scale>
                <heading>0</heading>
                <Icon id="link_963">
                    <href>wifi4.png</href>
                </Icon>
            </IconStyle>
        </Style>
        <Style id="stylesel_964">
            <IconStyle id="substyle_964">
                <colorMode>normal</colorMode>
                <scale>1</scale>
                <heading>0</heading>
                <Icon id="link_964">
                    <href>wifi4.png</href>
                </Icon>
            </IconStyle>
        </Style>
        <Style id="stylesel_965">
            <IconStyle id="substyle_965">
                <colorMode>normal</colorMode>
                <scale>1</scale>
                <heading>0</heading>
                <Icon id="link_965">
                    <href>wifi4.png</href>
                </Icon>
            </IconStyle>
        </Style>
        <Placemark id="feat_1030">
            <name>NHP-13-128</name>
            <description>2017-05-12T05:43:09.000Z</description>
            <styleUrl>#stylesel_961</styleUrl>
            <Point id="geom_961">
                <coordinates>-115.11985016,36.08459473,0.0</coordinates>
            </Point>
        </Placemark>
        <Placemark id="feat_1031">
            <name>NHP-13-128</name>
            <description>2017-05-12T05:43:09.000Z</description>
            <styleUrl>#stylesel_962</styleUrl>
            <Point id="geom_962">
                <coordinates>-115.11985016,36.08459473,0.0</coordinates>
            </Point>
        </Placemark>
        <Placemark id="feat_1032">
            <name>NHP-13-128</name>
            <description>2016-12-15T23:57:49.000Z</description>
            <styleUrl>#stylesel_963</styleUrl>
            <Point id="geom_963">
                <coordinates>-115.21260071,36.06771088,0.0</coordinates>
            </Point>
        </Placemark>
        <Placemark id="feat_1033">
            <name>NHP-13-128</name>
            <description>2017-04-03T12:56:15.000Z</description>
            <styleUrl>#stylesel_964</styleUrl>
            <Point id="geom_964">
                <coordinates>-115.20354462,36.07170868,0.0</coordinates>
            </Point>
        </Placemark>
        <Placemark id="feat_1034">
            <name>NHP-13-128</name>
            <description>2016-12-15T23:54:47.000Z</description>
            <styleUrl>#stylesel_965</styleUrl>
            <Point id="geom_965">
                <coordinates>-115.2078476,36.06820297,0.0</coordinates>
            </Point>
        </Placemark>
    </Document>
</kml>
