<?xml version="1.0" encoding="UTF-8"?>
<kml xmlns="http://www.opengis.net/kml/2.2" xmlns:gx="http://www.google.com/kml/ext/2.2">
    <Document id="feat_1345">
        <Style id="stylesel_1243">
            <IconStyle id="substyle_1243">
                <colorMode>normal</colorMode>
                <scale>1</scale>
                <heading>0</heading>
                <Icon id="link_1243">
                    <href>wifi4.png</href>
                </Icon>
            </IconStyle>
        </Style>
        <Placemark id="feat_1346">
            <name>NHP-16-146</name>
            <description>2017-08-01T21:03:19.000Z</description>
            <styleUrl>#stylesel_1243</styleUrl>
            <Point id="geom_1243">
                <coordinates>-115.18063354,36.09494781,0.0</coordinates>
            </Point>
        </Placemark>
    </Document>
</kml>
