<?xml version="1.0" encoding="UTF-8"?>
<kml xmlns="http://www.opengis.net/kml/2.2" xmlns:gx="http://www.google.com/kml/ext/2.2">
    <Document id="feat_2721">
        <Style id="stylesel_2484">
            <IconStyle id="substyle_2484">
                <colorMode>normal</colorMode>
                <scale>1</scale>
                <heading>0</heading>
                <Icon id="link_2484">
                    <href>wifi4.png</href>
                </Icon>
            </IconStyle>
        </Style>
        <Style id="stylesel_2485">
            <IconStyle id="substyle_2485">
                <colorMode>normal</colorMode>
                <scale>1</scale>
                <heading>0</heading>
                <Icon id="link_2485">
                    <href>wifi4.png</href>
                </Icon>
            </IconStyle>
        </Style>
        <Style id="stylesel_2486">
            <IconStyle id="substyle_2486">
                <colorMode>normal</colorMode>
                <scale>1</scale>
                <heading>0</heading>
                <Icon id="link_2486">
                    <href>wifi4.png</href>
                </Icon>
            </IconStyle>
        </Style>
        <Style id="stylesel_2487">
            <IconStyle id="substyle_2487">
                <colorMode>normal</colorMode>
                <scale>1</scale>
                <heading>0</heading>
                <Icon id="link_2487">
                    <href>wifi4.png</href>
                </Icon>
            </IconStyle>
        </Style>
        <Placemark id="feat_2722">
            <name>NHP-15-110A</name>
            <description>2016-09-05T20:21:09.000Z</description>
            <styleUrl>#stylesel_2484</styleUrl>
            <Point id="geom_2484">
                <coordinates>-119.33499146,40.59313583,0.0</coordinates>
            </Point>
        </Placemark>
        <Placemark id="feat_2723">
            <name>NHP-15-110A</name>
            <description>2016-09-05T20:20:59.000Z</description>
            <styleUrl>#stylesel_2485</styleUrl>
            <Point id="geom_2485">
                <coordinates>-119.33506012,40.59432602,0.0</coordinates>
            </Point>
        </Placemark>
        <Placemark id="feat_2724">
            <name>NHP-15-110A</name>
            <description>2016-09-05T20:20:49.000Z</description>
            <styleUrl>#stylesel_2486</styleUrl>
            <Point id="geom_2486">
                <coordinates>-119.33506775,40.59563828,0.0</coordinates>
            </Point>
        </Placemark>
        <Placemark id="feat_2725">
            <name>NHP-15-110A</name>
            <description>2016-09-05T20:20:39.000Z</description>
            <styleUrl>#stylesel_2487</styleUrl>
            <Point id="geom_2487">
                <coordinates>-119.33501434,40.59710693,0.0</coordinates>
            </Point>
        </Placemark>
    </Document>
</kml>
