<?xml version="1.0" encoding="UTF-8"?>
<kml xmlns="http://www.opengis.net/kml/2.2" xmlns:gx="http://www.google.com/kml/ext/2.2">
    <Document id="feat_1035">
        <Style id="stylesel_966">
            <IconStyle id="substyle_966">
                <colorMode>normal</colorMode>
                <scale>1</scale>
                <heading>0</heading>
                <Icon id="link_966">
                    <href>wifi4.png</href>
                </Icon>
            </IconStyle>
        </Style>
        <Style id="stylesel_967">
            <IconStyle id="substyle_967">
                <colorMode>normal</colorMode>
                <scale>1</scale>
                <heading>0</heading>
                <Icon id="link_967">
                    <href>wifi4.png</href>
                </Icon>
            </IconStyle>
        </Style>
        <Style id="stylesel_968">
            <IconStyle id="substyle_968">
                <colorMode>normal</colorMode>
                <scale>1</scale>
                <heading>0</heading>
                <Icon id="link_968">
                    <href>wifi4.png</href>
                </Icon>
            </IconStyle>
        </Style>
        <Style id="stylesel_969">
            <IconStyle id="substyle_969">
                <colorMode>normal</colorMode>
                <scale>1</scale>
                <heading>0</heading>
                <Icon id="link_969">
                    <href>wifi4.png</href>
                </Icon>
            </IconStyle>
        </Style>
        <Style id="stylesel_970">
            <IconStyle id="substyle_970">
                <colorMode>normal</colorMode>
                <scale>1</scale>
                <heading>0</heading>
                <Icon id="link_970">
                    <href>wifi4.png</href>
                </Icon>
            </IconStyle>
        </Style>
        <Style id="stylesel_971">
            <IconStyle id="substyle_971">
                <colorMode>normal</colorMode>
                <scale>1</scale>
                <heading>0</heading>
                <Icon id="link_971">
                    <href>wifi4.png</href>
                </Icon>
            </IconStyle>
        </Style>
        <Placemark id="feat_1036">
            <name>NHP-13-136</name>
            <description>2016-10-07T21:23:43.000Z</description>
            <styleUrl>#stylesel_966</styleUrl>
            <Point id="geom_966">
                <coordinates>-116.76785278,40.64438629,0.0</coordinates>
            </Point>
        </Placemark>
        <Placemark id="feat_1037">
            <name>NHP-13-136</name>
            <description>2016-10-07T21:23:47.000Z</description>
            <styleUrl>#stylesel_967</styleUrl>
            <Point id="geom_967">
                <coordinates>-116.76693726,40.64545822,0.0</coordinates>
            </Point>
        </Placemark>
        <Placemark id="feat_1038">
            <name>NHP-13-136</name>
            <description>2016-10-07T21:23:33.000Z</description>
            <styleUrl>#stylesel_968</styleUrl>
            <Point id="geom_968">
                <coordinates>-116.77006531,40.6416893,0.0</coordinates>
            </Point>
        </Placemark>
        <Placemark id="feat_1039">
            <name>NHP-13-136</name>
            <description>2016-10-07T21:23:39.000Z</description>
            <styleUrl>#stylesel_969</styleUrl>
            <Point id="geom_969">
                <coordinates>-116.76873779,40.64330292,0.0</coordinates>
            </Point>
        </Placemark>
        <Placemark id="feat_1040">
            <name>NHP-13-136</name>
            <description>2016-10-07T21:23:24.000Z</description>
            <styleUrl>#stylesel_970</styleUrl>
            <Point id="geom_970">
                <coordinates>-116.77204132,40.63926315,0.0</coordinates>
            </Point>
        </Placemark>
        <Placemark id="feat_1041">
            <name>NHP-13-136</name>
            <description>2016-10-07T21:23:28.000Z</description>
            <styleUrl>#stylesel_971</styleUrl>
            <Point id="geom_971">
                <coordinates>-116.77116394,40.64033508,0.0</coordinates>
            </Point>
        </Placemark>
    </Document>
</kml>
