<?xml version="1.0" encoding="UTF-8"?>
<kml xmlns="http://www.opengis.net/kml/2.2" xmlns:gx="http://www.google.com/kml/ext/2.2">
    <Document id="feat_2474">
        <Style id="stylesel_2268">
            <IconStyle id="substyle_2268">
                <colorMode>normal</colorMode>
                <scale>1</scale>
                <heading>0</heading>
                <Icon id="link_2268">
                    <href>wifi4.png</href>
                </Icon>
            </IconStyle>
        </Style>
        <Style id="stylesel_2269">
            <IconStyle id="substyle_2269">
                <colorMode>normal</colorMode>
                <scale>1</scale>
                <heading>0</heading>
                <Icon id="link_2269">
                    <href>wifi4.png</href>
                </Icon>
            </IconStyle>
        </Style>
        <Style id="stylesel_2270">
            <IconStyle id="substyle_2270">
                <colorMode>normal</colorMode>
                <scale>1</scale>
                <heading>0</heading>
                <Icon id="link_2270">
                    <href>wifi4.png</href>
                </Icon>
            </IconStyle>
        </Style>
        <Style id="stylesel_2271">
            <IconStyle id="substyle_2271">
                <colorMode>normal</colorMode>
                <scale>1</scale>
                <heading>0</heading>
                <Icon id="link_2271">
                    <href>wifi4.png</href>
                </Icon>
            </IconStyle>
        </Style>
        <Placemark id="feat_2475">
            <name>NHP-16-454</name>
            <description>2017-05-17T18:08:52.000Z</description>
            <styleUrl>#stylesel_2268</styleUrl>
            <Point id="geom_2268">
                <coordinates>-119.26422882,39.60966873,0.0</coordinates>
            </Point>
        </Placemark>
        <Placemark id="feat_2476">
            <name>NHP-16-454</name>
            <description>2017-05-17T18:09:03.000Z</description>
            <styleUrl>#stylesel_2269</styleUrl>
            <Point id="geom_2269">
                <coordinates>-119.26502228,39.61105728,0.0</coordinates>
            </Point>
        </Placemark>
        <Placemark id="feat_2477">
            <name>NHP-16-454</name>
            <description>2017-05-17T17:54:46.000Z</description>
            <styleUrl>#stylesel_2270</styleUrl>
            <Point id="geom_2270">
                <coordinates>-119.21803284,39.61064911,0.0</coordinates>
            </Point>
        </Placemark>
        <Placemark id="feat_2478">
            <name>NHP-16-454</name>
            <description>2017-05-17T18:08:42.000Z</description>
            <styleUrl>#stylesel_2271</styleUrl>
            <Point id="geom_2271">
                <coordinates>-119.26304626,39.60866928,0.0</coordinates>
            </Point>
        </Placemark>
    </Document>
</kml>
