<?xml version="1.0" encoding="UTF-8"?>
<kml xmlns="http://www.opengis.net/kml/2.2" xmlns:gx="http://www.google.com/kml/ext/2.2">
    <Document id="feat_489">
        <Style id="stylesel_483">
            <IconStyle id="substyle_483">
                <colorMode>normal</colorMode>
                <scale>1</scale>
                <heading>0</heading>
                <Icon id="link_483">
                    <href>wifi4.png</href>
                </Icon>
            </IconStyle>
        </Style>
        <Style id="stylesel_484">
            <IconStyle id="substyle_484">
                <colorMode>normal</colorMode>
                <scale>1</scale>
                <heading>0</heading>
                <Icon id="link_484">
                    <href>wifi4.png</href>
                </Icon>
            </IconStyle>
        </Style>
        <Style id="stylesel_485">
            <IconStyle id="substyle_485">
                <colorMode>normal</colorMode>
                <scale>1</scale>
                <heading>0</heading>
                <Icon id="link_485">
                    <href>wifi4.png</href>
                </Icon>
            </IconStyle>
        </Style>
        <Style id="stylesel_486">
            <IconStyle id="substyle_486">
                <colorMode>normal</colorMode>
                <scale>1</scale>
                <heading>0</heading>
                <Icon id="link_486">
                    <href>wifi4.png</href>
                </Icon>
            </IconStyle>
        </Style>
        <Style id="stylesel_487">
            <IconStyle id="substyle_487">
                <colorMode>normal</colorMode>
                <scale>1</scale>
                <heading>0</heading>
                <Icon id="link_487">
                    <href>wifi4.png</href>
                </Icon>
            </IconStyle>
        </Style>
        <Style id="stylesel_488">
            <IconStyle id="substyle_488">
                <colorMode>normal</colorMode>
                <scale>1</scale>
                <heading>0</heading>
                <Icon id="link_488">
                    <href>wifi4.png</href>
                </Icon>
            </IconStyle>
        </Style>
        <Style id="stylesel_489">
            <IconStyle id="substyle_489">
                <colorMode>normal</colorMode>
                <scale>1</scale>
                <heading>0</heading>
                <Icon id="link_489">
                    <href>wifi4.png</href>
                </Icon>
            </IconStyle>
        </Style>
        <Style id="stylesel_490">
            <IconStyle id="substyle_490">
                <colorMode>normal</colorMode>
                <scale>1</scale>
                <heading>0</heading>
                <Icon id="link_490">
                    <href>wifi4.png</href>
                </Icon>
            </IconStyle>
        </Style>
        <Style id="stylesel_491">
            <IconStyle id="substyle_491">
                <colorMode>normal</colorMode>
                <scale>1</scale>
                <heading>0</heading>
                <Icon id="link_491">
                    <href>wifi4.png</href>
                </Icon>
            </IconStyle>
        </Style>
        <Placemark id="feat_490">
            <name>NHP-14-439</name>
            <description>2016-10-17T15:59:30.000Z</description>
            <styleUrl>#stylesel_483</styleUrl>
            <Point id="geom_483">
                <coordinates>-117.89688873,40.89406967,0.0</coordinates>
            </Point>
        </Placemark>
        <Placemark id="feat_491">
            <name>NHP-14-439</name>
            <description>2016-10-17T15:59:26.000Z</description>
            <styleUrl>#stylesel_484</styleUrl>
            <Point id="geom_484">
                <coordinates>-117.89837646,40.89341354,0.0</coordinates>
            </Point>
        </Placemark>
        <Placemark id="feat_492">
            <name>NHP-14-439</name>
            <description>2016-10-17T15:59:34.000Z</description>
            <styleUrl>#stylesel_485</styleUrl>
            <Point id="geom_485">
                <coordinates>-117.89540863,40.89470673,0.0</coordinates>
            </Point>
        </Placemark>
        <Placemark id="feat_493">
            <name>NHP-14-439</name>
            <description>2016-10-17T15:59:38.000Z</description>
            <styleUrl>#stylesel_486</styleUrl>
            <Point id="geom_486">
                <coordinates>-117.89389801,40.89537048,0.0</coordinates>
            </Point>
        </Placemark>
        <Placemark id="feat_494">
            <name>NHP-14-439</name>
            <description>2016-04-04T00:32:09.000Z</description>
            <styleUrl>#stylesel_487</styleUrl>
            <Point id="geom_487">
                <coordinates>-117.96685791,40.84132385,0.0</coordinates>
            </Point>
        </Placemark>
        <Placemark id="feat_495">
            <name>NHP-14-439</name>
            <description>2016-04-04T00:32:02.000Z</description>
            <styleUrl>#stylesel_488</styleUrl>
            <Point id="geom_488">
                <coordinates>-117.96547699,40.84294128,0.0</coordinates>
            </Point>
        </Placemark>
        <Placemark id="feat_496">
            <name>NHP-14-439</name>
            <description>2016-04-04T00:31:55.000Z</description>
            <styleUrl>#stylesel_489</styleUrl>
            <Point id="geom_489">
                <coordinates>-117.96409607,40.84457016,0.0</coordinates>
            </Point>
        </Placemark>
        <Placemark id="feat_497">
            <name>NHP-14-439</name>
            <description>2016-10-17T15:59:21.000Z</description>
            <styleUrl>#stylesel_490</styleUrl>
            <Point id="geom_490">
                <coordinates>-117.90024567,40.89256668,0.0</coordinates>
            </Point>
        </Placemark>
        <Placemark id="feat_498">
            <name>NHP-14-439</name>
            <description>2016-09-18T13:00:11.000Z</description>
            <styleUrl>#stylesel_491</styleUrl>
            <Point id="geom_491">
                <coordinates>-117.49349976,40.94628906,0.0</coordinates>
            </Point>
        </Placemark>
    </Document>
</kml>
