<?xml version="1.0" encoding="UTF-8"?>
<kml xmlns="http://www.opengis.net/kml/2.2" xmlns:gx="http://www.google.com/kml/ext/2.2">
    <Document id="feat_2366">
        <Style id="stylesel_2173">
            <IconStyle id="substyle_2173">
                <colorMode>normal</colorMode>
                <scale>1</scale>
                <heading>0</heading>
                <Icon id="link_2173">
                    <href>wifi4.png</href>
                </Icon>
            </IconStyle>
        </Style>
        <Style id="stylesel_2174">
            <IconStyle id="substyle_2174">
                <colorMode>normal</colorMode>
                <scale>1</scale>
                <heading>0</heading>
                <Icon id="link_2174">
                    <href>wifi4.png</href>
                </Icon>
            </IconStyle>
        </Style>
        <Style id="stylesel_2175">
            <IconStyle id="substyle_2175">
                <colorMode>normal</colorMode>
                <scale>1</scale>
                <heading>0</heading>
                <Icon id="link_2175">
                    <href>wifi4.png</href>
                </Icon>
            </IconStyle>
        </Style>
        <Style id="stylesel_2176">
            <IconStyle id="substyle_2176">
                <colorMode>normal</colorMode>
                <scale>1</scale>
                <heading>0</heading>
                <Icon id="link_2176">
                    <href>wifi4.png</href>
                </Icon>
            </IconStyle>
        </Style>
        <Style id="stylesel_2177">
            <IconStyle id="substyle_2177">
                <colorMode>normal</colorMode>
                <scale>1</scale>
                <heading>0</heading>
                <Icon id="link_2177">
                    <href>wifi4.png</href>
                </Icon>
            </IconStyle>
        </Style>
        <Style id="stylesel_2178">
            <IconStyle id="substyle_2178">
                <colorMode>normal</colorMode>
                <scale>1</scale>
                <heading>0</heading>
                <Icon id="link_2178">
                    <href>wifi4.png</href>
                </Icon>
            </IconStyle>
        </Style>
        <Style id="stylesel_2179">
            <IconStyle id="substyle_2179">
                <colorMode>normal</colorMode>
                <scale>1</scale>
                <heading>0</heading>
                <Icon id="link_2179">
                    <href>wifi4.png</href>
                </Icon>
            </IconStyle>
        </Style>
        <Style id="stylesel_2180">
            <IconStyle id="substyle_2180">
                <colorMode>normal</colorMode>
                <scale>1</scale>
                <heading>0</heading>
                <Icon id="link_2180">
                    <href>wifi4.png</href>
                </Icon>
            </IconStyle>
        </Style>
        <Style id="stylesel_2181">
            <IconStyle id="substyle_2181">
                <colorMode>normal</colorMode>
                <scale>1</scale>
                <heading>0</heading>
                <Icon id="link_2181">
                    <href>wifi4.png</href>
                </Icon>
            </IconStyle>
        </Style>
        <Style id="stylesel_2182">
            <IconStyle id="substyle_2182">
                <colorMode>normal</colorMode>
                <scale>1</scale>
                <heading>0</heading>
                <Icon id="link_2182">
                    <href>wifi4.png</href>
                </Icon>
            </IconStyle>
        </Style>
        <Style id="stylesel_2183">
            <IconStyle id="substyle_2183">
                <colorMode>normal</colorMode>
                <scale>1</scale>
                <heading>0</heading>
                <Icon id="link_2183">
                    <href>wifi4.png</href>
                </Icon>
            </IconStyle>
        </Style>
        <Style id="stylesel_2184">
            <IconStyle id="substyle_2184">
                <colorMode>normal</colorMode>
                <scale>1</scale>
                <heading>0</heading>
                <Icon id="link_2184">
                    <href>wifi4.png</href>
                </Icon>
            </IconStyle>
        </Style>
        <Style id="stylesel_2185">
            <IconStyle id="substyle_2185">
                <colorMode>normal</colorMode>
                <scale>1</scale>
                <heading>0</heading>
                <Icon id="link_2185">
                    <href>wifi4.png</href>
                </Icon>
            </IconStyle>
        </Style>
        <Style id="stylesel_2186">
            <IconStyle id="substyle_2186">
                <colorMode>normal</colorMode>
                <scale>1</scale>
                <heading>0</heading>
                <Icon id="link_2186">
                    <href>wifi4.png</href>
                </Icon>
            </IconStyle>
        </Style>
        <Style id="stylesel_2187">
            <IconStyle id="substyle_2187">
                <colorMode>normal</colorMode>
                <scale>1</scale>
                <heading>0</heading>
                <Icon id="link_2187">
                    <href>wifi4.png</href>
                </Icon>
            </IconStyle>
        </Style>
        <Placemark id="feat_2367">
            <name>NHP-14-386A</name>
            <description>2016-11-18T23:21:20.000Z</description>
            <styleUrl>#stylesel_2173</styleUrl>
            <Point id="geom_2173">
                <coordinates>-115.06999207,36.1151886,0.0</coordinates>
            </Point>
        </Placemark>
        <Placemark id="feat_2368">
            <name>NHP-14-386A</name>
            <description>2016-10-13T00:58:31.000Z</description>
            <styleUrl>#stylesel_2174</styleUrl>
            <Point id="geom_2174">
                <coordinates>-115.18897247,36.06607437,0.0</coordinates>
            </Point>
        </Placemark>
        <Placemark id="feat_2369">
            <name>NHP-14-386A</name>
            <description>2016-12-10T02:32:21.000Z</description>
            <styleUrl>#stylesel_2175</styleUrl>
            <Point id="geom_2175">
                <coordinates>-115.18049622,36.13046646,0.0</coordinates>
            </Point>
        </Placemark>
        <Placemark id="feat_2370">
            <name>NHP-14-386A</name>
            <description>2016-12-10T02:32:41.000Z</description>
            <styleUrl>#stylesel_2176</styleUrl>
            <Point id="geom_2176">
                <coordinates>-115.18029022,36.13153458,0.0</coordinates>
            </Point>
        </Placemark>
        <Placemark id="feat_2371">
            <name>NHP-14-386A</name>
            <description>2016-11-26T03:57:19.000Z</description>
            <styleUrl>#stylesel_2177</styleUrl>
            <Point id="geom_2177">
                <coordinates>-115.16353607,36.15296173,0.0</coordinates>
            </Point>
        </Placemark>
        <Placemark id="feat_2372">
            <name>NHP-14-386A</name>
            <description>2016-10-13T00:58:34.000Z</description>
            <styleUrl>#stylesel_2178</styleUrl>
            <Point id="geom_2178">
                <coordinates>-115.18795776,36.06577301,0.0</coordinates>
            </Point>
        </Placemark>
        <Placemark id="feat_2373">
            <name>NHP-14-386A</name>
            <description>2016-10-13T00:58:37.000Z</description>
            <styleUrl>#stylesel_2179</styleUrl>
            <Point id="geom_2179">
                <coordinates>-115.1869278,36.06546021,0.0</coordinates>
            </Point>
        </Placemark>
        <Placemark id="feat_2374">
            <name>NHP-14-386A</name>
            <description>2016-10-13T00:58:40.000Z</description>
            <styleUrl>#stylesel_2180</styleUrl>
            <Point id="geom_2180">
                <coordinates>-115.18590546,36.06515884,0.0</coordinates>
            </Point>
        </Placemark>
        <Placemark id="feat_2375">
            <name>NHP-14-386A</name>
            <description>2016-10-13T00:58:43.000Z</description>
            <styleUrl>#stylesel_2181</styleUrl>
            <Point id="geom_2181">
                <coordinates>-115.18486786,36.06483841,0.0</coordinates>
            </Point>
        </Placemark>
        <Placemark id="feat_2376">
            <name>NHP-14-386A</name>
            <description>2016-10-13T00:58:46.000Z</description>
            <styleUrl>#stylesel_2182</styleUrl>
            <Point id="geom_2182">
                <coordinates>-115.18385315,36.06451035,0.0</coordinates>
            </Point>
        </Placemark>
        <Placemark id="feat_2377">
            <name>NHP-14-386A</name>
            <description>2016-10-13T00:58:49.000Z</description>
            <styleUrl>#stylesel_2183</styleUrl>
            <Point id="geom_2183">
                <coordinates>-115.18283844,36.06420517,0.0</coordinates>
            </Point>
        </Placemark>
        <Placemark id="feat_2378">
            <name>NHP-14-386A</name>
            <description>2016-11-26T03:57:09.000Z</description>
            <styleUrl>#stylesel_2184</styleUrl>
            <Point id="geom_2184">
                <coordinates>-115.16259766,36.15403748,0.0</coordinates>
            </Point>
        </Placemark>
        <Placemark id="feat_2379">
            <name>NHP-14-386A</name>
            <description>2016-10-13T00:58:19.000Z</description>
            <styleUrl>#stylesel_2185</styleUrl>
            <Point id="geom_2185">
                <coordinates>-115.19290161,36.06726074,0.0</coordinates>
            </Point>
        </Placemark>
        <Placemark id="feat_2380">
            <name>NHP-14-386A</name>
            <description>2016-12-29T02:02:20.000Z</description>
            <styleUrl>#stylesel_2186</styleUrl>
            <Point id="geom_2186">
                <coordinates>-115.17392731,36.14088821,0.0</coordinates>
            </Point>
        </Placemark>
        <Placemark id="feat_2381">
            <name>NHP-14-386A</name>
            <description>2016-10-13T00:58:25.000Z</description>
            <styleUrl>#stylesel_2187</styleUrl>
            <Point id="geom_2187">
                <coordinates>-115.19096375,36.06667328,0.0</coordinates>
            </Point>
        </Placemark>
    </Document>
</kml>
