<?xml version="1.0" encoding="UTF-8"?>
<kml xmlns="http://www.opengis.net/kml/2.2" xmlns:gx="http://www.google.com/kml/ext/2.2">
    <Document id="feat_855">
        <Style id="stylesel_814">
            <IconStyle id="substyle_814">
                <colorMode>normal</colorMode>
                <scale>1</scale>
                <heading>0</heading>
                <Icon id="link_814">
                    <href>wifi4.png</href>
                </Icon>
            </IconStyle>
        </Style>
        <Style id="stylesel_815">
            <IconStyle id="substyle_815">
                <colorMode>normal</colorMode>
                <scale>1</scale>
                <heading>0</heading>
                <Icon id="link_815">
                    <href>wifi4.png</href>
                </Icon>
            </IconStyle>
        </Style>
        <Placemark id="feat_856">
            <name>NHP-13-134</name>
            <description>2017-07-27T00:17:06.000Z</description>
            <styleUrl>#stylesel_814</styleUrl>
            <Point id="geom_814">
                <coordinates>-115.18049622,36.08473969,0.0</coordinates>
            </Point>
        </Placemark>
        <Placemark id="feat_857">
            <name>NHP-13-134</name>
            <description>2017-07-30T13:20:41.000Z</description>
            <styleUrl>#stylesel_815</styleUrl>
            <Point id="geom_815">
                <coordinates>-115.13170624,36.03048706,0.0</coordinates>
            </Point>
        </Placemark>
    </Document>
</kml>
