<?xml version="1.0" encoding="UTF-8"?>
<kml xmlns="http://www.opengis.net/kml/2.2" xmlns:gx="http://www.google.com/kml/ext/2.2">
    <Document id="feat_279">
        <Style id="stylesel_269">
            <IconStyle id="substyle_269">
                <colorMode>normal</colorMode>
                <scale>1</scale>
                <heading>0</heading>
                <Icon id="link_269">
                    <href>wifi4.png</href>
                </Icon>
            </IconStyle>
        </Style>
        <Style id="stylesel_270">
            <IconStyle id="substyle_270">
                <colorMode>normal</colorMode>
                <scale>1</scale>
                <heading>0</heading>
                <Icon id="link_270">
                    <href>wifi4.png</href>
                </Icon>
            </IconStyle>
        </Style>
        <Style id="stylesel_271">
            <IconStyle id="substyle_271">
                <colorMode>normal</colorMode>
                <scale>1</scale>
                <heading>0</heading>
                <Icon id="link_271">
                    <href>wifi4.png</href>
                </Icon>
            </IconStyle>
        </Style>
        <Style id="stylesel_272">
            <IconStyle id="substyle_272">
                <colorMode>normal</colorMode>
                <scale>1</scale>
                <heading>0</heading>
                <Icon id="link_272">
                    <href>wifi4.png</href>
                </Icon>
            </IconStyle>
        </Style>
        <Style id="stylesel_273">
            <IconStyle id="substyle_273">
                <colorMode>normal</colorMode>
                <scale>1</scale>
                <heading>0</heading>
                <Icon id="link_273">
                    <href>wifi4.png</href>
                </Icon>
            </IconStyle>
        </Style>
        <Style id="stylesel_274">
            <IconStyle id="substyle_274">
                <colorMode>normal</colorMode>
                <scale>1</scale>
                <heading>0</heading>
                <Icon id="link_274">
                    <href>wifi4.png</href>
                </Icon>
            </IconStyle>
        </Style>
        <Style id="stylesel_275">
            <IconStyle id="substyle_275">
                <colorMode>normal</colorMode>
                <scale>1</scale>
                <heading>0</heading>
                <Icon id="link_275">
                    <href>wifi4.png</href>
                </Icon>
            </IconStyle>
        </Style>
        <Style id="stylesel_276">
            <IconStyle id="substyle_276">
                <colorMode>normal</colorMode>
                <scale>1</scale>
                <heading>0</heading>
                <Icon id="link_276">
                    <href>wifi4.png</href>
                </Icon>
            </IconStyle>
        </Style>
        <Style id="stylesel_277">
            <IconStyle id="substyle_277">
                <colorMode>normal</colorMode>
                <scale>1</scale>
                <heading>0</heading>
                <Icon id="link_277">
                    <href>wifi4.png</href>
                </Icon>
            </IconStyle>
        </Style>
        <Style id="stylesel_278">
            <IconStyle id="substyle_278">
                <colorMode>normal</colorMode>
                <scale>1</scale>
                <heading>0</heading>
                <Icon id="link_278">
                    <href>wifi4.png</href>
                </Icon>
            </IconStyle>
        </Style>
        <Style id="stylesel_279">
            <IconStyle id="substyle_279">
                <colorMode>normal</colorMode>
                <scale>1</scale>
                <heading>0</heading>
                <Icon id="link_279">
                    <href>wifi4.png</href>
                </Icon>
            </IconStyle>
        </Style>
        <Style id="stylesel_280">
            <IconStyle id="substyle_280">
                <colorMode>normal</colorMode>
                <scale>1</scale>
                <heading>0</heading>
                <Icon id="link_280">
                    <href>wifi4.png</href>
                </Icon>
            </IconStyle>
        </Style>
        <Style id="stylesel_281">
            <IconStyle id="substyle_281">
                <colorMode>normal</colorMode>
                <scale>1</scale>
                <heading>0</heading>
                <Icon id="link_281">
                    <href>wifi4.png</href>
                </Icon>
            </IconStyle>
        </Style>
        <Style id="stylesel_282">
            <IconStyle id="substyle_282">
                <colorMode>normal</colorMode>
                <scale>1</scale>
                <heading>0</heading>
                <Icon id="link_282">
                    <href>wifi4.png</href>
                </Icon>
            </IconStyle>
        </Style>
        <Style id="stylesel_283">
            <IconStyle id="substyle_283">
                <colorMode>normal</colorMode>
                <scale>1</scale>
                <heading>0</heading>
                <Icon id="link_283">
                    <href>wifi4.png</href>
                </Icon>
            </IconStyle>
        </Style>
        <Style id="stylesel_284">
            <IconStyle id="substyle_284">
                <colorMode>normal</colorMode>
                <scale>1</scale>
                <heading>0</heading>
                <Icon id="link_284">
                    <href>wifi4.png</href>
                </Icon>
            </IconStyle>
        </Style>
        <Style id="stylesel_285">
            <IconStyle id="substyle_285">
                <colorMode>normal</colorMode>
                <scale>1</scale>
                <heading>0</heading>
                <Icon id="link_285">
                    <href>wifi4.png</href>
                </Icon>
            </IconStyle>
        </Style>
        <Style id="stylesel_286">
            <IconStyle id="substyle_286">
                <colorMode>normal</colorMode>
                <scale>1</scale>
                <heading>0</heading>
                <Icon id="link_286">
                    <href>wifi4.png</href>
                </Icon>
            </IconStyle>
        </Style>
        <Style id="stylesel_287">
            <IconStyle id="substyle_287">
                <colorMode>normal</colorMode>
                <scale>1</scale>
                <heading>0</heading>
                <Icon id="link_287">
                    <href>wifi4.png</href>
                </Icon>
            </IconStyle>
        </Style>
        <Style id="stylesel_288">
            <IconStyle id="substyle_288">
                <colorMode>normal</colorMode>
                <scale>1</scale>
                <heading>0</heading>
                <Icon id="link_288">
                    <href>wifi4.png</href>
                </Icon>
            </IconStyle>
        </Style>
        <Style id="stylesel_289">
            <IconStyle id="substyle_289">
                <colorMode>normal</colorMode>
                <scale>1</scale>
                <heading>0</heading>
                <Icon id="link_289">
                    <href>wifi4.png</href>
                </Icon>
            </IconStyle>
        </Style>
        <Style id="stylesel_290">
            <IconStyle id="substyle_290">
                <colorMode>normal</colorMode>
                <scale>1</scale>
                <heading>0</heading>
                <Icon id="link_290">
                    <href>wifi4.png</href>
                </Icon>
            </IconStyle>
        </Style>
        <Style id="stylesel_291">
            <IconStyle id="substyle_291">
                <colorMode>normal</colorMode>
                <scale>1</scale>
                <heading>0</heading>
                <Icon id="link_291">
                    <href>wifi4.png</href>
                </Icon>
            </IconStyle>
        </Style>
        <Style id="stylesel_292">
            <IconStyle id="substyle_292">
                <colorMode>normal</colorMode>
                <scale>1</scale>
                <heading>0</heading>
                <Icon id="link_292">
                    <href>wifi4.png</href>
                </Icon>
            </IconStyle>
        </Style>
        <Style id="stylesel_293">
            <IconStyle id="substyle_293">
                <colorMode>normal</colorMode>
                <scale>1</scale>
                <heading>0</heading>
                <Icon id="link_293">
                    <href>wifi4.png</href>
                </Icon>
            </IconStyle>
        </Style>
        <Style id="stylesel_294">
            <IconStyle id="substyle_294">
                <colorMode>normal</colorMode>
                <scale>1</scale>
                <heading>0</heading>
                <Icon id="link_294">
                    <href>wifi4.png</href>
                </Icon>
            </IconStyle>
        </Style>
        <Style id="stylesel_295">
            <IconStyle id="substyle_295">
                <colorMode>normal</colorMode>
                <scale>1</scale>
                <heading>0</heading>
                <Icon id="link_295">
                    <href>wifi4.png</href>
                </Icon>
            </IconStyle>
        </Style>
        <Style id="stylesel_296">
            <IconStyle id="substyle_296">
                <colorMode>normal</colorMode>
                <scale>1</scale>
                <heading>0</heading>
                <Icon id="link_296">
                    <href>wifi4.png</href>
                </Icon>
            </IconStyle>
        </Style>
        <Style id="stylesel_297">
            <IconStyle id="substyle_297">
                <colorMode>normal</colorMode>
                <scale>1</scale>
                <heading>0</heading>
                <Icon id="link_297">
                    <href>wifi4.png</href>
                </Icon>
            </IconStyle>
        </Style>
        <Style id="stylesel_298">
            <IconStyle id="substyle_298">
                <colorMode>normal</colorMode>
                <scale>1</scale>
                <heading>0</heading>
                <Icon id="link_298">
                    <href>wifi4.png</href>
                </Icon>
            </IconStyle>
        </Style>
        <Style id="stylesel_299">
            <IconStyle id="substyle_299">
                <colorMode>normal</colorMode>
                <scale>1</scale>
                <heading>0</heading>
                <Icon id="link_299">
                    <href>wifi4.png</href>
                </Icon>
            </IconStyle>
        </Style>
        <Style id="stylesel_300">
            <IconStyle id="substyle_300">
                <colorMode>normal</colorMode>
                <scale>1</scale>
                <heading>0</heading>
                <Icon id="link_300">
                    <href>wifi4.png</href>
                </Icon>
            </IconStyle>
        </Style>
        <Style id="stylesel_301">
            <IconStyle id="substyle_301">
                <colorMode>normal</colorMode>
                <scale>1</scale>
                <heading>0</heading>
                <Icon id="link_301">
                    <href>wifi4.png</href>
                </Icon>
            </IconStyle>
        </Style>
        <Style id="stylesel_302">
            <IconStyle id="substyle_302">
                <colorMode>normal</colorMode>
                <scale>1</scale>
                <heading>0</heading>
                <Icon id="link_302">
                    <href>wifi4.png</href>
                </Icon>
            </IconStyle>
        </Style>
        <Style id="stylesel_303">
            <IconStyle id="substyle_303">
                <colorMode>normal</colorMode>
                <scale>1</scale>
                <heading>0</heading>
                <Icon id="link_303">
                    <href>wifi4.png</href>
                </Icon>
            </IconStyle>
        </Style>
        <Style id="stylesel_304">
            <IconStyle id="substyle_304">
                <colorMode>normal</colorMode>
                <scale>1</scale>
                <heading>0</heading>
                <Icon id="link_304">
                    <href>wifi4.png</href>
                </Icon>
            </IconStyle>
        </Style>
        <Style id="stylesel_305">
            <IconStyle id="substyle_305">
                <colorMode>normal</colorMode>
                <scale>1</scale>
                <heading>0</heading>
                <Icon id="link_305">
                    <href>wifi4.png</href>
                </Icon>
            </IconStyle>
        </Style>
        <Style id="stylesel_306">
            <IconStyle id="substyle_306">
                <colorMode>normal</colorMode>
                <scale>1</scale>
                <heading>0</heading>
                <Icon id="link_306">
                    <href>wifi4.png</href>
                </Icon>
            </IconStyle>
        </Style>
        <Style id="stylesel_307">
            <IconStyle id="substyle_307">
                <colorMode>normal</colorMode>
                <scale>1</scale>
                <heading>0</heading>
                <Icon id="link_307">
                    <href>wifi4.png</href>
                </Icon>
            </IconStyle>
        </Style>
        <Style id="stylesel_308">
            <IconStyle id="substyle_308">
                <colorMode>normal</colorMode>
                <scale>1</scale>
                <heading>0</heading>
                <Icon id="link_308">
                    <href>wifi4.png</href>
                </Icon>
            </IconStyle>
        </Style>
        <Style id="stylesel_309">
            <IconStyle id="substyle_309">
                <colorMode>normal</colorMode>
                <scale>1</scale>
                <heading>0</heading>
                <Icon id="link_309">
                    <href>wifi4.png</href>
                </Icon>
            </IconStyle>
        </Style>
        <Style id="stylesel_310">
            <IconStyle id="substyle_310">
                <colorMode>normal</colorMode>
                <scale>1</scale>
                <heading>0</heading>
                <Icon id="link_310">
                    <href>wifi4.png</href>
                </Icon>
            </IconStyle>
        </Style>
        <Style id="stylesel_311">
            <IconStyle id="substyle_311">
                <colorMode>normal</colorMode>
                <scale>1</scale>
                <heading>0</heading>
                <Icon id="link_311">
                    <href>wifi4.png</href>
                </Icon>
            </IconStyle>
        </Style>
        <Style id="stylesel_312">
            <IconStyle id="substyle_312">
                <colorMode>normal</colorMode>
                <scale>1</scale>
                <heading>0</heading>
                <Icon id="link_312">
                    <href>wifi4.png</href>
                </Icon>
            </IconStyle>
        </Style>
        <Style id="stylesel_313">
            <IconStyle id="substyle_313">
                <colorMode>normal</colorMode>
                <scale>1</scale>
                <heading>0</heading>
                <Icon id="link_313">
                    <href>wifi4.png</href>
                </Icon>
            </IconStyle>
        </Style>
        <Style id="stylesel_314">
            <IconStyle id="substyle_314">
                <colorMode>normal</colorMode>
                <scale>1</scale>
                <heading>0</heading>
                <Icon id="link_314">
                    <href>wifi4.png</href>
                </Icon>
            </IconStyle>
        </Style>
        <Style id="stylesel_315">
            <IconStyle id="substyle_315">
                <colorMode>normal</colorMode>
                <scale>1</scale>
                <heading>0</heading>
                <Icon id="link_315">
                    <href>wifi4.png</href>
                </Icon>
            </IconStyle>
        </Style>
        <Style id="stylesel_316">
            <IconStyle id="substyle_316">
                <colorMode>normal</colorMode>
                <scale>1</scale>
                <heading>0</heading>
                <Icon id="link_316">
                    <href>wifi4.png</href>
                </Icon>
            </IconStyle>
        </Style>
        <Style id="stylesel_317">
            <IconStyle id="substyle_317">
                <colorMode>normal</colorMode>
                <scale>1</scale>
                <heading>0</heading>
                <Icon id="link_317">
                    <href>wifi4.png</href>
                </Icon>
            </IconStyle>
        </Style>
        <Style id="stylesel_318">
            <IconStyle id="substyle_318">
                <colorMode>normal</colorMode>
                <scale>1</scale>
                <heading>0</heading>
                <Icon id="link_318">
                    <href>wifi4.png</href>
                </Icon>
            </IconStyle>
        </Style>
        <Style id="stylesel_319">
            <IconStyle id="substyle_319">
                <colorMode>normal</colorMode>
                <scale>1</scale>
                <heading>0</heading>
                <Icon id="link_319">
                    <href>wifi4.png</href>
                </Icon>
            </IconStyle>
        </Style>
        <Style id="stylesel_320">
            <IconStyle id="substyle_320">
                <colorMode>normal</colorMode>
                <scale>1</scale>
                <heading>0</heading>
                <Icon id="link_320">
                    <href>wifi4.png</href>
                </Icon>
            </IconStyle>
        </Style>
        <Style id="stylesel_321">
            <IconStyle id="substyle_321">
                <colorMode>normal</colorMode>
                <scale>1</scale>
                <heading>0</heading>
                <Icon id="link_321">
                    <href>wifi4.png</href>
                </Icon>
            </IconStyle>
        </Style>
        <Style id="stylesel_322">
            <IconStyle id="substyle_322">
                <colorMode>normal</colorMode>
                <scale>1</scale>
                <heading>0</heading>
                <Icon id="link_322">
                    <href>wifi4.png</href>
                </Icon>
            </IconStyle>
        </Style>
        <Style id="stylesel_323">
            <IconStyle id="substyle_323">
                <colorMode>normal</colorMode>
                <scale>1</scale>
                <heading>0</heading>
                <Icon id="link_323">
                    <href>wifi4.png</href>
                </Icon>
            </IconStyle>
        </Style>
        <Style id="stylesel_324">
            <IconStyle id="substyle_324">
                <colorMode>normal</colorMode>
                <scale>1</scale>
                <heading>0</heading>
                <Icon id="link_324">
                    <href>wifi4.png</href>
                </Icon>
            </IconStyle>
        </Style>
        <Style id="stylesel_325">
            <IconStyle id="substyle_325">
                <colorMode>normal</colorMode>
                <scale>1</scale>
                <heading>0</heading>
                <Icon id="link_325">
                    <href>wifi4.png</href>
                </Icon>
            </IconStyle>
        </Style>
        <Style id="stylesel_326">
            <IconStyle id="substyle_326">
                <colorMode>normal</colorMode>
                <scale>1</scale>
                <heading>0</heading>
                <Icon id="link_326">
                    <href>wifi4.png</href>
                </Icon>
            </IconStyle>
        </Style>
        <Style id="stylesel_327">
            <IconStyle id="substyle_327">
                <colorMode>normal</colorMode>
                <scale>1</scale>
                <heading>0</heading>
                <Icon id="link_327">
                    <href>wifi4.png</href>
                </Icon>
            </IconStyle>
        </Style>
        <Style id="stylesel_328">
            <IconStyle id="substyle_328">
                <colorMode>normal</colorMode>
                <scale>1</scale>
                <heading>0</heading>
                <Icon id="link_328">
                    <href>wifi4.png</href>
                </Icon>
            </IconStyle>
        </Style>
        <Style id="stylesel_329">
            <IconStyle id="substyle_329">
                <colorMode>normal</colorMode>
                <scale>1</scale>
                <heading>0</heading>
                <Icon id="link_329">
                    <href>wifi4.png</href>
                </Icon>
            </IconStyle>
        </Style>
        <Style id="stylesel_330">
            <IconStyle id="substyle_330">
                <colorMode>normal</colorMode>
                <scale>1</scale>
                <heading>0</heading>
                <Icon id="link_330">
                    <href>wifi4.png</href>
                </Icon>
            </IconStyle>
        </Style>
        <Style id="stylesel_331">
            <IconStyle id="substyle_331">
                <colorMode>normal</colorMode>
                <scale>1</scale>
                <heading>0</heading>
                <Icon id="link_331">
                    <href>wifi4.png</href>
                </Icon>
            </IconStyle>
        </Style>
        <Style id="stylesel_332">
            <IconStyle id="substyle_332">
                <colorMode>normal</colorMode>
                <scale>1</scale>
                <heading>0</heading>
                <Icon id="link_332">
                    <href>wifi4.png</href>
                </Icon>
            </IconStyle>
        </Style>
        <Style id="stylesel_333">
            <IconStyle id="substyle_333">
                <colorMode>normal</colorMode>
                <scale>1</scale>
                <heading>0</heading>
                <Icon id="link_333">
                    <href>wifi4.png</href>
                </Icon>
            </IconStyle>
        </Style>
        <Style id="stylesel_334">
            <IconStyle id="substyle_334">
                <colorMode>normal</colorMode>
                <scale>1</scale>
                <heading>0</heading>
                <Icon id="link_334">
                    <href>wifi4.png</href>
                </Icon>
            </IconStyle>
        </Style>
        <Style id="stylesel_335">
            <IconStyle id="substyle_335">
                <colorMode>normal</colorMode>
                <scale>1</scale>
                <heading>0</heading>
                <Icon id="link_335">
                    <href>wifi4.png</href>
                </Icon>
            </IconStyle>
        </Style>
        <Style id="stylesel_336">
            <IconStyle id="substyle_336">
                <colorMode>normal</colorMode>
                <scale>1</scale>
                <heading>0</heading>
                <Icon id="link_336">
                    <href>wifi4.png</href>
                </Icon>
            </IconStyle>
        </Style>
        <Style id="stylesel_337">
            <IconStyle id="substyle_337">
                <colorMode>normal</colorMode>
                <scale>1</scale>
                <heading>0</heading>
                <Icon id="link_337">
                    <href>wifi4.png</href>
                </Icon>
            </IconStyle>
        </Style>
        <Style id="stylesel_338">
            <IconStyle id="substyle_338">
                <colorMode>normal</colorMode>
                <scale>1</scale>
                <heading>0</heading>
                <Icon id="link_338">
                    <href>wifi4.png</href>
                </Icon>
            </IconStyle>
        </Style>
        <Style id="stylesel_339">
            <IconStyle id="substyle_339">
                <colorMode>normal</colorMode>
                <scale>1</scale>
                <heading>0</heading>
                <Icon id="link_339">
                    <href>wifi4.png</href>
                </Icon>
            </IconStyle>
        </Style>
        <Style id="stylesel_340">
            <IconStyle id="substyle_340">
                <colorMode>normal</colorMode>
                <scale>1</scale>
                <heading>0</heading>
                <Icon id="link_340">
                    <href>wifi4.png</href>
                </Icon>
            </IconStyle>
        </Style>
        <Style id="stylesel_341">
            <IconStyle id="substyle_341">
                <colorMode>normal</colorMode>
                <scale>1</scale>
                <heading>0</heading>
                <Icon id="link_341">
                    <href>wifi4.png</href>
                </Icon>
            </IconStyle>
        </Style>
        <Style id="stylesel_342">
            <IconStyle id="substyle_342">
                <colorMode>normal</colorMode>
                <scale>1</scale>
                <heading>0</heading>
                <Icon id="link_342">
                    <href>wifi4.png</href>
                </Icon>
            </IconStyle>
        </Style>
        <Placemark id="feat_280">
            <name>SLCPD 3</name>
            <description>2017-03-15T14:08:26.000Z</description>
            <styleUrl>#stylesel_269</styleUrl>
            <Point id="geom_269">
                <coordinates>-111.90538788,40.7648735,0.0</coordinates>
            </Point>
        </Placemark>
        <Placemark id="feat_281">
            <name>SLCPD 3</name>
            <description>2017-02-25T11:08:15.000Z</description>
            <styleUrl>#stylesel_270</styleUrl>
            <Point id="geom_270">
                <coordinates>-111.8967514,40.75758743,0.0</coordinates>
            </Point>
        </Placemark>
        <Placemark id="feat_282">
            <name>SLCPD 3</name>
            <description>2017-03-15T14:08:50.000Z</description>
            <styleUrl>#stylesel_271</styleUrl>
            <Point id="geom_271">
                <coordinates>-111.90301514,40.76496506,0.0</coordinates>
            </Point>
        </Placemark>
        <Placemark id="feat_283">
            <name>SLCPD 3</name>
            <description>2017-03-15T14:08:40.000Z</description>
            <styleUrl>#stylesel_272</styleUrl>
            <Point id="geom_272">
                <coordinates>-111.90432739,40.76493835,0.0</coordinates>
            </Point>
        </Placemark>
        <Placemark id="feat_284">
            <name>SLCPD 3</name>
            <description>2017-03-15T14:08:41.000Z</description>
            <styleUrl>#stylesel_273</styleUrl>
            <Point id="geom_273">
                <coordinates>-111.90423584,40.76497269,0.0</coordinates>
            </Point>
        </Placemark>
        <Placemark id="feat_285">
            <name>SLCPD 3</name>
            <description>2017-02-25T11:08:03.000Z</description>
            <styleUrl>#stylesel_274</styleUrl>
            <Point id="geom_274">
                <coordinates>-111.89673615,40.75645447,0.0</coordinates>
            </Point>
        </Placemark>
        <Placemark id="feat_286">
            <name>SLCPD 3</name>
            <description>2017-02-24T02:23:15.000Z</description>
            <styleUrl>#stylesel_275</styleUrl>
            <Point id="geom_275">
                <coordinates>-111.89739227,40.7584343,0.0</coordinates>
            </Point>
        </Placemark>
        <Placemark id="feat_287">
            <name>SLCPD 3</name>
            <description>2017-03-15T14:08:51.000Z</description>
            <styleUrl>#stylesel_276</styleUrl>
            <Point id="geom_276">
                <coordinates>-111.90290833,40.7649498,0.0</coordinates>
            </Point>
        </Placemark>
        <Placemark id="feat_288">
            <name>SLCPD 3</name>
            <description>2017-06-23T19:57:44.000Z</description>
            <styleUrl>#stylesel_277</styleUrl>
            <Point id="geom_277">
                <coordinates>-111.90405273,40.76335144,0.0</coordinates>
            </Point>
        </Placemark>
        <Placemark id="feat_289">
            <name>SLCPD 3</name>
            <description>2017-03-15T14:08:43.000Z</description>
            <styleUrl>#stylesel_278</styleUrl>
            <Point id="geom_278">
                <coordinates>-111.90396881,40.76493454,0.0</coordinates>
            </Point>
        </Placemark>
        <Placemark id="feat_290">
            <name>SLCPD 3</name>
            <description>2017-03-15T01:45:40.000Z</description>
            <styleUrl>#stylesel_279</styleUrl>
            <Point id="geom_279">
                <coordinates>-111.90414429,40.76571655,0.0</coordinates>
            </Point>
        </Placemark>
        <Placemark id="feat_291">
            <name>SLCPD 3</name>
            <description>2017-02-25T10:56:00.000Z</description>
            <styleUrl>#stylesel_280</styleUrl>
            <Point id="geom_280">
                <coordinates>-111.89706421,40.76054382,0.0</coordinates>
            </Point>
        </Placemark>
        <Placemark id="feat_292">
            <name>SLCPD 3</name>
            <description>2017-06-23T19:46:13.000Z</description>
            <styleUrl>#stylesel_281</styleUrl>
            <Point id="geom_281">
                <coordinates>-111.90487671,40.76509094,0.0</coordinates>
            </Point>
        </Placemark>
        <Placemark id="feat_293">
            <name>SLCPD 3</name>
            <description>2017-06-23T19:46:21.000Z</description>
            <styleUrl>#stylesel_282</styleUrl>
            <Point id="geom_282">
                <coordinates>-111.90522003,40.76507568,0.0</coordinates>
            </Point>
        </Placemark>
        <Placemark id="feat_294">
            <name>SLCPD 3</name>
            <description>2017-06-23T19:46:45.000Z</description>
            <styleUrl>#stylesel_283</styleUrl>
            <Point id="geom_283">
                <coordinates>-111.90694427,40.76508713,0.0</coordinates>
            </Point>
        </Placemark>
        <Placemark id="feat_295">
            <name>SLCPD 3</name>
            <description>2017-06-23T19:57:42.000Z</description>
            <styleUrl>#stylesel_284</styleUrl>
            <Point id="geom_284">
                <coordinates>-111.9039917,40.763134,0.0</coordinates>
            </Point>
        </Placemark>
        <Placemark id="feat_296">
            <name>SLCPD 3</name>
            <description>2017-06-23T19:45:10.000Z</description>
            <styleUrl>#stylesel_285</styleUrl>
            <Point id="geom_285">
                <coordinates>-111.90409088,40.76357269,0.0</coordinates>
            </Point>
        </Placemark>
        <Placemark id="feat_297">
            <name>SLCPD 3</name>
            <description>2017-03-15T14:08:40.000Z</description>
            <styleUrl>#stylesel_286</styleUrl>
            <Point id="geom_286">
                <coordinates>-111.90433502,40.76493835,0.0</coordinates>
            </Point>
        </Placemark>
        <Placemark id="feat_298">
            <name>SLCPD 3</name>
            <description>2017-03-15T14:08:43.000Z</description>
            <styleUrl>#stylesel_287</styleUrl>
            <Point id="geom_287">
                <coordinates>-111.90395355,40.76493073,0.0</coordinates>
            </Point>
        </Placemark>
        <Placemark id="feat_299">
            <name>SLCPD 3</name>
            <description>2017-06-23T19:46:40.000Z</description>
            <styleUrl>#stylesel_288</styleUrl>
            <Point id="geom_288">
                <coordinates>-111.90603638,40.76506042,0.0</coordinates>
            </Point>
        </Placemark>
        <Placemark id="feat_300">
            <name>SLCPD 3</name>
            <description>2017-05-12T04:49:18.000Z</description>
            <styleUrl>#stylesel_289</styleUrl>
            <Point id="geom_289">
                <coordinates>-111.90550995,40.76501465,0.0</coordinates>
            </Point>
        </Placemark>
        <Placemark id="feat_301">
            <name>SLCPD 3</name>
            <description>2017-06-23T19:57:55.000Z</description>
            <styleUrl>#stylesel_290</styleUrl>
            <Point id="geom_290">
                <coordinates>-111.90411377,40.76421738,0.0</coordinates>
            </Point>
        </Placemark>
        <Placemark id="feat_302">
            <name>SLCPD 3</name>
            <description>2017-02-28T00:59:07.000Z</description>
            <styleUrl>#stylesel_291</styleUrl>
            <Point id="geom_291">
                <coordinates>-111.89723969,40.76070404,0.0</coordinates>
            </Point>
        </Placemark>
        <Placemark id="feat_303">
            <name>SLCPD 3</name>
            <description>2017-06-23T19:57:49.000Z</description>
            <styleUrl>#stylesel_292</styleUrl>
            <Point id="geom_292">
                <coordinates>-111.90409851,40.76379013,0.0</coordinates>
            </Point>
        </Placemark>
        <Placemark id="feat_304">
            <name>SLCPD 3</name>
            <description>2017-03-15T14:08:43.000Z</description>
            <styleUrl>#stylesel_293</styleUrl>
            <Point id="geom_293">
                <coordinates>-111.90395355,40.76493073,0.0</coordinates>
            </Point>
        </Placemark>
        <Placemark id="feat_305">
            <name>SLCPD 3</name>
            <description>2017-03-15T01:46:19.000Z</description>
            <styleUrl>#stylesel_294</styleUrl>
            <Point id="geom_294">
                <coordinates>-111.90415955,40.7661705,0.0</coordinates>
            </Point>
        </Placemark>
        <Placemark id="feat_306">
            <name>SLCPD 3</name>
            <description>2016-10-24T23:23:56.000Z</description>
            <styleUrl>#stylesel_295</styleUrl>
            <Point id="geom_295">
                <coordinates>-111.89977264,40.75027084,0.0</coordinates>
            </Point>
        </Placemark>
        <Placemark id="feat_307">
            <name>SLCPD 3</name>
            <description>2017-06-23T19:56:22.000Z</description>
            <styleUrl>#stylesel_296</styleUrl>
            <Point id="geom_296">
                <coordinates>-111.90555573,40.7628212,0.0</coordinates>
            </Point>
        </Placemark>
        <Placemark id="feat_308">
            <name>SLCPD 3</name>
            <description>2017-06-23T19:46:41.000Z</description>
            <styleUrl>#stylesel_297</styleUrl>
            <Point id="geom_297">
                <coordinates>-111.90628052,40.76507568,0.0</coordinates>
            </Point>
        </Placemark>
        <Placemark id="feat_309">
            <name>SLCPD 3</name>
            <description>2017-06-23T19:57:55.000Z</description>
            <styleUrl>#stylesel_298</styleUrl>
            <Point id="geom_298">
                <coordinates>-111.9040451,40.7641983,0.0</coordinates>
            </Point>
        </Placemark>
        <Placemark id="feat_310">
            <name>SLCPD 3</name>
            <description>2017-06-23T19:45:05.000Z</description>
            <styleUrl>#stylesel_299</styleUrl>
            <Point id="geom_299">
                <coordinates>-111.90401459,40.76306915,0.0</coordinates>
            </Point>
        </Placemark>
        <Placemark id="feat_311">
            <name>SLCPD 3</name>
            <description>2017-06-23T19:45:16.000Z</description>
            <styleUrl>#stylesel_300</styleUrl>
            <Point id="geom_300">
                <coordinates>-111.90402985,40.76409912,0.0</coordinates>
            </Point>
        </Placemark>
        <Placemark id="feat_312">
            <name>SLCPD 3</name>
            <description>2017-02-25T11:09:36.000Z</description>
            <styleUrl>#stylesel_301</styleUrl>
            <Point id="geom_301">
                <coordinates>-111.89677429,40.76023865,0.0</coordinates>
            </Point>
        </Placemark>
        <Placemark id="feat_313">
            <name>SLCPD 3</name>
            <description>2017-03-15T14:08:34.000Z</description>
            <styleUrl>#stylesel_302</styleUrl>
            <Point id="geom_302">
                <coordinates>-111.90504456,40.7649231,0.0</coordinates>
            </Point>
        </Placemark>
        <Placemark id="feat_314">
            <name>SLCPD 3</name>
            <description>2017-06-23T19:46:52.000Z</description>
            <styleUrl>#stylesel_303</styleUrl>
            <Point id="geom_303">
                <coordinates>-111.90781403,40.76501846,0.0</coordinates>
            </Point>
        </Placemark>
        <Placemark id="feat_315">
            <name>SLCPD 3</name>
            <description>2017-06-23T19:46:42.000Z</description>
            <styleUrl>#stylesel_304</styleUrl>
            <Point id="geom_304">
                <coordinates>-111.90644836,40.76507568,0.0</coordinates>
            </Point>
        </Placemark>
        <Placemark id="feat_316">
            <name>SLCPD 3</name>
            <description>2017-02-25T11:09:16.000Z</description>
            <styleUrl>#stylesel_305</styleUrl>
            <Point id="geom_305">
                <coordinates>-111.89677429,40.75873184,0.0</coordinates>
            </Point>
        </Placemark>
        <Placemark id="feat_317">
            <name>SLCPD 3</name>
            <description>2017-06-23T19:45:11.000Z</description>
            <styleUrl>#stylesel_306</styleUrl>
            <Point id="geom_306">
                <coordinates>-111.9041214,40.76361084,0.0</coordinates>
            </Point>
        </Placemark>
        <Placemark id="feat_318">
            <name>SLCPD 3</name>
            <description>2017-02-24T02:23:12.000Z</description>
            <styleUrl>#stylesel_307</styleUrl>
            <Point id="geom_307">
                <coordinates>-111.89691925,40.75842285,0.0</coordinates>
            </Point>
        </Placemark>
        <Placemark id="feat_319">
            <name>SLCPD 3</name>
            <description>2016-10-24T23:24:05.000Z</description>
            <styleUrl>#stylesel_308</styleUrl>
            <Point id="geom_308">
                <coordinates>-111.89976501,40.7490387,0.0</coordinates>
            </Point>
        </Placemark>
        <Placemark id="feat_320">
            <name>SLCPD 3</name>
            <description>2016-10-26T02:22:44.000Z</description>
            <styleUrl>#stylesel_309</styleUrl>
            <Point id="geom_309">
                <coordinates>-111.8997345,40.75032806,0.0</coordinates>
            </Point>
        </Placemark>
        <Placemark id="feat_321">
            <name>SLCPD 3</name>
            <description>2016-10-23T01:24:28.000Z</description>
            <styleUrl>#stylesel_310</styleUrl>
            <Point id="geom_310">
                <coordinates>-111.89870453,40.74964142,0.0</coordinates>
            </Point>
        </Placemark>
        <Placemark id="feat_322">
            <name>SLCPD 3</name>
            <description>2017-03-15T14:08:18.000Z</description>
            <styleUrl>#stylesel_311</styleUrl>
            <Point id="geom_311">
                <coordinates>-111.90541077,40.76477432,0.0</coordinates>
            </Point>
        </Placemark>
        <Placemark id="feat_323">
            <name>SLCPD 3</name>
            <description>2016-10-23T05:07:48.000Z</description>
            <styleUrl>#stylesel_312</styleUrl>
            <Point id="geom_312">
                <coordinates>-111.89917755,40.74988174,0.0</coordinates>
            </Point>
        </Placemark>
        <Placemark id="feat_324">
            <name>SLCPD 3</name>
            <description>2017-03-15T14:08:22.000Z</description>
            <styleUrl>#stylesel_313</styleUrl>
            <Point id="geom_313">
                <coordinates>-111.90536499,40.76485062,0.0</coordinates>
            </Point>
        </Placemark>
        <Placemark id="feat_325">
            <name>SLCPD 3</name>
            <description>2016-10-23T05:07:39.000Z</description>
            <styleUrl>#stylesel_314</styleUrl>
            <Point id="geom_314">
                <coordinates>-111.89813995,40.74979782,0.0</coordinates>
            </Point>
        </Placemark>
        <Placemark id="feat_326">
            <name>SLCPD 3</name>
            <description>2017-06-23T19:56:21.000Z</description>
            <styleUrl>#stylesel_315</styleUrl>
            <Point id="geom_315">
                <coordinates>-111.90555573,40.76286316,0.0</coordinates>
            </Point>
        </Placemark>
        <Placemark id="feat_327">
            <name>SLCPD 3</name>
            <description>2017-06-23T19:46:18.000Z</description>
            <styleUrl>#stylesel_316</styleUrl>
            <Point id="geom_316">
                <coordinates>-111.90524292,40.7650528,0.0</coordinates>
            </Point>
        </Placemark>
        <Placemark id="feat_328">
            <name>SLCPD 3</name>
            <description>2017-02-24T02:23:11.000Z</description>
            <styleUrl>#stylesel_317</styleUrl>
            <Point id="geom_317">
                <coordinates>-111.89675903,40.75840759,0.0</coordinates>
            </Point>
        </Placemark>
        <Placemark id="feat_329">
            <name>SLCPD 3</name>
            <description>2017-06-23T19:45:16.000Z</description>
            <styleUrl>#stylesel_318</styleUrl>
            <Point id="geom_318">
                <coordinates>-111.90410614,40.76404572,0.0</coordinates>
            </Point>
        </Placemark>
        <Placemark id="feat_330">
            <name>SLCPD 3</name>
            <description>2016-10-23T01:23:06.000Z</description>
            <styleUrl>#stylesel_319</styleUrl>
            <Point id="geom_319">
                <coordinates>-111.89976501,40.75057983,0.0</coordinates>
            </Point>
        </Placemark>
        <Placemark id="feat_331">
            <name>SLCPD 3</name>
            <description>2017-06-23T19:45:32.000Z</description>
            <styleUrl>#stylesel_320</styleUrl>
            <Point id="geom_320">
                <coordinates>-111.90389252,40.76490402,0.0</coordinates>
            </Point>
        </Placemark>
        <Placemark id="feat_332">
            <name>SLCPD 3</name>
            <description>2017-06-23T19:46:14.000Z</description>
            <styleUrl>#stylesel_321</styleUrl>
            <Point id="geom_321">
                <coordinates>-111.90499115,40.76506042,0.0</coordinates>
            </Point>
        </Placemark>
        <Placemark id="feat_333">
            <name>SLCPD 3</name>
            <description>2017-05-12T04:49:10.000Z</description>
            <styleUrl>#stylesel_322</styleUrl>
            <Point id="geom_322">
                <coordinates>-111.90513611,40.76498413,0.0</coordinates>
            </Point>
        </Placemark>
        <Placemark id="feat_334">
            <name>SLCPD 3</name>
            <description>2017-03-15T14:08:29.000Z</description>
            <styleUrl>#stylesel_323</styleUrl>
            <Point id="geom_323">
                <coordinates>-111.90538025,40.76488876,0.0</coordinates>
            </Point>
        </Placemark>
        <Placemark id="feat_335">
            <name>SLCPD 3</name>
            <description>2017-03-15T14:08:22.000Z</description>
            <styleUrl>#stylesel_324</styleUrl>
            <Point id="geom_324">
                <coordinates>-111.90535736,40.76483536,0.0</coordinates>
            </Point>
        </Placemark>
        <Placemark id="feat_336">
            <name>SLCPD 3</name>
            <description>2017-03-15T00:29:00.000Z</description>
            <styleUrl>#stylesel_325</styleUrl>
            <Point id="geom_325">
                <coordinates>-111.90431213,40.76345444,0.0</coordinates>
            </Point>
        </Placemark>
        <Placemark id="feat_337">
            <name>SLCPD 3</name>
            <description>2017-06-23T19:46:07.000Z</description>
            <styleUrl>#stylesel_326</styleUrl>
            <Point id="geom_326">
                <coordinates>-111.90422058,40.76504898,0.0</coordinates>
            </Point>
        </Placemark>
        <Placemark id="feat_338">
            <name>SLCPD 3</name>
            <description>2016-11-09T15:37:29.000Z</description>
            <styleUrl>#stylesel_327</styleUrl>
            <Point id="geom_327">
                <coordinates>-111.89391327,40.75072861,0.0</coordinates>
            </Point>
        </Placemark>
        <Placemark id="feat_339">
            <name>SLCPD 3</name>
            <description>2017-06-23T19:45:06.000Z</description>
            <styleUrl>#stylesel_328</styleUrl>
            <Point id="geom_328">
                <coordinates>-111.90410614,40.76316071,0.0</coordinates>
            </Point>
        </Placemark>
        <Placemark id="feat_340">
            <name>SLCPD 3</name>
            <description>2017-05-12T05:04:02.000Z</description>
            <styleUrl>#stylesel_329</styleUrl>
            <Point id="geom_329">
                <coordinates>-111.90250397,40.76480865,0.0</coordinates>
            </Point>
        </Placemark>
        <Placemark id="feat_341">
            <name>SLCPD 3</name>
            <description>2016-11-09T15:37:22.000Z</description>
            <styleUrl>#stylesel_330</styleUrl>
            <Point id="geom_330">
                <coordinates>-111.89401245,40.74962997,0.0</coordinates>
            </Point>
        </Placemark>
        <Placemark id="feat_342">
            <name>SLCPD 3</name>
            <description>2017-06-23T19:45:01.000Z</description>
            <styleUrl>#stylesel_331</styleUrl>
            <Point id="geom_331">
                <coordinates>-111.90392303,40.76292038,0.0</coordinates>
            </Point>
        </Placemark>
        <Placemark id="feat_343">
            <name>SLCPD 3</name>
            <description>2017-06-01T04:18:37.000Z</description>
            <styleUrl>#stylesel_332</styleUrl>
            <Point id="geom_332">
                <coordinates>-111.90530396,40.75999451,0.0</coordinates>
            </Point>
        </Placemark>
        <Placemark id="feat_344">
            <name>SLCPD 3</name>
            <description>2017-06-23T19:57:42.000Z</description>
            <styleUrl>#stylesel_333</styleUrl>
            <Point id="geom_333">
                <coordinates>-111.90411377,40.76316833,0.0</coordinates>
            </Point>
        </Placemark>
        <Placemark id="feat_345">
            <name>SLCPD 3</name>
            <description>2017-06-23T19:56:33.000Z</description>
            <styleUrl>#stylesel_334</styleUrl>
            <Point id="geom_334">
                <coordinates>-111.90546417,40.76207733,0.0</coordinates>
            </Point>
        </Placemark>
        <Placemark id="feat_346">
            <name>SLCPD 3</name>
            <description>2017-02-28T18:09:51.000Z</description>
            <styleUrl>#stylesel_335</styleUrl>
            <Point id="geom_335">
                <coordinates>-111.89690399,40.76065826,0.0</coordinates>
            </Point>
        </Placemark>
        <Placemark id="feat_347">
            <name>SLCPD 3</name>
            <description>2016-11-11T15:44:59.000Z</description>
            <styleUrl>#stylesel_336</styleUrl>
            <Point id="geom_336">
                <coordinates>-111.90021515,40.74740601,0.0</coordinates>
            </Point>
        </Placemark>
        <Placemark id="feat_348">
            <name>SLCPD 3</name>
            <description>2016-11-11T15:44:55.000Z</description>
            <styleUrl>#stylesel_337</styleUrl>
            <Point id="geom_337">
                <coordinates>-111.90132141,40.74741364,0.0</coordinates>
            </Point>
        </Placemark>
        <Placemark id="feat_349">
            <name>SLCPD 3</name>
            <description>2017-02-25T10:58:21.000Z</description>
            <styleUrl>#stylesel_338</styleUrl>
            <Point id="geom_338">
                <coordinates>-111.89607239,40.75535583,0.0</coordinates>
            </Point>
        </Placemark>
        <Placemark id="feat_350">
            <name>SLCPD 3</name>
            <description>2017-03-15T00:26:53.000Z</description>
            <styleUrl>#stylesel_339</styleUrl>
            <Point id="geom_339">
                <coordinates>-111.90410614,40.76293945,0.0</coordinates>
            </Point>
        </Placemark>
        <Placemark id="feat_351">
            <name>SLCPD 3</name>
            <description>2017-06-23T19:45:01.000Z</description>
            <styleUrl>#stylesel_340</styleUrl>
            <Point id="geom_340">
                <coordinates>-111.90406036,40.76286316,0.0</coordinates>
            </Point>
        </Placemark>
        <Placemark id="feat_352">
            <name>SLCPD 3</name>
            <description>2017-06-01T00:44:26.000Z</description>
            <styleUrl>#stylesel_341</styleUrl>
            <Point id="geom_341">
                <coordinates>-111.90541077,40.76056671,0.0</coordinates>
            </Point>
        </Placemark>
        <Placemark id="feat_353">
            <name>SLCPD 3</name>
            <description>2017-06-01T04:18:39.000Z</description>
            <styleUrl>#stylesel_342</styleUrl>
            <Point id="geom_342">
                <coordinates>-111.90531158,40.75988388,0.0</coordinates>
            </Point>
        </Placemark>
    </Document>
</kml>
