<?xml version="1.0" encoding="UTF-8"?>
<kml xmlns="http://www.opengis.net/kml/2.2" xmlns:gx="http://www.google.com/kml/ext/2.2">
    <Document id="feat_365">
        <Style id="stylesel_353">
            <IconStyle id="substyle_353">
                <colorMode>normal</colorMode>
                <scale>1</scale>
                <heading>0</heading>
                <Icon id="link_353">
                    <href>wifi4.png</href>
                </Icon>
            </IconStyle>
        </Style>
        <Style id="stylesel_354">
            <IconStyle id="substyle_354">
                <colorMode>normal</colorMode>
                <scale>1</scale>
                <heading>0</heading>
                <Icon id="link_354">
                    <href>wifi4.png</href>
                </Icon>
            </IconStyle>
        </Style>
        <Style id="stylesel_355">
            <IconStyle id="substyle_355">
                <colorMode>normal</colorMode>
                <scale>1</scale>
                <heading>0</heading>
                <Icon id="link_355">
                    <href>wifi4.png</href>
                </Icon>
            </IconStyle>
        </Style>
        <Style id="stylesel_356">
            <IconStyle id="substyle_356">
                <colorMode>normal</colorMode>
                <scale>1</scale>
                <heading>0</heading>
                <Icon id="link_356">
                    <href>wifi4.png</href>
                </Icon>
            </IconStyle>
        </Style>
        <Style id="stylesel_357">
            <IconStyle id="substyle_357">
                <colorMode>normal</colorMode>
                <scale>1</scale>
                <heading>0</heading>
                <Icon id="link_357">
                    <href>wifi4.png</href>
                </Icon>
            </IconStyle>
        </Style>
        <Style id="stylesel_358">
            <IconStyle id="substyle_358">
                <colorMode>normal</colorMode>
                <scale>1</scale>
                <heading>0</heading>
                <Icon id="link_358">
                    <href>wifi4.png</href>
                </Icon>
            </IconStyle>
        </Style>
        <Style id="stylesel_359">
            <IconStyle id="substyle_359">
                <colorMode>normal</colorMode>
                <scale>1</scale>
                <heading>0</heading>
                <Icon id="link_359">
                    <href>wifi4.png</href>
                </Icon>
            </IconStyle>
        </Style>
        <Style id="stylesel_360">
            <IconStyle id="substyle_360">
                <colorMode>normal</colorMode>
                <scale>1</scale>
                <heading>0</heading>
                <Icon id="link_360">
                    <href>wifi4.png</href>
                </Icon>
            </IconStyle>
        </Style>
        <Style id="stylesel_361">
            <IconStyle id="substyle_361">
                <colorMode>normal</colorMode>
                <scale>1</scale>
                <heading>0</heading>
                <Icon id="link_361">
                    <href>wifi4.png</href>
                </Icon>
            </IconStyle>
        </Style>
        <Style id="stylesel_362">
            <IconStyle id="substyle_362">
                <colorMode>normal</colorMode>
                <scale>1</scale>
                <heading>0</heading>
                <Icon id="link_362">
                    <href>wifi4.png</href>
                </Icon>
            </IconStyle>
        </Style>
        <Style id="stylesel_363">
            <IconStyle id="substyle_363">
                <colorMode>normal</colorMode>
                <scale>1</scale>
                <heading>0</heading>
                <Icon id="link_363">
                    <href>wifi4.png</href>
                </Icon>
            </IconStyle>
        </Style>
        <Style id="stylesel_364">
            <IconStyle id="substyle_364">
                <colorMode>normal</colorMode>
                <scale>1</scale>
                <heading>0</heading>
                <Icon id="link_364">
                    <href>wifi4.png</href>
                </Icon>
            </IconStyle>
        </Style>
        <Style id="stylesel_365">
            <IconStyle id="substyle_365">
                <colorMode>normal</colorMode>
                <scale>1</scale>
                <heading>0</heading>
                <Icon id="link_365">
                    <href>wifi4.png</href>
                </Icon>
            </IconStyle>
        </Style>
        <Style id="stylesel_366">
            <IconStyle id="substyle_366">
                <colorMode>normal</colorMode>
                <scale>1</scale>
                <heading>0</heading>
                <Icon id="link_366">
                    <href>wifi4.png</href>
                </Icon>
            </IconStyle>
        </Style>
        <Style id="stylesel_367">
            <IconStyle id="substyle_367">
                <colorMode>normal</colorMode>
                <scale>1</scale>
                <heading>0</heading>
                <Icon id="link_367">
                    <href>wifi4.png</href>
                </Icon>
            </IconStyle>
        </Style>
        <Style id="stylesel_368">
            <IconStyle id="substyle_368">
                <colorMode>normal</colorMode>
                <scale>1</scale>
                <heading>0</heading>
                <Icon id="link_368">
                    <href>wifi4.png</href>
                </Icon>
            </IconStyle>
        </Style>
        <Style id="stylesel_369">
            <IconStyle id="substyle_369">
                <colorMode>normal</colorMode>
                <scale>1</scale>
                <heading>0</heading>
                <Icon id="link_369">
                    <href>wifi4.png</href>
                </Icon>
            </IconStyle>
        </Style>
        <Style id="stylesel_370">
            <IconStyle id="substyle_370">
                <colorMode>normal</colorMode>
                <scale>1</scale>
                <heading>0</heading>
                <Icon id="link_370">
                    <href>wifi4.png</href>
                </Icon>
            </IconStyle>
        </Style>
        <Style id="stylesel_371">
            <IconStyle id="substyle_371">
                <colorMode>normal</colorMode>
                <scale>1</scale>
                <heading>0</heading>
                <Icon id="link_371">
                    <href>wifi4.png</href>
                </Icon>
            </IconStyle>
        </Style>
        <Style id="stylesel_372">
            <IconStyle id="substyle_372">
                <colorMode>normal</colorMode>
                <scale>1</scale>
                <heading>0</heading>
                <Icon id="link_372">
                    <href>wifi4.png</href>
                </Icon>
            </IconStyle>
        </Style>
        <Style id="stylesel_373">
            <IconStyle id="substyle_373">
                <colorMode>normal</colorMode>
                <scale>1</scale>
                <heading>0</heading>
                <Icon id="link_373">
                    <href>wifi4.png</href>
                </Icon>
            </IconStyle>
        </Style>
        <Style id="stylesel_374">
            <IconStyle id="substyle_374">
                <colorMode>normal</colorMode>
                <scale>1</scale>
                <heading>0</heading>
                <Icon id="link_374">
                    <href>wifi4.png</href>
                </Icon>
            </IconStyle>
        </Style>
        <Style id="stylesel_375">
            <IconStyle id="substyle_375">
                <colorMode>normal</colorMode>
                <scale>1</scale>
                <heading>0</heading>
                <Icon id="link_375">
                    <href>wifi4.png</href>
                </Icon>
            </IconStyle>
        </Style>
        <Style id="stylesel_376">
            <IconStyle id="substyle_376">
                <colorMode>normal</colorMode>
                <scale>1</scale>
                <heading>0</heading>
                <Icon id="link_376">
                    <href>wifi4.png</href>
                </Icon>
            </IconStyle>
        </Style>
        <Style id="stylesel_377">
            <IconStyle id="substyle_377">
                <colorMode>normal</colorMode>
                <scale>1</scale>
                <heading>0</heading>
                <Icon id="link_377">
                    <href>wifi4.png</href>
                </Icon>
            </IconStyle>
        </Style>
        <Style id="stylesel_378">
            <IconStyle id="substyle_378">
                <colorMode>normal</colorMode>
                <scale>1</scale>
                <heading>0</heading>
                <Icon id="link_378">
                    <href>wifi4.png</href>
                </Icon>
            </IconStyle>
        </Style>
        <Style id="stylesel_379">
            <IconStyle id="substyle_379">
                <colorMode>normal</colorMode>
                <scale>1</scale>
                <heading>0</heading>
                <Icon id="link_379">
                    <href>wifi4.png</href>
                </Icon>
            </IconStyle>
        </Style>
        <Style id="stylesel_380">
            <IconStyle id="substyle_380">
                <colorMode>normal</colorMode>
                <scale>1</scale>
                <heading>0</heading>
                <Icon id="link_380">
                    <href>wifi4.png</href>
                </Icon>
            </IconStyle>
        </Style>
        <Style id="stylesel_381">
            <IconStyle id="substyle_381">
                <colorMode>normal</colorMode>
                <scale>1</scale>
                <heading>0</heading>
                <Icon id="link_381">
                    <href>wifi4.png</href>
                </Icon>
            </IconStyle>
        </Style>
        <Style id="stylesel_382">
            <IconStyle id="substyle_382">
                <colorMode>normal</colorMode>
                <scale>1</scale>
                <heading>0</heading>
                <Icon id="link_382">
                    <href>wifi4.png</href>
                </Icon>
            </IconStyle>
        </Style>
        <Style id="stylesel_383">
            <IconStyle id="substyle_383">
                <colorMode>normal</colorMode>
                <scale>1</scale>
                <heading>0</heading>
                <Icon id="link_383">
                    <href>wifi4.png</href>
                </Icon>
            </IconStyle>
        </Style>
        <Style id="stylesel_384">
            <IconStyle id="substyle_384">
                <colorMode>normal</colorMode>
                <scale>1</scale>
                <heading>0</heading>
                <Icon id="link_384">
                    <href>wifi4.png</href>
                </Icon>
            </IconStyle>
        </Style>
        <Style id="stylesel_385">
            <IconStyle id="substyle_385">
                <colorMode>normal</colorMode>
                <scale>1</scale>
                <heading>0</heading>
                <Icon id="link_385">
                    <href>wifi4.png</href>
                </Icon>
            </IconStyle>
        </Style>
        <Style id="stylesel_386">
            <IconStyle id="substyle_386">
                <colorMode>normal</colorMode>
                <scale>1</scale>
                <heading>0</heading>
                <Icon id="link_386">
                    <href>wifi4.png</href>
                </Icon>
            </IconStyle>
        </Style>
        <Style id="stylesel_387">
            <IconStyle id="substyle_387">
                <colorMode>normal</colorMode>
                <scale>1</scale>
                <heading>0</heading>
                <Icon id="link_387">
                    <href>wifi4.png</href>
                </Icon>
            </IconStyle>
        </Style>
        <Style id="stylesel_388">
            <IconStyle id="substyle_388">
                <colorMode>normal</colorMode>
                <scale>1</scale>
                <heading>0</heading>
                <Icon id="link_388">
                    <href>wifi4.png</href>
                </Icon>
            </IconStyle>
        </Style>
        <Style id="stylesel_389">
            <IconStyle id="substyle_389">
                <colorMode>normal</colorMode>
                <scale>1</scale>
                <heading>0</heading>
                <Icon id="link_389">
                    <href>wifi4.png</href>
                </Icon>
            </IconStyle>
        </Style>
        <Style id="stylesel_390">
            <IconStyle id="substyle_390">
                <colorMode>normal</colorMode>
                <scale>1</scale>
                <heading>0</heading>
                <Icon id="link_390">
                    <href>wifi4.png</href>
                </Icon>
            </IconStyle>
        </Style>
        <Style id="stylesel_391">
            <IconStyle id="substyle_391">
                <colorMode>normal</colorMode>
                <scale>1</scale>
                <heading>0</heading>
                <Icon id="link_391">
                    <href>wifi4.png</href>
                </Icon>
            </IconStyle>
        </Style>
        <Style id="stylesel_392">
            <IconStyle id="substyle_392">
                <colorMode>normal</colorMode>
                <scale>1</scale>
                <heading>0</heading>
                <Icon id="link_392">
                    <href>wifi4.png</href>
                </Icon>
            </IconStyle>
        </Style>
        <Style id="stylesel_393">
            <IconStyle id="substyle_393">
                <colorMode>normal</colorMode>
                <scale>1</scale>
                <heading>0</heading>
                <Icon id="link_393">
                    <href>wifi4.png</href>
                </Icon>
            </IconStyle>
        </Style>
        <Style id="stylesel_394">
            <IconStyle id="substyle_394">
                <colorMode>normal</colorMode>
                <scale>1</scale>
                <heading>0</heading>
                <Icon id="link_394">
                    <href>wifi4.png</href>
                </Icon>
            </IconStyle>
        </Style>
        <Style id="stylesel_395">
            <IconStyle id="substyle_395">
                <colorMode>normal</colorMode>
                <scale>1</scale>
                <heading>0</heading>
                <Icon id="link_395">
                    <href>wifi4.png</href>
                </Icon>
            </IconStyle>
        </Style>
        <Style id="stylesel_396">
            <IconStyle id="substyle_396">
                <colorMode>normal</colorMode>
                <scale>1</scale>
                <heading>0</heading>
                <Icon id="link_396">
                    <href>wifi4.png</href>
                </Icon>
            </IconStyle>
        </Style>
        <Style id="stylesel_397">
            <IconStyle id="substyle_397">
                <colorMode>normal</colorMode>
                <scale>1</scale>
                <heading>0</heading>
                <Icon id="link_397">
                    <href>wifi4.png</href>
                </Icon>
            </IconStyle>
        </Style>
        <Style id="stylesel_398">
            <IconStyle id="substyle_398">
                <colorMode>normal</colorMode>
                <scale>1</scale>
                <heading>0</heading>
                <Icon id="link_398">
                    <href>wifi4.png</href>
                </Icon>
            </IconStyle>
        </Style>
        <Style id="stylesel_399">
            <IconStyle id="substyle_399">
                <colorMode>normal</colorMode>
                <scale>1</scale>
                <heading>0</heading>
                <Icon id="link_399">
                    <href>wifi4.png</href>
                </Icon>
            </IconStyle>
        </Style>
        <Style id="stylesel_400">
            <IconStyle id="substyle_400">
                <colorMode>normal</colorMode>
                <scale>1</scale>
                <heading>0</heading>
                <Icon id="link_400">
                    <href>wifi4.png</href>
                </Icon>
            </IconStyle>
        </Style>
        <Style id="stylesel_401">
            <IconStyle id="substyle_401">
                <colorMode>normal</colorMode>
                <scale>1</scale>
                <heading>0</heading>
                <Icon id="link_401">
                    <href>wifi4.png</href>
                </Icon>
            </IconStyle>
        </Style>
        <Style id="stylesel_402">
            <IconStyle id="substyle_402">
                <colorMode>normal</colorMode>
                <scale>1</scale>
                <heading>0</heading>
                <Icon id="link_402">
                    <href>wifi4.png</href>
                </Icon>
            </IconStyle>
        </Style>
        <Style id="stylesel_403">
            <IconStyle id="substyle_403">
                <colorMode>normal</colorMode>
                <scale>1</scale>
                <heading>0</heading>
                <Icon id="link_403">
                    <href>wifi4.png</href>
                </Icon>
            </IconStyle>
        </Style>
        <Style id="stylesel_404">
            <IconStyle id="substyle_404">
                <colorMode>normal</colorMode>
                <scale>1</scale>
                <heading>0</heading>
                <Icon id="link_404">
                    <href>wifi4.png</href>
                </Icon>
            </IconStyle>
        </Style>
        <Style id="stylesel_405">
            <IconStyle id="substyle_405">
                <colorMode>normal</colorMode>
                <scale>1</scale>
                <heading>0</heading>
                <Icon id="link_405">
                    <href>wifi4.png</href>
                </Icon>
            </IconStyle>
        </Style>
        <Placemark id="feat_366">
            <name>SLCPD 2 5G</name>
            <description>2017-06-24T01:50:39.000Z</description>
            <styleUrl>#stylesel_353</styleUrl>
            <Point id="geom_353">
                <coordinates>-111.88817596,40.72989655,0.0</coordinates>
            </Point>
        </Placemark>
        <Placemark id="feat_367">
            <name>SLCPD 2 5G</name>
            <description>2017-06-03T19:25:25.000Z</description>
            <styleUrl>#stylesel_354</styleUrl>
            <Point id="geom_354">
                <coordinates>-111.85855103,40.72034454,0.0</coordinates>
            </Point>
        </Placemark>
        <Placemark id="feat_368">
            <name>SLCPD 2 5G</name>
            <description>2017-06-03T19:12:06.000Z</description>
            <styleUrl>#stylesel_355</styleUrl>
            <Point id="geom_355">
                <coordinates>-111.85832977,40.72038651,0.0</coordinates>
            </Point>
        </Placemark>
        <Placemark id="feat_369">
            <name>SLCPD 2 5G</name>
            <description>2017-06-24T01:50:39.000Z</description>
            <styleUrl>#stylesel_356</styleUrl>
            <Point id="geom_356">
                <coordinates>-111.88821411,40.72992325,0.0</coordinates>
            </Point>
        </Placemark>
        <Placemark id="feat_370">
            <name>SLCPD 2 5G</name>
            <description>2017-06-24T01:50:36.000Z</description>
            <styleUrl>#stylesel_357</styleUrl>
            <Point id="geom_357">
                <coordinates>-111.88818359,40.72935486,0.0</coordinates>
            </Point>
        </Placemark>
        <Placemark id="feat_371">
            <name>SLCPD 2 5G</name>
            <description>2017-06-03T19:03:41.000Z</description>
            <styleUrl>#stylesel_358</styleUrl>
            <Point id="geom_358">
                <coordinates>-111.85839081,40.72047806,0.0</coordinates>
            </Point>
        </Placemark>
        <Placemark id="feat_372">
            <name>SLCPD 2 5G</name>
            <description>2017-06-24T01:50:47.000Z</description>
            <styleUrl>#stylesel_359</styleUrl>
            <Point id="geom_359">
                <coordinates>-111.88816833,40.73123932,0.0</coordinates>
            </Point>
        </Placemark>
        <Placemark id="feat_373">
            <name>SLCPD 2 5G</name>
            <description>2017-06-24T01:50:43.000Z</description>
            <styleUrl>#stylesel_360</styleUrl>
            <Point id="geom_360">
                <coordinates>-111.88818359,40.73060989,0.0</coordinates>
            </Point>
        </Placemark>
        <Placemark id="feat_374">
            <name>SLCPD 2 5G</name>
            <description>2017-04-18T04:20:19.000Z</description>
            <styleUrl>#stylesel_361</styleUrl>
            <Point id="geom_361">
                <coordinates>-111.90687561,40.76515579,0.0</coordinates>
            </Point>
        </Placemark>
        <Placemark id="feat_375">
            <name>SLCPD 2 5G</name>
            <description>2017-06-03T19:12:30.000Z</description>
            <styleUrl>#stylesel_362</styleUrl>
            <Point id="geom_362">
                <coordinates>-111.85954285,40.72058868,0.0</coordinates>
            </Point>
        </Placemark>
        <Placemark id="feat_376">
            <name>SLCPD 2 5G</name>
            <description>2017-06-24T01:50:35.000Z</description>
            <styleUrl>#stylesel_363</styleUrl>
            <Point id="geom_363">
                <coordinates>-111.88817596,40.72917557,0.0</coordinates>
            </Point>
        </Placemark>
        <Placemark id="feat_377">
            <name>SLCPD 2 5G</name>
            <description>2017-02-10T06:41:06.000Z</description>
            <styleUrl>#stylesel_364</styleUrl>
            <Point id="geom_364">
                <coordinates>-111.89729309,40.77104187,0.0</coordinates>
            </Point>
        </Placemark>
        <Placemark id="feat_378">
            <name>SLCPD 2 5G</name>
            <description>2017-02-14T20:18:53.000Z</description>
            <styleUrl>#stylesel_365</styleUrl>
            <Point id="geom_365">
                <coordinates>-111.89590454,40.77145386,0.0</coordinates>
            </Point>
        </Placemark>
        <Placemark id="feat_379">
            <name>SLCPD 2 5G</name>
            <description>2017-06-03T19:03:35.000Z</description>
            <styleUrl>#stylesel_366</styleUrl>
            <Point id="geom_366">
                <coordinates>-111.85832214,40.72055054,0.0</coordinates>
            </Point>
        </Placemark>
        <Placemark id="feat_380">
            <name>SLCPD 2 5G</name>
            <description>2017-02-10T06:42:29.000Z</description>
            <styleUrl>#stylesel_367</styleUrl>
            <Point id="geom_367">
                <coordinates>-111.89845276,40.77086258,0.0</coordinates>
            </Point>
        </Placemark>
        <Placemark id="feat_381">
            <name>SLCPD 2 5G</name>
            <description>2017-06-24T01:50:27.000Z</description>
            <styleUrl>#stylesel_368</styleUrl>
            <Point id="geom_368">
                <coordinates>-111.88815308,40.72780228,0.0</coordinates>
            </Point>
        </Placemark>
        <Placemark id="feat_382">
            <name>SLCPD 2 5G</name>
            <description>2017-06-24T01:50:45.000Z</description>
            <styleUrl>#stylesel_369</styleUrl>
            <Point id="geom_369">
                <coordinates>-111.88821411,40.73095322,0.0</coordinates>
            </Point>
        </Placemark>
        <Placemark id="feat_383">
            <name>SLCPD 2 5G</name>
            <description>2017-06-23T15:11:44.000Z</description>
            <styleUrl>#stylesel_370</styleUrl>
            <Point id="geom_370">
                <coordinates>-111.88825989,40.72529221,0.0</coordinates>
            </Point>
        </Placemark>
        <Placemark id="feat_384">
            <name>SLCPD 2 5G</name>
            <description>2017-06-24T01:50:39.000Z</description>
            <styleUrl>#stylesel_371</styleUrl>
            <Point id="geom_371">
                <coordinates>-111.88819885,40.72989655,0.0</coordinates>
            </Point>
        </Placemark>
        <Placemark id="feat_385">
            <name>SLCPD 2 5G</name>
            <description>2017-06-03T19:23:15.000Z</description>
            <styleUrl>#stylesel_372</styleUrl>
            <Point id="geom_372">
                <coordinates>-111.85785675,40.7205925,0.0</coordinates>
            </Point>
        </Placemark>
        <Placemark id="feat_386">
            <name>SLCPD 2 5G</name>
            <description>2017-02-14T20:18:32.000Z</description>
            <styleUrl>#stylesel_373</styleUrl>
            <Point id="geom_373">
                <coordinates>-111.89767456,40.77145386,0.0</coordinates>
            </Point>
        </Placemark>
        <Placemark id="feat_387">
            <name>SLCPD 2 5G</name>
            <description>2017-02-14T20:18:56.000Z</description>
            <styleUrl>#stylesel_374</styleUrl>
            <Point id="geom_374">
                <coordinates>-111.89550018,40.77145767,0.0</coordinates>
            </Point>
        </Placemark>
        <Placemark id="feat_388">
            <name>SLCPD 2 5G</name>
            <description>2017-06-24T01:50:27.000Z</description>
            <styleUrl>#stylesel_375</styleUrl>
            <Point id="geom_375">
                <coordinates>-111.88816071,40.72780991,0.0</coordinates>
            </Point>
        </Placemark>
        <Placemark id="feat_389">
            <name>SLCPD 2 5G</name>
            <description>2017-06-24T01:50:51.000Z</description>
            <styleUrl>#stylesel_376</styleUrl>
            <Point id="geom_376">
                <coordinates>-111.88817596,40.73187637,0.0</coordinates>
            </Point>
        </Placemark>
        <Placemark id="feat_390">
            <name>SLCPD 2 5G</name>
            <description>2017-06-24T01:50:54.000Z</description>
            <styleUrl>#stylesel_377</styleUrl>
            <Point id="geom_377">
                <coordinates>-111.88816833,40.7322998,0.0</coordinates>
            </Point>
        </Placemark>
        <Placemark id="feat_391">
            <name>SLCPD 2 5G</name>
            <description>2017-02-10T06:43:50.000Z</description>
            <styleUrl>#stylesel_378</styleUrl>
            <Point id="geom_378">
                <coordinates>-111.89968872,40.77062607,0.0</coordinates>
            </Point>
        </Placemark>
        <Placemark id="feat_392">
            <name>SLCPD 2 5G</name>
            <description>2017-02-14T20:18:30.000Z</description>
            <styleUrl>#stylesel_379</styleUrl>
            <Point id="geom_379">
                <coordinates>-111.89788818,40.77143097,0.0</coordinates>
            </Point>
        </Placemark>
        <Placemark id="feat_393">
            <name>SLCPD 2 5G</name>
            <description>2017-06-03T19:11:57.000Z</description>
            <styleUrl>#stylesel_380</styleUrl>
            <Point id="geom_380">
                <coordinates>-111.85812378,40.72037125,0.0</coordinates>
            </Point>
        </Placemark>
        <Placemark id="feat_394">
            <name>SLCPD 2 5G</name>
            <description>2017-06-23T15:11:47.000Z</description>
            <styleUrl>#stylesel_381</styleUrl>
            <Point id="geom_381">
                <coordinates>-111.88822937,40.72531128,0.0</coordinates>
            </Point>
        </Placemark>
        <Placemark id="feat_395">
            <name>SLCPD 2 5G</name>
            <description>2017-02-14T20:18:55.000Z</description>
            <styleUrl>#stylesel_382</styleUrl>
            <Point id="geom_382">
                <coordinates>-111.89565277,40.7714653,0.0</coordinates>
            </Point>
        </Placemark>
        <Placemark id="feat_396">
            <name>SLCPD 2 5G</name>
            <description>2017-02-14T20:18:47.000Z</description>
            <styleUrl>#stylesel_383</styleUrl>
            <Point id="geom_383">
                <coordinates>-111.89673615,40.77146149,0.0</coordinates>
            </Point>
        </Placemark>
        <Placemark id="feat_397">
            <name>SLCPD 2 5G</name>
            <description>2017-06-03T19:03:32.000Z</description>
            <styleUrl>#stylesel_384</styleUrl>
            <Point id="geom_384">
                <coordinates>-111.85816956,40.72054291,0.0</coordinates>
            </Point>
        </Placemark>
        <Placemark id="feat_398">
            <name>SLCPD 2 5G</name>
            <description>2017-02-14T20:18:22.000Z</description>
            <styleUrl>#stylesel_385</styleUrl>
            <Point id="geom_385">
                <coordinates>-111.8989563,40.77140045,0.0</coordinates>
            </Point>
        </Placemark>
        <Placemark id="feat_399">
            <name>SLCPD 2 5G</name>
            <description>2017-02-14T20:18:28.000Z</description>
            <styleUrl>#stylesel_386</styleUrl>
            <Point id="geom_386">
                <coordinates>-111.89809418,40.77142715,0.0</coordinates>
            </Point>
        </Placemark>
        <Placemark id="feat_400">
            <name>SLCPD 2 5G</name>
            <description>1970-01-01T01:00:00.000Z</description>
            <styleUrl>#stylesel_387</styleUrl>
            <Point id="geom_387">
                <coordinates>-111.81183624,40.74615479,0.0</coordinates>
            </Point>
        </Placemark>
        <Placemark id="feat_401">
            <name>SLCPD 2 5G</name>
            <description>2017-02-14T20:18:48.000Z</description>
            <styleUrl>#stylesel_388</styleUrl>
            <Point id="geom_388">
                <coordinates>-111.89658356,40.77144623,0.0</coordinates>
            </Point>
        </Placemark>
        <Placemark id="feat_402">
            <name>SLCPD 2 5G</name>
            <description>1970-01-01T01:00:00.000Z</description>
            <styleUrl>#stylesel_389</styleUrl>
            <Point id="geom_389">
                <coordinates>-111.83257294,40.73455048,0.0</coordinates>
            </Point>
        </Placemark>
        <Placemark id="feat_403">
            <name>SLCPD 2 5G</name>
            <description>1970-01-01T01:00:00.000Z</description>
            <styleUrl>#stylesel_390</styleUrl>
            <Point id="geom_390">
                <coordinates>-111.80944824,40.74749374,0.0</coordinates>
            </Point>
        </Placemark>
        <Placemark id="feat_404">
            <name>SLCPD 2 5G</name>
            <description>1970-01-01T01:00:00.000Z</description>
            <styleUrl>#stylesel_391</styleUrl>
            <Point id="geom_391">
                <coordinates>-111.82220459,40.74035263,0.0</coordinates>
            </Point>
        </Placemark>
        <Placemark id="feat_405">
            <name>SLCPD 2 5G</name>
            <description>1970-01-01T01:00:00.000Z</description>
            <styleUrl>#stylesel_392</styleUrl>
            <Point id="geom_392">
                <coordinates>-111.82061005,40.74124527,0.0</coordinates>
            </Point>
        </Placemark>
        <Placemark id="feat_406">
            <name>SLCPD 2 5G</name>
            <description>1970-01-01T01:00:00.000Z</description>
            <styleUrl>#stylesel_393</styleUrl>
            <Point id="geom_393">
                <coordinates>-111.81423187,40.74481583,0.0</coordinates>
            </Point>
        </Placemark>
        <Placemark id="feat_407">
            <name>SLCPD 2 5G</name>
            <description>1970-01-01T01:00:00.000Z</description>
            <styleUrl>#stylesel_394</styleUrl>
            <Point id="geom_394">
                <coordinates>-111.80465698,40.75016785,0.0</coordinates>
            </Point>
        </Placemark>
        <Placemark id="feat_408">
            <name>SLCPD 2 5G</name>
            <description>1970-01-01T01:00:00.000Z</description>
            <styleUrl>#stylesel_395</styleUrl>
            <Point id="geom_395">
                <coordinates>-111.80705261,40.7488327,0.0</coordinates>
            </Point>
        </Placemark>
        <Placemark id="feat_409">
            <name>SLCPD 2 5G</name>
            <description>2017-06-23T15:11:34.000Z</description>
            <styleUrl>#stylesel_396</styleUrl>
            <Point id="geom_396">
                <coordinates>-111.88822937,40.72454834,0.0</coordinates>
            </Point>
        </Placemark>
        <Placemark id="feat_410">
            <name>SLCPD 2 5G</name>
            <description>2017-06-24T01:51:03.000Z</description>
            <styleUrl>#stylesel_397</styleUrl>
            <Point id="geom_397">
                <coordinates>-111.88816833,40.7337265,0.0</coordinates>
            </Point>
        </Placemark>
        <Placemark id="feat_411">
            <name>SLCPD 2 5G</name>
            <description>2017-09-06T21:15:57.000Z</description>
            <styleUrl>#stylesel_398</styleUrl>
            <Point id="geom_398">
                <coordinates>-111.91203308,40.76880264,0.0</coordinates>
            </Point>
        </Placemark>
        <Placemark id="feat_412">
            <name>SLCPD 2 5G</name>
            <description>2017-02-14T20:18:19.000Z</description>
            <styleUrl>#stylesel_399</styleUrl>
            <Point id="geom_399">
                <coordinates>-111.89936066,40.77140808,0.0</coordinates>
            </Point>
        </Placemark>
        <Placemark id="feat_413">
            <name>SLCPD 2 5G</name>
            <description>2017-09-06T21:15:53.000Z</description>
            <styleUrl>#stylesel_400</styleUrl>
            <Point id="geom_400">
                <coordinates>-111.9115448,40.76993561,0.0</coordinates>
            </Point>
        </Placemark>
        <Placemark id="feat_414">
            <name>SLCPD 2 5G</name>
            <description>2017-06-24T01:50:49.000Z</description>
            <styleUrl>#stylesel_401</styleUrl>
            <Point id="geom_401">
                <coordinates>-111.88816833,40.73153687,0.0</coordinates>
            </Point>
        </Placemark>
        <Placemark id="feat_415">
            <name>SLCPD 2 5G</name>
            <description>2017-06-24T01:50:19.000Z</description>
            <styleUrl>#stylesel_402</styleUrl>
            <Point id="geom_402">
                <coordinates>-111.88814545,40.72657013,0.0</coordinates>
            </Point>
        </Placemark>
        <Placemark id="feat_416">
            <name>SLCPD 2 5G</name>
            <description>2017-06-24T01:51:02.000Z</description>
            <styleUrl>#stylesel_403</styleUrl>
            <Point id="geom_403">
                <coordinates>-111.88815308,40.7335701,0.0</coordinates>
            </Point>
        </Placemark>
        <Placemark id="feat_417">
            <name>SLCPD 2 5G</name>
            <description>2017-02-02T20:36:16.000Z</description>
            <styleUrl>#stylesel_404</styleUrl>
            <Point id="geom_404">
                <coordinates>-111.89115906,40.76976395,0.0</coordinates>
            </Point>
        </Placemark>
        <Placemark id="feat_418">
            <name>SLCPD 2 5G</name>
            <description>2017-06-24T01:51:11.000Z</description>
            <styleUrl>#stylesel_405</styleUrl>
            <Point id="geom_405">
                <coordinates>-111.88816833,40.73493958,0.0</coordinates>
            </Point>
        </Placemark>
    </Document>
</kml>
