<?xml version="1.0" encoding="UTF-8"?>
<kml xmlns="http://www.opengis.net/kml/2.2" xmlns:gx="http://www.google.com/kml/ext/2.2">
    <Document id="feat_419">
        <Style id="stylesel_406">
            <IconStyle id="substyle_406">
                <colorMode>normal</colorMode>
                <scale>1</scale>
                <heading>0</heading>
                <Icon id="link_406">
                    <href>wifi4.png</href>
                </Icon>
            </IconStyle>
        </Style>
        <Style id="stylesel_407">
            <IconStyle id="substyle_407">
                <colorMode>normal</colorMode>
                <scale>1</scale>
                <heading>0</heading>
                <Icon id="link_407">
                    <href>wifi4.png</href>
                </Icon>
            </IconStyle>
        </Style>
        <Style id="stylesel_408">
            <IconStyle id="substyle_408">
                <colorMode>normal</colorMode>
                <scale>1</scale>
                <heading>0</heading>
                <Icon id="link_408">
                    <href>wifi4.png</href>
                </Icon>
            </IconStyle>
        </Style>
        <Style id="stylesel_409">
            <IconStyle id="substyle_409">
                <colorMode>normal</colorMode>
                <scale>1</scale>
                <heading>0</heading>
                <Icon id="link_409">
                    <href>wifi4.png</href>
                </Icon>
            </IconStyle>
        </Style>
        <Style id="stylesel_410">
            <IconStyle id="substyle_410">
                <colorMode>normal</colorMode>
                <scale>1</scale>
                <heading>0</heading>
                <Icon id="link_410">
                    <href>wifi4.png</href>
                </Icon>
            </IconStyle>
        </Style>
        <Style id="stylesel_411">
            <IconStyle id="substyle_411">
                <colorMode>normal</colorMode>
                <scale>1</scale>
                <heading>0</heading>
                <Icon id="link_411">
                    <href>wifi4.png</href>
                </Icon>
            </IconStyle>
        </Style>
        <Style id="stylesel_412">
            <IconStyle id="substyle_412">
                <colorMode>normal</colorMode>
                <scale>1</scale>
                <heading>0</heading>
                <Icon id="link_412">
                    <href>wifi4.png</href>
                </Icon>
            </IconStyle>
        </Style>
        <Style id="stylesel_413">
            <IconStyle id="substyle_413">
                <colorMode>normal</colorMode>
                <scale>1</scale>
                <heading>0</heading>
                <Icon id="link_413">
                    <href>wifi4.png</href>
                </Icon>
            </IconStyle>
        </Style>
        <Style id="stylesel_414">
            <IconStyle id="substyle_414">
                <colorMode>normal</colorMode>
                <scale>1</scale>
                <heading>0</heading>
                <Icon id="link_414">
                    <href>wifi4.png</href>
                </Icon>
            </IconStyle>
        </Style>
        <Style id="stylesel_415">
            <IconStyle id="substyle_415">
                <colorMode>normal</colorMode>
                <scale>1</scale>
                <heading>0</heading>
                <Icon id="link_415">
                    <href>wifi4.png</href>
                </Icon>
            </IconStyle>
        </Style>
        <Style id="stylesel_416">
            <IconStyle id="substyle_416">
                <colorMode>normal</colorMode>
                <scale>1</scale>
                <heading>0</heading>
                <Icon id="link_416">
                    <href>wifi4.png</href>
                </Icon>
            </IconStyle>
        </Style>
        <Style id="stylesel_417">
            <IconStyle id="substyle_417">
                <colorMode>normal</colorMode>
                <scale>1</scale>
                <heading>0</heading>
                <Icon id="link_417">
                    <href>wifi4.png</href>
                </Icon>
            </IconStyle>
        </Style>
        <Style id="stylesel_418">
            <IconStyle id="substyle_418">
                <colorMode>normal</colorMode>
                <scale>1</scale>
                <heading>0</heading>
                <Icon id="link_418">
                    <href>wifi4.png</href>
                </Icon>
            </IconStyle>
        </Style>
        <Style id="stylesel_419">
            <IconStyle id="substyle_419">
                <colorMode>normal</colorMode>
                <scale>1</scale>
                <heading>0</heading>
                <Icon id="link_419">
                    <href>wifi4.png</href>
                </Icon>
            </IconStyle>
        </Style>
        <Style id="stylesel_420">
            <IconStyle id="substyle_420">
                <colorMode>normal</colorMode>
                <scale>1</scale>
                <heading>0</heading>
                <Icon id="link_420">
                    <href>wifi4.png</href>
                </Icon>
            </IconStyle>
        </Style>
        <Style id="stylesel_421">
            <IconStyle id="substyle_421">
                <colorMode>normal</colorMode>
                <scale>1</scale>
                <heading>0</heading>
                <Icon id="link_421">
                    <href>wifi4.png</href>
                </Icon>
            </IconStyle>
        </Style>
        <Style id="stylesel_422">
            <IconStyle id="substyle_422">
                <colorMode>normal</colorMode>
                <scale>1</scale>
                <heading>0</heading>
                <Icon id="link_422">
                    <href>wifi4.png</href>
                </Icon>
            </IconStyle>
        </Style>
        <Style id="stylesel_423">
            <IconStyle id="substyle_423">
                <colorMode>normal</colorMode>
                <scale>1</scale>
                <heading>0</heading>
                <Icon id="link_423">
                    <href>wifi4.png</href>
                </Icon>
            </IconStyle>
        </Style>
        <Style id="stylesel_424">
            <IconStyle id="substyle_424">
                <colorMode>normal</colorMode>
                <scale>1</scale>
                <heading>0</heading>
                <Icon id="link_424">
                    <href>wifi4.png</href>
                </Icon>
            </IconStyle>
        </Style>
        <Style id="stylesel_425">
            <IconStyle id="substyle_425">
                <colorMode>normal</colorMode>
                <scale>1</scale>
                <heading>0</heading>
                <Icon id="link_425">
                    <href>wifi4.png</href>
                </Icon>
            </IconStyle>
        </Style>
        <Style id="stylesel_426">
            <IconStyle id="substyle_426">
                <colorMode>normal</colorMode>
                <scale>1</scale>
                <heading>0</heading>
                <Icon id="link_426">
                    <href>wifi4.png</href>
                </Icon>
            </IconStyle>
        </Style>
        <Style id="stylesel_427">
            <IconStyle id="substyle_427">
                <colorMode>normal</colorMode>
                <scale>1</scale>
                <heading>0</heading>
                <Icon id="link_427">
                    <href>wifi4.png</href>
                </Icon>
            </IconStyle>
        </Style>
        <Style id="stylesel_428">
            <IconStyle id="substyle_428">
                <colorMode>normal</colorMode>
                <scale>1</scale>
                <heading>0</heading>
                <Icon id="link_428">
                    <href>wifi4.png</href>
                </Icon>
            </IconStyle>
        </Style>
        <Style id="stylesel_429">
            <IconStyle id="substyle_429">
                <colorMode>normal</colorMode>
                <scale>1</scale>
                <heading>0</heading>
                <Icon id="link_429">
                    <href>wifi4.png</href>
                </Icon>
            </IconStyle>
        </Style>
        <Style id="stylesel_430">
            <IconStyle id="substyle_430">
                <colorMode>normal</colorMode>
                <scale>1</scale>
                <heading>0</heading>
                <Icon id="link_430">
                    <href>wifi4.png</href>
                </Icon>
            </IconStyle>
        </Style>
        <Style id="stylesel_431">
            <IconStyle id="substyle_431">
                <colorMode>normal</colorMode>
                <scale>1</scale>
                <heading>0</heading>
                <Icon id="link_431">
                    <href>wifi4.png</href>
                </Icon>
            </IconStyle>
        </Style>
        <Style id="stylesel_432">
            <IconStyle id="substyle_432">
                <colorMode>normal</colorMode>
                <scale>1</scale>
                <heading>0</heading>
                <Icon id="link_432">
                    <href>wifi4.png</href>
                </Icon>
            </IconStyle>
        </Style>
        <Style id="stylesel_433">
            <IconStyle id="substyle_433">
                <colorMode>normal</colorMode>
                <scale>1</scale>
                <heading>0</heading>
                <Icon id="link_433">
                    <href>wifi4.png</href>
                </Icon>
            </IconStyle>
        </Style>
        <Style id="stylesel_434">
            <IconStyle id="substyle_434">
                <colorMode>normal</colorMode>
                <scale>1</scale>
                <heading>0</heading>
                <Icon id="link_434">
                    <href>wifi4.png</href>
                </Icon>
            </IconStyle>
        </Style>
        <Style id="stylesel_435">
            <IconStyle id="substyle_435">
                <colorMode>normal</colorMode>
                <scale>1</scale>
                <heading>0</heading>
                <Icon id="link_435">
                    <href>wifi4.png</href>
                </Icon>
            </IconStyle>
        </Style>
        <Style id="stylesel_436">
            <IconStyle id="substyle_436">
                <colorMode>normal</colorMode>
                <scale>1</scale>
                <heading>0</heading>
                <Icon id="link_436">
                    <href>wifi4.png</href>
                </Icon>
            </IconStyle>
        </Style>
        <Style id="stylesel_437">
            <IconStyle id="substyle_437">
                <colorMode>normal</colorMode>
                <scale>1</scale>
                <heading>0</heading>
                <Icon id="link_437">
                    <href>wifi4.png</href>
                </Icon>
            </IconStyle>
        </Style>
        <Style id="stylesel_438">
            <IconStyle id="substyle_438">
                <colorMode>normal</colorMode>
                <scale>1</scale>
                <heading>0</heading>
                <Icon id="link_438">
                    <href>wifi4.png</href>
                </Icon>
            </IconStyle>
        </Style>
        <Style id="stylesel_439">
            <IconStyle id="substyle_439">
                <colorMode>normal</colorMode>
                <scale>1</scale>
                <heading>0</heading>
                <Icon id="link_439">
                    <href>wifi4.png</href>
                </Icon>
            </IconStyle>
        </Style>
        <Style id="stylesel_440">
            <IconStyle id="substyle_440">
                <colorMode>normal</colorMode>
                <scale>1</scale>
                <heading>0</heading>
                <Icon id="link_440">
                    <href>wifi4.png</href>
                </Icon>
            </IconStyle>
        </Style>
        <Style id="stylesel_441">
            <IconStyle id="substyle_441">
                <colorMode>normal</colorMode>
                <scale>1</scale>
                <heading>0</heading>
                <Icon id="link_441">
                    <href>wifi4.png</href>
                </Icon>
            </IconStyle>
        </Style>
        <Style id="stylesel_442">
            <IconStyle id="substyle_442">
                <colorMode>normal</colorMode>
                <scale>1</scale>
                <heading>0</heading>
                <Icon id="link_442">
                    <href>wifi4.png</href>
                </Icon>
            </IconStyle>
        </Style>
        <Style id="stylesel_443">
            <IconStyle id="substyle_443">
                <colorMode>normal</colorMode>
                <scale>1</scale>
                <heading>0</heading>
                <Icon id="link_443">
                    <href>wifi4.png</href>
                </Icon>
            </IconStyle>
        </Style>
        <Style id="stylesel_444">
            <IconStyle id="substyle_444">
                <colorMode>normal</colorMode>
                <scale>1</scale>
                <heading>0</heading>
                <Icon id="link_444">
                    <href>wifi4.png</href>
                </Icon>
            </IconStyle>
        </Style>
        <Style id="stylesel_445">
            <IconStyle id="substyle_445">
                <colorMode>normal</colorMode>
                <scale>1</scale>
                <heading>0</heading>
                <Icon id="link_445">
                    <href>wifi4.png</href>
                </Icon>
            </IconStyle>
        </Style>
        <Style id="stylesel_446">
            <IconStyle id="substyle_446">
                <colorMode>normal</colorMode>
                <scale>1</scale>
                <heading>0</heading>
                <Icon id="link_446">
                    <href>wifi4.png</href>
                </Icon>
            </IconStyle>
        </Style>
        <Style id="stylesel_447">
            <IconStyle id="substyle_447">
                <colorMode>normal</colorMode>
                <scale>1</scale>
                <heading>0</heading>
                <Icon id="link_447">
                    <href>wifi4.png</href>
                </Icon>
            </IconStyle>
        </Style>
        <Style id="stylesel_448">
            <IconStyle id="substyle_448">
                <colorMode>normal</colorMode>
                <scale>1</scale>
                <heading>0</heading>
                <Icon id="link_448">
                    <href>wifi4.png</href>
                </Icon>
            </IconStyle>
        </Style>
        <Style id="stylesel_449">
            <IconStyle id="substyle_449">
                <colorMode>normal</colorMode>
                <scale>1</scale>
                <heading>0</heading>
                <Icon id="link_449">
                    <href>wifi4.png</href>
                </Icon>
            </IconStyle>
        </Style>
        <Style id="stylesel_450">
            <IconStyle id="substyle_450">
                <colorMode>normal</colorMode>
                <scale>1</scale>
                <heading>0</heading>
                <Icon id="link_450">
                    <href>wifi4.png</href>
                </Icon>
            </IconStyle>
        </Style>
        <Style id="stylesel_451">
            <IconStyle id="substyle_451">
                <colorMode>normal</colorMode>
                <scale>1</scale>
                <heading>0</heading>
                <Icon id="link_451">
                    <href>wifi4.png</href>
                </Icon>
            </IconStyle>
        </Style>
        <Style id="stylesel_452">
            <IconStyle id="substyle_452">
                <colorMode>normal</colorMode>
                <scale>1</scale>
                <heading>0</heading>
                <Icon id="link_452">
                    <href>wifi4.png</href>
                </Icon>
            </IconStyle>
        </Style>
        <Style id="stylesel_453">
            <IconStyle id="substyle_453">
                <colorMode>normal</colorMode>
                <scale>1</scale>
                <heading>0</heading>
                <Icon id="link_453">
                    <href>wifi4.png</href>
                </Icon>
            </IconStyle>
        </Style>
        <Style id="stylesel_454">
            <IconStyle id="substyle_454">
                <colorMode>normal</colorMode>
                <scale>1</scale>
                <heading>0</heading>
                <Icon id="link_454">
                    <href>wifi4.png</href>
                </Icon>
            </IconStyle>
        </Style>
        <Style id="stylesel_455">
            <IconStyle id="substyle_455">
                <colorMode>normal</colorMode>
                <scale>1</scale>
                <heading>0</heading>
                <Icon id="link_455">
                    <href>wifi4.png</href>
                </Icon>
            </IconStyle>
        </Style>
        <Style id="stylesel_456">
            <IconStyle id="substyle_456">
                <colorMode>normal</colorMode>
                <scale>1</scale>
                <heading>0</heading>
                <Icon id="link_456">
                    <href>wifi4.png</href>
                </Icon>
            </IconStyle>
        </Style>
        <Style id="stylesel_457">
            <IconStyle id="substyle_457">
                <colorMode>normal</colorMode>
                <scale>1</scale>
                <heading>0</heading>
                <Icon id="link_457">
                    <href>wifi4.png</href>
                </Icon>
            </IconStyle>
        </Style>
        <Style id="stylesel_458">
            <IconStyle id="substyle_458">
                <colorMode>normal</colorMode>
                <scale>1</scale>
                <heading>0</heading>
                <Icon id="link_458">
                    <href>wifi4.png</href>
                </Icon>
            </IconStyle>
        </Style>
        <Style id="stylesel_459">
            <IconStyle id="substyle_459">
                <colorMode>normal</colorMode>
                <scale>1</scale>
                <heading>0</heading>
                <Icon id="link_459">
                    <href>wifi4.png</href>
                </Icon>
            </IconStyle>
        </Style>
        <Style id="stylesel_460">
            <IconStyle id="substyle_460">
                <colorMode>normal</colorMode>
                <scale>1</scale>
                <heading>0</heading>
                <Icon id="link_460">
                    <href>wifi4.png</href>
                </Icon>
            </IconStyle>
        </Style>
        <Style id="stylesel_461">
            <IconStyle id="substyle_461">
                <colorMode>normal</colorMode>
                <scale>1</scale>
                <heading>0</heading>
                <Icon id="link_461">
                    <href>wifi4.png</href>
                </Icon>
            </IconStyle>
        </Style>
        <Style id="stylesel_462">
            <IconStyle id="substyle_462">
                <colorMode>normal</colorMode>
                <scale>1</scale>
                <heading>0</heading>
                <Icon id="link_462">
                    <href>wifi4.png</href>
                </Icon>
            </IconStyle>
        </Style>
        <Style id="stylesel_463">
            <IconStyle id="substyle_463">
                <colorMode>normal</colorMode>
                <scale>1</scale>
                <heading>0</heading>
                <Icon id="link_463">
                    <href>wifi4.png</href>
                </Icon>
            </IconStyle>
        </Style>
        <Style id="stylesel_464">
            <IconStyle id="substyle_464">
                <colorMode>normal</colorMode>
                <scale>1</scale>
                <heading>0</heading>
                <Icon id="link_464">
                    <href>wifi4.png</href>
                </Icon>
            </IconStyle>
        </Style>
        <Style id="stylesel_465">
            <IconStyle id="substyle_465">
                <colorMode>normal</colorMode>
                <scale>1</scale>
                <heading>0</heading>
                <Icon id="link_465">
                    <href>wifi4.png</href>
                </Icon>
            </IconStyle>
        </Style>
        <Style id="stylesel_466">
            <IconStyle id="substyle_466">
                <colorMode>normal</colorMode>
                <scale>1</scale>
                <heading>0</heading>
                <Icon id="link_466">
                    <href>wifi4.png</href>
                </Icon>
            </IconStyle>
        </Style>
        <Style id="stylesel_467">
            <IconStyle id="substyle_467">
                <colorMode>normal</colorMode>
                <scale>1</scale>
                <heading>0</heading>
                <Icon id="link_467">
                    <href>wifi4.png</href>
                </Icon>
            </IconStyle>
        </Style>
        <Style id="stylesel_468">
            <IconStyle id="substyle_468">
                <colorMode>normal</colorMode>
                <scale>1</scale>
                <heading>0</heading>
                <Icon id="link_468">
                    <href>wifi4.png</href>
                </Icon>
            </IconStyle>
        </Style>
        <Style id="stylesel_469">
            <IconStyle id="substyle_469">
                <colorMode>normal</colorMode>
                <scale>1</scale>
                <heading>0</heading>
                <Icon id="link_469">
                    <href>wifi4.png</href>
                </Icon>
            </IconStyle>
        </Style>
        <Style id="stylesel_470">
            <IconStyle id="substyle_470">
                <colorMode>normal</colorMode>
                <scale>1</scale>
                <heading>0</heading>
                <Icon id="link_470">
                    <href>wifi4.png</href>
                </Icon>
            </IconStyle>
        </Style>
        <Style id="stylesel_471">
            <IconStyle id="substyle_471">
                <colorMode>normal</colorMode>
                <scale>1</scale>
                <heading>0</heading>
                <Icon id="link_471">
                    <href>wifi4.png</href>
                </Icon>
            </IconStyle>
        </Style>
        <Style id="stylesel_472">
            <IconStyle id="substyle_472">
                <colorMode>normal</colorMode>
                <scale>1</scale>
                <heading>0</heading>
                <Icon id="link_472">
                    <href>wifi4.png</href>
                </Icon>
            </IconStyle>
        </Style>
        <Style id="stylesel_473">
            <IconStyle id="substyle_473">
                <colorMode>normal</colorMode>
                <scale>1</scale>
                <heading>0</heading>
                <Icon id="link_473">
                    <href>wifi4.png</href>
                </Icon>
            </IconStyle>
        </Style>
        <Style id="stylesel_474">
            <IconStyle id="substyle_474">
                <colorMode>normal</colorMode>
                <scale>1</scale>
                <heading>0</heading>
                <Icon id="link_474">
                    <href>wifi4.png</href>
                </Icon>
            </IconStyle>
        </Style>
        <Style id="stylesel_475">
            <IconStyle id="substyle_475">
                <colorMode>normal</colorMode>
                <scale>1</scale>
                <heading>0</heading>
                <Icon id="link_475">
                    <href>wifi4.png</href>
                </Icon>
            </IconStyle>
        </Style>
        <Style id="stylesel_476">
            <IconStyle id="substyle_476">
                <colorMode>normal</colorMode>
                <scale>1</scale>
                <heading>0</heading>
                <Icon id="link_476">
                    <href>wifi4.png</href>
                </Icon>
            </IconStyle>
        </Style>
        <Style id="stylesel_477">
            <IconStyle id="substyle_477">
                <colorMode>normal</colorMode>
                <scale>1</scale>
                <heading>0</heading>
                <Icon id="link_477">
                    <href>wifi4.png</href>
                </Icon>
            </IconStyle>
        </Style>
        <Style id="stylesel_478">
            <IconStyle id="substyle_478">
                <colorMode>normal</colorMode>
                <scale>1</scale>
                <heading>0</heading>
                <Icon id="link_478">
                    <href>wifi4.png</href>
                </Icon>
            </IconStyle>
        </Style>
        <Style id="stylesel_479">
            <IconStyle id="substyle_479">
                <colorMode>normal</colorMode>
                <scale>1</scale>
                <heading>0</heading>
                <Icon id="link_479">
                    <href>wifi4.png</href>
                </Icon>
            </IconStyle>
        </Style>
        <Style id="stylesel_480">
            <IconStyle id="substyle_480">
                <colorMode>normal</colorMode>
                <scale>1</scale>
                <heading>0</heading>
                <Icon id="link_480">
                    <href>wifi4.png</href>
                </Icon>
            </IconStyle>
        </Style>
        <Style id="stylesel_481">
            <IconStyle id="substyle_481">
                <colorMode>normal</colorMode>
                <scale>1</scale>
                <heading>0</heading>
                <Icon id="link_481">
                    <href>wifi4.png</href>
                </Icon>
            </IconStyle>
        </Style>
        <Style id="stylesel_482">
            <IconStyle id="substyle_482">
                <colorMode>normal</colorMode>
                <scale>1</scale>
                <heading>0</heading>
                <Icon id="link_482">
                    <href>wifi4.png</href>
                </Icon>
            </IconStyle>
        </Style>
        <Style id="stylesel_483">
            <IconStyle id="substyle_483">
                <colorMode>normal</colorMode>
                <scale>1</scale>
                <heading>0</heading>
                <Icon id="link_483">
                    <href>wifi4.png</href>
                </Icon>
            </IconStyle>
        </Style>
        <Placemark id="feat_420">
            <name>SLCPD 1</name>
            <description>2017-03-15T14:08:06.000Z</description>
            <styleUrl>#stylesel_406</styleUrl>
            <Point id="geom_406">
                <coordinates>-111.90512085,40.76390457,0.0</coordinates>
            </Point>
        </Placemark>
        <Placemark id="feat_421">
            <name>SLCPD 1</name>
            <description>2017-03-15T14:08:15.000Z</description>
            <styleUrl>#stylesel_407</styleUrl>
            <Point id="geom_407">
                <coordinates>-111.90540314,40.76457214,0.0</coordinates>
            </Point>
        </Placemark>
        <Placemark id="feat_422">
            <name>SLCPD 1</name>
            <description>2017-02-25T06:39:53.000Z</description>
            <styleUrl>#stylesel_408</styleUrl>
            <Point id="geom_408">
                <coordinates>-111.90552521,40.76501465,0.0</coordinates>
            </Point>
        </Placemark>
        <Placemark id="feat_423">
            <name>SLCPD 1</name>
            <description>2017-03-15T14:08:09.000Z</description>
            <styleUrl>#stylesel_409</styleUrl>
            <Point id="geom_409">
                <coordinates>-111.90525818,40.76425171,0.0</coordinates>
            </Point>
        </Placemark>
        <Placemark id="feat_424">
            <name>SLCPD 1</name>
            <description>2017-03-15T14:08:07.000Z</description>
            <styleUrl>#stylesel_410</styleUrl>
            <Point id="geom_410">
                <coordinates>-111.905159,40.76396561,0.0</coordinates>
            </Point>
        </Placemark>
        <Placemark id="feat_425">
            <name>SLCPD 1</name>
            <description>2017-02-25T11:16:37.000Z</description>
            <styleUrl>#stylesel_411</styleUrl>
            <Point id="geom_411">
                <coordinates>-111.90558624,40.76515198,0.0</coordinates>
            </Point>
        </Placemark>
        <Placemark id="feat_426">
            <name>SLCPD 1</name>
            <description>2017-03-15T14:08:06.000Z</description>
            <styleUrl>#stylesel_412</styleUrl>
            <Point id="geom_412">
                <coordinates>-111.90513611,40.76390076,0.0</coordinates>
            </Point>
        </Placemark>
        <Placemark id="feat_427">
            <name>SLCPD 1</name>
            <description>2017-03-15T14:07:50.000Z</description>
            <styleUrl>#stylesel_413</styleUrl>
            <Point id="geom_413">
                <coordinates>-111.90504456,40.76266098,0.0</coordinates>
            </Point>
        </Placemark>
        <Placemark id="feat_428">
            <name>SLCPD 1</name>
            <description>2017-07-13T00:03:23.000Z</description>
            <styleUrl>#stylesel_414</styleUrl>
            <Point id="geom_414">
                <coordinates>-111.89350128,40.74152374,0.0</coordinates>
            </Point>
        </Placemark>
        <Placemark id="feat_429">
            <name>SLCPD 1</name>
            <description>2017-02-25T11:19:08.000Z</description>
            <styleUrl>#stylesel_415</styleUrl>
            <Point id="geom_415">
                <coordinates>-111.90454865,40.76485825,0.0</coordinates>
            </Point>
        </Placemark>
        <Placemark id="feat_430">
            <name>SLCPD 1</name>
            <description>2017-02-25T06:22:00.000Z</description>
            <styleUrl>#stylesel_416</styleUrl>
            <Point id="geom_416">
                <coordinates>-111.90410614,40.76309967,0.0</coordinates>
            </Point>
        </Placemark>
        <Placemark id="feat_431">
            <name>SLCPD 1</name>
            <description>2017-03-15T14:08:35.000Z</description>
            <styleUrl>#stylesel_417</styleUrl>
            <Point id="geom_417">
                <coordinates>-111.90493774,40.76493073,0.0</coordinates>
            </Point>
        </Placemark>
        <Placemark id="feat_432">
            <name>SLCPD 1</name>
            <description>2017-03-15T01:44:37.000Z</description>
            <styleUrl>#stylesel_418</styleUrl>
            <Point id="geom_418">
                <coordinates>-111.90552521,40.76735306,0.0</coordinates>
            </Point>
        </Placemark>
        <Placemark id="feat_433">
            <name>SLCPD 1</name>
            <description>2017-03-15T00:27:05.000Z</description>
            <styleUrl>#stylesel_419</styleUrl>
            <Point id="geom_419">
                <coordinates>-111.9042511,40.7634201,0.0</coordinates>
            </Point>
        </Placemark>
        <Placemark id="feat_434">
            <name>SLCPD 1</name>
            <description>2017-03-15T14:08:06.000Z</description>
            <styleUrl>#stylesel_420</styleUrl>
            <Point id="geom_420">
                <coordinates>-111.90513611,40.76390076,0.0</coordinates>
            </Point>
        </Placemark>
        <Placemark id="feat_435">
            <name>SLCPD 1</name>
            <description>2017-03-15T14:07:46.000Z</description>
            <styleUrl>#stylesel_421</styleUrl>
            <Point id="geom_421">
                <coordinates>-111.90507507,40.76225662,0.0</coordinates>
            </Point>
        </Placemark>
        <Placemark id="feat_436">
            <name>SLCPD 1</name>
            <description>2017-02-25T06:38:19.000Z</description>
            <styleUrl>#stylesel_422</styleUrl>
            <Point id="geom_422">
                <coordinates>-111.90553284,40.76708221,0.0</coordinates>
            </Point>
        </Placemark>
        <Placemark id="feat_437">
            <name>SLCPD 1</name>
            <description>2017-03-15T14:08:31.000Z</description>
            <styleUrl>#stylesel_423</styleUrl>
            <Point id="geom_423">
                <coordinates>-111.90528107,40.76490402,0.0</coordinates>
            </Point>
        </Placemark>
        <Placemark id="feat_438">
            <name>SLCPD 1</name>
            <description>2017-02-25T06:22:37.000Z</description>
            <styleUrl>#stylesel_424</styleUrl>
            <Point id="geom_424">
                <coordinates>-111.90441132,40.76409912,0.0</coordinates>
            </Point>
        </Placemark>
        <Placemark id="feat_439">
            <name>SLCPD 1</name>
            <description>2017-07-13T00:03:26.000Z</description>
            <styleUrl>#stylesel_425</styleUrl>
            <Point id="geom_425">
                <coordinates>-111.89310455,40.74153519,0.0</coordinates>
            </Point>
        </Placemark>
        <Placemark id="feat_440">
            <name>SLCPD 1</name>
            <description>2016-10-26T02:22:44.000Z</description>
            <styleUrl>#stylesel_426</styleUrl>
            <Point id="geom_426">
                <coordinates>-111.8997345,40.75032806,0.0</coordinates>
            </Point>
        </Placemark>
        <Placemark id="feat_441">
            <name>SLCPD 1</name>
            <description>2017-03-15T00:27:25.000Z</description>
            <styleUrl>#stylesel_427</styleUrl>
            <Point id="geom_427">
                <coordinates>-111.90431976,40.76341629,0.0</coordinates>
            </Point>
        </Placemark>
        <Placemark id="feat_442">
            <name>SLCPD 1</name>
            <description>2017-03-15T14:07:58.000Z</description>
            <styleUrl>#stylesel_428</styleUrl>
            <Point id="geom_428">
                <coordinates>-111.90509033,40.76331711,0.0</coordinates>
            </Point>
        </Placemark>
        <Placemark id="feat_443">
            <name>SLCPD 1</name>
            <description>2017-07-13T00:03:29.000Z</description>
            <styleUrl>#stylesel_429</styleUrl>
            <Point id="geom_429">
                <coordinates>-111.89263153,40.74152374,0.0</coordinates>
            </Point>
        </Placemark>
        <Placemark id="feat_444">
            <name>SLCPD 1</name>
            <description>2017-07-13T00:03:20.000Z</description>
            <styleUrl>#stylesel_430</styleUrl>
            <Point id="geom_430">
                <coordinates>-111.89390564,40.74153137,0.0</coordinates>
            </Point>
        </Placemark>
        <Placemark id="feat_445">
            <name>SLCPD 1</name>
            <description>2017-03-15T14:08:41.000Z</description>
            <styleUrl>#stylesel_431</styleUrl>
            <Point id="geom_431">
                <coordinates>-111.90423584,40.76497269,0.0</coordinates>
            </Point>
        </Placemark>
        <Placemark id="feat_446">
            <name>SLCPD 1</name>
            <description>2017-03-15T14:07:50.000Z</description>
            <styleUrl>#stylesel_432</styleUrl>
            <Point id="geom_432">
                <coordinates>-111.90504456,40.76265335,0.0</coordinates>
            </Point>
        </Placemark>
        <Placemark id="feat_447">
            <name>SLCPD 1</name>
            <description>2017-02-25T06:40:12.000Z</description>
            <styleUrl>#stylesel_433</styleUrl>
            <Point id="geom_433">
                <coordinates>-111.90442657,40.7648468,0.0</coordinates>
            </Point>
        </Placemark>
        <Placemark id="feat_448">
            <name>SLCPD 1</name>
            <description>2017-03-15T14:07:46.000Z</description>
            <styleUrl>#stylesel_434</styleUrl>
            <Point id="geom_434">
                <coordinates>-111.90505981,40.76226425,0.0</coordinates>
            </Point>
        </Placemark>
        <Placemark id="feat_449">
            <name>SLCPD 1</name>
            <description>2017-02-25T06:38:43.000Z</description>
            <styleUrl>#stylesel_435</styleUrl>
            <Point id="geom_435">
                <coordinates>-111.90548706,40.76602554,0.0</coordinates>
            </Point>
        </Placemark>
        <Placemark id="feat_450">
            <name>SLCPD 1</name>
            <description>2017-02-25T11:16:31.000Z</description>
            <styleUrl>#stylesel_436</styleUrl>
            <Point id="geom_436">
                <coordinates>-111.90454865,40.76512527,0.0</coordinates>
            </Point>
        </Placemark>
        <Placemark id="feat_451">
            <name>SLCPD 1</name>
            <description>2016-11-27T00:25:10.000Z</description>
            <styleUrl>#stylesel_437</styleUrl>
            <Point id="geom_437">
                <coordinates>-111.89956665,40.75044632,0.0</coordinates>
            </Point>
        </Placemark>
        <Placemark id="feat_452">
            <name>SLCPD 1</name>
            <description>2017-03-15T14:08:31.000Z</description>
            <styleUrl>#stylesel_438</styleUrl>
            <Point id="geom_438">
                <coordinates>-111.90529633,40.76493073,0.0</coordinates>
            </Point>
        </Placemark>
        <Placemark id="feat_453">
            <name>SLCPD 1</name>
            <description>2016-11-27T00:25:25.000Z</description>
            <styleUrl>#stylesel_439</styleUrl>
            <Point id="geom_439">
                <coordinates>-111.89955139,40.75160599,0.0</coordinates>
            </Point>
        </Placemark>
        <Placemark id="feat_454">
            <name>SLCPD 1</name>
            <description>2016-12-02T05:05:12.000Z</description>
            <styleUrl>#stylesel_440</styleUrl>
            <Point id="geom_440">
                <coordinates>-111.8996582,40.75027847,0.0</coordinates>
            </Point>
        </Placemark>
        <Placemark id="feat_455">
            <name>SLCPD 1</name>
            <description>2016-10-23T05:07:56.000Z</description>
            <styleUrl>#stylesel_441</styleUrl>
            <Point id="geom_441">
                <coordinates>-111.89949036,40.74995422,0.0</coordinates>
            </Point>
        </Placemark>
        <Placemark id="feat_456">
            <name>SLCPD 1</name>
            <description>2017-03-15T14:07:52.000Z</description>
            <styleUrl>#stylesel_442</styleUrl>
            <Point id="geom_442">
                <coordinates>-111.90505219,40.76277542,0.0</coordinates>
            </Point>
        </Placemark>
        <Placemark id="feat_457">
            <name>SLCPD 1</name>
            <description>2017-07-13T00:03:19.000Z</description>
            <styleUrl>#stylesel_443</styleUrl>
            <Point id="geom_443">
                <coordinates>-111.894104,40.74154282,0.0</coordinates>
            </Point>
        </Placemark>
        <Placemark id="feat_458">
            <name>SLCPD 1</name>
            <description>2017-02-25T06:20:31.000Z</description>
            <styleUrl>#stylesel_444</styleUrl>
            <Point id="geom_444">
                <coordinates>-111.90524292,40.76029968,0.0</coordinates>
            </Point>
        </Placemark>
        <Placemark id="feat_459">
            <name>SLCPD 1</name>
            <description>2017-02-25T11:25:58.000Z</description>
            <styleUrl>#stylesel_445</styleUrl>
            <Point id="geom_445">
                <coordinates>-111.90607452,40.76071548,0.0</coordinates>
            </Point>
        </Placemark>
        <Placemark id="feat_460">
            <name>SLCPD 1</name>
            <description>2017-03-15T14:07:52.000Z</description>
            <styleUrl>#stylesel_446</styleUrl>
            <Point id="geom_446">
                <coordinates>-111.90505981,40.76282501,0.0</coordinates>
            </Point>
        </Placemark>
        <Placemark id="feat_461">
            <name>SLCPD 1</name>
            <description>2016-10-23T01:24:28.000Z</description>
            <styleUrl>#stylesel_447</styleUrl>
            <Point id="geom_447">
                <coordinates>-111.89870453,40.74964142,0.0</coordinates>
            </Point>
        </Placemark>
        <Placemark id="feat_462">
            <name>SLCPD 1</name>
            <description>2017-03-01T00:40:12.000Z</description>
            <styleUrl>#stylesel_448</styleUrl>
            <Point id="geom_448">
                <coordinates>-111.9055481,40.76064682,0.0</coordinates>
            </Point>
        </Placemark>
        <Placemark id="feat_463">
            <name>SLCPD 1</name>
            <description>2016-10-23T05:07:42.000Z</description>
            <styleUrl>#stylesel_449</styleUrl>
            <Point id="geom_449">
                <coordinates>-111.89848328,40.74982071,0.0</coordinates>
            </Point>
        </Placemark>
        <Placemark id="feat_464">
            <name>SLCPD 1</name>
            <description>2016-10-23T01:23:07.000Z</description>
            <styleUrl>#stylesel_450</styleUrl>
            <Point id="geom_450">
                <coordinates>-111.89974213,40.75045013,0.0</coordinates>
            </Point>
        </Placemark>
        <Placemark id="feat_465">
            <name>SLCPD 1</name>
            <description>2016-12-01T22:58:08.000Z</description>
            <styleUrl>#stylesel_451</styleUrl>
            <Point id="geom_451">
                <coordinates>-111.90711212,40.74794769,0.0</coordinates>
            </Point>
        </Placemark>
        <Placemark id="feat_466">
            <name>SLCPD 1</name>
            <description>2016-10-24T23:24:03.000Z</description>
            <styleUrl>#stylesel_452</styleUrl>
            <Point id="geom_452">
                <coordinates>-111.89977264,40.74930573,0.0</coordinates>
            </Point>
        </Placemark>
        <Placemark id="feat_467">
            <name>SLCPD 1</name>
            <description>2016-10-24T23:23:55.000Z</description>
            <styleUrl>#stylesel_453</styleUrl>
            <Point id="geom_453">
                <coordinates>-111.89977264,40.75040436,0.0</coordinates>
            </Point>
        </Placemark>
        <Placemark id="feat_468">
            <name>SLCPD 1</name>
            <description>2017-07-13T00:03:19.000Z</description>
            <styleUrl>#stylesel_454</styleUrl>
            <Point id="geom_454">
                <coordinates>-111.89406586,40.74151611,0.0</coordinates>
            </Point>
        </Placemark>
        <Placemark id="feat_469">
            <name>SLCPD 1</name>
            <description>2017-03-11T00:12:20.000Z</description>
            <styleUrl>#stylesel_455</styleUrl>
            <Point id="geom_455">
                <coordinates>-111.90641785,40.76062393,0.0</coordinates>
            </Point>
        </Placemark>
        <Placemark id="feat_470">
            <name>SLCPD 1</name>
            <description>2017-03-11T00:12:28.000Z</description>
            <styleUrl>#stylesel_456</styleUrl>
            <Point id="geom_456">
                <coordinates>-111.90830231,40.76063919,0.0</coordinates>
            </Point>
        </Placemark>
        <Placemark id="feat_471">
            <name>SLCPD 1</name>
            <description>2017-03-27T14:15:03.000Z</description>
            <styleUrl>#stylesel_457</styleUrl>
            <Point id="geom_457">
                <coordinates>-111.90525055,40.76030731,0.0</coordinates>
            </Point>
        </Placemark>
        <Placemark id="feat_472">
            <name>SLCPD 1</name>
            <description>2017-03-15T14:07:34.000Z</description>
            <styleUrl>#stylesel_458</styleUrl>
            <Point id="geom_458">
                <coordinates>-111.9052124,40.76111603,0.0</coordinates>
            </Point>
        </Placemark>
        <Placemark id="feat_473">
            <name>SLCPD 1</name>
            <description>2017-03-15T14:07:34.000Z</description>
            <styleUrl>#stylesel_459</styleUrl>
            <Point id="geom_459">
                <coordinates>-111.90524292,40.76112366,0.0</coordinates>
            </Point>
        </Placemark>
        <Placemark id="feat_474">
            <name>SLCPD 1</name>
            <description>2017-02-25T11:25:52.000Z</description>
            <styleUrl>#stylesel_460</styleUrl>
            <Point id="geom_460">
                <coordinates>-111.90470886,40.7607193,0.0</coordinates>
            </Point>
        </Placemark>
        <Placemark id="feat_475">
            <name>SLCPD 1</name>
            <description>2016-10-26T02:23:01.000Z</description>
            <styleUrl>#stylesel_461</styleUrl>
            <Point id="geom_461">
                <coordinates>-111.89840698,40.74974823,0.0</coordinates>
            </Point>
        </Placemark>
        <Placemark id="feat_476">
            <name>SLCPD 1</name>
            <description>2017-03-15T14:08:40.000Z</description>
            <styleUrl>#stylesel_462</styleUrl>
            <Point id="geom_462">
                <coordinates>-111.90433502,40.76493835,0.0</coordinates>
            </Point>
        </Placemark>
        <Placemark id="feat_477">
            <name>SLCPD 1</name>
            <description>2016-10-23T05:08:08.000Z</description>
            <styleUrl>#stylesel_463</styleUrl>
            <Point id="geom_463">
                <coordinates>-111.89958954,40.75101852,0.0</coordinates>
            </Point>
        </Placemark>
        <Placemark id="feat_478">
            <name>SLCPD 1</name>
            <description>2017-02-25T06:18:32.000Z</description>
            <styleUrl>#stylesel_464</styleUrl>
            <Point id="geom_464">
                <coordinates>-111.90547943,40.75803757,0.0</coordinates>
            </Point>
        </Placemark>
        <Placemark id="feat_479">
            <name>SLCPD 1</name>
            <description>2017-03-15T01:48:08.000Z</description>
            <styleUrl>#stylesel_465</styleUrl>
            <Point id="geom_465">
                <coordinates>-111.90270233,40.7644577,0.0</coordinates>
            </Point>
        </Placemark>
        <Placemark id="feat_480">
            <name>SLCPD 1</name>
            <description>2017-07-13T00:03:39.000Z</description>
            <styleUrl>#stylesel_466</styleUrl>
            <Point id="geom_466">
                <coordinates>-111.89151001,40.7415123,0.0</coordinates>
            </Point>
        </Placemark>
        <Placemark id="feat_481">
            <name>SLCPD 1</name>
            <description>2017-03-17T21:13:27.000Z</description>
            <styleUrl>#stylesel_467</styleUrl>
            <Point id="geom_467">
                <coordinates>-111.90546417,40.76063538,0.0</coordinates>
            </Point>
        </Placemark>
        <Placemark id="feat_482">
            <name>SLCPD 1</name>
            <description>2017-03-02T18:20:03.000Z</description>
            <styleUrl>#stylesel_468</styleUrl>
            <Point id="geom_468">
                <coordinates>-111.90531158,40.76059723,0.0</coordinates>
            </Point>
        </Placemark>
        <Placemark id="feat_483">
            <name>SLCPD 1</name>
            <description>2016-11-11T15:45:31.000Z</description>
            <styleUrl>#stylesel_469</styleUrl>
            <Point id="geom_469">
                <coordinates>-111.89402008,40.74921417,0.0</coordinates>
            </Point>
        </Placemark>
        <Placemark id="feat_484">
            <name>SLCPD 1</name>
            <description>2017-03-15T14:07:40.000Z</description>
            <styleUrl>#stylesel_470</styleUrl>
            <Point id="geom_470">
                <coordinates>-111.9050827,40.76163101,0.0</coordinates>
            </Point>
        </Placemark>
        <Placemark id="feat_485">
            <name>SLCPD 1</name>
            <description>2016-11-11T15:44:52.000Z</description>
            <styleUrl>#stylesel_471</styleUrl>
            <Point id="geom_471">
                <coordinates>-111.90211487,40.74741364,0.0</coordinates>
            </Point>
        </Placemark>
        <Placemark id="feat_486">
            <name>SLCPD 1</name>
            <description>2016-11-09T15:36:36.000Z</description>
            <styleUrl>#stylesel_472</styleUrl>
            <Point id="geom_472">
                <coordinates>-111.90264893,40.7473526,0.0</coordinates>
            </Point>
        </Placemark>
        <Placemark id="feat_487">
            <name>SLCPD 1</name>
            <description>2016-11-11T15:45:00.000Z</description>
            <styleUrl>#stylesel_473</styleUrl>
            <Point id="geom_473">
                <coordinates>-111.89994049,40.74740219,0.0</coordinates>
            </Point>
        </Placemark>
        <Placemark id="feat_488">
            <name>SLCPD 1</name>
            <description>2016-11-11T15:44:56.000Z</description>
            <styleUrl>#stylesel_474</styleUrl>
            <Point id="geom_474">
                <coordinates>-111.90104675,40.74741364,0.0</coordinates>
            </Point>
        </Placemark>
        <Placemark id="feat_489">
            <name>SLCPD 1</name>
            <description>2017-03-15T14:08:43.000Z</description>
            <styleUrl>#stylesel_475</styleUrl>
            <Point id="geom_475">
                <coordinates>-111.90396881,40.76493454,0.0</coordinates>
            </Point>
        </Placemark>
        <Placemark id="feat_490">
            <name>SLCPD 1</name>
            <description>2016-11-09T15:36:41.000Z</description>
            <styleUrl>#stylesel_476</styleUrl>
            <Point id="geom_476">
                <coordinates>-111.90151215,40.74739456,0.0</coordinates>
            </Point>
        </Placemark>
        <Placemark id="feat_491">
            <name>SLCPD 1</name>
            <description>2017-03-01T02:40:21.000Z</description>
            <styleUrl>#stylesel_477</styleUrl>
            <Point id="geom_477">
                <coordinates>-111.90756989,40.76066208,0.0</coordinates>
            </Point>
        </Placemark>
        <Placemark id="feat_492">
            <name>SLCPD 1</name>
            <description>2017-03-10T16:18:31.000Z</description>
            <styleUrl>#stylesel_478</styleUrl>
            <Point id="geom_478">
                <coordinates>-111.90496826,40.76060486,0.0</coordinates>
            </Point>
        </Placemark>
        <Placemark id="feat_493">
            <name>SLCPD 1</name>
            <description>2017-03-01T02:40:16.000Z</description>
            <styleUrl>#stylesel_479</styleUrl>
            <Point id="geom_479">
                <coordinates>-111.90639496,40.76065063,0.0</coordinates>
            </Point>
        </Placemark>
        <Placemark id="feat_494">
            <name>SLCPD 1</name>
            <description>2017-03-27T14:12:40.000Z</description>
            <styleUrl>#stylesel_480</styleUrl>
            <Point id="geom_480">
                <coordinates>-111.9054718,40.76041031,0.0</coordinates>
            </Point>
        </Placemark>
        <Placemark id="feat_495">
            <name>SLCPD 1</name>
            <description>2017-03-15T14:07:40.000Z</description>
            <styleUrl>#stylesel_481</styleUrl>
            <Point id="geom_481">
                <coordinates>-111.90505981,40.76169205,0.0</coordinates>
            </Point>
        </Placemark>
        <Placemark id="feat_496">
            <name>SLCPD 1</name>
            <description>2017-03-27T14:13:33.000Z</description>
            <styleUrl>#stylesel_482</styleUrl>
            <Point id="geom_482">
                <coordinates>-111.90531158,40.75831604,0.0</coordinates>
            </Point>
        </Placemark>
        <Placemark id="feat_497">
            <name>SLCPD 1</name>
            <description>2017-07-13T00:02:46.000Z</description>
            <styleUrl>#stylesel_483</styleUrl>
            <Point id="geom_483">
                <coordinates>-111.8957901,40.74152756,0.0</coordinates>
            </Point>
        </Placemark>
    </Document>
</kml>
