<?xml version="1.0" encoding="UTF-8"?>
<kml xmlns="http://www.opengis.net/kml/2.2" xmlns:gx="http://www.google.com/kml/ext/2.2">
    <Document id="feat_666">
        <Style id="stylesel_639">
            <IconStyle id="substyle_639">
                <colorMode>normal</colorMode>
                <scale>1</scale>
                <heading>0</heading>
                <Icon id="link_639">
                    <href>wifi4.png</href>
                </Icon>
            </IconStyle>
        </Style>
        <Style id="stylesel_640">
            <IconStyle id="substyle_640">
                <colorMode>normal</colorMode>
                <scale>1</scale>
                <heading>0</heading>
                <Icon id="link_640">
                    <href>wifi4.png</href>
                </Icon>
            </IconStyle>
        </Style>
        <Style id="stylesel_641">
            <IconStyle id="substyle_641">
                <colorMode>normal</colorMode>
                <scale>1</scale>
                <heading>0</heading>
                <Icon id="link_641">
                    <href>wifi4.png</href>
                </Icon>
            </IconStyle>
        </Style>
        <Style id="stylesel_642">
            <IconStyle id="substyle_642">
                <colorMode>normal</colorMode>
                <scale>1</scale>
                <heading>0</heading>
                <Icon id="link_642">
                    <href>wifi4.png</href>
                </Icon>
            </IconStyle>
        </Style>
        <Style id="stylesel_643">
            <IconStyle id="substyle_643">
                <colorMode>normal</colorMode>
                <scale>1</scale>
                <heading>0</heading>
                <Icon id="link_643">
                    <href>wifi4.png</href>
                </Icon>
            </IconStyle>
        </Style>
        <Style id="stylesel_644">
            <IconStyle id="substyle_644">
                <colorMode>normal</colorMode>
                <scale>1</scale>
                <heading>0</heading>
                <Icon id="link_644">
                    <href>wifi4.png</href>
                </Icon>
            </IconStyle>
        </Style>
        <Style id="stylesel_645">
            <IconStyle id="substyle_645">
                <colorMode>normal</colorMode>
                <scale>1</scale>
                <heading>0</heading>
                <Icon id="link_645">
                    <href>wifi4.png</href>
                </Icon>
            </IconStyle>
        </Style>
        <Style id="stylesel_646">
            <IconStyle id="substyle_646">
                <colorMode>normal</colorMode>
                <scale>1</scale>
                <heading>0</heading>
                <Icon id="link_646">
                    <href>wifi4.png</href>
                </Icon>
            </IconStyle>
        </Style>
        <Style id="stylesel_647">
            <IconStyle id="substyle_647">
                <colorMode>normal</colorMode>
                <scale>1</scale>
                <heading>0</heading>
                <Icon id="link_647">
                    <href>wifi4.png</href>
                </Icon>
            </IconStyle>
        </Style>
        <Style id="stylesel_648">
            <IconStyle id="substyle_648">
                <colorMode>normal</colorMode>
                <scale>1</scale>
                <heading>0</heading>
                <Icon id="link_648">
                    <href>wifi4.png</href>
                </Icon>
            </IconStyle>
        </Style>
        <Placemark id="feat_667">
            <name>1023</name>
            <description>2017-09-07T22:10:42.000Z</description>
            <styleUrl>#stylesel_639</styleUrl>
            <Point id="geom_639">
                <coordinates>-111.89977264,40.76065063,0.0</coordinates>
            </Point>
        </Placemark>
        <Placemark id="feat_668">
            <name>1023</name>
            <description>2017-09-06T21:17:58.000Z</description>
            <styleUrl>#stylesel_640</styleUrl>
            <Point id="geom_640">
                <coordinates>-111.9047699,40.73421097,0.0</coordinates>
            </Point>
        </Placemark>
        <Placemark id="feat_669">
            <name>1023</name>
            <description>2017-09-06T21:17:54.000Z</description>
            <styleUrl>#stylesel_641</styleUrl>
            <Point id="geom_641">
                <coordinates>-111.90473938,40.73546982,0.0</coordinates>
            </Point>
        </Placemark>
        <Placemark id="feat_670">
            <name>1023</name>
            <description>2017-09-07T05:18:02.000Z</description>
            <styleUrl>#stylesel_642</styleUrl>
            <Point id="geom_642">
                <coordinates>-111.90474701,40.73296356,0.0</coordinates>
            </Point>
        </Placemark>
        <Placemark id="feat_671">
            <name>1023</name>
            <description>2017-09-07T05:17:57.000Z</description>
            <styleUrl>#stylesel_643</styleUrl>
            <Point id="geom_643">
                <coordinates>-111.90480804,40.73456955,0.0</coordinates>
            </Point>
        </Placemark>
        <Placemark id="feat_672">
            <name>1023</name>
            <description>2017-09-07T05:17:53.000Z</description>
            <styleUrl>#stylesel_644</styleUrl>
            <Point id="geom_644">
                <coordinates>-111.9047699,40.73580933,0.0</coordinates>
            </Point>
        </Placemark>
        <Placemark id="feat_673">
            <name>1023</name>
            <description>2017-09-07T22:10:40.000Z</description>
            <styleUrl>#stylesel_645</styleUrl>
            <Point id="geom_645">
                <coordinates>-111.89974213,40.76063538,0.0</coordinates>
            </Point>
        </Placemark>
        <Placemark id="feat_674">
            <name>1023</name>
            <description>2017-09-08T00:37:42.000Z</description>
            <styleUrl>#stylesel_646</styleUrl>
            <Point id="geom_646">
                <coordinates>-111.87139893,40.74158859,0.0</coordinates>
            </Point>
        </Placemark>
        <Placemark id="feat_675">
            <name>1023</name>
            <description>2017-09-07T22:10:51.000Z</description>
            <styleUrl>#stylesel_647</styleUrl>
            <Point id="geom_647">
                <coordinates>-111.8996582,40.76168442,0.0</coordinates>
            </Point>
        </Placemark>
        <Placemark id="feat_676">
            <name>1023</name>
            <description>2017-09-08T00:37:46.000Z</description>
            <styleUrl>#stylesel_648</styleUrl>
            <Point id="geom_648">
                <coordinates>-111.87136078,40.74132538,0.0</coordinates>
            </Point>
        </Placemark>
    </Document>
</kml>
