<?xml version="1.0" encoding="UTF-8"?>
<kml xmlns="http://www.opengis.net/kml/2.2" xmlns:gx="http://www.google.com/kml/ext/2.2">
    <Document id="feat_711">
        <Style id="stylesel_682">
            <IconStyle id="substyle_682">
                <colorMode>normal</colorMode>
                <scale>1</scale>
                <heading>0</heading>
                <Icon id="link_682">
                    <href>wifi4.png</href>
                </Icon>
            </IconStyle>
        </Style>
        <Style id="stylesel_683">
            <IconStyle id="substyle_683">
                <colorMode>normal</colorMode>
                <scale>1</scale>
                <heading>0</heading>
                <Icon id="link_683">
                    <href>wifi4.png</href>
                </Icon>
            </IconStyle>
        </Style>
        <Style id="stylesel_684">
            <IconStyle id="substyle_684">
                <colorMode>normal</colorMode>
                <scale>1</scale>
                <heading>0</heading>
                <Icon id="link_684">
                    <href>wifi4.png</href>
                </Icon>
            </IconStyle>
        </Style>
        <Style id="stylesel_685">
            <IconStyle id="substyle_685">
                <colorMode>normal</colorMode>
                <scale>1</scale>
                <heading>0</heading>
                <Icon id="link_685">
                    <href>wifi4.png</href>
                </Icon>
            </IconStyle>
        </Style>
        <Placemark id="feat_712">
            <name>1023</name>
            <description>2017-02-28T19:50:18.000Z</description>
            <styleUrl>#stylesel_682</styleUrl>
            <Point id="geom_682">
                <coordinates>-111.89399719,40.75881195,0.0</coordinates>
            </Point>
        </Placemark>
        <Placemark id="feat_713">
            <name>1023</name>
            <description>2017-02-28T19:50:17.000Z</description>
            <styleUrl>#stylesel_683</styleUrl>
            <Point id="geom_683">
                <coordinates>-111.89407349,40.75888824,0.0</coordinates>
            </Point>
        </Placemark>
        <Placemark id="feat_714">
            <name>1023</name>
            <description>1970-01-01T01:00:00.000Z</description>
            <styleUrl>#stylesel_684</styleUrl>
            <Point id="geom_684">
                <coordinates>-111.51137543,40.62823486,0.0</coordinates>
            </Point>
        </Placemark>
        <Placemark id="feat_715">
            <name>1023</name>
            <description>2017-02-28T19:50:16.000Z</description>
            <styleUrl>#stylesel_685</styleUrl>
            <Point id="geom_685">
                <coordinates>-111.89401245,40.75888443,0.0</coordinates>
            </Point>
        </Placemark>
    </Document>
</kml>
