<?xml version="1.0" encoding="UTF-8"?>
<kml xmlns="http://www.opengis.net/kml/2.2" xmlns:gx="http://www.google.com/kml/ext/2.2">
    <Document id="feat_1866">
        <Style id="stylesel_1786">
            <IconStyle id="substyle_1786">
                <colorMode>normal</colorMode>
                <scale>1</scale>
                <heading>0</heading>
                <Icon id="link_1786">
                    <href>wifi4.png</href>
                </Icon>
            </IconStyle>
        </Style>
        <Style id="stylesel_1787">
            <IconStyle id="substyle_1787">
                <colorMode>normal</colorMode>
                <scale>1</scale>
                <heading>0</heading>
                <Icon id="link_1787">
                    <href>wifi4.png</href>
                </Icon>
            </IconStyle>
        </Style>
        <Style id="stylesel_1788">
            <IconStyle id="substyle_1788">
                <colorMode>normal</colorMode>
                <scale>1</scale>
                <heading>0</heading>
                <Icon id="link_1788">
                    <href>wifi4.png</href>
                </Icon>
            </IconStyle>
        </Style>
        <Style id="stylesel_1789">
            <IconStyle id="substyle_1789">
                <colorMode>normal</colorMode>
                <scale>1</scale>
                <heading>0</heading>
                <Icon id="link_1789">
                    <href>wifi4.png</href>
                </Icon>
            </IconStyle>
        </Style>
        <Style id="stylesel_1790">
            <IconStyle id="substyle_1790">
                <colorMode>normal</colorMode>
                <scale>1</scale>
                <heading>0</heading>
                <Icon id="link_1790">
                    <href>wifi4.png</href>
                </Icon>
            </IconStyle>
        </Style>
        <Style id="stylesel_1791">
            <IconStyle id="substyle_1791">
                <colorMode>normal</colorMode>
                <scale>1</scale>
                <heading>0</heading>
                <Icon id="link_1791">
                    <href>wifi4.png</href>
                </Icon>
            </IconStyle>
        </Style>
        <Style id="stylesel_1792">
            <IconStyle id="substyle_1792">
                <colorMode>normal</colorMode>
                <scale>1</scale>
                <heading>0</heading>
                <Icon id="link_1792">
                    <href>wifi4.png</href>
                </Icon>
            </IconStyle>
        </Style>
        <Style id="stylesel_1793">
            <IconStyle id="substyle_1793">
                <colorMode>normal</colorMode>
                <scale>1</scale>
                <heading>0</heading>
                <Icon id="link_1793">
                    <href>wifi4.png</href>
                </Icon>
            </IconStyle>
        </Style>
        <Style id="stylesel_1794">
            <IconStyle id="substyle_1794">
                <colorMode>normal</colorMode>
                <scale>1</scale>
                <heading>0</heading>
                <Icon id="link_1794">
                    <href>wifi4.png</href>
                </Icon>
            </IconStyle>
        </Style>
        <Style id="stylesel_1795">
            <IconStyle id="substyle_1795">
                <colorMode>normal</colorMode>
                <scale>1</scale>
                <heading>0</heading>
                <Icon id="link_1795">
                    <href>wifi4.png</href>
                </Icon>
            </IconStyle>
        </Style>
        <Style id="stylesel_1796">
            <IconStyle id="substyle_1796">
                <colorMode>normal</colorMode>
                <scale>1</scale>
                <heading>0</heading>
                <Icon id="link_1796">
                    <href>wifi4.png</href>
                </Icon>
            </IconStyle>
        </Style>
        <Style id="stylesel_1797">
            <IconStyle id="substyle_1797">
                <colorMode>normal</colorMode>
                <scale>1</scale>
                <heading>0</heading>
                <Icon id="link_1797">
                    <href>wifi4.png</href>
                </Icon>
            </IconStyle>
        </Style>
        <Style id="stylesel_1798">
            <IconStyle id="substyle_1798">
                <colorMode>normal</colorMode>
                <scale>1</scale>
                <heading>0</heading>
                <Icon id="link_1798">
                    <href>wifi4.png</href>
                </Icon>
            </IconStyle>
        </Style>
        <Style id="stylesel_1799">
            <IconStyle id="substyle_1799">
                <colorMode>normal</colorMode>
                <scale>1</scale>
                <heading>0</heading>
                <Icon id="link_1799">
                    <href>wifi4.png</href>
                </Icon>
            </IconStyle>
        </Style>
        <Style id="stylesel_1800">
            <IconStyle id="substyle_1800">
                <colorMode>normal</colorMode>
                <scale>1</scale>
                <heading>0</heading>
                <Icon id="link_1800">
                    <href>wifi4.png</href>
                </Icon>
            </IconStyle>
        </Style>
        <Style id="stylesel_1801">
            <IconStyle id="substyle_1801">
                <colorMode>normal</colorMode>
                <scale>1</scale>
                <heading>0</heading>
                <Icon id="link_1801">
                    <href>wifi4.png</href>
                </Icon>
            </IconStyle>
        </Style>
        <Style id="stylesel_1802">
            <IconStyle id="substyle_1802">
                <colorMode>normal</colorMode>
                <scale>1</scale>
                <heading>0</heading>
                <Icon id="link_1802">
                    <href>wifi4.png</href>
                </Icon>
            </IconStyle>
        </Style>
        <Style id="stylesel_1803">
            <IconStyle id="substyle_1803">
                <colorMode>normal</colorMode>
                <scale>1</scale>
                <heading>0</heading>
                <Icon id="link_1803">
                    <href>wifi4.png</href>
                </Icon>
            </IconStyle>
        </Style>
        <Style id="stylesel_1804">
            <IconStyle id="substyle_1804">
                <colorMode>normal</colorMode>
                <scale>1</scale>
                <heading>0</heading>
                <Icon id="link_1804">
                    <href>wifi4.png</href>
                </Icon>
            </IconStyle>
        </Style>
        <Style id="stylesel_1805">
            <IconStyle id="substyle_1805">
                <colorMode>normal</colorMode>
                <scale>1</scale>
                <heading>0</heading>
                <Icon id="link_1805">
                    <href>wifi4.png</href>
                </Icon>
            </IconStyle>
        </Style>
        <Style id="stylesel_1806">
            <IconStyle id="substyle_1806">
                <colorMode>normal</colorMode>
                <scale>1</scale>
                <heading>0</heading>
                <Icon id="link_1806">
                    <href>wifi4.png</href>
                </Icon>
            </IconStyle>
        </Style>
        <Style id="stylesel_1807">
            <IconStyle id="substyle_1807">
                <colorMode>normal</colorMode>
                <scale>1</scale>
                <heading>0</heading>
                <Icon id="link_1807">
                    <href>wifi4.png</href>
                </Icon>
            </IconStyle>
        </Style>
        <Style id="stylesel_1808">
            <IconStyle id="substyle_1808">
                <colorMode>normal</colorMode>
                <scale>1</scale>
                <heading>0</heading>
                <Icon id="link_1808">
                    <href>wifi4.png</href>
                </Icon>
            </IconStyle>
        </Style>
        <Style id="stylesel_1809">
            <IconStyle id="substyle_1809">
                <colorMode>normal</colorMode>
                <scale>1</scale>
                <heading>0</heading>
                <Icon id="link_1809">
                    <href>wifi4.png</href>
                </Icon>
            </IconStyle>
        </Style>
        <Style id="stylesel_1810">
            <IconStyle id="substyle_1810">
                <colorMode>normal</colorMode>
                <scale>1</scale>
                <heading>0</heading>
                <Icon id="link_1810">
                    <href>wifi4.png</href>
                </Icon>
            </IconStyle>
        </Style>
        <Style id="stylesel_1811">
            <IconStyle id="substyle_1811">
                <colorMode>normal</colorMode>
                <scale>1</scale>
                <heading>0</heading>
                <Icon id="link_1811">
                    <href>wifi4.png</href>
                </Icon>
            </IconStyle>
        </Style>
        <Placemark id="feat_1867">
            <name>1023</name>
            <description>2017-04-30T22:01:51.000Z</description>
            <styleUrl>#stylesel_1786</styleUrl>
            <Point id="geom_1786">
                <coordinates>-111.86579132,40.76943207,0.0</coordinates>
            </Point>
        </Placemark>
        <Placemark id="feat_1868">
            <name>1023</name>
            <description>2017-04-30T22:01:06.000Z</description>
            <styleUrl>#stylesel_1787</styleUrl>
            <Point id="geom_1787">
                <coordinates>-111.86487579,40.76940918,0.0</coordinates>
            </Point>
        </Placemark>
        <Placemark id="feat_1869">
            <name>1023</name>
            <description>2017-04-30T22:01:50.000Z</description>
            <styleUrl>#stylesel_1788</styleUrl>
            <Point id="geom_1788">
                <coordinates>-111.8656311,40.76942444,0.0</coordinates>
            </Point>
        </Placemark>
        <Placemark id="feat_1870">
            <name>1023</name>
            <description>2017-04-30T22:01:59.000Z</description>
            <styleUrl>#stylesel_1789</styleUrl>
            <Point id="geom_1789">
                <coordinates>-111.86704254,40.76942444,0.0</coordinates>
            </Point>
        </Placemark>
        <Placemark id="feat_1871">
            <name>1023</name>
            <description>2017-03-12T21:04:57.000Z</description>
            <styleUrl>#stylesel_1790</styleUrl>
            <Point id="geom_1790">
                <coordinates>-111.90187073,40.47939682,0.0</coordinates>
            </Point>
        </Placemark>
        <Placemark id="feat_1872">
            <name>1023</name>
            <description>2017-04-30T22:01:05.000Z</description>
            <styleUrl>#stylesel_1791</styleUrl>
            <Point id="geom_1791">
                <coordinates>-111.86464691,40.7694397,0.0</coordinates>
            </Point>
        </Placemark>
        <Placemark id="feat_1873">
            <name>1023</name>
            <description>2017-03-21T03:56:13.000Z</description>
            <styleUrl>#stylesel_1792</styleUrl>
            <Point id="geom_1792">
                <coordinates>-111.90476227,40.71831512,0.0</coordinates>
            </Point>
        </Placemark>
        <Placemark id="feat_1874">
            <name>1023</name>
            <description>2017-03-21T03:56:17.000Z</description>
            <styleUrl>#stylesel_1793</styleUrl>
            <Point id="geom_1793">
                <coordinates>-111.90473175,40.71716309,0.0</coordinates>
            </Point>
        </Placemark>
        <Placemark id="feat_1875">
            <name>1023</name>
            <description>2017-03-12T21:05:13.000Z</description>
            <styleUrl>#stylesel_1794</styleUrl>
            <Point id="geom_1794">
                <coordinates>-111.89867401,40.48117447,0.0</coordinates>
            </Point>
        </Placemark>
        <Placemark id="feat_1876">
            <name>1023</name>
            <description>2017-03-07T21:47:10.000Z</description>
            <styleUrl>#stylesel_1795</styleUrl>
            <Point id="geom_1795">
                <coordinates>-111.88565826,40.40726089,0.0</coordinates>
            </Point>
        </Placemark>
        <Placemark id="feat_1877">
            <name>1023</name>
            <description>2017-03-12T21:04:48.000Z</description>
            <styleUrl>#stylesel_1796</styleUrl>
            <Point id="geom_1796">
                <coordinates>-111.9031601,40.47776794,0.0</coordinates>
            </Point>
        </Placemark>
        <Placemark id="feat_1878">
            <name>1023</name>
            <description>2017-03-12T21:05:05.000Z</description>
            <styleUrl>#stylesel_1797</styleUrl>
            <Point id="geom_1797">
                <coordinates>-111.90044403,40.48064423,0.0</coordinates>
            </Point>
        </Placemark>
        <Placemark id="feat_1879">
            <name>1023</name>
            <description>2017-03-12T21:05:13.000Z</description>
            <styleUrl>#stylesel_1798</styleUrl>
            <Point id="geom_1798">
                <coordinates>-111.89868927,40.48117065,0.0</coordinates>
            </Point>
        </Placemark>
        <Placemark id="feat_1880">
            <name>1023</name>
            <description>2017-04-18T03:38:32.000Z</description>
            <styleUrl>#stylesel_1799</styleUrl>
            <Point id="geom_1799">
                <coordinates>-111.8991394,40.77146149,0.0</coordinates>
            </Point>
        </Placemark>
        <Placemark id="feat_1881">
            <name>1023</name>
            <description>2017-03-12T21:05:08.000Z</description>
            <styleUrl>#stylesel_1800</styleUrl>
            <Point id="geom_1800">
                <coordinates>-111.89984894,40.48094559,0.0</coordinates>
            </Point>
        </Placemark>
        <Placemark id="feat_1882">
            <name>1023</name>
            <description>2017-11-01T15:30:57.000Z</description>
            <styleUrl>#stylesel_1801</styleUrl>
            <Point id="geom_1801">
                <coordinates>-111.95001221,40.75688171,0.0</coordinates>
            </Point>
        </Placemark>
        <Placemark id="feat_1883">
            <name>1023</name>
            <description>2017-03-12T21:04:49.000Z</description>
            <styleUrl>#stylesel_1802</styleUrl>
            <Point id="geom_1802">
                <coordinates>-111.90299988,40.47794342,0.0</coordinates>
            </Point>
        </Placemark>
        <Placemark id="feat_1884">
            <name>1023</name>
            <description>2017-03-26T20:09:11.000Z</description>
            <styleUrl>#stylesel_1803</styleUrl>
            <Point id="geom_1803">
                <coordinates>-111.90162659,40.6579361,0.0</coordinates>
            </Point>
        </Placemark>
        <Placemark id="feat_1885">
            <name>1023</name>
            <description>2017-03-05T21:50:28.000Z</description>
            <styleUrl>#stylesel_1804</styleUrl>
            <Point id="geom_1804">
                <coordinates>-111.88725281,40.43154907,0.0</coordinates>
            </Point>
        </Placemark>
        <Placemark id="feat_1886">
            <name>1023</name>
            <description>2017-03-12T21:04:56.000Z</description>
            <styleUrl>#stylesel_1805</styleUrl>
            <Point id="geom_1805">
                <coordinates>-111.9020462,40.47925186,0.0</coordinates>
            </Point>
        </Placemark>
        <Placemark id="feat_1887">
            <name>1023</name>
            <description>2017-04-18T03:37:42.000Z</description>
            <styleUrl>#stylesel_1806</styleUrl>
            <Point id="geom_1806">
                <coordinates>-111.90028381,40.7714386,0.0</coordinates>
            </Point>
        </Placemark>
        <Placemark id="feat_1888">
            <name>1023</name>
            <description>2017-08-29T23:19:57.000Z</description>
            <styleUrl>#stylesel_1807</styleUrl>
            <Point id="geom_1807">
                <coordinates>-111.91165161,40.467659,0.0</coordinates>
            </Point>
        </Placemark>
        <Placemark id="feat_1889">
            <name>1023</name>
            <description>2017-04-30T22:01:43.000Z</description>
            <styleUrl>#stylesel_1808</styleUrl>
            <Point id="geom_1808">
                <coordinates>-111.86507416,40.76942825,0.0</coordinates>
            </Point>
        </Placemark>
        <Placemark id="feat_1890">
            <name>1023</name>
            <description>2017-03-12T21:04:51.000Z</description>
            <styleUrl>#stylesel_1809</styleUrl>
            <Point id="geom_1809">
                <coordinates>-111.90271759,40.47829819,0.0</coordinates>
            </Point>
        </Placemark>
        <Placemark id="feat_1891">
            <name>1023</name>
            <description>2017-03-12T21:04:37.000Z</description>
            <styleUrl>#stylesel_1810</styleUrl>
            <Point id="geom_1810">
                <coordinates>-111.9044342,40.47559357,0.0</coordinates>
            </Point>
        </Placemark>
        <Placemark id="feat_1892">
            <name>1023</name>
            <description>2017-03-12T21:04:43.000Z</description>
            <styleUrl>#stylesel_1811</styleUrl>
            <Point id="geom_1811">
                <coordinates>-111.90380096,40.47680283,0.0</coordinates>
            </Point>
        </Placemark>
    </Document>
</kml>
