<?xml version="1.0" encoding="UTF-8"?>
<kml xmlns="http://www.opengis.net/kml/2.2" xmlns:gx="http://www.google.com/kml/ext/2.2">
    <Document id="feat_663">
        <Style id="stylesel_637">
            <IconStyle id="substyle_637">
                <colorMode>normal</colorMode>
                <scale>1</scale>
                <heading>0</heading>
                <Icon id="link_637">
                    <href>wifi4.png</href>
                </Icon>
            </IconStyle>
        </Style>
        <Style id="stylesel_638">
            <IconStyle id="substyle_638">
                <colorMode>normal</colorMode>
                <scale>1</scale>
                <heading>0</heading>
                <Icon id="link_638">
                    <href>wifi4.png</href>
                </Icon>
            </IconStyle>
        </Style>
        <Placemark id="feat_664">
            <name>1023</name>
            <description>2017-07-22T08:00:40.000Z</description>
            <styleUrl>#stylesel_637</styleUrl>
            <Point id="geom_637">
                <coordinates>-111.87194824,40.71268463,0.0</coordinates>
            </Point>
        </Placemark>
        <Placemark id="feat_665">
            <name>1023</name>
            <description>2017-07-22T08:00:49.000Z</description>
            <styleUrl>#stylesel_638</styleUrl>
            <Point id="geom_638">
                <coordinates>-111.87315369,40.71266174,0.0</coordinates>
            </Point>
        </Placemark>
    </Document>
</kml>
