<?xml version="1.0" encoding="UTF-8"?>
<kml xmlns="http://www.opengis.net/kml/2.2" xmlns:gx="http://www.google.com/kml/ext/2.2">
    <Document id="feat_2694">
        <Style id="stylesel_2583">
            <IconStyle id="substyle_2583">
                <colorMode>normal</colorMode>
                <scale>1</scale>
                <heading>0</heading>
                <Icon id="link_2583">
                    <href>wifi4.png</href>
                </Icon>
            </IconStyle>
        </Style>
        <Style id="stylesel_2584">
            <IconStyle id="substyle_2584">
                <colorMode>normal</colorMode>
                <scale>1</scale>
                <heading>0</heading>
                <Icon id="link_2584">
                    <href>wifi4.png</href>
                </Icon>
            </IconStyle>
        </Style>
        <Placemark id="feat_2695">
            <name>1023</name>
            <description>2017-10-20T20:18:13.000Z</description>
            <styleUrl>#stylesel_2583</styleUrl>
            <Point id="geom_2583">
                <coordinates>-111.90818787,40.7583313,0.0</coordinates>
            </Point>
        </Placemark>
        <Placemark id="feat_2696">
            <name>1023</name>
            <description>2017-10-20T20:18:05.000Z</description>
            <styleUrl>#stylesel_2584</styleUrl>
            <Point id="geom_2584">
                <coordinates>-111.90627289,40.75841141,0.0</coordinates>
            </Point>
        </Placemark>
    </Document>
</kml>
