<?xml version="1.0" encoding="UTF-8"?>
<kml xmlns="http://www.opengis.net/kml/2.2" xmlns:gx="http://www.google.com/kml/ext/2.2">
    <Document id="feat_1291">
        <Style id="stylesel_1236">
            <IconStyle id="substyle_1236">
                <colorMode>normal</colorMode>
                <scale>1</scale>
                <heading>0</heading>
                <Icon id="link_1236">
                    <href>wifi4.png</href>
                </Icon>
            </IconStyle>
        </Style>
        <Style id="stylesel_1237">
            <IconStyle id="substyle_1237">
                <colorMode>normal</colorMode>
                <scale>1</scale>
                <heading>0</heading>
                <Icon id="link_1237">
                    <href>wifi4.png</href>
                </Icon>
            </IconStyle>
        </Style>
        <Style id="stylesel_1238">
            <IconStyle id="substyle_1238">
                <colorMode>normal</colorMode>
                <scale>1</scale>
                <heading>0</heading>
                <Icon id="link_1238">
                    <href>wifi4.png</href>
                </Icon>
            </IconStyle>
        </Style>
        <Style id="stylesel_1239">
            <IconStyle id="substyle_1239">
                <colorMode>normal</colorMode>
                <scale>1</scale>
                <heading>0</heading>
                <Icon id="link_1239">
                    <href>wifi4.png</href>
                </Icon>
            </IconStyle>
        </Style>
        <Style id="stylesel_1240">
            <IconStyle id="substyle_1240">
                <colorMode>normal</colorMode>
                <scale>1</scale>
                <heading>0</heading>
                <Icon id="link_1240">
                    <href>wifi4.png</href>
                </Icon>
            </IconStyle>
        </Style>
        <Style id="stylesel_1241">
            <IconStyle id="substyle_1241">
                <colorMode>normal</colorMode>
                <scale>1</scale>
                <heading>0</heading>
                <Icon id="link_1241">
                    <href>wifi4.png</href>
                </Icon>
            </IconStyle>
        </Style>
        <Style id="stylesel_1242">
            <IconStyle id="substyle_1242">
                <colorMode>normal</colorMode>
                <scale>1</scale>
                <heading>0</heading>
                <Icon id="link_1242">
                    <href>wifi4.png</href>
                </Icon>
            </IconStyle>
        </Style>
        <Style id="stylesel_1243">
            <IconStyle id="substyle_1243">
                <colorMode>normal</colorMode>
                <scale>1</scale>
                <heading>0</heading>
                <Icon id="link_1243">
                    <href>wifi4.png</href>
                </Icon>
            </IconStyle>
        </Style>
        <Style id="stylesel_1244">
            <IconStyle id="substyle_1244">
                <colorMode>normal</colorMode>
                <scale>1</scale>
                <heading>0</heading>
                <Icon id="link_1244">
                    <href>wifi4.png</href>
                </Icon>
            </IconStyle>
        </Style>
        <Style id="stylesel_1245">
            <IconStyle id="substyle_1245">
                <colorMode>normal</colorMode>
                <scale>1</scale>
                <heading>0</heading>
                <Icon id="link_1245">
                    <href>wifi4.png</href>
                </Icon>
            </IconStyle>
        </Style>
        <Style id="stylesel_1246">
            <IconStyle id="substyle_1246">
                <colorMode>normal</colorMode>
                <scale>1</scale>
                <heading>0</heading>
                <Icon id="link_1246">
                    <href>wifi4.png</href>
                </Icon>
            </IconStyle>
        </Style>
        <Style id="stylesel_1247">
            <IconStyle id="substyle_1247">
                <colorMode>normal</colorMode>
                <scale>1</scale>
                <heading>0</heading>
                <Icon id="link_1247">
                    <href>wifi4.png</href>
                </Icon>
            </IconStyle>
        </Style>
        <Style id="stylesel_1248">
            <IconStyle id="substyle_1248">
                <colorMode>normal</colorMode>
                <scale>1</scale>
                <heading>0</heading>
                <Icon id="link_1248">
                    <href>wifi4.png</href>
                </Icon>
            </IconStyle>
        </Style>
        <Style id="stylesel_1249">
            <IconStyle id="substyle_1249">
                <colorMode>normal</colorMode>
                <scale>1</scale>
                <heading>0</heading>
                <Icon id="link_1249">
                    <href>wifi4.png</href>
                </Icon>
            </IconStyle>
        </Style>
        <Style id="stylesel_1250">
            <IconStyle id="substyle_1250">
                <colorMode>normal</colorMode>
                <scale>1</scale>
                <heading>0</heading>
                <Icon id="link_1250">
                    <href>wifi4.png</href>
                </Icon>
            </IconStyle>
        </Style>
        <Style id="stylesel_1251">
            <IconStyle id="substyle_1251">
                <colorMode>normal</colorMode>
                <scale>1</scale>
                <heading>0</heading>
                <Icon id="link_1251">
                    <href>wifi4.png</href>
                </Icon>
            </IconStyle>
        </Style>
        <Style id="stylesel_1252">
            <IconStyle id="substyle_1252">
                <colorMode>normal</colorMode>
                <scale>1</scale>
                <heading>0</heading>
                <Icon id="link_1252">
                    <href>wifi4.png</href>
                </Icon>
            </IconStyle>
        </Style>
        <Style id="stylesel_1253">
            <IconStyle id="substyle_1253">
                <colorMode>normal</colorMode>
                <scale>1</scale>
                <heading>0</heading>
                <Icon id="link_1253">
                    <href>wifi4.png</href>
                </Icon>
            </IconStyle>
        </Style>
        <Style id="stylesel_1254">
            <IconStyle id="substyle_1254">
                <colorMode>normal</colorMode>
                <scale>1</scale>
                <heading>0</heading>
                <Icon id="link_1254">
                    <href>wifi4.png</href>
                </Icon>
            </IconStyle>
        </Style>
        <Placemark id="feat_1292">
            <name>1023</name>
            <description>2017-03-02T16:19:30.000Z</description>
            <styleUrl>#stylesel_1236</styleUrl>
            <Point id="geom_1236">
                <coordinates>-111.91216278,40.7605896,0.0</coordinates>
            </Point>
        </Placemark>
        <Placemark id="feat_1293">
            <name>1023</name>
            <description>2017-03-02T16:19:27.000Z</description>
            <styleUrl>#stylesel_1237</styleUrl>
            <Point id="geom_1237">
                <coordinates>-111.91279602,40.76055145,0.0</coordinates>
            </Point>
        </Placemark>
        <Placemark id="feat_1294">
            <name>1023</name>
            <description>2017-03-02T16:19:35.000Z</description>
            <styleUrl>#stylesel_1238</styleUrl>
            <Point id="geom_1238">
                <coordinates>-111.911026,40.76059341,0.0</coordinates>
            </Point>
        </Placemark>
        <Placemark id="feat_1295">
            <name>1023</name>
            <description>2017-03-02T16:19:22.000Z</description>
            <styleUrl>#stylesel_1239</styleUrl>
            <Point id="geom_1239">
                <coordinates>-111.91365814,40.76051712,0.0</coordinates>
            </Point>
        </Placemark>
        <Placemark id="feat_1296">
            <name>1023</name>
            <description>2017-03-02T16:19:27.000Z</description>
            <styleUrl>#stylesel_1240</styleUrl>
            <Point id="geom_1240">
                <coordinates>-111.91278839,40.76058578,0.0</coordinates>
            </Point>
        </Placemark>
        <Placemark id="feat_1297">
            <name>1023</name>
            <description>2017-03-02T18:19:31.000Z</description>
            <styleUrl>#stylesel_1241</styleUrl>
            <Point id="geom_1241">
                <coordinates>-111.91204834,40.76056671,0.0</coordinates>
            </Point>
        </Placemark>
        <Placemark id="feat_1298">
            <name>1023</name>
            <description>2017-03-02T16:19:29.000Z</description>
            <styleUrl>#stylesel_1242</styleUrl>
            <Point id="geom_1242">
                <coordinates>-111.91234589,40.76058578,0.0</coordinates>
            </Point>
        </Placemark>
        <Placemark id="feat_1299">
            <name>1023</name>
            <description>2017-03-02T16:19:19.000Z</description>
            <styleUrl>#stylesel_1243</styleUrl>
            <Point id="geom_1243">
                <coordinates>-111.91401672,40.76050568,0.0</coordinates>
            </Point>
        </Placemark>
        <Placemark id="feat_1300">
            <name>1023</name>
            <description>2017-03-02T16:19:35.000Z</description>
            <styleUrl>#stylesel_1244</styleUrl>
            <Point id="geom_1244">
                <coordinates>-111.911026,40.76062393,0.0</coordinates>
            </Point>
        </Placemark>
        <Placemark id="feat_1301">
            <name>1023</name>
            <description>2017-08-17T17:21:32.000Z</description>
            <styleUrl>#stylesel_1245</styleUrl>
            <Point id="geom_1245">
                <coordinates>-111.92381287,41.0004921,0.0</coordinates>
            </Point>
        </Placemark>
        <Placemark id="feat_1302">
            <name>1023</name>
            <description>2017-08-17T17:21:38.000Z</description>
            <styleUrl>#stylesel_1246</styleUrl>
            <Point id="geom_1246">
                <coordinates>-111.92194366,40.99925613,0.0</coordinates>
            </Point>
        </Placemark>
        <Placemark id="feat_1303">
            <name>1023</name>
            <description>2017-06-09T19:25:32.000Z</description>
            <styleUrl>#stylesel_1247</styleUrl>
            <Point id="geom_1247">
                <coordinates>-111.97859955,41.07762146,0.0</coordinates>
            </Point>
        </Placemark>
        <Placemark id="feat_1304">
            <name>1023</name>
            <description>2017-03-02T18:19:19.000Z</description>
            <styleUrl>#stylesel_1248</styleUrl>
            <Point id="geom_1248">
                <coordinates>-111.91410828,40.76050949,0.0</coordinates>
            </Point>
        </Placemark>
        <Placemark id="feat_1305">
            <name>1023</name>
            <description>2015-08-31T23:28:18.000Z</description>
            <styleUrl>#stylesel_1249</styleUrl>
            <Point id="geom_1249">
                <coordinates>-111.98149872,40.77610397,0.0</coordinates>
            </Point>
        </Placemark>
        <Placemark id="feat_1306">
            <name>1023</name>
            <description>2017-03-02T16:19:34.000Z</description>
            <styleUrl>#stylesel_1250</styleUrl>
            <Point id="geom_1250">
                <coordinates>-111.91130066,40.76062393,0.0</coordinates>
            </Point>
        </Placemark>
        <Placemark id="feat_1307">
            <name>1023</name>
            <description>2015-08-31T23:28:26.000Z</description>
            <styleUrl>#stylesel_1251</styleUrl>
            <Point id="geom_1251">
                <coordinates>-111.9806366,40.77710724,0.0</coordinates>
            </Point>
        </Placemark>
        <Placemark id="feat_1308">
            <name>1023</name>
            <description>2017-03-02T16:19:39.000Z</description>
            <styleUrl>#stylesel_1252</styleUrl>
            <Point id="geom_1252">
                <coordinates>-111.91010284,40.7606163,0.0</coordinates>
            </Point>
        </Placemark>
        <Placemark id="feat_1309">
            <name>1023</name>
            <description>2017-03-02T16:19:20.000Z</description>
            <styleUrl>#stylesel_1253</styleUrl>
            <Point id="geom_1253">
                <coordinates>-111.91384888,40.76051712,0.0</coordinates>
            </Point>
        </Placemark>
        <Placemark id="feat_1310">
            <name>1023</name>
            <description>2017-03-02T16:19:15.000Z</description>
            <styleUrl>#stylesel_1254</styleUrl>
            <Point id="geom_1254">
                <coordinates>-111.91411591,40.76029587,0.0</coordinates>
            </Point>
        </Placemark>
    </Document>
</kml>
