<?xml version="1.0" encoding="UTF-8"?>
<kml xmlns="http://www.opengis.net/kml/2.2" xmlns:gx="http://www.google.com/kml/ext/2.2">
    <Document id="feat_2638">
        <Style id="stylesel_2529">
            <IconStyle id="substyle_2529">
                <colorMode>normal</colorMode>
                <scale>1</scale>
                <heading>0</heading>
                <Icon id="link_2529">
                    <href>wifi4.png</href>
                </Icon>
            </IconStyle>
        </Style>
        <Style id="stylesel_2530">
            <IconStyle id="substyle_2530">
                <colorMode>normal</colorMode>
                <scale>1</scale>
                <heading>0</heading>
                <Icon id="link_2530">
                    <href>wifi4.png</href>
                </Icon>
            </IconStyle>
        </Style>
        <Style id="stylesel_2531">
            <IconStyle id="substyle_2531">
                <colorMode>normal</colorMode>
                <scale>1</scale>
                <heading>0</heading>
                <Icon id="link_2531">
                    <href>wifi4.png</href>
                </Icon>
            </IconStyle>
        </Style>
        <Style id="stylesel_2532">
            <IconStyle id="substyle_2532">
                <colorMode>normal</colorMode>
                <scale>1</scale>
                <heading>0</heading>
                <Icon id="link_2532">
                    <href>wifi4.png</href>
                </Icon>
            </IconStyle>
        </Style>
        <Style id="stylesel_2533">
            <IconStyle id="substyle_2533">
                <colorMode>normal</colorMode>
                <scale>1</scale>
                <heading>0</heading>
                <Icon id="link_2533">
                    <href>wifi4.png</href>
                </Icon>
            </IconStyle>
        </Style>
        <Style id="stylesel_2534">
            <IconStyle id="substyle_2534">
                <colorMode>normal</colorMode>
                <scale>1</scale>
                <heading>0</heading>
                <Icon id="link_2534">
                    <href>wifi4.png</href>
                </Icon>
            </IconStyle>
        </Style>
        <Style id="stylesel_2535">
            <IconStyle id="substyle_2535">
                <colorMode>normal</colorMode>
                <scale>1</scale>
                <heading>0</heading>
                <Icon id="link_2535">
                    <href>wifi4.png</href>
                </Icon>
            </IconStyle>
        </Style>
        <Style id="stylesel_2536">
            <IconStyle id="substyle_2536">
                <colorMode>normal</colorMode>
                <scale>1</scale>
                <heading>0</heading>
                <Icon id="link_2536">
                    <href>wifi4.png</href>
                </Icon>
            </IconStyle>
        </Style>
        <Style id="stylesel_2537">
            <IconStyle id="substyle_2537">
                <colorMode>normal</colorMode>
                <scale>1</scale>
                <heading>0</heading>
                <Icon id="link_2537">
                    <href>wifi4.png</href>
                </Icon>
            </IconStyle>
        </Style>
        <Style id="stylesel_2538">
            <IconStyle id="substyle_2538">
                <colorMode>normal</colorMode>
                <scale>1</scale>
                <heading>0</heading>
                <Icon id="link_2538">
                    <href>wifi4.png</href>
                </Icon>
            </IconStyle>
        </Style>
        <Style id="stylesel_2539">
            <IconStyle id="substyle_2539">
                <colorMode>normal</colorMode>
                <scale>1</scale>
                <heading>0</heading>
                <Icon id="link_2539">
                    <href>wifi4.png</href>
                </Icon>
            </IconStyle>
        </Style>
        <Style id="stylesel_2540">
            <IconStyle id="substyle_2540">
                <colorMode>normal</colorMode>
                <scale>1</scale>
                <heading>0</heading>
                <Icon id="link_2540">
                    <href>wifi4.png</href>
                </Icon>
            </IconStyle>
        </Style>
        <Style id="stylesel_2541">
            <IconStyle id="substyle_2541">
                <colorMode>normal</colorMode>
                <scale>1</scale>
                <heading>0</heading>
                <Icon id="link_2541">
                    <href>wifi4.png</href>
                </Icon>
            </IconStyle>
        </Style>
        <Style id="stylesel_2542">
            <IconStyle id="substyle_2542">
                <colorMode>normal</colorMode>
                <scale>1</scale>
                <heading>0</heading>
                <Icon id="link_2542">
                    <href>wifi4.png</href>
                </Icon>
            </IconStyle>
        </Style>
        <Style id="stylesel_2543">
            <IconStyle id="substyle_2543">
                <colorMode>normal</colorMode>
                <scale>1</scale>
                <heading>0</heading>
                <Icon id="link_2543">
                    <href>wifi4.png</href>
                </Icon>
            </IconStyle>
        </Style>
        <Style id="stylesel_2544">
            <IconStyle id="substyle_2544">
                <colorMode>normal</colorMode>
                <scale>1</scale>
                <heading>0</heading>
                <Icon id="link_2544">
                    <href>wifi4.png</href>
                </Icon>
            </IconStyle>
        </Style>
        <Style id="stylesel_2545">
            <IconStyle id="substyle_2545">
                <colorMode>normal</colorMode>
                <scale>1</scale>
                <heading>0</heading>
                <Icon id="link_2545">
                    <href>wifi4.png</href>
                </Icon>
            </IconStyle>
        </Style>
        <Style id="stylesel_2546">
            <IconStyle id="substyle_2546">
                <colorMode>normal</colorMode>
                <scale>1</scale>
                <heading>0</heading>
                <Icon id="link_2546">
                    <href>wifi4.png</href>
                </Icon>
            </IconStyle>
        </Style>
        <Style id="stylesel_2547">
            <IconStyle id="substyle_2547">
                <colorMode>normal</colorMode>
                <scale>1</scale>
                <heading>0</heading>
                <Icon id="link_2547">
                    <href>wifi4.png</href>
                </Icon>
            </IconStyle>
        </Style>
        <Style id="stylesel_2548">
            <IconStyle id="substyle_2548">
                <colorMode>normal</colorMode>
                <scale>1</scale>
                <heading>0</heading>
                <Icon id="link_2548">
                    <href>wifi4.png</href>
                </Icon>
            </IconStyle>
        </Style>
        <Style id="stylesel_2549">
            <IconStyle id="substyle_2549">
                <colorMode>normal</colorMode>
                <scale>1</scale>
                <heading>0</heading>
                <Icon id="link_2549">
                    <href>wifi4.png</href>
                </Icon>
            </IconStyle>
        </Style>
        <Style id="stylesel_2550">
            <IconStyle id="substyle_2550">
                <colorMode>normal</colorMode>
                <scale>1</scale>
                <heading>0</heading>
                <Icon id="link_2550">
                    <href>wifi4.png</href>
                </Icon>
            </IconStyle>
        </Style>
        <Style id="stylesel_2551">
            <IconStyle id="substyle_2551">
                <colorMode>normal</colorMode>
                <scale>1</scale>
                <heading>0</heading>
                <Icon id="link_2551">
                    <href>wifi4.png</href>
                </Icon>
            </IconStyle>
        </Style>
        <Style id="stylesel_2552">
            <IconStyle id="substyle_2552">
                <colorMode>normal</colorMode>
                <scale>1</scale>
                <heading>0</heading>
                <Icon id="link_2552">
                    <href>wifi4.png</href>
                </Icon>
            </IconStyle>
        </Style>
        <Style id="stylesel_2553">
            <IconStyle id="substyle_2553">
                <colorMode>normal</colorMode>
                <scale>1</scale>
                <heading>0</heading>
                <Icon id="link_2553">
                    <href>wifi4.png</href>
                </Icon>
            </IconStyle>
        </Style>
        <Style id="stylesel_2554">
            <IconStyle id="substyle_2554">
                <colorMode>normal</colorMode>
                <scale>1</scale>
                <heading>0</heading>
                <Icon id="link_2554">
                    <href>wifi4.png</href>
                </Icon>
            </IconStyle>
        </Style>
        <Style id="stylesel_2555">
            <IconStyle id="substyle_2555">
                <colorMode>normal</colorMode>
                <scale>1</scale>
                <heading>0</heading>
                <Icon id="link_2555">
                    <href>wifi4.png</href>
                </Icon>
            </IconStyle>
        </Style>
        <Style id="stylesel_2556">
            <IconStyle id="substyle_2556">
                <colorMode>normal</colorMode>
                <scale>1</scale>
                <heading>0</heading>
                <Icon id="link_2556">
                    <href>wifi4.png</href>
                </Icon>
            </IconStyle>
        </Style>
        <Style id="stylesel_2557">
            <IconStyle id="substyle_2557">
                <colorMode>normal</colorMode>
                <scale>1</scale>
                <heading>0</heading>
                <Icon id="link_2557">
                    <href>wifi4.png</href>
                </Icon>
            </IconStyle>
        </Style>
        <Placemark id="feat_2639">
            <name>1023</name>
            <description>2017-05-28T18:58:20.000Z</description>
            <styleUrl>#stylesel_2529</styleUrl>
            <Point id="geom_2529">
                <coordinates>-111.94429016,40.77146149,0.0</coordinates>
            </Point>
        </Placemark>
        <Placemark id="feat_2640">
            <name>1023</name>
            <description>2017-05-28T18:57:10.000Z</description>
            <styleUrl>#stylesel_2530</styleUrl>
            <Point id="geom_2530">
                <coordinates>-111.94409943,40.77173615,0.0</coordinates>
            </Point>
        </Placemark>
        <Placemark id="feat_2641">
            <name>1023</name>
            <description>2017-05-28T18:57:09.000Z</description>
            <styleUrl>#stylesel_2531</styleUrl>
            <Point id="geom_2531">
                <coordinates>-111.9440918,40.77176285,0.0</coordinates>
            </Point>
        </Placemark>
        <Placemark id="feat_2642">
            <name>1023</name>
            <description>2017-05-28T18:58:22.000Z</description>
            <styleUrl>#stylesel_2532</styleUrl>
            <Point id="geom_2532">
                <coordinates>-111.94393921,40.77144623,0.0</coordinates>
            </Point>
        </Placemark>
        <Placemark id="feat_2643">
            <name>1023</name>
            <description>2017-05-28T18:58:15.000Z</description>
            <styleUrl>#stylesel_2533</styleUrl>
            <Point id="geom_2533">
                <coordinates>-111.94508362,40.77145386,0.0</coordinates>
            </Point>
        </Placemark>
        <Placemark id="feat_2644">
            <name>1023</name>
            <description>2017-05-28T18:51:56.000Z</description>
            <styleUrl>#stylesel_2534</styleUrl>
            <Point id="geom_2534">
                <coordinates>-111.94423676,40.77163315,0.0</coordinates>
            </Point>
        </Placemark>
        <Placemark id="feat_2645">
            <name>1023</name>
            <description>2017-05-28T18:51:54.000Z</description>
            <styleUrl>#stylesel_2535</styleUrl>
            <Point id="geom_2535">
                <coordinates>-111.94391632,40.77161026,0.0</coordinates>
            </Point>
        </Placemark>
        <Placemark id="feat_2646">
            <name>1023</name>
            <description>2017-10-16T22:59:05.000Z</description>
            <styleUrl>#stylesel_2536</styleUrl>
            <Point id="geom_2536">
                <coordinates>-111.9577179,40.58747482,0.0</coordinates>
            </Point>
        </Placemark>
        <Placemark id="feat_2647">
            <name>1023</name>
            <description>2017-05-28T18:57:05.000Z</description>
            <styleUrl>#stylesel_2537</styleUrl>
            <Point id="geom_2537">
                <coordinates>-111.94404602,40.77192307,0.0</coordinates>
            </Point>
        </Placemark>
        <Placemark id="feat_2648">
            <name>1023</name>
            <description>2017-05-28T18:57:22.000Z</description>
            <styleUrl>#stylesel_2538</styleUrl>
            <Point id="geom_2538">
                <coordinates>-111.94528961,40.77160263,0.0</coordinates>
            </Point>
        </Placemark>
        <Placemark id="feat_2649">
            <name>1023</name>
            <description>2017-05-28T18:58:14.000Z</description>
            <styleUrl>#stylesel_2539</styleUrl>
            <Point id="geom_2539">
                <coordinates>-111.94524384,40.7714653,0.0</coordinates>
            </Point>
        </Placemark>
        <Placemark id="feat_2650">
            <name>1023</name>
            <description>2017-05-28T18:51:51.000Z</description>
            <styleUrl>#stylesel_2540</styleUrl>
            <Point id="geom_2540">
                <coordinates>-111.943367,40.77160263,0.0</coordinates>
            </Point>
        </Placemark>
        <Placemark id="feat_2651">
            <name>1023</name>
            <description>2017-05-28T18:51:57.000Z</description>
            <styleUrl>#stylesel_2541</styleUrl>
            <Point id="geom_2541">
                <coordinates>-111.94436646,40.7716217,0.0</coordinates>
            </Point>
        </Placemark>
        <Placemark id="feat_2652">
            <name>1023</name>
            <description>2017-03-31T15:16:22.000Z</description>
            <styleUrl>#stylesel_2542</styleUrl>
            <Point id="geom_2542">
                <coordinates>-111.92092896,40.75518417,0.0</coordinates>
            </Point>
        </Placemark>
        <Placemark id="feat_2653">
            <name>1023</name>
            <description>2017-05-28T18:51:52.000Z</description>
            <styleUrl>#stylesel_2543</styleUrl>
            <Point id="geom_2543">
                <coordinates>-111.94360352,40.77162552,0.0</coordinates>
            </Point>
        </Placemark>
        <Placemark id="feat_2654">
            <name>1023</name>
            <description>2017-05-28T18:57:21.000Z</description>
            <styleUrl>#stylesel_2544</styleUrl>
            <Point id="geom_2544">
                <coordinates>-111.94509888,40.7716217,0.0</coordinates>
            </Point>
        </Placemark>
        <Placemark id="feat_2655">
            <name>1023</name>
            <description>2017-05-28T18:56:57.000Z</description>
            <styleUrl>#stylesel_2545</styleUrl>
            <Point id="geom_2545">
                <coordinates>-111.94393921,40.77222824,0.0</coordinates>
            </Point>
        </Placemark>
        <Placemark id="feat_2656">
            <name>1023</name>
            <description>2017-05-28T18:58:28.000Z</description>
            <styleUrl>#stylesel_2546</styleUrl>
            <Point id="geom_2546">
                <coordinates>-111.94287109,40.77145767,0.0</coordinates>
            </Point>
        </Placemark>
        <Placemark id="feat_2657">
            <name>1023</name>
            <description>2017-05-28T18:52:09.000Z</description>
            <styleUrl>#stylesel_2547</styleUrl>
            <Point id="geom_2547">
                <coordinates>-111.94498444,40.77186966,0.0</coordinates>
            </Point>
        </Placemark>
        <Placemark id="feat_2658">
            <name>1023</name>
            <description>2017-05-28T18:57:28.000Z</description>
            <styleUrl>#stylesel_2548</styleUrl>
            <Point id="geom_2548">
                <coordinates>-111.94618988,40.77160645,0.0</coordinates>
            </Point>
        </Placemark>
        <Placemark id="feat_2659">
            <name>1023</name>
            <description>2017-05-28T18:13:40.000Z</description>
            <styleUrl>#stylesel_2549</styleUrl>
            <Point id="geom_2549">
                <coordinates>-111.9109726,40.7541275,0.0</coordinates>
            </Point>
        </Placemark>
        <Placemark id="feat_2660">
            <name>1023</name>
            <description>2017-05-28T18:13:44.000Z</description>
            <styleUrl>#stylesel_2550</styleUrl>
            <Point id="geom_2550">
                <coordinates>-111.91133881,40.75516891,0.0</coordinates>
            </Point>
        </Placemark>
        <Placemark id="feat_2661">
            <name>1023</name>
            <description>2017-05-28T18:13:49.000Z</description>
            <styleUrl>#stylesel_2551</styleUrl>
            <Point id="geom_2551">
                <coordinates>-111.91200256,40.75642776,0.0</coordinates>
            </Point>
        </Placemark>
        <Placemark id="feat_2662">
            <name>1023</name>
            <description>2017-05-28T18:57:25.000Z</description>
            <styleUrl>#stylesel_2552</styleUrl>
            <Point id="geom_2552">
                <coordinates>-111.94576263,40.77163696,0.0</coordinates>
            </Point>
        </Placemark>
        <Placemark id="feat_2663">
            <name>1023</name>
            <description>2017-05-28T18:58:23.000Z</description>
            <styleUrl>#stylesel_2553</styleUrl>
            <Point id="geom_2553">
                <coordinates>-111.94377136,40.77145767,0.0</coordinates>
            </Point>
        </Placemark>
        <Placemark id="feat_2664">
            <name>1023</name>
            <description>2017-05-28T18:57:30.000Z</description>
            <styleUrl>#stylesel_2554</styleUrl>
            <Point id="geom_2554">
                <coordinates>-111.94644165,40.77159119,0.0</coordinates>
            </Point>
        </Placemark>
        <Placemark id="feat_2665">
            <name>1023</name>
            <description>2017-05-28T18:51:52.000Z</description>
            <styleUrl>#stylesel_2555</styleUrl>
            <Point id="geom_2555">
                <coordinates>-111.94358826,40.77161026,0.0</coordinates>
            </Point>
        </Placemark>
        <Placemark id="feat_2666">
            <name>1023</name>
            <description>2017-06-16T22:35:18.000Z</description>
            <styleUrl>#stylesel_2556</styleUrl>
            <Point id="geom_2556">
                <coordinates>-111.89134216,40.54494095,0.0</coordinates>
            </Point>
        </Placemark>
        <Placemark id="feat_2667">
            <name>1023</name>
            <description>2017-05-28T18:51:48.000Z</description>
            <styleUrl>#stylesel_2557</styleUrl>
            <Point id="geom_2557">
                <coordinates>-111.94281769,40.77158737,0.0</coordinates>
            </Point>
        </Placemark>
    </Document>
</kml>
