<?xml version="1.0" encoding="UTF-8"?>
<kml xmlns="http://www.opengis.net/kml/2.2" xmlns:gx="http://www.google.com/kml/ext/2.2">
    <Document id="feat_1774">
        <Style id="stylesel_1699">
            <IconStyle id="substyle_1699">
                <colorMode>normal</colorMode>
                <scale>1</scale>
                <heading>0</heading>
                <Icon id="link_1699">
                    <href>wifi4.png</href>
                </Icon>
            </IconStyle>
        </Style>
        <Style id="stylesel_1700">
            <IconStyle id="substyle_1700">
                <colorMode>normal</colorMode>
                <scale>1</scale>
                <heading>0</heading>
                <Icon id="link_1700">
                    <href>wifi4.png</href>
                </Icon>
            </IconStyle>
        </Style>
        <Style id="stylesel_1701">
            <IconStyle id="substyle_1701">
                <colorMode>normal</colorMode>
                <scale>1</scale>
                <heading>0</heading>
                <Icon id="link_1701">
                    <href>wifi4.png</href>
                </Icon>
            </IconStyle>
        </Style>
        <Style id="stylesel_1702">
            <IconStyle id="substyle_1702">
                <colorMode>normal</colorMode>
                <scale>1</scale>
                <heading>0</heading>
                <Icon id="link_1702">
                    <href>wifi4.png</href>
                </Icon>
            </IconStyle>
        </Style>
        <Style id="stylesel_1703">
            <IconStyle id="substyle_1703">
                <colorMode>normal</colorMode>
                <scale>1</scale>
                <heading>0</heading>
                <Icon id="link_1703">
                    <href>wifi4.png</href>
                </Icon>
            </IconStyle>
        </Style>
        <Style id="stylesel_1704">
            <IconStyle id="substyle_1704">
                <colorMode>normal</colorMode>
                <scale>1</scale>
                <heading>0</heading>
                <Icon id="link_1704">
                    <href>wifi4.png</href>
                </Icon>
            </IconStyle>
        </Style>
        <Style id="stylesel_1705">
            <IconStyle id="substyle_1705">
                <colorMode>normal</colorMode>
                <scale>1</scale>
                <heading>0</heading>
                <Icon id="link_1705">
                    <href>wifi4.png</href>
                </Icon>
            </IconStyle>
        </Style>
        <Style id="stylesel_1706">
            <IconStyle id="substyle_1706">
                <colorMode>normal</colorMode>
                <scale>1</scale>
                <heading>0</heading>
                <Icon id="link_1706">
                    <href>wifi4.png</href>
                </Icon>
            </IconStyle>
        </Style>
        <Style id="stylesel_1707">
            <IconStyle id="substyle_1707">
                <colorMode>normal</colorMode>
                <scale>1</scale>
                <heading>0</heading>
                <Icon id="link_1707">
                    <href>wifi4.png</href>
                </Icon>
            </IconStyle>
        </Style>
        <Style id="stylesel_1708">
            <IconStyle id="substyle_1708">
                <colorMode>normal</colorMode>
                <scale>1</scale>
                <heading>0</heading>
                <Icon id="link_1708">
                    <href>wifi4.png</href>
                </Icon>
            </IconStyle>
        </Style>
        <Style id="stylesel_1709">
            <IconStyle id="substyle_1709">
                <colorMode>normal</colorMode>
                <scale>1</scale>
                <heading>0</heading>
                <Icon id="link_1709">
                    <href>wifi4.png</href>
                </Icon>
            </IconStyle>
        </Style>
        <Style id="stylesel_1710">
            <IconStyle id="substyle_1710">
                <colorMode>normal</colorMode>
                <scale>1</scale>
                <heading>0</heading>
                <Icon id="link_1710">
                    <href>wifi4.png</href>
                </Icon>
            </IconStyle>
        </Style>
        <Style id="stylesel_1711">
            <IconStyle id="substyle_1711">
                <colorMode>normal</colorMode>
                <scale>1</scale>
                <heading>0</heading>
                <Icon id="link_1711">
                    <href>wifi4.png</href>
                </Icon>
            </IconStyle>
        </Style>
        <Style id="stylesel_1712">
            <IconStyle id="substyle_1712">
                <colorMode>normal</colorMode>
                <scale>1</scale>
                <heading>0</heading>
                <Icon id="link_1712">
                    <href>wifi4.png</href>
                </Icon>
            </IconStyle>
        </Style>
        <Style id="stylesel_1713">
            <IconStyle id="substyle_1713">
                <colorMode>normal</colorMode>
                <scale>1</scale>
                <heading>0</heading>
                <Icon id="link_1713">
                    <href>wifi4.png</href>
                </Icon>
            </IconStyle>
        </Style>
        <Style id="stylesel_1714">
            <IconStyle id="substyle_1714">
                <colorMode>normal</colorMode>
                <scale>1</scale>
                <heading>0</heading>
                <Icon id="link_1714">
                    <href>wifi4.png</href>
                </Icon>
            </IconStyle>
        </Style>
        <Style id="stylesel_1715">
            <IconStyle id="substyle_1715">
                <colorMode>normal</colorMode>
                <scale>1</scale>
                <heading>0</heading>
                <Icon id="link_1715">
                    <href>wifi4.png</href>
                </Icon>
            </IconStyle>
        </Style>
        <Style id="stylesel_1716">
            <IconStyle id="substyle_1716">
                <colorMode>normal</colorMode>
                <scale>1</scale>
                <heading>0</heading>
                <Icon id="link_1716">
                    <href>wifi4.png</href>
                </Icon>
            </IconStyle>
        </Style>
        <Style id="stylesel_1717">
            <IconStyle id="substyle_1717">
                <colorMode>normal</colorMode>
                <scale>1</scale>
                <heading>0</heading>
                <Icon id="link_1717">
                    <href>wifi4.png</href>
                </Icon>
            </IconStyle>
        </Style>
        <Style id="stylesel_1718">
            <IconStyle id="substyle_1718">
                <colorMode>normal</colorMode>
                <scale>1</scale>
                <heading>0</heading>
                <Icon id="link_1718">
                    <href>wifi4.png</href>
                </Icon>
            </IconStyle>
        </Style>
        <Style id="stylesel_1719">
            <IconStyle id="substyle_1719">
                <colorMode>normal</colorMode>
                <scale>1</scale>
                <heading>0</heading>
                <Icon id="link_1719">
                    <href>wifi4.png</href>
                </Icon>
            </IconStyle>
        </Style>
        <Style id="stylesel_1720">
            <IconStyle id="substyle_1720">
                <colorMode>normal</colorMode>
                <scale>1</scale>
                <heading>0</heading>
                <Icon id="link_1720">
                    <href>wifi4.png</href>
                </Icon>
            </IconStyle>
        </Style>
        <Style id="stylesel_1721">
            <IconStyle id="substyle_1721">
                <colorMode>normal</colorMode>
                <scale>1</scale>
                <heading>0</heading>
                <Icon id="link_1721">
                    <href>wifi4.png</href>
                </Icon>
            </IconStyle>
        </Style>
        <Style id="stylesel_1722">
            <IconStyle id="substyle_1722">
                <colorMode>normal</colorMode>
                <scale>1</scale>
                <heading>0</heading>
                <Icon id="link_1722">
                    <href>wifi4.png</href>
                </Icon>
            </IconStyle>
        </Style>
        <Style id="stylesel_1723">
            <IconStyle id="substyle_1723">
                <colorMode>normal</colorMode>
                <scale>1</scale>
                <heading>0</heading>
                <Icon id="link_1723">
                    <href>wifi4.png</href>
                </Icon>
            </IconStyle>
        </Style>
        <Style id="stylesel_1724">
            <IconStyle id="substyle_1724">
                <colorMode>normal</colorMode>
                <scale>1</scale>
                <heading>0</heading>
                <Icon id="link_1724">
                    <href>wifi4.png</href>
                </Icon>
            </IconStyle>
        </Style>
        <Style id="stylesel_1725">
            <IconStyle id="substyle_1725">
                <colorMode>normal</colorMode>
                <scale>1</scale>
                <heading>0</heading>
                <Icon id="link_1725">
                    <href>wifi4.png</href>
                </Icon>
            </IconStyle>
        </Style>
        <Style id="stylesel_1726">
            <IconStyle id="substyle_1726">
                <colorMode>normal</colorMode>
                <scale>1</scale>
                <heading>0</heading>
                <Icon id="link_1726">
                    <href>wifi4.png</href>
                </Icon>
            </IconStyle>
        </Style>
        <Style id="stylesel_1727">
            <IconStyle id="substyle_1727">
                <colorMode>normal</colorMode>
                <scale>1</scale>
                <heading>0</heading>
                <Icon id="link_1727">
                    <href>wifi4.png</href>
                </Icon>
            </IconStyle>
        </Style>
        <Style id="stylesel_1728">
            <IconStyle id="substyle_1728">
                <colorMode>normal</colorMode>
                <scale>1</scale>
                <heading>0</heading>
                <Icon id="link_1728">
                    <href>wifi4.png</href>
                </Icon>
            </IconStyle>
        </Style>
        <Style id="stylesel_1729">
            <IconStyle id="substyle_1729">
                <colorMode>normal</colorMode>
                <scale>1</scale>
                <heading>0</heading>
                <Icon id="link_1729">
                    <href>wifi4.png</href>
                </Icon>
            </IconStyle>
        </Style>
        <Style id="stylesel_1730">
            <IconStyle id="substyle_1730">
                <colorMode>normal</colorMode>
                <scale>1</scale>
                <heading>0</heading>
                <Icon id="link_1730">
                    <href>wifi4.png</href>
                </Icon>
            </IconStyle>
        </Style>
        <Style id="stylesel_1731">
            <IconStyle id="substyle_1731">
                <colorMode>normal</colorMode>
                <scale>1</scale>
                <heading>0</heading>
                <Icon id="link_1731">
                    <href>wifi4.png</href>
                </Icon>
            </IconStyle>
        </Style>
        <Style id="stylesel_1732">
            <IconStyle id="substyle_1732">
                <colorMode>normal</colorMode>
                <scale>1</scale>
                <heading>0</heading>
                <Icon id="link_1732">
                    <href>wifi4.png</href>
                </Icon>
            </IconStyle>
        </Style>
        <Style id="stylesel_1733">
            <IconStyle id="substyle_1733">
                <colorMode>normal</colorMode>
                <scale>1</scale>
                <heading>0</heading>
                <Icon id="link_1733">
                    <href>wifi4.png</href>
                </Icon>
            </IconStyle>
        </Style>
        <Style id="stylesel_1734">
            <IconStyle id="substyle_1734">
                <colorMode>normal</colorMode>
                <scale>1</scale>
                <heading>0</heading>
                <Icon id="link_1734">
                    <href>wifi4.png</href>
                </Icon>
            </IconStyle>
        </Style>
        <Style id="stylesel_1735">
            <IconStyle id="substyle_1735">
                <colorMode>normal</colorMode>
                <scale>1</scale>
                <heading>0</heading>
                <Icon id="link_1735">
                    <href>wifi4.png</href>
                </Icon>
            </IconStyle>
        </Style>
        <Style id="stylesel_1736">
            <IconStyle id="substyle_1736">
                <colorMode>normal</colorMode>
                <scale>1</scale>
                <heading>0</heading>
                <Icon id="link_1736">
                    <href>wifi4.png</href>
                </Icon>
            </IconStyle>
        </Style>
        <Style id="stylesel_1737">
            <IconStyle id="substyle_1737">
                <colorMode>normal</colorMode>
                <scale>1</scale>
                <heading>0</heading>
                <Icon id="link_1737">
                    <href>wifi4.png</href>
                </Icon>
            </IconStyle>
        </Style>
        <Style id="stylesel_1738">
            <IconStyle id="substyle_1738">
                <colorMode>normal</colorMode>
                <scale>1</scale>
                <heading>0</heading>
                <Icon id="link_1738">
                    <href>wifi4.png</href>
                </Icon>
            </IconStyle>
        </Style>
        <Style id="stylesel_1739">
            <IconStyle id="substyle_1739">
                <colorMode>normal</colorMode>
                <scale>1</scale>
                <heading>0</heading>
                <Icon id="link_1739">
                    <href>wifi4.png</href>
                </Icon>
            </IconStyle>
        </Style>
        <Style id="stylesel_1740">
            <IconStyle id="substyle_1740">
                <colorMode>normal</colorMode>
                <scale>1</scale>
                <heading>0</heading>
                <Icon id="link_1740">
                    <href>wifi4.png</href>
                </Icon>
            </IconStyle>
        </Style>
        <Style id="stylesel_1741">
            <IconStyle id="substyle_1741">
                <colorMode>normal</colorMode>
                <scale>1</scale>
                <heading>0</heading>
                <Icon id="link_1741">
                    <href>wifi4.png</href>
                </Icon>
            </IconStyle>
        </Style>
        <Style id="stylesel_1742">
            <IconStyle id="substyle_1742">
                <colorMode>normal</colorMode>
                <scale>1</scale>
                <heading>0</heading>
                <Icon id="link_1742">
                    <href>wifi4.png</href>
                </Icon>
            </IconStyle>
        </Style>
        <Style id="stylesel_1743">
            <IconStyle id="substyle_1743">
                <colorMode>normal</colorMode>
                <scale>1</scale>
                <heading>0</heading>
                <Icon id="link_1743">
                    <href>wifi4.png</href>
                </Icon>
            </IconStyle>
        </Style>
        <Style id="stylesel_1744">
            <IconStyle id="substyle_1744">
                <colorMode>normal</colorMode>
                <scale>1</scale>
                <heading>0</heading>
                <Icon id="link_1744">
                    <href>wifi4.png</href>
                </Icon>
            </IconStyle>
        </Style>
        <Style id="stylesel_1745">
            <IconStyle id="substyle_1745">
                <colorMode>normal</colorMode>
                <scale>1</scale>
                <heading>0</heading>
                <Icon id="link_1745">
                    <href>wifi4.png</href>
                </Icon>
            </IconStyle>
        </Style>
        <Style id="stylesel_1746">
            <IconStyle id="substyle_1746">
                <colorMode>normal</colorMode>
                <scale>1</scale>
                <heading>0</heading>
                <Icon id="link_1746">
                    <href>wifi4.png</href>
                </Icon>
            </IconStyle>
        </Style>
        <Style id="stylesel_1747">
            <IconStyle id="substyle_1747">
                <colorMode>normal</colorMode>
                <scale>1</scale>
                <heading>0</heading>
                <Icon id="link_1747">
                    <href>wifi4.png</href>
                </Icon>
            </IconStyle>
        </Style>
        <Placemark id="feat_1775">
            <name>1023</name>
            <description>2017-03-15T14:08:14.000Z</description>
            <styleUrl>#stylesel_1699</styleUrl>
            <Point id="geom_1699">
                <coordinates>-111.90535736,40.76449966,0.0</coordinates>
            </Point>
        </Placemark>
        <Placemark id="feat_1776">
            <name>1023</name>
            <description>2017-03-15T14:08:15.000Z</description>
            <styleUrl>#stylesel_1700</styleUrl>
            <Point id="geom_1700">
                <coordinates>-111.90540314,40.76457214,0.0</coordinates>
            </Point>
        </Placemark>
        <Placemark id="feat_1777">
            <name>1023</name>
            <description>2017-03-15T14:08:11.000Z</description>
            <styleUrl>#stylesel_1701</styleUrl>
            <Point id="geom_1701">
                <coordinates>-111.90528107,40.76426697,0.0</coordinates>
            </Point>
        </Placemark>
        <Placemark id="feat_1778">
            <name>1023</name>
            <description>2017-07-12T00:03:19.000Z</description>
            <styleUrl>#stylesel_1702</styleUrl>
            <Point id="geom_1702">
                <coordinates>-111.89776611,40.75842667,0.0</coordinates>
            </Point>
        </Placemark>
        <Placemark id="feat_1779">
            <name>1023</name>
            <description>2017-07-12T00:03:18.000Z</description>
            <styleUrl>#stylesel_1703</styleUrl>
            <Point id="geom_1703">
                <coordinates>-111.89767456,40.75841141,0.0</coordinates>
            </Point>
        </Placemark>
        <Placemark id="feat_1780">
            <name>1023</name>
            <description>2017-03-15T14:08:09.000Z</description>
            <styleUrl>#stylesel_1704</styleUrl>
            <Point id="geom_1704">
                <coordinates>-111.90525818,40.76425171,0.0</coordinates>
            </Point>
        </Placemark>
        <Placemark id="feat_1781">
            <name>1023</name>
            <description>2017-03-15T14:08:06.000Z</description>
            <styleUrl>#stylesel_1705</styleUrl>
            <Point id="geom_1705">
                <coordinates>-111.90513611,40.76390076,0.0</coordinates>
            </Point>
        </Placemark>
        <Placemark id="feat_1782">
            <name>1023</name>
            <description>2017-03-15T14:08:10.000Z</description>
            <styleUrl>#stylesel_1706</styleUrl>
            <Point id="geom_1706">
                <coordinates>-111.90525818,40.76418686,0.0</coordinates>
            </Point>
        </Placemark>
        <Placemark id="feat_1783">
            <name>1023</name>
            <description>2017-03-27T14:12:40.000Z</description>
            <styleUrl>#stylesel_1707</styleUrl>
            <Point id="geom_1707">
                <coordinates>-111.9054718,40.76041031,0.0</coordinates>
            </Point>
        </Placemark>
        <Placemark id="feat_1784">
            <name>1023</name>
            <description>2017-07-12T00:03:15.000Z</description>
            <styleUrl>#stylesel_1708</styleUrl>
            <Point id="geom_1708">
                <coordinates>-111.8972168,40.75843811,0.0</coordinates>
            </Point>
        </Placemark>
        <Placemark id="feat_1785">
            <name>1023</name>
            <description>2017-03-15T14:07:54.000Z</description>
            <styleUrl>#stylesel_1709</styleUrl>
            <Point id="geom_1709">
                <coordinates>-111.90504456,40.7630043,0.0</coordinates>
            </Point>
        </Placemark>
        <Placemark id="feat_1786">
            <name>1023</name>
            <description>2017-03-27T14:12:32.000Z</description>
            <styleUrl>#stylesel_1710</styleUrl>
            <Point id="geom_1710">
                <coordinates>-111.90663147,40.76055908,0.0</coordinates>
            </Point>
        </Placemark>
        <Placemark id="feat_1787">
            <name>1023</name>
            <description>2017-03-27T14:12:37.000Z</description>
            <styleUrl>#stylesel_1711</styleUrl>
            <Point id="geom_1711">
                <coordinates>-111.90570068,40.76049805,0.0</coordinates>
            </Point>
        </Placemark>
        <Placemark id="feat_1788">
            <name>1023</name>
            <description>2017-03-27T14:12:30.000Z</description>
            <styleUrl>#stylesel_1712</styleUrl>
            <Point id="geom_1712">
                <coordinates>-111.90707397,40.76057434,0.0</coordinates>
            </Point>
        </Placemark>
        <Placemark id="feat_1789">
            <name>1023</name>
            <description>2017-07-12T00:03:10.000Z</description>
            <styleUrl>#stylesel_1713</styleUrl>
            <Point id="geom_1713">
                <coordinates>-111.89653015,40.7584343,0.0</coordinates>
            </Point>
        </Placemark>
        <Placemark id="feat_1790">
            <name>1023</name>
            <description>2017-09-11T14:35:50.000Z</description>
            <styleUrl>#stylesel_1714</styleUrl>
            <Point id="geom_1714">
                <coordinates>-111.89677429,40.75788879,0.0</coordinates>
            </Point>
        </Placemark>
        <Placemark id="feat_1791">
            <name>1023</name>
            <description>2017-03-27T14:12:33.000Z</description>
            <styleUrl>#stylesel_1715</styleUrl>
            <Point id="geom_1715">
                <coordinates>-111.90647888,40.76052475,0.0</coordinates>
            </Point>
        </Placemark>
        <Placemark id="feat_1792">
            <name>1023</name>
            <description>2017-03-27T14:12:29.000Z</description>
            <styleUrl>#stylesel_1716</styleUrl>
            <Point id="geom_1716">
                <coordinates>-111.90730286,40.7605896,0.0</coordinates>
            </Point>
        </Placemark>
        <Placemark id="feat_1793">
            <name>1023</name>
            <description>2017-03-27T14:12:51.000Z</description>
            <styleUrl>#stylesel_1717</styleUrl>
            <Point id="geom_1717">
                <coordinates>-111.90546417,40.75908661,0.0</coordinates>
            </Point>
        </Placemark>
        <Placemark id="feat_1794">
            <name>1023</name>
            <description>2017-03-02T20:41:05.000Z</description>
            <styleUrl>#stylesel_1718</styleUrl>
            <Point id="geom_1718">
                <coordinates>-111.88533783,40.75945282,0.0</coordinates>
            </Point>
        </Placemark>
        <Placemark id="feat_1795">
            <name>1023</name>
            <description>2017-07-10T23:44:40.000Z</description>
            <styleUrl>#stylesel_1719</styleUrl>
            <Point id="geom_1719">
                <coordinates>-111.89694214,40.75941849,0.0</coordinates>
            </Point>
        </Placemark>
        <Placemark id="feat_1796">
            <name>1023</name>
            <description>2017-03-15T14:08:40.000Z</description>
            <styleUrl>#stylesel_1720</styleUrl>
            <Point id="geom_1720">
                <coordinates>-111.90433502,40.76493835,0.0</coordinates>
            </Point>
        </Placemark>
        <Placemark id="feat_1797">
            <name>1023</name>
            <description>2017-03-27T23:53:07.000Z</description>
            <styleUrl>#stylesel_1721</styleUrl>
            <Point id="geom_1721">
                <coordinates>-111.89761353,40.76063919,0.0</coordinates>
            </Point>
        </Placemark>
        <Placemark id="feat_1798">
            <name>1023</name>
            <description>2017-03-27T14:12:48.000Z</description>
            <styleUrl>#stylesel_1722</styleUrl>
            <Point id="geom_1722">
                <coordinates>-111.90549469,40.75948715,0.0</coordinates>
            </Point>
        </Placemark>
        <Placemark id="feat_1799">
            <name>1023</name>
            <description>2017-03-15T14:08:41.000Z</description>
            <styleUrl>#stylesel_1723</styleUrl>
            <Point id="geom_1723">
                <coordinates>-111.90423584,40.76497269,0.0</coordinates>
            </Point>
        </Placemark>
        <Placemark id="feat_1800">
            <name>1023</name>
            <description>2017-07-12T00:03:03.000Z</description>
            <styleUrl>#stylesel_1724</styleUrl>
            <Point id="geom_1724">
                <coordinates>-111.89622498,40.75844955,0.0</coordinates>
            </Point>
        </Placemark>
        <Placemark id="feat_1801">
            <name>1023</name>
            <description>2017-03-27T23:52:50.000Z</description>
            <styleUrl>#stylesel_1725</styleUrl>
            <Point id="geom_1725">
                <coordinates>-111.89614868,40.76065063,0.0</coordinates>
            </Point>
        </Placemark>
        <Placemark id="feat_1802">
            <name>1023</name>
            <description>2017-06-19T14:16:26.000Z</description>
            <styleUrl>#stylesel_1726</styleUrl>
            <Point id="geom_1726">
                <coordinates>-111.89900208,40.75634766,0.0</coordinates>
            </Point>
        </Placemark>
        <Placemark id="feat_1803">
            <name>1023</name>
            <description>2017-09-11T14:35:57.000Z</description>
            <styleUrl>#stylesel_1727</styleUrl>
            <Point id="geom_1727">
                <coordinates>-111.89679718,40.75791931,0.0</coordinates>
            </Point>
        </Placemark>
        <Placemark id="feat_1804">
            <name>1023</name>
            <description>2017-09-11T14:35:44.000Z</description>
            <styleUrl>#stylesel_1728</styleUrl>
            <Point id="geom_1728">
                <coordinates>-111.89679718,40.75798035,0.0</coordinates>
            </Point>
        </Placemark>
        <Placemark id="feat_1805">
            <name>1023</name>
            <description>2017-06-08T15:41:08.000Z</description>
            <styleUrl>#stylesel_1729</styleUrl>
            <Point id="geom_1729">
                <coordinates>-111.94948578,40.75623703,0.0</coordinates>
            </Point>
        </Placemark>
        <Placemark id="feat_1806">
            <name>1023</name>
            <description>2017-02-14T21:34:11.000Z</description>
            <styleUrl>#stylesel_1730</styleUrl>
            <Point id="geom_1730">
                <coordinates>-111.91194153,40.75669861,0.0</coordinates>
            </Point>
        </Placemark>
        <Placemark id="feat_1807">
            <name>1023</name>
            <description>2017-03-02T22:41:05.000Z</description>
            <styleUrl>#stylesel_1731</styleUrl>
            <Point id="geom_1731">
                <coordinates>-111.88532257,40.75947571,0.0</coordinates>
            </Point>
        </Placemark>
        <Placemark id="feat_1808">
            <name>1023</name>
            <description>2017-03-27T14:13:00.000Z</description>
            <styleUrl>#stylesel_1732</styleUrl>
            <Point id="geom_1732">
                <coordinates>-111.90546417,40.75844955,0.0</coordinates>
            </Point>
        </Placemark>
        <Placemark id="feat_1809">
            <name>1023</name>
            <description>2017-07-12T00:03:00.000Z</description>
            <styleUrl>#stylesel_1733</styleUrl>
            <Point id="geom_1733">
                <coordinates>-111.8960495,40.75844193,0.0</coordinates>
            </Point>
        </Placemark>
        <Placemark id="feat_1810">
            <name>1023</name>
            <description>2017-03-27T14:13:31.000Z</description>
            <styleUrl>#stylesel_1734</styleUrl>
            <Point id="geom_1734">
                <coordinates>-111.90530396,40.75830078,0.0</coordinates>
            </Point>
        </Placemark>
        <Placemark id="feat_1811">
            <name>1023</name>
            <description>2017-06-08T15:41:13.000Z</description>
            <styleUrl>#stylesel_1735</styleUrl>
            <Point id="geom_1735">
                <coordinates>-111.9500885,40.75785828,0.0</coordinates>
            </Point>
        </Placemark>
        <Placemark id="feat_1812">
            <name>1023</name>
            <description>2017-06-08T15:41:19.000Z</description>
            <styleUrl>#stylesel_1736</styleUrl>
            <Point id="geom_1736">
                <coordinates>-111.95069122,40.75975418,0.0</coordinates>
            </Point>
        </Placemark>
        <Placemark id="feat_1813">
            <name>1023</name>
            <description>2017-07-17T23:21:33.000Z</description>
            <styleUrl>#stylesel_1737</styleUrl>
            <Point id="geom_1737">
                <coordinates>-111.89815521,40.75851059,0.0</coordinates>
            </Point>
        </Placemark>
        <Placemark id="feat_1814">
            <name>1023</name>
            <description>2017-07-17T23:21:51.000Z</description>
            <styleUrl>#stylesel_1738</styleUrl>
            <Point id="geom_1738">
                <coordinates>-111.90065765,40.75854874,0.0</coordinates>
            </Point>
        </Placemark>
        <Placemark id="feat_1815">
            <name>1023</name>
            <description>2017-07-17T23:21:42.000Z</description>
            <styleUrl>#stylesel_1739</styleUrl>
            <Point id="geom_1739">
                <coordinates>-111.89937592,40.75853729,0.0</coordinates>
            </Point>
        </Placemark>
        <Placemark id="feat_1816">
            <name>1023</name>
            <description>2017-03-15T14:07:54.000Z</description>
            <styleUrl>#stylesel_1740</styleUrl>
            <Point id="geom_1740">
                <coordinates>-111.9050827,40.76300049,0.0</coordinates>
            </Point>
        </Placemark>
        <Placemark id="feat_1817">
            <name>1023</name>
            <description>2017-03-02T20:41:05.000Z</description>
            <styleUrl>#stylesel_1741</styleUrl>
            <Point id="geom_1741">
                <coordinates>-111.88529968,40.75950241,0.0</coordinates>
            </Point>
        </Placemark>
        <Placemark id="feat_1818">
            <name>1023</name>
            <description>2017-07-10T23:44:38.000Z</description>
            <styleUrl>#stylesel_1742</styleUrl>
            <Point id="geom_1742">
                <coordinates>-111.89690399,40.75966263,0.0</coordinates>
            </Point>
        </Placemark>
        <Placemark id="feat_1819">
            <name>1023</name>
            <description>2017-04-17T16:47:52.000Z</description>
            <styleUrl>#stylesel_1743</styleUrl>
            <Point id="geom_1743">
                <coordinates>-111.9054718,40.76173401,0.0</coordinates>
            </Point>
        </Placemark>
        <Placemark id="feat_1820">
            <name>1023</name>
            <description>2017-07-12T00:03:26.000Z</description>
            <styleUrl>#stylesel_1744</styleUrl>
            <Point id="geom_1744">
                <coordinates>-111.89862823,40.75843811,0.0</coordinates>
            </Point>
        </Placemark>
        <Placemark id="feat_1821">
            <name>1023</name>
            <description>2017-03-16T23:30:25.000Z</description>
            <styleUrl>#stylesel_1745</styleUrl>
            <Point id="geom_1745">
                <coordinates>-111.90722656,40.76065063,0.0</coordinates>
            </Point>
        </Placemark>
        <Placemark id="feat_1822">
            <name>1023</name>
            <description>2017-03-16T23:30:19.000Z</description>
            <styleUrl>#stylesel_1746</styleUrl>
            <Point id="geom_1746">
                <coordinates>-111.90583801,40.76065063,0.0</coordinates>
            </Point>
        </Placemark>
        <Placemark id="feat_1823">
            <name>1023</name>
            <description>2017-04-17T16:47:40.000Z</description>
            <styleUrl>#stylesel_1747</styleUrl>
            <Point id="geom_1747">
                <coordinates>-111.90550232,40.7627449,0.0</coordinates>
            </Point>
        </Placemark>
    </Document>
</kml>
