<?xml version="1.0" encoding="UTF-8"?>
<kml xmlns="http://www.opengis.net/kml/2.2" xmlns:gx="http://www.google.com/kml/ext/2.2">
    <Document id="feat_884">
        <Style id="stylesel_846">
            <IconStyle id="substyle_846">
                <colorMode>normal</colorMode>
                <scale>1</scale>
                <heading>0</heading>
                <Icon id="link_846">
                    <href>wifi4.png</href>
                </Icon>
            </IconStyle>
        </Style>
        <Style id="stylesel_847">
            <IconStyle id="substyle_847">
                <colorMode>normal</colorMode>
                <scale>1</scale>
                <heading>0</heading>
                <Icon id="link_847">
                    <href>wifi4.png</href>
                </Icon>
            </IconStyle>
        </Style>
        <Style id="stylesel_848">
            <IconStyle id="substyle_848">
                <colorMode>normal</colorMode>
                <scale>1</scale>
                <heading>0</heading>
                <Icon id="link_848">
                    <href>wifi4.png</href>
                </Icon>
            </IconStyle>
        </Style>
        <Style id="stylesel_849">
            <IconStyle id="substyle_849">
                <colorMode>normal</colorMode>
                <scale>1</scale>
                <heading>0</heading>
                <Icon id="link_849">
                    <href>wifi4.png</href>
                </Icon>
            </IconStyle>
        </Style>
        <Style id="stylesel_850">
            <IconStyle id="substyle_850">
                <colorMode>normal</colorMode>
                <scale>1</scale>
                <heading>0</heading>
                <Icon id="link_850">
                    <href>wifi4.png</href>
                </Icon>
            </IconStyle>
        </Style>
        <Style id="stylesel_851">
            <IconStyle id="substyle_851">
                <colorMode>normal</colorMode>
                <scale>1</scale>
                <heading>0</heading>
                <Icon id="link_851">
                    <href>wifi4.png</href>
                </Icon>
            </IconStyle>
        </Style>
        <Placemark id="feat_885">
            <name>1023</name>
            <description>2016-03-18T09:00:53.000Z</description>
            <styleUrl>#stylesel_846</styleUrl>
            <Point id="geom_846">
                <coordinates>-111.89910889,40.7608223,0.0</coordinates>
            </Point>
        </Placemark>
        <Placemark id="feat_886">
            <name>1023</name>
            <description>2017-02-25T10:50:17.000Z</description>
            <styleUrl>#stylesel_847</styleUrl>
            <Point id="geom_847">
                <coordinates>-111.89851379,40.7592926,0.0</coordinates>
            </Point>
        </Placemark>
        <Placemark id="feat_887">
            <name>1023</name>
            <description>2016-03-18T09:01:14.000Z</description>
            <styleUrl>#stylesel_848</styleUrl>
            <Point id="geom_848">
                <coordinates>-111.89956665,40.76200485,0.0</coordinates>
            </Point>
        </Placemark>
        <Placemark id="feat_888">
            <name>1023</name>
            <description>2016-03-08T06:53:29.000Z</description>
            <styleUrl>#stylesel_849</styleUrl>
            <Point id="geom_849">
                <coordinates>-111.89961243,40.77951813,0.0</coordinates>
            </Point>
        </Placemark>
        <Placemark id="feat_889">
            <name>1023</name>
            <description>2017-02-03T22:59:31.000Z</description>
            <styleUrl>#stylesel_850</styleUrl>
            <Point id="geom_850">
                <coordinates>-111.89289093,40.76729965,0.0</coordinates>
            </Point>
        </Placemark>
        <Placemark id="feat_890">
            <name>1023</name>
            <description>2016-03-03T10:28:56.000Z</description>
            <styleUrl>#stylesel_851</styleUrl>
            <Point id="geom_851">
                <coordinates>-111.89958191,40.77985001,0.0</coordinates>
            </Point>
        </Placemark>
    </Document>
</kml>
