<?xml version="1.0" encoding="UTF-8"?>
<kml xmlns="http://www.opengis.net/kml/2.2" xmlns:gx="http://www.google.com/kml/ext/2.2">
    <Document id="feat_1103">
        <Style id="stylesel_1059">
            <IconStyle id="substyle_1059">
                <colorMode>normal</colorMode>
                <scale>1</scale>
                <heading>0</heading>
                <Icon id="link_1059">
                    <href>wifi4.png</href>
                </Icon>
            </IconStyle>
        </Style>
        <Style id="stylesel_1060">
            <IconStyle id="substyle_1060">
                <colorMode>normal</colorMode>
                <scale>1</scale>
                <heading>0</heading>
                <Icon id="link_1060">
                    <href>wifi4.png</href>
                </Icon>
            </IconStyle>
        </Style>
        <Style id="stylesel_1061">
            <IconStyle id="substyle_1061">
                <colorMode>normal</colorMode>
                <scale>1</scale>
                <heading>0</heading>
                <Icon id="link_1061">
                    <href>wifi4.png</href>
                </Icon>
            </IconStyle>
        </Style>
        <Style id="stylesel_1062">
            <IconStyle id="substyle_1062">
                <colorMode>normal</colorMode>
                <scale>1</scale>
                <heading>0</heading>
                <Icon id="link_1062">
                    <href>wifi4.png</href>
                </Icon>
            </IconStyle>
        </Style>
        <Style id="stylesel_1063">
            <IconStyle id="substyle_1063">
                <colorMode>normal</colorMode>
                <scale>1</scale>
                <heading>0</heading>
                <Icon id="link_1063">
                    <href>wifi4.png</href>
                </Icon>
            </IconStyle>
        </Style>
        <Style id="stylesel_1064">
            <IconStyle id="substyle_1064">
                <colorMode>normal</colorMode>
                <scale>1</scale>
                <heading>0</heading>
                <Icon id="link_1064">
                    <href>wifi4.png</href>
                </Icon>
            </IconStyle>
        </Style>
        <Style id="stylesel_1065">
            <IconStyle id="substyle_1065">
                <colorMode>normal</colorMode>
                <scale>1</scale>
                <heading>0</heading>
                <Icon id="link_1065">
                    <href>wifi4.png</href>
                </Icon>
            </IconStyle>
        </Style>
        <Style id="stylesel_1066">
            <IconStyle id="substyle_1066">
                <colorMode>normal</colorMode>
                <scale>1</scale>
                <heading>0</heading>
                <Icon id="link_1066">
                    <href>wifi4.png</href>
                </Icon>
            </IconStyle>
        </Style>
        <Style id="stylesel_1067">
            <IconStyle id="substyle_1067">
                <colorMode>normal</colorMode>
                <scale>1</scale>
                <heading>0</heading>
                <Icon id="link_1067">
                    <href>wifi4.png</href>
                </Icon>
            </IconStyle>
        </Style>
        <Style id="stylesel_1068">
            <IconStyle id="substyle_1068">
                <colorMode>normal</colorMode>
                <scale>1</scale>
                <heading>0</heading>
                <Icon id="link_1068">
                    <href>wifi4.png</href>
                </Icon>
            </IconStyle>
        </Style>
        <Style id="stylesel_1069">
            <IconStyle id="substyle_1069">
                <colorMode>normal</colorMode>
                <scale>1</scale>
                <heading>0</heading>
                <Icon id="link_1069">
                    <href>wifi4.png</href>
                </Icon>
            </IconStyle>
        </Style>
        <Style id="stylesel_1070">
            <IconStyle id="substyle_1070">
                <colorMode>normal</colorMode>
                <scale>1</scale>
                <heading>0</heading>
                <Icon id="link_1070">
                    <href>wifi4.png</href>
                </Icon>
            </IconStyle>
        </Style>
        <Style id="stylesel_1071">
            <IconStyle id="substyle_1071">
                <colorMode>normal</colorMode>
                <scale>1</scale>
                <heading>0</heading>
                <Icon id="link_1071">
                    <href>wifi4.png</href>
                </Icon>
            </IconStyle>
        </Style>
        <Style id="stylesel_1072">
            <IconStyle id="substyle_1072">
                <colorMode>normal</colorMode>
                <scale>1</scale>
                <heading>0</heading>
                <Icon id="link_1072">
                    <href>wifi4.png</href>
                </Icon>
            </IconStyle>
        </Style>
        <Style id="stylesel_1073">
            <IconStyle id="substyle_1073">
                <colorMode>normal</colorMode>
                <scale>1</scale>
                <heading>0</heading>
                <Icon id="link_1073">
                    <href>wifi4.png</href>
                </Icon>
            </IconStyle>
        </Style>
        <Style id="stylesel_1074">
            <IconStyle id="substyle_1074">
                <colorMode>normal</colorMode>
                <scale>1</scale>
                <heading>0</heading>
                <Icon id="link_1074">
                    <href>wifi4.png</href>
                </Icon>
            </IconStyle>
        </Style>
        <Style id="stylesel_1075">
            <IconStyle id="substyle_1075">
                <colorMode>normal</colorMode>
                <scale>1</scale>
                <heading>0</heading>
                <Icon id="link_1075">
                    <href>wifi4.png</href>
                </Icon>
            </IconStyle>
        </Style>
        <Style id="stylesel_1076">
            <IconStyle id="substyle_1076">
                <colorMode>normal</colorMode>
                <scale>1</scale>
                <heading>0</heading>
                <Icon id="link_1076">
                    <href>wifi4.png</href>
                </Icon>
            </IconStyle>
        </Style>
        <Style id="stylesel_1077">
            <IconStyle id="substyle_1077">
                <colorMode>normal</colorMode>
                <scale>1</scale>
                <heading>0</heading>
                <Icon id="link_1077">
                    <href>wifi4.png</href>
                </Icon>
            </IconStyle>
        </Style>
        <Style id="stylesel_1078">
            <IconStyle id="substyle_1078">
                <colorMode>normal</colorMode>
                <scale>1</scale>
                <heading>0</heading>
                <Icon id="link_1078">
                    <href>wifi4.png</href>
                </Icon>
            </IconStyle>
        </Style>
        <Style id="stylesel_1079">
            <IconStyle id="substyle_1079">
                <colorMode>normal</colorMode>
                <scale>1</scale>
                <heading>0</heading>
                <Icon id="link_1079">
                    <href>wifi4.png</href>
                </Icon>
            </IconStyle>
        </Style>
        <Style id="stylesel_1080">
            <IconStyle id="substyle_1080">
                <colorMode>normal</colorMode>
                <scale>1</scale>
                <heading>0</heading>
                <Icon id="link_1080">
                    <href>wifi4.png</href>
                </Icon>
            </IconStyle>
        </Style>
        <Style id="stylesel_1081">
            <IconStyle id="substyle_1081">
                <colorMode>normal</colorMode>
                <scale>1</scale>
                <heading>0</heading>
                <Icon id="link_1081">
                    <href>wifi4.png</href>
                </Icon>
            </IconStyle>
        </Style>
        <Style id="stylesel_1082">
            <IconStyle id="substyle_1082">
                <colorMode>normal</colorMode>
                <scale>1</scale>
                <heading>0</heading>
                <Icon id="link_1082">
                    <href>wifi4.png</href>
                </Icon>
            </IconStyle>
        </Style>
        <Style id="stylesel_1083">
            <IconStyle id="substyle_1083">
                <colorMode>normal</colorMode>
                <scale>1</scale>
                <heading>0</heading>
                <Icon id="link_1083">
                    <href>wifi4.png</href>
                </Icon>
            </IconStyle>
        </Style>
        <Style id="stylesel_1084">
            <IconStyle id="substyle_1084">
                <colorMode>normal</colorMode>
                <scale>1</scale>
                <heading>0</heading>
                <Icon id="link_1084">
                    <href>wifi4.png</href>
                </Icon>
            </IconStyle>
        </Style>
        <Style id="stylesel_1085">
            <IconStyle id="substyle_1085">
                <colorMode>normal</colorMode>
                <scale>1</scale>
                <heading>0</heading>
                <Icon id="link_1085">
                    <href>wifi4.png</href>
                </Icon>
            </IconStyle>
        </Style>
        <Style id="stylesel_1086">
            <IconStyle id="substyle_1086">
                <colorMode>normal</colorMode>
                <scale>1</scale>
                <heading>0</heading>
                <Icon id="link_1086">
                    <href>wifi4.png</href>
                </Icon>
            </IconStyle>
        </Style>
        <Style id="stylesel_1087">
            <IconStyle id="substyle_1087">
                <colorMode>normal</colorMode>
                <scale>1</scale>
                <heading>0</heading>
                <Icon id="link_1087">
                    <href>wifi4.png</href>
                </Icon>
            </IconStyle>
        </Style>
        <Style id="stylesel_1088">
            <IconStyle id="substyle_1088">
                <colorMode>normal</colorMode>
                <scale>1</scale>
                <heading>0</heading>
                <Icon id="link_1088">
                    <href>wifi4.png</href>
                </Icon>
            </IconStyle>
        </Style>
        <Style id="stylesel_1089">
            <IconStyle id="substyle_1089">
                <colorMode>normal</colorMode>
                <scale>1</scale>
                <heading>0</heading>
                <Icon id="link_1089">
                    <href>wifi4.png</href>
                </Icon>
            </IconStyle>
        </Style>
        <Style id="stylesel_1090">
            <IconStyle id="substyle_1090">
                <colorMode>normal</colorMode>
                <scale>1</scale>
                <heading>0</heading>
                <Icon id="link_1090">
                    <href>wifi4.png</href>
                </Icon>
            </IconStyle>
        </Style>
        <Placemark id="feat_1104">
            <name>1023</name>
            <description>2017-03-28T15:07:06.000Z</description>
            <styleUrl>#stylesel_1059</styleUrl>
            <Point id="geom_1059">
                <coordinates>-111.90280151,40.76280212,0.0</coordinates>
            </Point>
        </Placemark>
        <Placemark id="feat_1105">
            <name>1023</name>
            <description>2017-03-28T15:08:13.000Z</description>
            <styleUrl>#stylesel_1060</styleUrl>
            <Point id="geom_1060">
                <coordinates>-111.90240479,40.76276779,0.0</coordinates>
            </Point>
        </Placemark>
        <Placemark id="feat_1106">
            <name>1023</name>
            <description>2017-03-28T15:07:02.000Z</description>
            <styleUrl>#stylesel_1061</styleUrl>
            <Point id="geom_1061">
                <coordinates>-111.90286255,40.76276779,0.0</coordinates>
            </Point>
        </Placemark>
        <Placemark id="feat_1107">
            <name>1023</name>
            <description>2017-03-28T15:08:18.000Z</description>
            <styleUrl>#stylesel_1062</styleUrl>
            <Point id="geom_1062">
                <coordinates>-111.90177155,40.76277924,0.0</coordinates>
            </Point>
        </Placemark>
        <Placemark id="feat_1108">
            <name>1023</name>
            <description>2017-03-28T15:08:14.000Z</description>
            <styleUrl>#stylesel_1063</styleUrl>
            <Point id="geom_1063">
                <coordinates>-111.90229034,40.76278305,0.0</coordinates>
            </Point>
        </Placemark>
        <Placemark id="feat_1109">
            <name>1023</name>
            <description>2017-03-28T15:06:52.000Z</description>
            <styleUrl>#stylesel_1064</styleUrl>
            <Point id="geom_1064">
                <coordinates>-111.90366364,40.76276016,0.0</coordinates>
            </Point>
        </Placemark>
        <Placemark id="feat_1110">
            <name>1023</name>
            <description>2017-03-15T14:08:14.000Z</description>
            <styleUrl>#stylesel_1065</styleUrl>
            <Point id="geom_1065">
                <coordinates>-111.90535736,40.76449966,0.0</coordinates>
            </Point>
        </Placemark>
        <Placemark id="feat_1111">
            <name>1023</name>
            <description>2017-03-28T15:06:55.000Z</description>
            <styleUrl>#stylesel_1066</styleUrl>
            <Point id="geom_1066">
                <coordinates>-111.90337372,40.76273727,0.0</coordinates>
            </Point>
        </Placemark>
        <Placemark id="feat_1112">
            <name>1023</name>
            <description>2016-02-09T02:27:59.000Z</description>
            <styleUrl>#stylesel_1067</styleUrl>
            <Point id="geom_1067">
                <coordinates>-111.8999939,40.78230286,0.0</coordinates>
            </Point>
        </Placemark>
        <Placemark id="feat_1113">
            <name>1023</name>
            <description>2017-03-15T14:08:10.000Z</description>
            <styleUrl>#stylesel_1068</styleUrl>
            <Point id="geom_1068">
                <coordinates>-111.90527344,40.76419449,0.0</coordinates>
            </Point>
        </Placemark>
        <Placemark id="feat_1114">
            <name>1023</name>
            <description>2017-03-28T15:07:01.000Z</description>
            <styleUrl>#stylesel_1069</styleUrl>
            <Point id="geom_1069">
                <coordinates>-111.90288544,40.76276779,0.0</coordinates>
            </Point>
        </Placemark>
        <Placemark id="feat_1115">
            <name>1023</name>
            <description>2016-02-09T02:27:44.000Z</description>
            <styleUrl>#stylesel_1070</styleUrl>
            <Point id="geom_1070">
                <coordinates>-111.90107727,40.78238297,0.0</coordinates>
            </Point>
        </Placemark>
        <Placemark id="feat_1116">
            <name>1023</name>
            <description>2017-03-15T14:08:16.000Z</description>
            <styleUrl>#stylesel_1071</styleUrl>
            <Point id="geom_1071">
                <coordinates>-111.90537262,40.76465607,0.0</coordinates>
            </Point>
        </Placemark>
        <Placemark id="feat_1117">
            <name>1023</name>
            <description>2017-02-23T18:04:34.000Z</description>
            <styleUrl>#stylesel_1072</styleUrl>
            <Point id="geom_1072">
                <coordinates>-111.9002533,40.76065063,0.0</coordinates>
            </Point>
        </Placemark>
        <Placemark id="feat_1118">
            <name>1023</name>
            <description>2017-03-15T14:08:17.000Z</description>
            <styleUrl>#stylesel_1073</styleUrl>
            <Point id="geom_1073">
                <coordinates>-111.90547943,40.76477814,0.0</coordinates>
            </Point>
        </Placemark>
        <Placemark id="feat_1119">
            <name>1023</name>
            <description>2017-03-15T14:07:52.000Z</description>
            <styleUrl>#stylesel_1074</styleUrl>
            <Point id="geom_1074">
                <coordinates>-111.90505219,40.76277542,0.0</coordinates>
            </Point>
        </Placemark>
        <Placemark id="feat_1120">
            <name>1023</name>
            <description>2017-03-28T15:08:18.000Z</description>
            <styleUrl>#stylesel_1075</styleUrl>
            <Point id="geom_1075">
                <coordinates>-111.90175629,40.76276016,0.0</coordinates>
            </Point>
        </Placemark>
        <Placemark id="feat_1121">
            <name>1023</name>
            <description>2017-03-28T15:08:34.000Z</description>
            <styleUrl>#stylesel_1076</styleUrl>
            <Point id="geom_1076">
                <coordinates>-111.90014648,40.76276779,0.0</coordinates>
            </Point>
        </Placemark>
        <Placemark id="feat_1122">
            <name>1023</name>
            <description>2017-03-15T14:08:11.000Z</description>
            <styleUrl>#stylesel_1077</styleUrl>
            <Point id="geom_1077">
                <coordinates>-111.90531921,40.76425934,0.0</coordinates>
            </Point>
        </Placemark>
        <Placemark id="feat_1123">
            <name>1023</name>
            <description>2017-03-28T15:08:18.000Z</description>
            <styleUrl>#stylesel_1078</styleUrl>
            <Point id="geom_1078">
                <coordinates>-111.90177155,40.76272964,0.0</coordinates>
            </Point>
        </Placemark>
        <Placemark id="feat_1124">
            <name>1023</name>
            <description>2017-02-23T18:04:37.000Z</description>
            <styleUrl>#stylesel_1079</styleUrl>
            <Point id="geom_1079">
                <coordinates>-111.89987946,40.76066208,0.0</coordinates>
            </Point>
        </Placemark>
        <Placemark id="feat_1125">
            <name>1023</name>
            <description>2017-03-28T15:08:22.000Z</description>
            <styleUrl>#stylesel_1080</styleUrl>
            <Point id="geom_1080">
                <coordinates>-111.90126801,40.76279068,0.0</coordinates>
            </Point>
        </Placemark>
        <Placemark id="feat_1126">
            <name>1023</name>
            <description>2016-03-09T00:21:31.000Z</description>
            <styleUrl>#stylesel_1081</styleUrl>
            <Point id="geom_1081">
                <coordinates>-111.89979553,40.77241516,0.0</coordinates>
            </Point>
        </Placemark>
        <Placemark id="feat_1127">
            <name>1023</name>
            <description>2017-03-15T14:08:07.000Z</description>
            <styleUrl>#stylesel_1082</styleUrl>
            <Point id="geom_1082">
                <coordinates>-111.905159,40.76396561,0.0</coordinates>
            </Point>
        </Placemark>
        <Placemark id="feat_1128">
            <name>1023</name>
            <description>2017-03-15T14:08:40.000Z</description>
            <styleUrl>#stylesel_1083</styleUrl>
            <Point id="geom_1083">
                <coordinates>-111.90432739,40.76493835,0.0</coordinates>
            </Point>
        </Placemark>
        <Placemark id="feat_1129">
            <name>1023</name>
            <description>2017-03-15T14:07:54.000Z</description>
            <styleUrl>#stylesel_1084</styleUrl>
            <Point id="geom_1084">
                <coordinates>-111.90504456,40.76299667,0.0</coordinates>
            </Point>
        </Placemark>
        <Placemark id="feat_1130">
            <name>1023</name>
            <description>2017-04-20T01:07:21.000Z</description>
            <styleUrl>#stylesel_1085</styleUrl>
            <Point id="geom_1085">
                <coordinates>-111.87100983,40.73711777,0.0</coordinates>
            </Point>
        </Placemark>
        <Placemark id="feat_1131">
            <name>1023</name>
            <description>2017-03-28T15:08:30.000Z</description>
            <styleUrl>#stylesel_1086</styleUrl>
            <Point id="geom_1086">
                <coordinates>-111.9004364,40.76274109,0.0</coordinates>
            </Point>
        </Placemark>
        <Placemark id="feat_1132">
            <name>1023</name>
            <description>2017-02-23T18:04:32.000Z</description>
            <styleUrl>#stylesel_1087</styleUrl>
            <Point id="geom_1087">
                <coordinates>-111.90057373,40.76063919,0.0</coordinates>
            </Point>
        </Placemark>
        <Placemark id="feat_1133">
            <name>1023</name>
            <description>2017-03-15T14:07:50.000Z</description>
            <styleUrl>#stylesel_1088</styleUrl>
            <Point id="geom_1088">
                <coordinates>-111.90505981,40.76264191,0.0</coordinates>
            </Point>
        </Placemark>
        <Placemark id="feat_1134">
            <name>1023</name>
            <description>2017-04-17T16:47:44.000Z</description>
            <styleUrl>#stylesel_1089</styleUrl>
            <Point id="geom_1089">
                <coordinates>-111.90544128,40.76248169,0.0</coordinates>
            </Point>
        </Placemark>
        <Placemark id="feat_1135">
            <name>1023</name>
            <description>2017-02-23T18:04:33.000Z</description>
            <styleUrl>#stylesel_1090</styleUrl>
            <Point id="geom_1090">
                <coordinates>-111.90039825,40.76064301,0.0</coordinates>
            </Point>
        </Placemark>
    </Document>
</kml>
