<?xml version="1.0" encoding="UTF-8"?>
<kml xmlns="http://www.opengis.net/kml/2.2" xmlns:gx="http://www.google.com/kml/ext/2.2">
    <Document id="feat_152">
        <Style id="stylesel_148">
            <IconStyle id="substyle_148">
                <colorMode>normal</colorMode>
                <scale>1</scale>
                <heading>0</heading>
                <Icon id="link_148">
                    <href>wifi4.png</href>
                </Icon>
            </IconStyle>
        </Style>
        <Style id="stylesel_149">
            <IconStyle id="substyle_149">
                <colorMode>normal</colorMode>
                <scale>1</scale>
                <heading>0</heading>
                <Icon id="link_149">
                    <href>wifi4.png</href>
                </Icon>
            </IconStyle>
        </Style>
        <Style id="stylesel_150">
            <IconStyle id="substyle_150">
                <colorMode>normal</colorMode>
                <scale>1</scale>
                <heading>0</heading>
                <Icon id="link_150">
                    <href>wifi4.png</href>
                </Icon>
            </IconStyle>
        </Style>
        <Style id="stylesel_151">
            <IconStyle id="substyle_151">
                <colorMode>normal</colorMode>
                <scale>1</scale>
                <heading>0</heading>
                <Icon id="link_151">
                    <href>wifi4.png</href>
                </Icon>
            </IconStyle>
        </Style>
        <Style id="stylesel_152">
            <IconStyle id="substyle_152">
                <colorMode>normal</colorMode>
                <scale>1</scale>
                <heading>0</heading>
                <Icon id="link_152">
                    <href>wifi4.png</href>
                </Icon>
            </IconStyle>
        </Style>
        <Placemark id="feat_153">
            <name>GD214</name>
            <description>2015-12-05T05:10:03.000Z</description>
            <styleUrl>#stylesel_148</styleUrl>
            <Point id="geom_148">
                <coordinates>-96.95674896,32.83695221,0.0</coordinates>
            </Point>
        </Placemark>
        <Placemark id="feat_154">
            <name>GD214</name>
            <description>2015-12-05T05:09:59.000Z</description>
            <styleUrl>#stylesel_149</styleUrl>
            <Point id="geom_149">
                <coordinates>-96.95789337,32.83695602,0.0</coordinates>
            </Point>
        </Placemark>
        <Placemark id="feat_155">
            <name>GD214</name>
            <description>2015-12-05T05:10:11.000Z</description>
            <styleUrl>#stylesel_150</styleUrl>
            <Point id="geom_150">
                <coordinates>-96.95445251,32.83693695,0.0</coordinates>
            </Point>
        </Placemark>
        <Placemark id="feat_156">
            <name>GD214</name>
            <description>2015-12-05T05:10:07.000Z</description>
            <styleUrl>#stylesel_151</styleUrl>
            <Point id="geom_151">
                <coordinates>-96.95561218,32.83694458,0.0</coordinates>
            </Point>
        </Placemark>
        <Placemark id="feat_157">
            <name>GD214</name>
            <description>2015-12-05T05:09:55.000Z</description>
            <styleUrl>#stylesel_152</styleUrl>
            <Point id="geom_152">
                <coordinates>-96.95894623,32.83695221,0.0</coordinates>
            </Point>
        </Placemark>
    </Document>
</kml>
