<?xml version="1.0" encoding="UTF-8"?>
<kml xmlns="http://www.opengis.net/kml/2.2" xmlns:gx="http://www.google.com/kml/ext/2.2">
    <Document id="feat_505">
        <Style id="stylesel_490">
            <IconStyle id="substyle_490">
                <colorMode>normal</colorMode>
                <scale>1</scale>
                <heading>0</heading>
                <Icon id="link_490">
                    <href>wifi4.png</href>
                </Icon>
            </IconStyle>
        </Style>
        <Placemark id="feat_506">
            <name>SLCPD</name>
            <description>2016-02-18T10:21:32.000Z</description>
            <styleUrl>#stylesel_490</styleUrl>
            <Point id="geom_490">
                <coordinates>-111.90552521,40.76832962,0.0</coordinates>
            </Point>
        </Placemark>
    </Document>
</kml>
