<?xml version="1.0" encoding="UTF-8"?>
<kml xmlns="http://www.opengis.net/kml/2.2" xmlns:gx="http://www.google.com/kml/ext/2.2">
    <Document id="feat_498">
        <Style id="stylesel_484">
            <IconStyle id="substyle_484">
                <colorMode>normal</colorMode>
                <scale>1</scale>
                <heading>0</heading>
                <Icon id="link_484">
                    <href>wifi4.png</href>
                </Icon>
            </IconStyle>
        </Style>
        <Style id="stylesel_485">
            <IconStyle id="substyle_485">
                <colorMode>normal</colorMode>
                <scale>1</scale>
                <heading>0</heading>
                <Icon id="link_485">
                    <href>wifi4.png</href>
                </Icon>
            </IconStyle>
        </Style>
        <Style id="stylesel_486">
            <IconStyle id="substyle_486">
                <colorMode>normal</colorMode>
                <scale>1</scale>
                <heading>0</heading>
                <Icon id="link_486">
                    <href>wifi4.png</href>
                </Icon>
            </IconStyle>
        </Style>
        <Style id="stylesel_487">
            <IconStyle id="substyle_487">
                <colorMode>normal</colorMode>
                <scale>1</scale>
                <heading>0</heading>
                <Icon id="link_487">
                    <href>wifi4.png</href>
                </Icon>
            </IconStyle>
        </Style>
        <Style id="stylesel_488">
            <IconStyle id="substyle_488">
                <colorMode>normal</colorMode>
                <scale>1</scale>
                <heading>0</heading>
                <Icon id="link_488">
                    <href>wifi4.png</href>
                </Icon>
            </IconStyle>
        </Style>
        <Style id="stylesel_489">
            <IconStyle id="substyle_489">
                <colorMode>normal</colorMode>
                <scale>1</scale>
                <heading>0</heading>
                <Icon id="link_489">
                    <href>wifi4.png</href>
                </Icon>
            </IconStyle>
        </Style>
        <Placemark id="feat_499">
            <name>CBCI-536B-5</name>
            <description>2015-03-31T00:19:28.000Z</description>
            <styleUrl>#stylesel_484</styleUrl>
            <Point id="geom_484">
                <coordinates>-94.44945526,39.09498978,0.0</coordinates>
            </Point>
        </Placemark>
        <Placemark id="feat_500">
            <name>SLCPDSURVELLINCE</name>
            <description>2017-04-17T16:04:49.000Z</description>
            <styleUrl>#stylesel_485</styleUrl>
            <Point id="geom_485">
                <coordinates>-111.90811157,40.76474762,0.0</coordinates>
            </Point>
        </Placemark>
        <Placemark id="feat_501">
            <name>SLCPDSURVELLINCE</name>
            <description>2017-04-18T04:20:27.000Z</description>
            <styleUrl>#stylesel_486</styleUrl>
            <Point id="geom_486">
                <coordinates>-111.90789795,40.76514053,0.0</coordinates>
            </Point>
        </Placemark>
        <Placemark id="feat_502">
            <name>CBCI-536B-5</name>
            <description>2015-08-03T09:35:12.000Z</description>
            <styleUrl>#stylesel_487</styleUrl>
            <Point id="geom_487">
                <coordinates>-94.44940948,39.09502411,0.0</coordinates>
            </Point>
        </Placemark>
        <Placemark id="feat_503">
            <name>SLCPDSURVELLINCE</name>
            <description>2017-03-26T03:15:18.000Z</description>
            <styleUrl>#stylesel_488</styleUrl>
            <Point id="geom_488">
                <coordinates>-111.9081192,40.76459122,0.0</coordinates>
            </Point>
        </Placemark>
        <Placemark id="feat_504">
            <name>SLCPDSURVELLINCE</name>
            <description>2017-03-26T03:15:36.000Z</description>
            <styleUrl>#stylesel_489</styleUrl>
            <Point id="geom_489">
                <coordinates>-111.90827179,40.7659111,0.0</coordinates>
            </Point>
        </Placemark>
    </Document>
</kml>
