<?xml version="1.0" encoding="UTF-8"?>
<kml xmlns="http://www.opengis.net/kml/2.2" xmlns:gx="http://www.google.com/kml/ext/2.2">
    <Document id="feat_641">
        <Style id="stylesel_614">
            <IconStyle id="substyle_614">
                <colorMode>normal</colorMode>
                <scale>1</scale>
                <heading>0</heading>
                <Icon id="link_614">
                    <href>wifi4.png</href>
                </Icon>
            </IconStyle>
        </Style>
        <Style id="stylesel_615">
            <IconStyle id="substyle_615">
                <colorMode>normal</colorMode>
                <scale>1</scale>
                <heading>0</heading>
                <Icon id="link_615">
                    <href>wifi4.png</href>
                </Icon>
            </IconStyle>
        </Style>
        <Style id="stylesel_616">
            <IconStyle id="substyle_616">
                <colorMode>normal</colorMode>
                <scale>1</scale>
                <heading>0</heading>
                <Icon id="link_616">
                    <href>wifi4.png</href>
                </Icon>
            </IconStyle>
        </Style>
        <Placemark id="feat_642">
            <name>SLCPD-guest</name>
            <description>2017-05-05T23:29:27.000Z</description>
            <styleUrl>#stylesel_614</styleUrl>
            <Point id="geom_614">
                <coordinates>-111.89658356,40.73875046,0.0</coordinates>
            </Point>
        </Placemark>
        <Placemark id="feat_643">
            <name>SLCPD-guest</name>
            <description>2017-05-05T23:29:35.000Z</description>
            <styleUrl>#stylesel_615</styleUrl>
            <Point id="geom_615">
                <coordinates>-111.89657593,40.73831558,0.0</coordinates>
            </Point>
        </Placemark>
        <Placemark id="feat_644">
            <name>SLCPD-guest</name>
            <description>2017-05-05T23:33:50.000Z</description>
            <styleUrl>#stylesel_616</styleUrl>
            <Point id="geom_616">
                <coordinates>-111.89717865,40.73842621,0.0</coordinates>
            </Point>
        </Placemark>
    </Document>
</kml>
