<?xml version="1.0" encoding="UTF-8"?>
<kml xmlns="http://www.opengis.net/kml/2.2" xmlns:gx="http://www.google.com/kml/ext/2.2">
    <Document id="feat_469">
        <Style id="stylesel_442">
            <IconStyle id="substyle_442">
                <colorMode>normal</colorMode>
                <scale>1</scale>
                <heading>0</heading>
                <Icon id="link_442">
                    <href>wifi4.png</href>
                </Icon>
            </IconStyle>
        </Style>
        <Style id="stylesel_443">
            <IconStyle id="substyle_443">
                <colorMode>normal</colorMode>
                <scale>1</scale>
                <heading>0</heading>
                <Icon id="link_443">
                    <href>wifi4.png</href>
                </Icon>
            </IconStyle>
        </Style>
        <Placemark id="feat_470">
            <name>CockandBalls</name>
            <description>2017-01-29T20:16:57.000Z</description>
            <styleUrl>#stylesel_442</styleUrl>
            <Point id="geom_442">
                <coordinates>-122.55934143,45.61319351,0.0</coordinates>
            </Point>
        </Placemark>
        <Placemark id="feat_471">
            <name>CockandBalls</name>
            <description>2017-01-29T20:16:28.000Z</description>
            <styleUrl>#stylesel_443</styleUrl>
            <Point id="geom_443">
                <coordinates>-122.5582962,45.61258316,0.0</coordinates>
            </Point>
        </Placemark>
    </Document>
</kml>
