BSSID	SSID	Latitude	Longitude	First Time	Last Time	Last Update	Vendor
00:11:92:7E:94:41	hills	40.30452347	-111.65942383	2010-06-01T03:33:47.000Z	2010-08-11T08:32:19.000Z	2010-09-14T04:26:45.000Z	Cisco Systems Inc.
00:14:A9:9D:68:41	hills	40.26539993	-111.67077637	2011-11-18T04:33:44.000Z	2011-11-20T21:06:00.000Z	2011-11-20T19:06:52.000Z	Cisco Systems Inc.
00:14:A9:C8:7D:D1	hills	40.30540848	-111.65668488	2010-06-01T03:32:58.000Z	2010-10-11T00:07:35.000Z	2010-10-10T22:08:08.000Z	Cisco Systems Inc.
00:13:7F:9C:53:31	hills	40.26639938	-111.66955566	2013-01-04T06:53:36.000Z	2013-01-04T08:51:15.000Z	2013-01-04T06:51:50.000Z	Cisco Systems Inc.
00:15:2B:21:68:61	hills	40.30513382	-111.6588974	2010-06-01T03:32:50.000Z	2010-06-02T16:31:03.000Z	2010-09-14T04:26:45.000Z	Cisco Systems Inc.
00:1C:10:2E:A6:60	hills	40.26903534	-111.70207214	2017-05-30T21:44:45.000Z	2017-05-30T20:52:29.000Z	2017-05-30T20:52:34.000Z	Cisco-Linksys LLC
04:DA:D2:29:C1:A1	hills	40.2660675	-111.6696701	2014-07-11T02:19:51.000Z	2014-07-13T10:26:31.000Z	2014-07-13T08:27:54.000Z	Cisco Systems Inc.
44:32:C8:D1:3E:D0	HILLS	40.26879501	-111.70204926	2017-05-30T21:44:45.000Z	2017-05-30T20:52:52.000Z	2017-05-30T20:52:58.000Z	Technicolor CH USA Inc.
E0:89:9D:70:A3:AD	hills	40.31985092	-111.68203735	2017-03-29T02:30:19.000Z	2017-03-29T01:33:49.000Z	2017-03-29T01:33:53.000Z	Cisco Systems Inc.
E0:89:9D:3D:97:7D	hills	40.31983566	-111.68114471	2017-03-29T02:27:28.000Z	2017-03-29T01:34:01.000Z	2017-03-29T01:34:05.000Z	Cisco Systems Inc.
E0:89:9D:D3:47:42	hills	40.32020187	-111.68096924	2017-03-29T02:27:08.000Z	2017-03-29T01:54:25.000Z	2017-03-29T01:54:33.000Z	Cisco Systems Inc.
68:BC:0C:F6:A8:C1	hills	40.32313538	-111.6822052	2012-05-24T00:25:23.000Z	2013-05-18T05:16:06.000Z	2013-05-18T03:16:42.000Z	Cisco Systems Inc.
68:BC:0C:F6:A8:11	hills	40.32318497	-111.68218231	2012-05-24T00:25:25.000Z	2013-05-18T05:16:06.000Z	2013-05-18T03:16:35.000Z	Cisco Systems Inc.
68:BC:0C:F6:A8:61	hills	40.32363892	-111.68212128	2012-05-24T00:25:33.000Z	2013-03-16T01:28:37.000Z	2013-03-15T23:29:24.000Z	Cisco Systems Inc.
68:BC:0C:F8:A8:91	hills	40.32291794	-111.68223572	2012-05-24T00:25:18.000Z	2013-05-18T05:16:05.000Z	2013-05-18T03:16:42.000Z	Cisco Systems Inc.
68:BC:0C:F6:9A:91	hills	40.32336807	-111.68210602	2012-05-24T00:25:30.000Z	2013-05-18T05:16:05.000Z	2013-05-18T03:16:46.000Z	Cisco Systems Inc.
C4:7D:4F:47:C8:B0	hills	40.31959534	-111.68202209	2010-12-27T19:52:23.000Z	2014-09-01T04:39:55.000Z	2014-09-01T02:54:43.000Z	Cisco Systems Inc.
C4:7D:4F:47:C8:BD	hills	40.31976318	-111.68165588	2002-01-01T01:00:00.000Z	2013-11-10T01:12:15.000Z	2013-11-09T23:12:20.000Z	Cisco Systems Inc.
C4:7D:4F:51:7F:92	hills	40.3199501	-111.68247223	2010-12-27T19:52:21.000Z	2013-11-10T01:12:16.000Z	2013-11-09T23:12:18.000Z	Cisco Systems Inc.
E0:89:9D:70:B6:BD	hills	40.31961823	-111.68152618	2017-03-29T02:27:23.000Z	2017-03-29T01:33:49.000Z	2017-03-29T01:33:54.000Z	Cisco Systems Inc.
E0:89:9D:D2:BB:92	hills	40.32056808	-111.68169403	2017-03-29T02:28:39.000Z	2017-03-29T01:33:50.000Z	2017-03-29T01:33:54.000Z	Cisco Systems Inc.
E0:89:9D:D2:BB:9D	hills	40.32064056	-111.68193054	2017-03-29T02:29:53.000Z	2017-03-29T01:33:50.000Z	2017-03-29T01:33:54.000Z	Cisco Systems Inc.
E0:89:9D:D2:C0:22	hills	40.32078171	-111.68187714	2017-03-29T02:29:27.000Z	2017-03-29T01:33:50.000Z	2017-03-29T01:33:55.000Z	Cisco Systems Inc.
E0:89:9D:3D:9A:02	hills	40.32037735	-111.68202972	2017-03-29T02:29:56.000Z	2017-03-29T01:33:49.000Z	2017-03-29T01:33:54.000Z	Cisco Systems Inc.
E0:89:9D:3D:1D:6D	hills	40.32023621	-111.68119812	2017-03-29T02:28:16.000Z	2017-03-29T01:33:50.000Z	2017-03-29T01:33:52.000Z	Cisco Systems Inc.
C4:7D:4F:4C:55:72	hills	40.31993103	-111.68245697	2010-12-27T19:52:21.000Z	2013-11-10T01:12:16.000Z	2013-11-09T23:12:24.000Z	Cisco Systems Inc.
C4:7D:4F:51:75:12	hills	40.32001877	-111.68164062	2010-12-27T19:52:19.000Z	2013-11-10T01:12:15.000Z	2013-11-09T23:12:21.000Z	Cisco Systems Inc.
C4:7D:4F:51:75:1D	hills	40.31976318	-111.68196106	2013-11-02T14:33:20.000Z	2013-11-02T20:05:57.000Z	2013-11-02T18:06:53.000Z	Cisco Systems Inc.
C4:7D:4F:51:7D:BD	hills	40.31978226	-111.68225098	2002-01-01T01:00:00.000Z	2013-11-10T01:12:17.000Z	2013-11-09T23:12:22.000Z	Cisco Systems Inc.
C4:7D:4F:47:BC:92	hills	40.32003784	-111.68008423	2010-12-27T19:52:25.000Z	2014-09-01T04:40:48.000Z	2014-09-01T02:47:47.000Z	Cisco Systems Inc.
C4:7D:4F:47:BC:9D	hills	40.31945038	-111.67966461	2013-11-02T14:14:15.000Z	2013-11-10T01:12:17.000Z	2013-11-09T23:12:22.000Z	Cisco Systems Inc.
C4:7D:4F:47:C9:7D	hills	40.31739807	-111.67195129	2013-10-08T18:30:41.000Z	2013-11-10T01:12:16.000Z	2013-11-09T23:12:24.000Z	Cisco Systems Inc.
C4:7D:4F:51:7D:B2	hills	40.32023621	-111.68105316	2010-12-27T19:52:31.000Z	2013-11-10T01:12:17.000Z	2013-11-09T23:12:20.000Z	Cisco Systems Inc.
C4:7D:4F:47:C8:B2	hills	40.31965637	-111.68179321	2010-12-27T19:52:21.000Z	2013-11-10T01:12:16.000Z	2013-11-09T23:12:25.000Z	Cisco Systems Inc.
C4:7D:4F:47:C9:72	hills	40.32069397	-111.677742	2010-12-27T19:52:21.000Z	2014-09-01T04:40:02.000Z	2014-09-01T02:44:22.000Z	Cisco Systems Inc.
C4:7D:4F:4C:56:42	hills	40.32031631	-111.68099976	2010-12-27T19:52:14.000Z	2013-11-10T01:12:15.000Z	2013-11-09T23:12:20.000Z	Cisco Systems Inc.
C4:7D:4F:47:DC:82	hills	40.32024384	-111.68223572	2011-08-26T16:05:07.000Z	2013-11-02T20:05:55.000Z	2013-11-02T18:06:22.000Z	Cisco Systems Inc.
C4:7D:4F:4C:55:7D	hills	40.32001114	-111.68204498	2013-11-02T14:12:53.000Z	2013-11-02T20:05:57.000Z	2013-11-02T18:06:25.000Z	Cisco Systems Inc.
C4:7D:4F:4C:61:C2	hills	40.3210144	-111.67327881	2010-12-27T19:52:27.000Z	2013-11-10T01:12:17.000Z	2013-11-09T23:12:21.000Z	Cisco Systems Inc.
E0:89:9D:70:A3:A2	hills	40.319767	-111.68175507	2017-03-29T02:30:19.000Z	2017-03-29T01:33:50.000Z	2017-03-29T01:33:55.000Z	Cisco Systems Inc.
E0:89:9D:70:46:4D	hills	40.32078552	-111.68113708	2017-03-29T02:28:39.000Z	2017-03-29T01:33:49.000Z	2017-03-29T01:33:54.000Z	Cisco Systems Inc.
E0:89:9D:3D:97:72	hills	40.31975555	-111.68102264	2017-03-29T02:27:28.000Z	2017-03-29T01:34:01.000Z	2017-03-29T01:34:05.000Z	Cisco Systems Inc.
C4:7D:4F:4C:61:CD	hills	40.31675339	-111.66888428	2013-11-02T14:13:21.000Z	2013-11-10T01:12:16.000Z	2013-11-09T23:12:21.000Z	Cisco Systems Inc.
C4:7D:4F:4C:6A:72	hills	40.32104111	-111.681633	2010-12-27T19:52:10.000Z	2012-05-25T04:55:05.000Z	2012-05-25T02:55:43.000Z	Cisco Systems Inc.
C4:7D:4F:4C:72:42	hills	40.32030487	-111.68218994	2011-08-26T16:05:07.000Z	2013-11-02T20:05:52.000Z	2013-11-02T18:06:58.000Z	Cisco Systems Inc.
E0:89:9D:70:B6:B2	hills	40.31961441	-111.68123627	2017-03-29T02:27:20.000Z	2017-03-29T01:33:45.000Z	2017-03-29T01:33:54.000Z	Cisco Systems Inc.
E0:89:9D:D3:47:4D	hills	40.31987381	-111.6810379	2017-03-29T02:27:04.000Z	2017-03-29T01:34:01.000Z	2017-03-29T01:34:05.000Z	Cisco Systems Inc.
E0:89:9D:70:B6:E2	hills	40.31922531	-111.6812973	2017-03-29T02:26:05.000Z	2017-03-29T01:33:59.000Z	2017-03-29T01:34:05.000Z	Cisco Systems Inc.
E0:89:9D:70:B6:ED	hills	40.31962204	-111.68105316	2017-03-29T02:26:11.000Z	2017-03-29T01:33:45.000Z	2017-03-29T01:33:55.000Z	Cisco Systems Inc.
E0:89:9D:D2:C0:2D	hills	40.3206749	-111.68201447	2017-03-29T02:29:49.000Z	2017-03-29T01:33:50.000Z	2017-03-29T01:33:54.000Z	Cisco Systems Inc.
E0:89:9D:D3:46:42	hills	40.32024384	-111.68144226	2017-03-29T02:28:20.000Z	2017-03-29T01:33:08.000Z	2017-03-29T01:33:12.000Z	Cisco Systems Inc.
E0:89:9D:70:46:42	hills	40.32075119	-111.68095398	2017-03-29T02:28:35.000Z	2017-07-04T18:17:21.000Z	2017-07-04T18:17:33.000Z	Cisco Systems Inc.
E0:89:9D:3D:9A:0D	hills	40.32035446	-111.68205261	2017-03-29T02:29:59.000Z	2017-03-29T01:33:50.000Z	2017-03-29T01:33:54.000Z	Cisco Systems Inc.
E0:89:9D:3D:1D:62	hills	40.32020187	-111.68122864	2017-03-29T02:28:12.000Z	2017-03-29T01:33:49.000Z	2017-03-29T01:33:54.000Z	Cisco Systems Inc.
