<?xml version="1.0" encoding="UTF-8"?>
<kml xmlns="http://www.opengis.net/kml/2.2" xmlns:gx="http://www.google.com/kml/ext/2.2">
    <Document id="feat_1">
        <GroundOverlay id="feat_2">
            <name>Pleasant Grove, Utah County, Utah, 84062, United States of America</name>
            <color>371400FF</color>
            <LatLonBox>
                <north>40.413846</north>
                <south>40.3445037</south>
                <east>-111.6961799</east>
                <west>-111.774479</west>
            </LatLonBox>
        </GroundOverlay>
    </Document>
</kml>
