BSSID	SSID	Latitude	Longitude	First Time	Last Time	Last Update	Vendor
2C:30:33:3D:4A:10	Verizon-791L-4A10	40.35789871	-111.76126099	2017-06-22T14:23:32.000Z	2017-07-11T02:59:22.000Z	2017-07-11T02:59:47.000Z	Netgear
2C:30:33:3D:4A:89	Verizon-791L-4A89	40.36118317	-111.73976135	2017-03-20T17:27:55.000Z	2017-07-26T18:12:14.000Z	2017-07-26T18:12:30.000Z	Netgear
2C:30:33:3D:4B:06	Verizon-791L-4B06	40.36108017	-111.74015045	2017-05-05T02:26:43.000Z	2017-07-23T02:22:39.000Z	2017-07-23T02:23:02.000Z	Netgear
2C:30:33:3D:55:A1	Verizon-791L-55A1	40.34533691	-111.70477295	2017-03-04T16:27:55.000Z	2017-03-04T17:18:48.000Z	2017-03-04T17:18:57.000Z	Netgear
2C:30:33:3C:20:D3	Verizon-791L-20D3	40.35758591	-111.70748138	2017-02-21T23:39:14.000Z	2017-02-21T23:39:34.000Z	2017-02-21T23:39:41.000Z	Netgear
2C:30:33:3D:48:C2	Verizon-791L-48C2	40.36242294	-111.7405014	2017-03-05T00:50:06.000Z	2017-07-09T20:31:12.000Z	2017-07-09T20:31:20.000Z	Netgear
2C:30:33:3D:4A:40	Verizon-791L-4A40	40.36599731	-111.75307465	2017-02-16T00:47:07.000Z	2017-07-21T10:57:38.000Z	2017-07-21T10:57:53.000Z	Netgear
2C:30:33:3D:59:E7	Verizon-791L-59E7	40.36868668	-111.74962616	2017-05-18T00:20:47.000Z	2017-06-24T16:21:03.000Z	2017-06-24T16:21:13.000Z	Netgear
2E:30:33:3D:48:BF	Verizon-791L-48BF	40.3544693	-111.74797058	2017-02-26T22:53:50.000Z	2017-05-06T01:01:52.000Z	2017-05-20T23:59:37.000Z	No Vendor Found
2C:30:33:3D:44:E9	Verizon-791L-44E9	40.36468124	-111.74589539	2017-02-18T22:15:12.000Z	2017-07-19T00:07:10.000Z	2017-07-19T00:07:14.000Z	Netgear
2C:30:33:3D:4A:4B	Verizon-791L-4A4B	40.36274719	-111.73974609	2017-06-11T00:24:02.000Z	2017-07-24T19:19:54.000Z	2017-07-24T19:20:07.000Z	Netgear
2C:30:33:3D:4A:58	Verizon-791L-4A58	40.36891937	-111.76378632	2017-05-29T00:08:39.000Z	2017-05-31T20:01:10.000Z	2017-05-31T20:01:48.000Z	Netgear
2C:30:33:3D:4A:74	Verizon-791L-4A74	40.35971451	-111.76028442	2017-02-26T22:53:21.000Z	2017-05-21T01:22:12.000Z	2017-07-12T00:19:49.000Z	Netgear
2C:30:33:3B:89:FF	Verizon-791L-89FF	40.35572433	-111.76332092	2017-05-06T00:52:04.000Z	2017-05-06T01:03:58.000Z	2017-05-06T01:04:24.000Z	Netgear
2E:30:33:3D:59:F8	Verizon-791L-59F8	40.36827087	-111.74967194	2017-04-07T16:50:08.000Z	2017-04-07T17:08:19.000Z	2017-04-07T17:08:27.000Z	No Vendor Found
2C:30:33:3D:E3:EE	Verizon-791L-E3EE	40.37314224	-111.7496109	2017-03-25T17:35:38.000Z	2017-03-25T16:40:31.000Z	2017-03-25T16:40:35.000Z	Netgear
2C:30:33:3D:48:BF	Verizon-791L-48BF	40.35903168	-111.7564621	2017-02-26T22:53:50.000Z	2017-07-25T15:45:47.000Z	2017-07-25T15:45:58.000Z	Netgear
2C:30:33:3D:4B:00	Verizon-791L-4B00	40.36543274	-111.74745941	2017-06-17T13:59:18.000Z	2017-07-21T05:33:59.000Z	2017-07-24T19:20:05.000Z	Netgear
2C:30:33:3D:59:F8	Verizon-791L-59F8	40.35594177	-111.74066925	2017-04-07T16:50:08.000Z	2017-05-30T23:27:43.000Z	2017-05-30T23:28:02.000Z	Netgear
B0:B9:8A:B3:32:5F	Verizon-791L-325F	40.36286545	-111.73888397	2017-07-13T04:00:22.000Z	2017-07-13T03:55:24.000Z	2017-07-13T03:55:37.000Z	Netgear
2C:30:33:3D:5E:02	Verizon-791L-5E02	40.36357498	-111.7409668	2017-05-05T02:25:30.000Z	2017-07-03T21:18:55.000Z	2017-07-03T21:19:03.000Z	Netgear
2E:30:33:3D:4A:10	Verizon-791L-4A10	40.35739136	-111.74766541	2017-03-11T16:20:37.000Z	2017-07-11T02:57:59.000Z	2017-07-24T14:07:57.000Z	No Vendor Found
2E:30:33:3D:5E:02	Verizon-791L-5E02	40.36307907	-111.74225616	2017-05-05T02:25:32.000Z	2017-07-03T21:18:55.000Z	2017-07-08T00:01:23.000Z	No Vendor Found
2C:30:33:3D:59:D8	Verizon-791L-59D8	40.36284256	-111.73995972	2017-03-20T17:28:07.000Z	2017-07-03T21:18:55.000Z	2017-07-31T17:16:35.000Z	Netgear
