<?xml version="1.0" encoding="UTF-8"?>
<kml xmlns="http://www.opengis.net/kml/2.2" xmlns:gx="http://www.google.com/kml/ext/2.2">
    <Document id="feat_9338">
        <Style id="stylesel_9061">
            <IconStyle id="substyle_9061">
                <colorMode>normal</colorMode>
                <scale>1</scale>
                <heading>0</heading>
                <Icon id="link_9061">
                    <href>wifi4.png</href>
                </Icon>
            </IconStyle>
        </Style>
        <Style id="stylesel_9062">
            <IconStyle id="substyle_9062">
                <colorMode>normal</colorMode>
                <scale>1</scale>
                <heading>0</heading>
                <Icon id="link_9062">
                    <href>wifi4.png</href>
                </Icon>
            </IconStyle>
        </Style>
        <Style id="stylesel_9063">
            <IconStyle id="substyle_9063">
                <colorMode>normal</colorMode>
                <scale>1</scale>
                <heading>0</heading>
                <Icon id="link_9063">
                    <href>wifi4.png</href>
                </Icon>
            </IconStyle>
        </Style>
        <Style id="stylesel_9064">
            <IconStyle id="substyle_9064">
                <colorMode>normal</colorMode>
                <scale>1</scale>
                <heading>0</heading>
                <Icon id="link_9064">
                    <href>wifi4.png</href>
                </Icon>
            </IconStyle>
        </Style>
        <Placemark id="feat_9339">
            <name>LDSAccess</name>
            <description>2017-03-14T01:35:39.000Z</description>
            <styleUrl>#stylesel_9061</styleUrl>
            <Point id="geom_9061">
                <coordinates>-111.73986053,40.38733673,0.0</coordinates>
            </Point>
        </Placemark>
        <Placemark id="feat_9340">
            <name>LDSAccess</name>
            <description>2017-06-21T01:07:55.000Z</description>
            <styleUrl>#stylesel_9062</styleUrl>
            <Point id="geom_9062">
                <coordinates>-111.73991394,40.38734436,0.0</coordinates>
            </Point>
        </Placemark>
        <Placemark id="feat_9341">
            <name>LDSAccess</name>
            <description>2017-09-04T16:27:27.000Z</description>
            <styleUrl>#stylesel_9063</styleUrl>
            <Point id="geom_9063">
                <coordinates>-111.73984528,40.3862915,0.0</coordinates>
            </Point>
        </Placemark>
        <Placemark id="feat_9342">
            <name>LDSAccess</name>
            <description>2017-09-04T16:27:21.000Z</description>
            <styleUrl>#stylesel_9064</styleUrl>
            <Point id="geom_9064">
                <coordinates>-111.73982239,40.38735199,0.0</coordinates>
            </Point>
        </Placemark>
    </Document>
</kml>
