<?xml version="1.0" encoding="UTF-8"?>
<kml xmlns="http://www.opengis.net/kml/2.2" xmlns:gx="http://www.google.com/kml/ext/2.2">
    <Document id="feat_5181">
        <Style id="stylesel_5006">
            <IconStyle id="substyle_5006">
                <colorMode>normal</colorMode>
                <scale>1</scale>
                <heading>0</heading>
                <Icon id="link_5006">
                    <href>wifi4.png</href>
                </Icon>
            </IconStyle>
        </Style>
        <Style id="stylesel_5007">
            <IconStyle id="substyle_5007">
                <colorMode>normal</colorMode>
                <scale>1</scale>
                <heading>0</heading>
                <Icon id="link_5007">
                    <href>wifi4.png</href>
                </Icon>
            </IconStyle>
        </Style>
        <Style id="stylesel_5008">
            <IconStyle id="substyle_5008">
                <colorMode>normal</colorMode>
                <scale>1</scale>
                <heading>0</heading>
                <Icon id="link_5008">
                    <href>wifi4.png</href>
                </Icon>
            </IconStyle>
        </Style>
        <Style id="stylesel_5009">
            <IconStyle id="substyle_5009">
                <colorMode>normal</colorMode>
                <scale>1</scale>
                <heading>0</heading>
                <Icon id="link_5009">
                    <href>wifi4.png</href>
                </Icon>
            </IconStyle>
        </Style>
        <Style id="stylesel_5010">
            <IconStyle id="substyle_5010">
                <colorMode>normal</colorMode>
                <scale>1</scale>
                <heading>0</heading>
                <Icon id="link_5010">
                    <href>wifi4.png</href>
                </Icon>
            </IconStyle>
        </Style>
        <Placemark id="feat_5182">
            <name>LDSAccess</name>
            <description>2017-07-04T19:52:48.000Z</description>
            <styleUrl>#stylesel_5006</styleUrl>
            <Point id="geom_5006">
                <coordinates>-111.77296448,40.3574295,0.0</coordinates>
            </Point>
        </Placemark>
        <Placemark id="feat_5183">
            <name>LDSAccess</name>
            <description>2017-07-04T19:52:50.000Z</description>
            <styleUrl>#stylesel_5007</styleUrl>
            <Point id="geom_5007">
                <coordinates>-111.77306366,40.3574295,0.0</coordinates>
            </Point>
        </Placemark>
        <Placemark id="feat_5184">
            <name>LDSAccess</name>
            <description>2017-07-04T19:52:49.000Z</description>
            <styleUrl>#stylesel_5008</styleUrl>
            <Point id="geom_5008">
                <coordinates>-111.77300262,40.35744095,0.0</coordinates>
            </Point>
        </Placemark>
        <Placemark id="feat_5185">
            <name>LDSAccess</name>
            <description>2017-07-04T19:52:36.000Z</description>
            <styleUrl>#stylesel_5009</styleUrl>
            <Point id="geom_5009">
                <coordinates>-111.77213287,40.35743713,0.0</coordinates>
            </Point>
        </Placemark>
        <Placemark id="feat_5186">
            <name>LDSAccess</name>
            <description>2017-07-04T19:52:34.000Z</description>
            <styleUrl>#stylesel_5010</styleUrl>
            <Point id="geom_5010">
                <coordinates>-111.77201843,40.35736465,0.0</coordinates>
            </Point>
        </Placemark>
    </Document>
</kml>
