<?xml version="1.0" encoding="UTF-8"?>
<kml xmlns="http://www.opengis.net/kml/2.2" xmlns:gx="http://www.google.com/kml/ext/2.2">
    <Document id="feat_5189">
        <Style id="stylesel_5012">
            <IconStyle id="substyle_5012">
                <colorMode>normal</colorMode>
                <scale>1</scale>
                <heading>0</heading>
                <Icon id="link_5012">
                    <href>wifi4.png</href>
                </Icon>
            </IconStyle>
        </Style>
        <Style id="stylesel_5013">
            <IconStyle id="substyle_5013">
                <colorMode>normal</colorMode>
                <scale>1</scale>
                <heading>0</heading>
                <Icon id="link_5013">
                    <href>wifi4.png</href>
                </Icon>
            </IconStyle>
        </Style>
        <Style id="stylesel_5014">
            <IconStyle id="substyle_5014">
                <colorMode>normal</colorMode>
                <scale>1</scale>
                <heading>0</heading>
                <Icon id="link_5014">
                    <href>wifi4.png</href>
                </Icon>
            </IconStyle>
        </Style>
        <Style id="stylesel_5015">
            <IconStyle id="substyle_5015">
                <colorMode>normal</colorMode>
                <scale>1</scale>
                <heading>0</heading>
                <Icon id="link_5015">
                    <href>wifi4.png</href>
                </Icon>
            </IconStyle>
        </Style>
        <Style id="stylesel_5016">
            <IconStyle id="substyle_5016">
                <colorMode>normal</colorMode>
                <scale>1</scale>
                <heading>0</heading>
                <Icon id="link_5016">
                    <href>wifi4.png</href>
                </Icon>
            </IconStyle>
        </Style>
        <Style id="stylesel_5017">
            <IconStyle id="substyle_5017">
                <colorMode>normal</colorMode>
                <scale>1</scale>
                <heading>0</heading>
                <Icon id="link_5017">
                    <href>wifi4.png</href>
                </Icon>
            </IconStyle>
        </Style>
        <Style id="stylesel_5018">
            <IconStyle id="substyle_5018">
                <colorMode>normal</colorMode>
                <scale>1</scale>
                <heading>0</heading>
                <Icon id="link_5018">
                    <href>wifi4.png</href>
                </Icon>
            </IconStyle>
        </Style>
        <Style id="stylesel_5019">
            <IconStyle id="substyle_5019">
                <colorMode>normal</colorMode>
                <scale>1</scale>
                <heading>0</heading>
                <Icon id="link_5019">
                    <href>wifi4.png</href>
                </Icon>
            </IconStyle>
        </Style>
        <Style id="stylesel_5020">
            <IconStyle id="substyle_5020">
                <colorMode>normal</colorMode>
                <scale>1</scale>
                <heading>0</heading>
                <Icon id="link_5020">
                    <href>wifi4.png</href>
                </Icon>
            </IconStyle>
        </Style>
        <Style id="stylesel_5021">
            <IconStyle id="substyle_5021">
                <colorMode>normal</colorMode>
                <scale>1</scale>
                <heading>0</heading>
                <Icon id="link_5021">
                    <href>wifi4.png</href>
                </Icon>
            </IconStyle>
        </Style>
        <Style id="stylesel_5022">
            <IconStyle id="substyle_5022">
                <colorMode>normal</colorMode>
                <scale>1</scale>
                <heading>0</heading>
                <Icon id="link_5022">
                    <href>wifi4.png</href>
                </Icon>
            </IconStyle>
        </Style>
        <Style id="stylesel_5023">
            <IconStyle id="substyle_5023">
                <colorMode>normal</colorMode>
                <scale>1</scale>
                <heading>0</heading>
                <Icon id="link_5023">
                    <href>wifi4.png</href>
                </Icon>
            </IconStyle>
        </Style>
        <Style id="stylesel_5024">
            <IconStyle id="substyle_5024">
                <colorMode>normal</colorMode>
                <scale>1</scale>
                <heading>0</heading>
                <Icon id="link_5024">
                    <href>wifi4.png</href>
                </Icon>
            </IconStyle>
        </Style>
        <Style id="stylesel_5025">
            <IconStyle id="substyle_5025">
                <colorMode>normal</colorMode>
                <scale>1</scale>
                <heading>0</heading>
                <Icon id="link_5025">
                    <href>wifi4.png</href>
                </Icon>
            </IconStyle>
        </Style>
        <Style id="stylesel_5026">
            <IconStyle id="substyle_5026">
                <colorMode>normal</colorMode>
                <scale>1</scale>
                <heading>0</heading>
                <Icon id="link_5026">
                    <href>wifi4.png</href>
                </Icon>
            </IconStyle>
        </Style>
        <Style id="stylesel_5027">
            <IconStyle id="substyle_5027">
                <colorMode>normal</colorMode>
                <scale>1</scale>
                <heading>0</heading>
                <Icon id="link_5027">
                    <href>wifi4.png</href>
                </Icon>
            </IconStyle>
        </Style>
        <Style id="stylesel_5028">
            <IconStyle id="substyle_5028">
                <colorMode>normal</colorMode>
                <scale>1</scale>
                <heading>0</heading>
                <Icon id="link_5028">
                    <href>wifi4.png</href>
                </Icon>
            </IconStyle>
        </Style>
        <Style id="stylesel_5029">
            <IconStyle id="substyle_5029">
                <colorMode>normal</colorMode>
                <scale>1</scale>
                <heading>0</heading>
                <Icon id="link_5029">
                    <href>wifi4.png</href>
                </Icon>
            </IconStyle>
        </Style>
        <Style id="stylesel_5030">
            <IconStyle id="substyle_5030">
                <colorMode>normal</colorMode>
                <scale>1</scale>
                <heading>0</heading>
                <Icon id="link_5030">
                    <href>wifi4.png</href>
                </Icon>
            </IconStyle>
        </Style>
        <Style id="stylesel_5031">
            <IconStyle id="substyle_5031">
                <colorMode>normal</colorMode>
                <scale>1</scale>
                <heading>0</heading>
                <Icon id="link_5031">
                    <href>wifi4.png</href>
                </Icon>
            </IconStyle>
        </Style>
        <Style id="stylesel_5032">
            <IconStyle id="substyle_5032">
                <colorMode>normal</colorMode>
                <scale>1</scale>
                <heading>0</heading>
                <Icon id="link_5032">
                    <href>wifi4.png</href>
                </Icon>
            </IconStyle>
        </Style>
        <Style id="stylesel_5033">
            <IconStyle id="substyle_5033">
                <colorMode>normal</colorMode>
                <scale>1</scale>
                <heading>0</heading>
                <Icon id="link_5033">
                    <href>wifi4.png</href>
                </Icon>
            </IconStyle>
        </Style>
        <Style id="stylesel_5034">
            <IconStyle id="substyle_5034">
                <colorMode>normal</colorMode>
                <scale>1</scale>
                <heading>0</heading>
                <Icon id="link_5034">
                    <href>wifi4.png</href>
                </Icon>
            </IconStyle>
        </Style>
        <Style id="stylesel_5035">
            <IconStyle id="substyle_5035">
                <colorMode>normal</colorMode>
                <scale>1</scale>
                <heading>0</heading>
                <Icon id="link_5035">
                    <href>wifi4.png</href>
                </Icon>
            </IconStyle>
        </Style>
        <Style id="stylesel_5036">
            <IconStyle id="substyle_5036">
                <colorMode>normal</colorMode>
                <scale>1</scale>
                <heading>0</heading>
                <Icon id="link_5036">
                    <href>wifi4.png</href>
                </Icon>
            </IconStyle>
        </Style>
        <Style id="stylesel_5037">
            <IconStyle id="substyle_5037">
                <colorMode>normal</colorMode>
                <scale>1</scale>
                <heading>0</heading>
                <Icon id="link_5037">
                    <href>wifi4.png</href>
                </Icon>
            </IconStyle>
        </Style>
        <Style id="stylesel_5038">
            <IconStyle id="substyle_5038">
                <colorMode>normal</colorMode>
                <scale>1</scale>
                <heading>0</heading>
                <Icon id="link_5038">
                    <href>wifi4.png</href>
                </Icon>
            </IconStyle>
        </Style>
        <Style id="stylesel_5039">
            <IconStyle id="substyle_5039">
                <colorMode>normal</colorMode>
                <scale>1</scale>
                <heading>0</heading>
                <Icon id="link_5039">
                    <href>wifi4.png</href>
                </Icon>
            </IconStyle>
        </Style>
        <Style id="stylesel_5040">
            <IconStyle id="substyle_5040">
                <colorMode>normal</colorMode>
                <scale>1</scale>
                <heading>0</heading>
                <Icon id="link_5040">
                    <href>wifi4.png</href>
                </Icon>
            </IconStyle>
        </Style>
        <Style id="stylesel_5041">
            <IconStyle id="substyle_5041">
                <colorMode>normal</colorMode>
                <scale>1</scale>
                <heading>0</heading>
                <Icon id="link_5041">
                    <href>wifi4.png</href>
                </Icon>
            </IconStyle>
        </Style>
        <Placemark id="feat_5190">
            <name>LDSAccess</name>
            <description>2017-07-09T19:57:04.000Z</description>
            <styleUrl>#stylesel_5012</styleUrl>
            <Point id="geom_5012">
                <coordinates>-111.75565338,40.37421799,0.0</coordinates>
            </Point>
        </Placemark>
        <Placemark id="feat_5191">
            <name>LDSAccess</name>
            <description>2017-02-21T02:31:55.000Z</description>
            <styleUrl>#stylesel_5013</styleUrl>
            <Point id="geom_5013">
                <coordinates>-111.75502777,40.37384415,0.0</coordinates>
            </Point>
        </Placemark>
        <Placemark id="feat_5192">
            <name>LDSAccess</name>
            <description>2017-02-20T18:38:00.000Z</description>
            <styleUrl>#stylesel_5014</styleUrl>
            <Point id="geom_5014">
                <coordinates>-111.75498962,40.3740387,0.0</coordinates>
            </Point>
        </Placemark>
        <Placemark id="feat_5193">
            <name>LDSAccess</name>
            <description>2017-07-05T19:09:09.000Z</description>
            <styleUrl>#stylesel_5015</styleUrl>
            <Point id="geom_5015">
                <coordinates>-111.75500488,40.37408066,0.0</coordinates>
            </Point>
        </Placemark>
        <Placemark id="feat_5194">
            <name>LDSAccess</name>
            <description>2017-02-26T05:04:06.000Z</description>
            <styleUrl>#stylesel_5016</styleUrl>
            <Point id="geom_5016">
                <coordinates>-111.75613403,40.37356949,0.0</coordinates>
            </Point>
        </Placemark>
        <Placemark id="feat_5195">
            <name>LDSAccess</name>
            <description>2017-02-18T22:13:11.000Z</description>
            <styleUrl>#stylesel_5017</styleUrl>
            <Point id="geom_5017">
                <coordinates>-111.75497437,40.37430954,0.0</coordinates>
            </Point>
        </Placemark>
        <Placemark id="feat_5196">
            <name>LDSAccess</name>
            <description>2017-07-09T19:56:09.000Z</description>
            <styleUrl>#stylesel_5018</styleUrl>
            <Point id="geom_5018">
                <coordinates>-111.75590515,40.37348557,0.0</coordinates>
            </Point>
        </Placemark>
        <Placemark id="feat_5197">
            <name>LDSAccess</name>
            <description>2017-05-15T00:23:35.000Z</description>
            <styleUrl>#stylesel_5019</styleUrl>
            <Point id="geom_5019">
                <coordinates>-111.75501251,40.37418747,0.0</coordinates>
            </Point>
        </Placemark>
        <Placemark id="feat_5198">
            <name>LDSAccess</name>
            <description>2017-07-13T01:24:34.000Z</description>
            <styleUrl>#stylesel_5020</styleUrl>
            <Point id="geom_5020">
                <coordinates>-111.75656128,40.37366486,0.0</coordinates>
            </Point>
        </Placemark>
        <Placemark id="feat_5199">
            <name>LDSAccess</name>
            <description>2017-05-15T00:23:52.000Z</description>
            <styleUrl>#stylesel_5021</styleUrl>
            <Point id="geom_5021">
                <coordinates>-111.75401306,40.37332916,0.0</coordinates>
            </Point>
        </Placemark>
        <Placemark id="feat_5200">
            <name>LDSAccess</name>
            <description>2017-07-13T01:24:48.000Z</description>
            <styleUrl>#stylesel_5022</styleUrl>
            <Point id="geom_5022">
                <coordinates>-111.75661469,40.37252426,0.0</coordinates>
            </Point>
        </Placemark>
        <Placemark id="feat_5201">
            <name>LDSAccess</name>
            <description>2017-07-09T19:56:09.000Z</description>
            <styleUrl>#stylesel_5023</styleUrl>
            <Point id="geom_5023">
                <coordinates>-111.75589752,40.37348557,0.0</coordinates>
            </Point>
        </Placemark>
        <Placemark id="feat_5202">
            <name>LDSAccess</name>
            <description>2017-03-25T15:39:54.000Z</description>
            <styleUrl>#stylesel_5024</styleUrl>
            <Point id="geom_5024">
                <coordinates>-111.75492859,40.37414932,0.0</coordinates>
            </Point>
        </Placemark>
        <Placemark id="feat_5203">
            <name>LDSAccess</name>
            <description>2017-02-26T05:04:01.000Z</description>
            <styleUrl>#stylesel_5025</styleUrl>
            <Point id="geom_5025">
                <coordinates>-111.75591278,40.37355042,0.0</coordinates>
            </Point>
        </Placemark>
        <Placemark id="feat_5204">
            <name>LDSAccess</name>
            <description>2017-05-14T22:23:33.000Z</description>
            <styleUrl>#stylesel_5026</styleUrl>
            <Point id="geom_5026">
                <coordinates>-111.75502014,40.37437057,0.0</coordinates>
            </Point>
        </Placemark>
        <Placemark id="feat_5205">
            <name>LDSAccess</name>
            <description>2017-02-26T05:04:04.000Z</description>
            <styleUrl>#stylesel_5027</styleUrl>
            <Point id="geom_5027">
                <coordinates>-111.75608826,40.37358093,0.0</coordinates>
            </Point>
        </Placemark>
        <Placemark id="feat_5206">
            <name>LDSAccess</name>
            <description>2017-02-13T04:01:08.000Z</description>
            <styleUrl>#stylesel_5028</styleUrl>
            <Point id="geom_5028">
                <coordinates>-111.75572968,40.37420273,0.0</coordinates>
            </Point>
        </Placemark>
        <Placemark id="feat_5207">
            <name>LDSAccess</name>
            <description>2017-02-18T22:13:13.000Z</description>
            <styleUrl>#stylesel_5029</styleUrl>
            <Point id="geom_5029">
                <coordinates>-111.75498199,40.3745079,0.0</coordinates>
            </Point>
        </Placemark>
        <Placemark id="feat_5208">
            <name>LDSAccess</name>
            <description>2017-05-15T00:23:32.000Z</description>
            <styleUrl>#stylesel_5030</styleUrl>
            <Point id="geom_5030">
                <coordinates>-111.75500488,40.37446594,0.0</coordinates>
            </Point>
        </Placemark>
        <Placemark id="feat_5209">
            <name>LDSAccess</name>
            <description>2017-07-09T19:56:07.000Z</description>
            <styleUrl>#stylesel_5031</styleUrl>
            <Point id="geom_5031">
                <coordinates>-111.7559433,40.37343979,0.0</coordinates>
            </Point>
        </Placemark>
        <Placemark id="feat_5210">
            <name>LDSAccess</name>
            <description>2017-07-15T03:21:51.000Z</description>
            <styleUrl>#stylesel_5032</styleUrl>
            <Point id="geom_5032">
                <coordinates>-111.75506592,40.37387466,0.0</coordinates>
            </Point>
        </Placemark>
        <Placemark id="feat_5211">
            <name>LDSAccess</name>
            <description>2017-02-04T18:25:24.000Z</description>
            <styleUrl>#stylesel_5033</styleUrl>
            <Point id="geom_5033">
                <coordinates>-111.75514984,40.37421417,0.0</coordinates>
            </Point>
        </Placemark>
        <Placemark id="feat_5212">
            <name>LDSAccess</name>
            <description>2017-07-23T03:22:55.000Z</description>
            <styleUrl>#stylesel_5034</styleUrl>
            <Point id="geom_5034">
                <coordinates>-111.75650787,40.37363815,0.0</coordinates>
            </Point>
        </Placemark>
        <Placemark id="feat_5213">
            <name>LDSAccess</name>
            <description>2017-02-13T04:01:06.000Z</description>
            <styleUrl>#stylesel_5035</styleUrl>
            <Point id="geom_5035">
                <coordinates>-111.75598907,40.37425613,0.0</coordinates>
            </Point>
        </Placemark>
        <Placemark id="feat_5214">
            <name>LDSAccess</name>
            <description>2017-03-08T03:08:21.000Z</description>
            <styleUrl>#stylesel_5036</styleUrl>
            <Point id="geom_5036">
                <coordinates>-111.7550354,40.37431335,0.0</coordinates>
            </Point>
        </Placemark>
        <Placemark id="feat_5215">
            <name>LDSAccess</name>
            <description>2017-03-25T15:39:42.000Z</description>
            <styleUrl>#stylesel_5037</styleUrl>
            <Point id="geom_5037">
                <coordinates>-111.75484467,40.37444687,0.0</coordinates>
            </Point>
        </Placemark>
        <Placemark id="feat_5216">
            <name>LDSAccess</name>
            <description>2017-02-26T05:03:47.000Z</description>
            <styleUrl>#stylesel_5038</styleUrl>
            <Point id="geom_5038">
                <coordinates>-111.7565918,40.37368393,0.0</coordinates>
            </Point>
        </Placemark>
        <Placemark id="feat_5217">
            <name>LDSAccess</name>
            <description>2017-07-09T19:57:19.000Z</description>
            <styleUrl>#stylesel_5039</styleUrl>
            <Point id="geom_5039">
                <coordinates>-111.75499725,40.37454987,0.0</coordinates>
            </Point>
        </Placemark>
        <Placemark id="feat_5218">
            <name>LDSAccess</name>
            <description>2017-02-04T18:25:12.000Z</description>
            <styleUrl>#stylesel_5040</styleUrl>
            <Point id="geom_5040">
                <coordinates>-111.75637054,40.37419891,0.0</coordinates>
            </Point>
        </Placemark>
        <Placemark id="feat_5219">
            <name>LDSAccess</name>
            <description>2017-03-17T02:40:25.000Z</description>
            <styleUrl>#stylesel_5041</styleUrl>
            <Point id="geom_5041">
                <coordinates>-111.7550354,40.37416077,0.0</coordinates>
            </Point>
        </Placemark>
    </Document>
</kml>
