<?xml version="1.0" encoding="UTF-8"?>
<kml xmlns="http://www.opengis.net/kml/2.2" xmlns:gx="http://www.google.com/kml/ext/2.2">
    <Document id="feat_8476">
        <Style id="stylesel_8214">
            <IconStyle id="substyle_8214">
                <colorMode>normal</colorMode>
                <scale>1</scale>
                <heading>0</heading>
                <Icon id="link_8214">
                    <href>wifi4.png</href>
                </Icon>
            </IconStyle>
        </Style>
        <Style id="stylesel_8215">
            <IconStyle id="substyle_8215">
                <colorMode>normal</colorMode>
                <scale>1</scale>
                <heading>0</heading>
                <Icon id="link_8215">
                    <href>wifi4.png</href>
                </Icon>
            </IconStyle>
        </Style>
        <Style id="stylesel_8216">
            <IconStyle id="substyle_8216">
                <colorMode>normal</colorMode>
                <scale>1</scale>
                <heading>0</heading>
                <Icon id="link_8216">
                    <href>wifi4.png</href>
                </Icon>
            </IconStyle>
        </Style>
        <Style id="stylesel_8217">
            <IconStyle id="substyle_8217">
                <colorMode>normal</colorMode>
                <scale>1</scale>
                <heading>0</heading>
                <Icon id="link_8217">
                    <href>wifi4.png</href>
                </Icon>
            </IconStyle>
        </Style>
        <Style id="stylesel_8218">
            <IconStyle id="substyle_8218">
                <colorMode>normal</colorMode>
                <scale>1</scale>
                <heading>0</heading>
                <Icon id="link_8218">
                    <href>wifi4.png</href>
                </Icon>
            </IconStyle>
        </Style>
        <Style id="stylesel_8219">
            <IconStyle id="substyle_8219">
                <colorMode>normal</colorMode>
                <scale>1</scale>
                <heading>0</heading>
                <Icon id="link_8219">
                    <href>wifi4.png</href>
                </Icon>
            </IconStyle>
        </Style>
        <Style id="stylesel_8220">
            <IconStyle id="substyle_8220">
                <colorMode>normal</colorMode>
                <scale>1</scale>
                <heading>0</heading>
                <Icon id="link_8220">
                    <href>wifi4.png</href>
                </Icon>
            </IconStyle>
        </Style>
        <Style id="stylesel_8221">
            <IconStyle id="substyle_8221">
                <colorMode>normal</colorMode>
                <scale>1</scale>
                <heading>0</heading>
                <Icon id="link_8221">
                    <href>wifi4.png</href>
                </Icon>
            </IconStyle>
        </Style>
        <Style id="stylesel_8222">
            <IconStyle id="substyle_8222">
                <colorMode>normal</colorMode>
                <scale>1</scale>
                <heading>0</heading>
                <Icon id="link_8222">
                    <href>wifi4.png</href>
                </Icon>
            </IconStyle>
        </Style>
        <Style id="stylesel_8223">
            <IconStyle id="substyle_8223">
                <colorMode>normal</colorMode>
                <scale>1</scale>
                <heading>0</heading>
                <Icon id="link_8223">
                    <href>wifi4.png</href>
                </Icon>
            </IconStyle>
        </Style>
        <Style id="stylesel_8224">
            <IconStyle id="substyle_8224">
                <colorMode>normal</colorMode>
                <scale>1</scale>
                <heading>0</heading>
                <Icon id="link_8224">
                    <href>wifi4.png</href>
                </Icon>
            </IconStyle>
        </Style>
        <Style id="stylesel_8225">
            <IconStyle id="substyle_8225">
                <colorMode>normal</colorMode>
                <scale>1</scale>
                <heading>0</heading>
                <Icon id="link_8225">
                    <href>wifi4.png</href>
                </Icon>
            </IconStyle>
        </Style>
        <Style id="stylesel_8226">
            <IconStyle id="substyle_8226">
                <colorMode>normal</colorMode>
                <scale>1</scale>
                <heading>0</heading>
                <Icon id="link_8226">
                    <href>wifi4.png</href>
                </Icon>
            </IconStyle>
        </Style>
        <Style id="stylesel_8227">
            <IconStyle id="substyle_8227">
                <colorMode>normal</colorMode>
                <scale>1</scale>
                <heading>0</heading>
                <Icon id="link_8227">
                    <href>wifi4.png</href>
                </Icon>
            </IconStyle>
        </Style>
        <Style id="stylesel_8228">
            <IconStyle id="substyle_8228">
                <colorMode>normal</colorMode>
                <scale>1</scale>
                <heading>0</heading>
                <Icon id="link_8228">
                    <href>wifi4.png</href>
                </Icon>
            </IconStyle>
        </Style>
        <Style id="stylesel_8229">
            <IconStyle id="substyle_8229">
                <colorMode>normal</colorMode>
                <scale>1</scale>
                <heading>0</heading>
                <Icon id="link_8229">
                    <href>wifi4.png</href>
                </Icon>
            </IconStyle>
        </Style>
        <Style id="stylesel_8230">
            <IconStyle id="substyle_8230">
                <colorMode>normal</colorMode>
                <scale>1</scale>
                <heading>0</heading>
                <Icon id="link_8230">
                    <href>wifi4.png</href>
                </Icon>
            </IconStyle>
        </Style>
        <Style id="stylesel_8231">
            <IconStyle id="substyle_8231">
                <colorMode>normal</colorMode>
                <scale>1</scale>
                <heading>0</heading>
                <Icon id="link_8231">
                    <href>wifi4.png</href>
                </Icon>
            </IconStyle>
        </Style>
        <Style id="stylesel_8232">
            <IconStyle id="substyle_8232">
                <colorMode>normal</colorMode>
                <scale>1</scale>
                <heading>0</heading>
                <Icon id="link_8232">
                    <href>wifi4.png</href>
                </Icon>
            </IconStyle>
        </Style>
        <Style id="stylesel_8233">
            <IconStyle id="substyle_8233">
                <colorMode>normal</colorMode>
                <scale>1</scale>
                <heading>0</heading>
                <Icon id="link_8233">
                    <href>wifi4.png</href>
                </Icon>
            </IconStyle>
        </Style>
        <Style id="stylesel_8234">
            <IconStyle id="substyle_8234">
                <colorMode>normal</colorMode>
                <scale>1</scale>
                <heading>0</heading>
                <Icon id="link_8234">
                    <href>wifi4.png</href>
                </Icon>
            </IconStyle>
        </Style>
        <Style id="stylesel_8235">
            <IconStyle id="substyle_8235">
                <colorMode>normal</colorMode>
                <scale>1</scale>
                <heading>0</heading>
                <Icon id="link_8235">
                    <href>wifi4.png</href>
                </Icon>
            </IconStyle>
        </Style>
        <Style id="stylesel_8236">
            <IconStyle id="substyle_8236">
                <colorMode>normal</colorMode>
                <scale>1</scale>
                <heading>0</heading>
                <Icon id="link_8236">
                    <href>wifi4.png</href>
                </Icon>
            </IconStyle>
        </Style>
        <Style id="stylesel_8237">
            <IconStyle id="substyle_8237">
                <colorMode>normal</colorMode>
                <scale>1</scale>
                <heading>0</heading>
                <Icon id="link_8237">
                    <href>wifi4.png</href>
                </Icon>
            </IconStyle>
        </Style>
        <Placemark id="feat_8477">
            <name>LDSAccess</name>
            <description>2017-07-09T20:02:06.000Z</description>
            <styleUrl>#stylesel_8214</styleUrl>
            <Point id="geom_8214">
                <coordinates>-111.75029755,40.37141418,0.0</coordinates>
            </Point>
        </Placemark>
        <Placemark id="feat_8478">
            <name>LDSAccess</name>
            <description>2017-07-09T20:01:11.000Z</description>
            <styleUrl>#stylesel_8215</styleUrl>
            <Point id="geom_8215">
                <coordinates>-111.74967957,40.37133408,0.0</coordinates>
            </Point>
        </Placemark>
        <Placemark id="feat_8479">
            <name>LDSAccess</name>
            <description>2017-07-09T20:02:04.000Z</description>
            <styleUrl>#stylesel_8216</styleUrl>
            <Point id="geom_8216">
                <coordinates>-111.7504425,40.37139511,0.0</coordinates>
            </Point>
        </Placemark>
        <Placemark id="feat_8480">
            <name>LDSAccess</name>
            <description>2017-02-21T19:38:59.000Z</description>
            <styleUrl>#stylesel_8217</styleUrl>
            <Point id="geom_8217">
                <coordinates>-111.7506485,40.37175369,0.0</coordinates>
            </Point>
        </Placemark>
        <Placemark id="feat_8481">
            <name>LDSAccess</name>
            <description>2017-07-09T20:02:02.000Z</description>
            <styleUrl>#stylesel_8218</styleUrl>
            <Point id="geom_8218">
                <coordinates>-111.75051117,40.37143326,0.0</coordinates>
            </Point>
        </Placemark>
        <Placemark id="feat_8482">
            <name>LDSAccess</name>
            <description>2017-07-22T15:09:38.000Z</description>
            <styleUrl>#stylesel_8219</styleUrl>
            <Point id="geom_8219">
                <coordinates>-111.7495575,40.37141037,0.0</coordinates>
            </Point>
        </Placemark>
        <Placemark id="feat_8483">
            <name>LDSAccess</name>
            <description>2017-07-19T01:04:53.000Z</description>
            <styleUrl>#stylesel_8220</styleUrl>
            <Point id="geom_8220">
                <coordinates>-111.7496109,40.37121964,0.0</coordinates>
            </Point>
        </Placemark>
        <Placemark id="feat_8484">
            <name>LDSAccess</name>
            <description>2017-08-28T02:59:17.000Z</description>
            <styleUrl>#stylesel_8221</styleUrl>
            <Point id="geom_8221">
                <coordinates>-111.74971008,40.37112427,0.0</coordinates>
            </Point>
        </Placemark>
        <Placemark id="feat_8485">
            <name>LDSAccess</name>
            <description>2017-03-16T13:36:11.000Z</description>
            <styleUrl>#stylesel_8222</styleUrl>
            <Point id="geom_8222">
                <coordinates>-111.74967194,40.37151337,0.0</coordinates>
            </Point>
        </Placemark>
        <Placemark id="feat_8486">
            <name>LDSAccess</name>
            <description>2017-03-01T15:27:11.000Z</description>
            <styleUrl>#stylesel_8223</styleUrl>
            <Point id="geom_8223">
                <coordinates>-111.74964905,40.37130356,0.0</coordinates>
            </Point>
        </Placemark>
        <Placemark id="feat_8487">
            <name>LDSAccess</name>
            <description>2017-03-01T15:27:13.000Z</description>
            <styleUrl>#stylesel_8224</styleUrl>
            <Point id="geom_8224">
                <coordinates>-111.74964142,40.37107468,0.0</coordinates>
            </Point>
        </Placemark>
        <Placemark id="feat_8488">
            <name>LDSAccess</name>
            <description>2017-03-11T01:27:15.000Z</description>
            <styleUrl>#stylesel_8225</styleUrl>
            <Point id="geom_8225">
                <coordinates>-111.74967194,40.37094879,0.0</coordinates>
            </Point>
        </Placemark>
        <Placemark id="feat_8489">
            <name>LDSAccess</name>
            <description>2017-07-16T01:22:38.000Z</description>
            <styleUrl>#stylesel_8226</styleUrl>
            <Point id="geom_8226">
                <coordinates>-111.74958801,40.37136841,0.0</coordinates>
            </Point>
        </Placemark>
        <Placemark id="feat_8490">
            <name>LDSAccess</name>
            <description>2017-03-04T15:53:03.000Z</description>
            <styleUrl>#stylesel_8227</styleUrl>
            <Point id="geom_8227">
                <coordinates>-111.75008392,40.37182617,0.0</coordinates>
            </Point>
        </Placemark>
        <Placemark id="feat_8491">
            <name>LDSAccess</name>
            <description>2017-07-21T01:00:12.000Z</description>
            <styleUrl>#stylesel_8228</styleUrl>
            <Point id="geom_8228">
                <coordinates>-111.74958801,40.3708992,0.0</coordinates>
            </Point>
        </Placemark>
        <Placemark id="feat_8492">
            <name>LDSAccess</name>
            <description>2017-07-09T20:01:11.000Z</description>
            <styleUrl>#stylesel_8229</styleUrl>
            <Point id="geom_8229">
                <coordinates>-111.74965668,40.37131882,0.0</coordinates>
            </Point>
        </Placemark>
        <Placemark id="feat_8493">
            <name>LDSAccess</name>
            <description>2017-07-09T20:02:28.000Z</description>
            <styleUrl>#stylesel_8230</styleUrl>
            <Point id="geom_8230">
                <coordinates>-111.74966431,40.37100601,0.0</coordinates>
            </Point>
        </Placemark>
        <Placemark id="feat_8494">
            <name>LDSAccess</name>
            <description>2017-05-03T01:04:34.000Z</description>
            <styleUrl>#stylesel_8231</styleUrl>
            <Point id="geom_8231">
                <coordinates>-111.74960327,40.37117004,0.0</coordinates>
            </Point>
        </Placemark>
        <Placemark id="feat_8495">
            <name>LDSAccess</name>
            <description>2017-08-29T21:44:13.000Z</description>
            <styleUrl>#stylesel_8232</styleUrl>
            <Point id="geom_8232">
                <coordinates>-111.74967194,40.37107468,0.0</coordinates>
            </Point>
        </Placemark>
        <Placemark id="feat_8496">
            <name>LDSAccess</name>
            <description>2017-07-22T15:09:35.000Z</description>
            <styleUrl>#stylesel_8233</styleUrl>
            <Point id="geom_8233">
                <coordinates>-111.74954987,40.37152863,0.0</coordinates>
            </Point>
        </Placemark>
        <Placemark id="feat_8497">
            <name>LDSAccess</name>
            <description>2017-07-09T20:01:59.000Z</description>
            <styleUrl>#stylesel_8234</styleUrl>
            <Point id="geom_8234">
                <coordinates>-111.75068665,40.37144089,0.0</coordinates>
            </Point>
        </Placemark>
        <Placemark id="feat_8498">
            <name>LDSAccess</name>
            <description>2017-07-21T01:00:16.000Z</description>
            <styleUrl>#stylesel_8235</styleUrl>
            <Point id="geom_8235">
                <coordinates>-111.74959564,40.37130737,0.0</coordinates>
            </Point>
        </Placemark>
        <Placemark id="feat_8499">
            <name>LDSAccess</name>
            <description>2017-07-21T01:00:30.000Z</description>
            <styleUrl>#stylesel_8236</styleUrl>
            <Point id="geom_8236">
                <coordinates>-111.74956512,40.37276077,0.0</coordinates>
            </Point>
        </Placemark>
        <Placemark id="feat_8500">
            <name>LDSAccess</name>
            <description>2017-07-21T01:00:47.000Z</description>
            <styleUrl>#stylesel_8237</styleUrl>
            <Point id="geom_8237">
                <coordinates>-111.74986267,40.37414551,0.0</coordinates>
            </Point>
        </Placemark>
    </Document>
</kml>
