<?xml version="1.0" encoding="UTF-8"?>
<kml xmlns="http://www.opengis.net/kml/2.2" xmlns:gx="http://www.google.com/kml/ext/2.2">
    <Document id="feat_8525">
        <Style id="stylesel_8261">
            <IconStyle id="substyle_8261">
                <colorMode>normal</colorMode>
                <scale>1</scale>
                <heading>0</heading>
                <Icon id="link_8261">
                    <href>wifi4.png</href>
                </Icon>
            </IconStyle>
        </Style>
        <Style id="stylesel_8262">
            <IconStyle id="substyle_8262">
                <colorMode>normal</colorMode>
                <scale>1</scale>
                <heading>0</heading>
                <Icon id="link_8262">
                    <href>wifi4.png</href>
                </Icon>
            </IconStyle>
        </Style>
        <Style id="stylesel_8263">
            <IconStyle id="substyle_8263">
                <colorMode>normal</colorMode>
                <scale>1</scale>
                <heading>0</heading>
                <Icon id="link_8263">
                    <href>wifi4.png</href>
                </Icon>
            </IconStyle>
        </Style>
        <Style id="stylesel_8264">
            <IconStyle id="substyle_8264">
                <colorMode>normal</colorMode>
                <scale>1</scale>
                <heading>0</heading>
                <Icon id="link_8264">
                    <href>wifi4.png</href>
                </Icon>
            </IconStyle>
        </Style>
        <Style id="stylesel_8265">
            <IconStyle id="substyle_8265">
                <colorMode>normal</colorMode>
                <scale>1</scale>
                <heading>0</heading>
                <Icon id="link_8265">
                    <href>wifi4.png</href>
                </Icon>
            </IconStyle>
        </Style>
        <Style id="stylesel_8266">
            <IconStyle id="substyle_8266">
                <colorMode>normal</colorMode>
                <scale>1</scale>
                <heading>0</heading>
                <Icon id="link_8266">
                    <href>wifi4.png</href>
                </Icon>
            </IconStyle>
        </Style>
        <Style id="stylesel_8267">
            <IconStyle id="substyle_8267">
                <colorMode>normal</colorMode>
                <scale>1</scale>
                <heading>0</heading>
                <Icon id="link_8267">
                    <href>wifi4.png</href>
                </Icon>
            </IconStyle>
        </Style>
        <Style id="stylesel_8268">
            <IconStyle id="substyle_8268">
                <colorMode>normal</colorMode>
                <scale>1</scale>
                <heading>0</heading>
                <Icon id="link_8268">
                    <href>wifi4.png</href>
                </Icon>
            </IconStyle>
        </Style>
        <Style id="stylesel_8269">
            <IconStyle id="substyle_8269">
                <colorMode>normal</colorMode>
                <scale>1</scale>
                <heading>0</heading>
                <Icon id="link_8269">
                    <href>wifi4.png</href>
                </Icon>
            </IconStyle>
        </Style>
        <Style id="stylesel_8270">
            <IconStyle id="substyle_8270">
                <colorMode>normal</colorMode>
                <scale>1</scale>
                <heading>0</heading>
                <Icon id="link_8270">
                    <href>wifi4.png</href>
                </Icon>
            </IconStyle>
        </Style>
        <Style id="stylesel_8271">
            <IconStyle id="substyle_8271">
                <colorMode>normal</colorMode>
                <scale>1</scale>
                <heading>0</heading>
                <Icon id="link_8271">
                    <href>wifi4.png</href>
                </Icon>
            </IconStyle>
        </Style>
        <Style id="stylesel_8272">
            <IconStyle id="substyle_8272">
                <colorMode>normal</colorMode>
                <scale>1</scale>
                <heading>0</heading>
                <Icon id="link_8272">
                    <href>wifi4.png</href>
                </Icon>
            </IconStyle>
        </Style>
        <Style id="stylesel_8273">
            <IconStyle id="substyle_8273">
                <colorMode>normal</colorMode>
                <scale>1</scale>
                <heading>0</heading>
                <Icon id="link_8273">
                    <href>wifi4.png</href>
                </Icon>
            </IconStyle>
        </Style>
        <Style id="stylesel_8274">
            <IconStyle id="substyle_8274">
                <colorMode>normal</colorMode>
                <scale>1</scale>
                <heading>0</heading>
                <Icon id="link_8274">
                    <href>wifi4.png</href>
                </Icon>
            </IconStyle>
        </Style>
        <Style id="stylesel_8275">
            <IconStyle id="substyle_8275">
                <colorMode>normal</colorMode>
                <scale>1</scale>
                <heading>0</heading>
                <Icon id="link_8275">
                    <href>wifi4.png</href>
                </Icon>
            </IconStyle>
        </Style>
        <Style id="stylesel_8276">
            <IconStyle id="substyle_8276">
                <colorMode>normal</colorMode>
                <scale>1</scale>
                <heading>0</heading>
                <Icon id="link_8276">
                    <href>wifi4.png</href>
                </Icon>
            </IconStyle>
        </Style>
        <Style id="stylesel_8277">
            <IconStyle id="substyle_8277">
                <colorMode>normal</colorMode>
                <scale>1</scale>
                <heading>0</heading>
                <Icon id="link_8277">
                    <href>wifi4.png</href>
                </Icon>
            </IconStyle>
        </Style>
        <Style id="stylesel_8278">
            <IconStyle id="substyle_8278">
                <colorMode>normal</colorMode>
                <scale>1</scale>
                <heading>0</heading>
                <Icon id="link_8278">
                    <href>wifi4.png</href>
                </Icon>
            </IconStyle>
        </Style>
        <Style id="stylesel_8279">
            <IconStyle id="substyle_8279">
                <colorMode>normal</colorMode>
                <scale>1</scale>
                <heading>0</heading>
                <Icon id="link_8279">
                    <href>wifi4.png</href>
                </Icon>
            </IconStyle>
        </Style>
        <Style id="stylesel_8280">
            <IconStyle id="substyle_8280">
                <colorMode>normal</colorMode>
                <scale>1</scale>
                <heading>0</heading>
                <Icon id="link_8280">
                    <href>wifi4.png</href>
                </Icon>
            </IconStyle>
        </Style>
        <Style id="stylesel_8281">
            <IconStyle id="substyle_8281">
                <colorMode>normal</colorMode>
                <scale>1</scale>
                <heading>0</heading>
                <Icon id="link_8281">
                    <href>wifi4.png</href>
                </Icon>
            </IconStyle>
        </Style>
        <Style id="stylesel_8282">
            <IconStyle id="substyle_8282">
                <colorMode>normal</colorMode>
                <scale>1</scale>
                <heading>0</heading>
                <Icon id="link_8282">
                    <href>wifi4.png</href>
                </Icon>
            </IconStyle>
        </Style>
        <Style id="stylesel_8283">
            <IconStyle id="substyle_8283">
                <colorMode>normal</colorMode>
                <scale>1</scale>
                <heading>0</heading>
                <Icon id="link_8283">
                    <href>wifi4.png</href>
                </Icon>
            </IconStyle>
        </Style>
        <Style id="stylesel_8284">
            <IconStyle id="substyle_8284">
                <colorMode>normal</colorMode>
                <scale>1</scale>
                <heading>0</heading>
                <Icon id="link_8284">
                    <href>wifi4.png</href>
                </Icon>
            </IconStyle>
        </Style>
        <Placemark id="feat_8526">
            <name>LDSAccess</name>
            <description>2017-02-21T02:31:27.000Z</description>
            <styleUrl>#stylesel_8261</styleUrl>
            <Point id="geom_8261">
                <coordinates>-111.7563324,40.37556839,0.0</coordinates>
            </Point>
        </Placemark>
        <Placemark id="feat_8527">
            <name>LDSAccess</name>
            <description>2017-05-15T00:23:32.000Z</description>
            <styleUrl>#stylesel_8262</styleUrl>
            <Point id="geom_8262">
                <coordinates>-111.75500488,40.37446594,0.0</coordinates>
            </Point>
        </Placemark>
        <Placemark id="feat_8528">
            <name>LDSAccess</name>
            <description>2017-05-15T00:23:10.000Z</description>
            <styleUrl>#stylesel_8263</styleUrl>
            <Point id="geom_8263">
                <coordinates>-111.75614929,40.37556839,0.0</coordinates>
            </Point>
        </Placemark>
        <Placemark id="feat_8529">
            <name>LDSAccess</name>
            <description>2017-02-20T18:38:37.000Z</description>
            <styleUrl>#stylesel_8264</styleUrl>
            <Point id="geom_8264">
                <coordinates>-111.75726318,40.3756752,0.0</coordinates>
            </Point>
        </Placemark>
        <Placemark id="feat_8530">
            <name>LDSAccess</name>
            <description>2017-02-20T18:38:31.000Z</description>
            <styleUrl>#stylesel_8265</styleUrl>
            <Point id="geom_8265">
                <coordinates>-111.75624084,40.37566376,0.0</coordinates>
            </Point>
        </Placemark>
        <Placemark id="feat_8531">
            <name>LDSAccess</name>
            <description>2017-08-31T21:50:36.000Z</description>
            <styleUrl>#stylesel_8266</styleUrl>
            <Point id="geom_8266">
                <coordinates>-111.75606537,40.37558365,0.0</coordinates>
            </Point>
        </Placemark>
        <Placemark id="feat_8532">
            <name>LDSAccess</name>
            <description>2017-07-22T14:40:26.000Z</description>
            <styleUrl>#stylesel_8267</styleUrl>
            <Point id="geom_8267">
                <coordinates>-111.7564621,40.37551498,0.0</coordinates>
            </Point>
        </Placemark>
        <Placemark id="feat_8533">
            <name>LDSAccess</name>
            <description>2017-06-03T21:13:42.000Z</description>
            <styleUrl>#stylesel_8268</styleUrl>
            <Point id="geom_8268">
                <coordinates>-111.75502014,40.37484741,0.0</coordinates>
            </Point>
        </Placemark>
        <Placemark id="feat_8534">
            <name>LDSAccess</name>
            <description>2017-04-08T15:15:06.000Z</description>
            <styleUrl>#stylesel_8269</styleUrl>
            <Point id="geom_8269">
                <coordinates>-111.75647736,40.37559891,0.0</coordinates>
            </Point>
        </Placemark>
        <Placemark id="feat_8535">
            <name>LDSAccess</name>
            <description>2017-09-01T05:50:36.000Z</description>
            <styleUrl>#stylesel_8270</styleUrl>
            <Point id="geom_8270">
                <coordinates>-111.75608826,40.37560272,0.0</coordinates>
            </Point>
        </Placemark>
        <Placemark id="feat_8536">
            <name>LDSAccess</name>
            <description>2017-02-20T18:38:35.000Z</description>
            <styleUrl>#stylesel_8271</styleUrl>
            <Point id="geom_8271">
                <coordinates>-111.7569046,40.37563324,0.0</coordinates>
            </Point>
        </Placemark>
        <Placemark id="feat_8537">
            <name>LDSAccess</name>
            <description>2017-02-13T04:01:12.000Z</description>
            <styleUrl>#stylesel_8272</styleUrl>
            <Point id="geom_8272">
                <coordinates>-111.75526428,40.37419891,0.0</coordinates>
            </Point>
        </Placemark>
        <Placemark id="feat_8538">
            <name>LDSAccess</name>
            <description>2017-04-08T15:15:20.000Z</description>
            <styleUrl>#stylesel_8273</styleUrl>
            <Point id="geom_8273">
                <coordinates>-111.75498962,40.3753891,0.0</coordinates>
            </Point>
        </Placemark>
        <Placemark id="feat_8539">
            <name>LDSAccess</name>
            <description>2016-12-24T22:39:08.000Z</description>
            <styleUrl>#stylesel_8274</styleUrl>
            <Point id="geom_8274">
                <coordinates>-111.75626373,40.37554169,0.0</coordinates>
            </Point>
        </Placemark>
        <Placemark id="feat_8540">
            <name>LDSAccess</name>
            <description>2017-02-21T02:31:47.000Z</description>
            <styleUrl>#stylesel_8275</styleUrl>
            <Point id="geom_8275">
                <coordinates>-111.7550354,40.37470627,0.0</coordinates>
            </Point>
        </Placemark>
        <Placemark id="feat_8541">
            <name>LDSAccess</name>
            <description>2017-04-08T15:15:24.000Z</description>
            <styleUrl>#stylesel_8276</styleUrl>
            <Point id="geom_8276">
                <coordinates>-111.75502014,40.37504578,0.0</coordinates>
            </Point>
        </Placemark>
        <Placemark id="feat_8542">
            <name>LDSAccess</name>
            <description>2017-06-03T21:13:34.000Z</description>
            <styleUrl>#stylesel_8277</styleUrl>
            <Point id="geom_8277">
                <coordinates>-111.75500488,40.37548065,0.0</coordinates>
            </Point>
        </Placemark>
        <Placemark id="feat_8543">
            <name>LDSAccess</name>
            <description>2017-05-21T17:29:54.000Z</description>
            <styleUrl>#stylesel_8278</styleUrl>
            <Point id="geom_8278">
                <coordinates>-111.75518036,40.37555695,0.0</coordinates>
            </Point>
        </Placemark>
        <Placemark id="feat_8544">
            <name>LDSAccess</name>
            <description>2017-09-01T05:50:36.000Z</description>
            <styleUrl>#stylesel_8279</styleUrl>
            <Point id="geom_8279">
                <coordinates>-111.75606537,40.37558746,0.0</coordinates>
            </Point>
        </Placemark>
        <Placemark id="feat_8545">
            <name>LDSAccess</name>
            <description>2017-02-18T22:13:49.000Z</description>
            <styleUrl>#stylesel_8280</styleUrl>
            <Point id="geom_8280">
                <coordinates>-111.75598907,40.37566376,0.0</coordinates>
            </Point>
        </Placemark>
        <Placemark id="feat_8546">
            <name>LDSAccess</name>
            <description>2017-09-01T05:50:45.000Z</description>
            <styleUrl>#stylesel_8281</styleUrl>
            <Point id="geom_8281">
                <coordinates>-111.75501251,40.37552261,0.0</coordinates>
            </Point>
        </Placemark>
        <Placemark id="feat_8547">
            <name>LDSAccess</name>
            <description>2017-03-25T15:39:26.000Z</description>
            <styleUrl>#stylesel_8282</styleUrl>
            <Point id="geom_8282">
                <coordinates>-111.7549057,40.37499619,0.0</coordinates>
            </Point>
        </Placemark>
        <Placemark id="feat_8548">
            <name>LDSAccess</name>
            <description>2017-03-25T15:39:11.000Z</description>
            <styleUrl>#stylesel_8283</styleUrl>
            <Point id="geom_8283">
                <coordinates>-111.75493622,40.37526703,0.0</coordinates>
            </Point>
        </Placemark>
        <Placemark id="feat_8549">
            <name>LDSAccess</name>
            <description>2017-02-04T18:25:18.000Z</description>
            <styleUrl>#stylesel_8284</styleUrl>
            <Point id="geom_8284">
                <coordinates>-111.75576019,40.37423706,0.0</coordinates>
            </Point>
        </Placemark>
    </Document>
</kml>
