<?xml version="1.0" encoding="UTF-8"?>
<kml xmlns="http://www.opengis.net/kml/2.2" xmlns:gx="http://www.google.com/kml/ext/2.2">
    <Document id="feat_4484">
        <Style id="stylesel_4335">
            <IconStyle id="substyle_4335">
                <colorMode>normal</colorMode>
                <scale>1</scale>
                <heading>0</heading>
                <Icon id="link_4335">
                    <href>wifi4.png</href>
                </Icon>
            </IconStyle>
        </Style>
        <Style id="stylesel_4336">
            <IconStyle id="substyle_4336">
                <colorMode>normal</colorMode>
                <scale>1</scale>
                <heading>0</heading>
                <Icon id="link_4336">
                    <href>wifi4.png</href>
                </Icon>
            </IconStyle>
        </Style>
        <Placemark id="feat_4485">
            <name>LDSAccess</name>
            <description>2017-03-04T18:06:32.000Z</description>
            <styleUrl>#stylesel_4335</styleUrl>
            <Point id="geom_4335">
                <coordinates>-111.74685669,40.37870026,0.0</coordinates>
            </Point>
        </Placemark>
        <Placemark id="feat_4486">
            <name>LDSAccess</name>
            <description>2017-03-04T18:06:24.000Z</description>
            <styleUrl>#stylesel_4336</styleUrl>
            <Point id="geom_4336">
                <coordinates>-111.74690247,40.37815857,0.0</coordinates>
            </Point>
        </Placemark>
    </Document>
</kml>
