<?xml version="1.0" encoding="UTF-8"?>
<kml xmlns="http://www.opengis.net/kml/2.2" xmlns:gx="http://www.google.com/kml/ext/2.2">
    <Document id="feat_6375">
        <Style id="stylesel_6153">
            <IconStyle id="substyle_6153">
                <colorMode>normal</colorMode>
                <scale>1</scale>
                <heading>0</heading>
                <Icon id="link_6153">
                    <href>wifi4.png</href>
                </Icon>
            </IconStyle>
        </Style>
        <Style id="stylesel_6154">
            <IconStyle id="substyle_6154">
                <colorMode>normal</colorMode>
                <scale>1</scale>
                <heading>0</heading>
                <Icon id="link_6154">
                    <href>wifi4.png</href>
                </Icon>
            </IconStyle>
        </Style>
        <Style id="stylesel_6155">
            <IconStyle id="substyle_6155">
                <colorMode>normal</colorMode>
                <scale>1</scale>
                <heading>0</heading>
                <Icon id="link_6155">
                    <href>wifi4.png</href>
                </Icon>
            </IconStyle>
        </Style>
        <Placemark id="feat_6376">
            <name>LDSAccess</name>
            <description>2017-07-23T01:39:34.000Z</description>
            <styleUrl>#stylesel_6153</styleUrl>
            <Point id="geom_6153">
                <coordinates>-111.73976898,40.38748932,0.0</coordinates>
            </Point>
        </Placemark>
        <Placemark id="feat_6377">
            <name>LDSAccess</name>
            <description>2017-02-15T20:20:23.000Z</description>
            <styleUrl>#stylesel_6154</styleUrl>
            <Point id="geom_6154">
                <coordinates>-111.73979187,40.38747025,0.0</coordinates>
            </Point>
        </Placemark>
        <Placemark id="feat_6378">
            <name>LDSAccess</name>
            <description>2017-06-21T01:07:55.000Z</description>
            <styleUrl>#stylesel_6155</styleUrl>
            <Point id="geom_6155">
                <coordinates>-111.73991394,40.38734436,0.0</coordinates>
            </Point>
        </Placemark>
    </Document>
</kml>
