<?xml version="1.0" encoding="UTF-8"?>
<kml xmlns="http://www.opengis.net/kml/2.2" xmlns:gx="http://www.google.com/kml/ext/2.2">
    <Document id="feat_5926">
        <Style id="stylesel_5724">
            <IconStyle id="substyle_5724">
                <colorMode>normal</colorMode>
                <scale>1</scale>
                <heading>0</heading>
                <Icon id="link_5724">
                    <href>wifi4.png</href>
                </Icon>
            </IconStyle>
        </Style>
        <Style id="stylesel_5725">
            <IconStyle id="substyle_5725">
                <colorMode>normal</colorMode>
                <scale>1</scale>
                <heading>0</heading>
                <Icon id="link_5725">
                    <href>wifi4.png</href>
                </Icon>
            </IconStyle>
        </Style>
        <Style id="stylesel_5726">
            <IconStyle id="substyle_5726">
                <colorMode>normal</colorMode>
                <scale>1</scale>
                <heading>0</heading>
                <Icon id="link_5726">
                    <href>wifi4.png</href>
                </Icon>
            </IconStyle>
        </Style>
        <Placemark id="feat_5927">
            <name>LDSAccess</name>
            <description>2017-04-12T01:04:50.000Z</description>
            <styleUrl>#stylesel_5724</styleUrl>
            <Point id="geom_5724">
                <coordinates>-111.77352905,40.35803223,0.0</coordinates>
            </Point>
        </Placemark>
        <Placemark id="feat_5928">
            <name>LDSAccess</name>
            <description>2017-04-12T01:04:46.000Z</description>
            <styleUrl>#stylesel_5725</styleUrl>
            <Point id="geom_5725">
                <coordinates>-111.77397919,40.35802841,0.0</coordinates>
            </Point>
        </Placemark>
        <Placemark id="feat_5929">
            <name>LDSAccess</name>
            <description>2017-04-12T01:04:44.000Z</description>
            <styleUrl>#stylesel_5726</styleUrl>
            <Point id="geom_5726">
                <coordinates>-111.77423859,40.35801697,0.0</coordinates>
            </Point>
        </Placemark>
    </Document>
</kml>
