<?xml version="1.0" encoding="UTF-8"?>
<kml xmlns="http://www.opengis.net/kml/2.2" xmlns:gx="http://www.google.com/kml/ext/2.2">
    <Document id="feat_7087">
        <Style id="stylesel_6859">
            <IconStyle id="substyle_6859">
                <colorMode>normal</colorMode>
                <scale>1</scale>
                <heading>0</heading>
                <Icon id="link_6859">
                    <href>wifi4.png</href>
                </Icon>
            </IconStyle>
        </Style>
        <Style id="stylesel_6860">
            <IconStyle id="substyle_6860">
                <colorMode>normal</colorMode>
                <scale>1</scale>
                <heading>0</heading>
                <Icon id="link_6860">
                    <href>wifi4.png</href>
                </Icon>
            </IconStyle>
        </Style>
        <Style id="stylesel_6861">
            <IconStyle id="substyle_6861">
                <colorMode>normal</colorMode>
                <scale>1</scale>
                <heading>0</heading>
                <Icon id="link_6861">
                    <href>wifi4.png</href>
                </Icon>
            </IconStyle>
        </Style>
        <Style id="stylesel_6862">
            <IconStyle id="substyle_6862">
                <colorMode>normal</colorMode>
                <scale>1</scale>
                <heading>0</heading>
                <Icon id="link_6862">
                    <href>wifi4.png</href>
                </Icon>
            </IconStyle>
        </Style>
        <Style id="stylesel_6863">
            <IconStyle id="substyle_6863">
                <colorMode>normal</colorMode>
                <scale>1</scale>
                <heading>0</heading>
                <Icon id="link_6863">
                    <href>wifi4.png</href>
                </Icon>
            </IconStyle>
        </Style>
        <Style id="stylesel_6864">
            <IconStyle id="substyle_6864">
                <colorMode>normal</colorMode>
                <scale>1</scale>
                <heading>0</heading>
                <Icon id="link_6864">
                    <href>wifi4.png</href>
                </Icon>
            </IconStyle>
        </Style>
        <Style id="stylesel_6865">
            <IconStyle id="substyle_6865">
                <colorMode>normal</colorMode>
                <scale>1</scale>
                <heading>0</heading>
                <Icon id="link_6865">
                    <href>wifi4.png</href>
                </Icon>
            </IconStyle>
        </Style>
        <Style id="stylesel_6866">
            <IconStyle id="substyle_6866">
                <colorMode>normal</colorMode>
                <scale>1</scale>
                <heading>0</heading>
                <Icon id="link_6866">
                    <href>wifi4.png</href>
                </Icon>
            </IconStyle>
        </Style>
        <Style id="stylesel_6867">
            <IconStyle id="substyle_6867">
                <colorMode>normal</colorMode>
                <scale>1</scale>
                <heading>0</heading>
                <Icon id="link_6867">
                    <href>wifi4.png</href>
                </Icon>
            </IconStyle>
        </Style>
        <Style id="stylesel_6868">
            <IconStyle id="substyle_6868">
                <colorMode>normal</colorMode>
                <scale>1</scale>
                <heading>0</heading>
                <Icon id="link_6868">
                    <href>wifi4.png</href>
                </Icon>
            </IconStyle>
        </Style>
        <Style id="stylesel_6869">
            <IconStyle id="substyle_6869">
                <colorMode>normal</colorMode>
                <scale>1</scale>
                <heading>0</heading>
                <Icon id="link_6869">
                    <href>wifi4.png</href>
                </Icon>
            </IconStyle>
        </Style>
        <Style id="stylesel_6870">
            <IconStyle id="substyle_6870">
                <colorMode>normal</colorMode>
                <scale>1</scale>
                <heading>0</heading>
                <Icon id="link_6870">
                    <href>wifi4.png</href>
                </Icon>
            </IconStyle>
        </Style>
        <Style id="stylesel_6871">
            <IconStyle id="substyle_6871">
                <colorMode>normal</colorMode>
                <scale>1</scale>
                <heading>0</heading>
                <Icon id="link_6871">
                    <href>wifi4.png</href>
                </Icon>
            </IconStyle>
        </Style>
        <Style id="stylesel_6872">
            <IconStyle id="substyle_6872">
                <colorMode>normal</colorMode>
                <scale>1</scale>
                <heading>0</heading>
                <Icon id="link_6872">
                    <href>wifi4.png</href>
                </Icon>
            </IconStyle>
        </Style>
        <Style id="stylesel_6873">
            <IconStyle id="substyle_6873">
                <colorMode>normal</colorMode>
                <scale>1</scale>
                <heading>0</heading>
                <Icon id="link_6873">
                    <href>wifi4.png</href>
                </Icon>
            </IconStyle>
        </Style>
        <Style id="stylesel_6874">
            <IconStyle id="substyle_6874">
                <colorMode>normal</colorMode>
                <scale>1</scale>
                <heading>0</heading>
                <Icon id="link_6874">
                    <href>wifi4.png</href>
                </Icon>
            </IconStyle>
        </Style>
        <Style id="stylesel_6875">
            <IconStyle id="substyle_6875">
                <colorMode>normal</colorMode>
                <scale>1</scale>
                <heading>0</heading>
                <Icon id="link_6875">
                    <href>wifi4.png</href>
                </Icon>
            </IconStyle>
        </Style>
        <Style id="stylesel_6876">
            <IconStyle id="substyle_6876">
                <colorMode>normal</colorMode>
                <scale>1</scale>
                <heading>0</heading>
                <Icon id="link_6876">
                    <href>wifi4.png</href>
                </Icon>
            </IconStyle>
        </Style>
        <Style id="stylesel_6877">
            <IconStyle id="substyle_6877">
                <colorMode>normal</colorMode>
                <scale>1</scale>
                <heading>0</heading>
                <Icon id="link_6877">
                    <href>wifi4.png</href>
                </Icon>
            </IconStyle>
        </Style>
        <Style id="stylesel_6878">
            <IconStyle id="substyle_6878">
                <colorMode>normal</colorMode>
                <scale>1</scale>
                <heading>0</heading>
                <Icon id="link_6878">
                    <href>wifi4.png</href>
                </Icon>
            </IconStyle>
        </Style>
        <Style id="stylesel_6879">
            <IconStyle id="substyle_6879">
                <colorMode>normal</colorMode>
                <scale>1</scale>
                <heading>0</heading>
                <Icon id="link_6879">
                    <href>wifi4.png</href>
                </Icon>
            </IconStyle>
        </Style>
        <Style id="stylesel_6880">
            <IconStyle id="substyle_6880">
                <colorMode>normal</colorMode>
                <scale>1</scale>
                <heading>0</heading>
                <Icon id="link_6880">
                    <href>wifi4.png</href>
                </Icon>
            </IconStyle>
        </Style>
        <Style id="stylesel_6881">
            <IconStyle id="substyle_6881">
                <colorMode>normal</colorMode>
                <scale>1</scale>
                <heading>0</heading>
                <Icon id="link_6881">
                    <href>wifi4.png</href>
                </Icon>
            </IconStyle>
        </Style>
        <Style id="stylesel_6882">
            <IconStyle id="substyle_6882">
                <colorMode>normal</colorMode>
                <scale>1</scale>
                <heading>0</heading>
                <Icon id="link_6882">
                    <href>wifi4.png</href>
                </Icon>
            </IconStyle>
        </Style>
        <Style id="stylesel_6883">
            <IconStyle id="substyle_6883">
                <colorMode>normal</colorMode>
                <scale>1</scale>
                <heading>0</heading>
                <Icon id="link_6883">
                    <href>wifi4.png</href>
                </Icon>
            </IconStyle>
        </Style>
        <Style id="stylesel_6884">
            <IconStyle id="substyle_6884">
                <colorMode>normal</colorMode>
                <scale>1</scale>
                <heading>0</heading>
                <Icon id="link_6884">
                    <href>wifi4.png</href>
                </Icon>
            </IconStyle>
        </Style>
        <Style id="stylesel_6885">
            <IconStyle id="substyle_6885">
                <colorMode>normal</colorMode>
                <scale>1</scale>
                <heading>0</heading>
                <Icon id="link_6885">
                    <href>wifi4.png</href>
                </Icon>
            </IconStyle>
        </Style>
        <Style id="stylesel_6886">
            <IconStyle id="substyle_6886">
                <colorMode>normal</colorMode>
                <scale>1</scale>
                <heading>0</heading>
                <Icon id="link_6886">
                    <href>wifi4.png</href>
                </Icon>
            </IconStyle>
        </Style>
        <Style id="stylesel_6887">
            <IconStyle id="substyle_6887">
                <colorMode>normal</colorMode>
                <scale>1</scale>
                <heading>0</heading>
                <Icon id="link_6887">
                    <href>wifi4.png</href>
                </Icon>
            </IconStyle>
        </Style>
        <Style id="stylesel_6888">
            <IconStyle id="substyle_6888">
                <colorMode>normal</colorMode>
                <scale>1</scale>
                <heading>0</heading>
                <Icon id="link_6888">
                    <href>wifi4.png</href>
                </Icon>
            </IconStyle>
        </Style>
        <Style id="stylesel_6889">
            <IconStyle id="substyle_6889">
                <colorMode>normal</colorMode>
                <scale>1</scale>
                <heading>0</heading>
                <Icon id="link_6889">
                    <href>wifi4.png</href>
                </Icon>
            </IconStyle>
        </Style>
        <Style id="stylesel_6890">
            <IconStyle id="substyle_6890">
                <colorMode>normal</colorMode>
                <scale>1</scale>
                <heading>0</heading>
                <Icon id="link_6890">
                    <href>wifi4.png</href>
                </Icon>
            </IconStyle>
        </Style>
        <Style id="stylesel_6891">
            <IconStyle id="substyle_6891">
                <colorMode>normal</colorMode>
                <scale>1</scale>
                <heading>0</heading>
                <Icon id="link_6891">
                    <href>wifi4.png</href>
                </Icon>
            </IconStyle>
        </Style>
        <Style id="stylesel_6892">
            <IconStyle id="substyle_6892">
                <colorMode>normal</colorMode>
                <scale>1</scale>
                <heading>0</heading>
                <Icon id="link_6892">
                    <href>wifi4.png</href>
                </Icon>
            </IconStyle>
        </Style>
        <Style id="stylesel_6893">
            <IconStyle id="substyle_6893">
                <colorMode>normal</colorMode>
                <scale>1</scale>
                <heading>0</heading>
                <Icon id="link_6893">
                    <href>wifi4.png</href>
                </Icon>
            </IconStyle>
        </Style>
        <Style id="stylesel_6894">
            <IconStyle id="substyle_6894">
                <colorMode>normal</colorMode>
                <scale>1</scale>
                <heading>0</heading>
                <Icon id="link_6894">
                    <href>wifi4.png</href>
                </Icon>
            </IconStyle>
        </Style>
        <Style id="stylesel_6895">
            <IconStyle id="substyle_6895">
                <colorMode>normal</colorMode>
                <scale>1</scale>
                <heading>0</heading>
                <Icon id="link_6895">
                    <href>wifi4.png</href>
                </Icon>
            </IconStyle>
        </Style>
        <Style id="stylesel_6896">
            <IconStyle id="substyle_6896">
                <colorMode>normal</colorMode>
                <scale>1</scale>
                <heading>0</heading>
                <Icon id="link_6896">
                    <href>wifi4.png</href>
                </Icon>
            </IconStyle>
        </Style>
        <Placemark id="feat_7088">
            <name>LDSAccess</name>
            <description>2016-01-19T23:20:09.000Z</description>
            <styleUrl>#stylesel_6859</styleUrl>
            <Point id="geom_6859">
                <coordinates>-111.73461914,40.3692894,0.0</coordinates>
            </Point>
        </Placemark>
        <Placemark id="feat_7089">
            <name>LDSAccess</name>
            <description>2015-07-24T22:39:28.000Z</description>
            <styleUrl>#stylesel_6860</styleUrl>
            <Point id="geom_6860">
                <coordinates>-111.73412323,40.36913681,0.0</coordinates>
            </Point>
        </Placemark>
        <Placemark id="feat_7090">
            <name>LDSAccess</name>
            <description>2016-09-30T19:17:17.000Z</description>
            <styleUrl>#stylesel_6861</styleUrl>
            <Point id="geom_6861">
                <coordinates>-111.73562622,40.36915207,0.0</coordinates>
            </Point>
        </Placemark>
        <Placemark id="feat_7091">
            <name>LDSAccess</name>
            <description>2017-06-02T13:47:35.000Z</description>
            <styleUrl>#stylesel_6862</styleUrl>
            <Point id="geom_6862">
                <coordinates>-111.73449707,40.36912918,0.0</coordinates>
            </Point>
        </Placemark>
        <Placemark id="feat_7092">
            <name>LDSAccess</name>
            <description>2016-11-01T04:38:23.000Z</description>
            <styleUrl>#stylesel_6863</styleUrl>
            <Point id="geom_6863">
                <coordinates>-111.73443604,40.36909866,0.0</coordinates>
            </Point>
        </Placemark>
        <Placemark id="feat_7093">
            <name>LDSAccess</name>
            <description>2016-10-09T00:57:16.000Z</description>
            <styleUrl>#stylesel_6864</styleUrl>
            <Point id="geom_6864">
                <coordinates>-111.73587799,40.36916733,0.0</coordinates>
            </Point>
        </Placemark>
        <Placemark id="feat_7094">
            <name>LDSAccess</name>
            <description>2016-05-03T16:25:20.000Z</description>
            <styleUrl>#stylesel_6865</styleUrl>
            <Point id="geom_6865">
                <coordinates>-111.73588562,40.36912155,0.0</coordinates>
            </Point>
        </Placemark>
        <Placemark id="feat_7095">
            <name>LDSAccess</name>
            <description>2015-06-20T23:05:38.000Z</description>
            <styleUrl>#stylesel_6866</styleUrl>
            <Point id="geom_6866">
                <coordinates>-111.73334503,40.36911392,0.0</coordinates>
            </Point>
        </Placemark>
        <Placemark id="feat_7096">
            <name>LDSAccess</name>
            <description>2017-06-02T13:47:32.000Z</description>
            <styleUrl>#stylesel_6867</styleUrl>
            <Point id="geom_6867">
                <coordinates>-111.73492432,40.369133,0.0</coordinates>
            </Point>
        </Placemark>
        <Placemark id="feat_7097">
            <name>LDSAccess</name>
            <description>2016-10-08T22:58:44.000Z</description>
            <styleUrl>#stylesel_6868</styleUrl>
            <Point id="geom_6868">
                <coordinates>-111.73228455,40.36914444,0.0</coordinates>
            </Point>
        </Placemark>
        <Placemark id="feat_7098">
            <name>LDSAccess</name>
            <description>2017-03-06T04:38:33.000Z</description>
            <styleUrl>#stylesel_6869</styleUrl>
            <Point id="geom_6869">
                <coordinates>-111.73628235,40.36914825,0.0</coordinates>
            </Point>
        </Placemark>
        <Placemark id="feat_7099">
            <name>LDSAccess</name>
            <description>2017-03-06T04:38:27.000Z</description>
            <styleUrl>#stylesel_6870</styleUrl>
            <Point id="geom_6870">
                <coordinates>-111.73527527,40.36915588,0.0</coordinates>
            </Point>
        </Placemark>
        <Placemark id="feat_7100">
            <name>LDSAccess</name>
            <description>2016-05-07T15:58:26.000Z</description>
            <styleUrl>#stylesel_6871</styleUrl>
            <Point id="geom_6871">
                <coordinates>-111.7354126,40.36920929,0.0</coordinates>
            </Point>
        </Placemark>
        <Placemark id="feat_7101">
            <name>LDSAccess</name>
            <description>2016-12-05T05:27:25.000Z</description>
            <styleUrl>#stylesel_6872</styleUrl>
            <Point id="geom_6872">
                <coordinates>-111.73422241,40.36907196,0.0</coordinates>
            </Point>
        </Placemark>
        <Placemark id="feat_7102">
            <name>LDSAccess</name>
            <description>2016-10-08T22:58:29.000Z</description>
            <styleUrl>#stylesel_6873</styleUrl>
            <Point id="geom_6873">
                <coordinates>-111.73499298,40.36913681,0.0</coordinates>
            </Point>
        </Placemark>
        <Placemark id="feat_7103">
            <name>LDSAccess</name>
            <description>2017-03-06T04:38:21.000Z</description>
            <styleUrl>#stylesel_6874</styleUrl>
            <Point id="geom_6874">
                <coordinates>-111.73417664,40.36915588,0.0</coordinates>
            </Point>
        </Placemark>
        <Placemark id="feat_7104">
            <name>LDSAccess</name>
            <description>2016-08-21T07:39:45.000Z</description>
            <styleUrl>#stylesel_6875</styleUrl>
            <Point id="geom_6875">
                <coordinates>-111.73365021,40.36910248,0.0</coordinates>
            </Point>
        </Placemark>
        <Placemark id="feat_7105">
            <name>LDSAccess</name>
            <description>2016-09-30T19:17:09.000Z</description>
            <styleUrl>#stylesel_6876</styleUrl>
            <Point id="geom_6876">
                <coordinates>-111.73458862,40.36914062,0.0</coordinates>
            </Point>
        </Placemark>
        <Placemark id="feat_7106">
            <name>LDSAccess</name>
            <description>2016-08-21T07:39:37.000Z</description>
            <styleUrl>#stylesel_6877</styleUrl>
            <Point id="geom_6877">
                <coordinates>-111.73488617,40.36910629,0.0</coordinates>
            </Point>
        </Placemark>
        <Placemark id="feat_7107">
            <name>LDSAccess</name>
            <description>2015-06-20T23:05:29.000Z</description>
            <styleUrl>#stylesel_6878</styleUrl>
            <Point id="geom_6878">
                <coordinates>-111.73480988,40.36908722,0.0</coordinates>
            </Point>
        </Placemark>
        <Placemark id="feat_7108">
            <name>LDSAccess</name>
            <description>2016-09-30T19:06:38.000Z</description>
            <styleUrl>#stylesel_6879</styleUrl>
            <Point id="geom_6879">
                <coordinates>-111.73451996,40.36909866,0.0</coordinates>
            </Point>
        </Placemark>
        <Placemark id="feat_7109">
            <name>LDSAccess</name>
            <description>2016-02-16T05:21:50.000Z</description>
            <styleUrl>#stylesel_6880</styleUrl>
            <Point id="geom_6880">
                <coordinates>-111.73459625,40.36910629,0.0</coordinates>
            </Point>
        </Placemark>
        <Placemark id="feat_7110">
            <name>LDSAccess</name>
            <description>2016-09-30T19:06:46.000Z</description>
            <styleUrl>#stylesel_6881</styleUrl>
            <Point id="geom_6881">
                <coordinates>-111.73316193,40.36911392,0.0</coordinates>
            </Point>
        </Placemark>
        <Placemark id="feat_7111">
            <name>LDSAccess</name>
            <description>2016-04-07T17:57:51.000Z</description>
            <styleUrl>#stylesel_6882</styleUrl>
            <Point id="geom_6882">
                <coordinates>-111.73571777,40.36901474,0.0</coordinates>
            </Point>
        </Placemark>
        <Placemark id="feat_7112">
            <name>LDSAccess</name>
            <description>2016-08-07T01:55:52.000Z</description>
            <styleUrl>#stylesel_6883</styleUrl>
            <Point id="geom_6883">
                <coordinates>-111.73403931,40.36911774,0.0</coordinates>
            </Point>
        </Placemark>
        <Placemark id="feat_7113">
            <name>LDSAccess</name>
            <description>2016-02-03T23:19:35.000Z</description>
            <styleUrl>#stylesel_6884</styleUrl>
            <Point id="geom_6884">
                <coordinates>-111.73232269,40.36912918,0.0</coordinates>
            </Point>
        </Placemark>
        <Placemark id="feat_7114">
            <name>LDSAccess</name>
            <description>2017-03-04T17:55:09.000Z</description>
            <styleUrl>#stylesel_6885</styleUrl>
            <Point id="geom_6885">
                <coordinates>-111.73600006,40.36914444,0.0</coordinates>
            </Point>
        </Placemark>
        <Placemark id="feat_7115">
            <name>LDSAccess</name>
            <description>2016-02-03T23:19:27.000Z</description>
            <styleUrl>#stylesel_6886</styleUrl>
            <Point id="geom_6886">
                <coordinates>-111.7335968,40.36919022,0.0</coordinates>
            </Point>
        </Placemark>
        <Placemark id="feat_7116">
            <name>LDSAccess</name>
            <description>2016-02-03T23:19:05.000Z</description>
            <styleUrl>#stylesel_6887</styleUrl>
            <Point id="geom_6887">
                <coordinates>-111.7346344,40.3696785,0.0</coordinates>
            </Point>
        </Placemark>
        <Placemark id="feat_7117">
            <name>LDSAccess</name>
            <description>2016-04-07T17:58:03.000Z</description>
            <styleUrl>#stylesel_6888</styleUrl>
            <Point id="geom_6888">
                <coordinates>-111.73682404,40.36918259,0.0</coordinates>
            </Point>
        </Placemark>
        <Placemark id="feat_7118">
            <name>LDSAccess</name>
            <description>2017-01-16T17:20:29.000Z</description>
            <styleUrl>#stylesel_6889</styleUrl>
            <Point id="geom_6889">
                <coordinates>-111.73600006,40.36917496,0.0</coordinates>
            </Point>
        </Placemark>
        <Placemark id="feat_7119">
            <name>LDSAccess</name>
            <description>2015-11-29T04:15:22.000Z</description>
            <styleUrl>#stylesel_6890</styleUrl>
            <Point id="geom_6890">
                <coordinates>-111.73577881,40.37089539,0.0</coordinates>
            </Point>
        </Placemark>
        <Placemark id="feat_7120">
            <name>LDSAccess</name>
            <description>2015-11-25T22:43:57.000Z</description>
            <styleUrl>#stylesel_6891</styleUrl>
            <Point id="geom_6891">
                <coordinates>-111.73571777,40.36908722,0.0</coordinates>
            </Point>
        </Placemark>
        <Placemark id="feat_7121">
            <name>LDSAccess</name>
            <description>2016-01-19T23:20:26.000Z</description>
            <styleUrl>#stylesel_6892</styleUrl>
            <Point id="geom_6892">
                <coordinates>-111.73339844,40.36912918,0.0</coordinates>
            </Point>
        </Placemark>
        <Placemark id="feat_7122">
            <name>LDSAccess</name>
            <description>2015-07-24T22:39:18.000Z</description>
            <styleUrl>#stylesel_6893</styleUrl>
            <Point id="geom_6893">
                <coordinates>-111.73557281,40.36920929,0.0</coordinates>
            </Point>
        </Placemark>
        <Placemark id="feat_7123">
            <name>LDSAccess</name>
            <description>2016-05-03T16:25:12.000Z</description>
            <styleUrl>#stylesel_6894</styleUrl>
            <Point id="geom_6894">
                <coordinates>-111.73465729,40.36911011,0.0</coordinates>
            </Point>
        </Placemark>
        <Placemark id="feat_7124">
            <name>LDSAccess</name>
            <description>2016-04-20T01:26:43.000Z</description>
            <styleUrl>#stylesel_6895</styleUrl>
            <Point id="geom_6895">
                <coordinates>-111.73576355,40.36868668,0.0</coordinates>
            </Point>
        </Placemark>
        <Placemark id="feat_7125">
            <name>LDSAccess</name>
            <description>2017-02-13T21:01:39.000Z</description>
            <styleUrl>#stylesel_6896</styleUrl>
            <Point id="geom_6896">
                <coordinates>-111.73573303,40.36905289,0.0</coordinates>
            </Point>
        </Placemark>
    </Document>
</kml>
