<?xml version="1.0" encoding="UTF-8"?>
<kml xmlns="http://www.opengis.net/kml/2.2" xmlns:gx="http://www.google.com/kml/ext/2.2">
    <Document id="feat_869">
        <Style id="stylesel_854">
            <IconStyle id="substyle_854">
                <colorMode>normal</colorMode>
                <scale>1</scale>
                <heading>0</heading>
                <Icon id="link_854">
                    <href>wifi4.png</href>
                </Icon>
            </IconStyle>
        </Style>
        <Style id="stylesel_855">
            <IconStyle id="substyle_855">
                <colorMode>normal</colorMode>
                <scale>1</scale>
                <heading>0</heading>
                <Icon id="link_855">
                    <href>wifi4.png</href>
                </Icon>
            </IconStyle>
        </Style>
        <Style id="stylesel_856">
            <IconStyle id="substyle_856">
                <colorMode>normal</colorMode>
                <scale>1</scale>
                <heading>0</heading>
                <Icon id="link_856">
                    <href>wifi4.png</href>
                </Icon>
            </IconStyle>
        </Style>
        <Style id="stylesel_857">
            <IconStyle id="substyle_857">
                <colorMode>normal</colorMode>
                <scale>1</scale>
                <heading>0</heading>
                <Icon id="link_857">
                    <href>wifi4.png</href>
                </Icon>
            </IconStyle>
        </Style>
        <Style id="stylesel_858">
            <IconStyle id="substyle_858">
                <colorMode>normal</colorMode>
                <scale>1</scale>
                <heading>0</heading>
                <Icon id="link_858">
                    <href>wifi4.png</href>
                </Icon>
            </IconStyle>
        </Style>
        <Style id="stylesel_859">
            <IconStyle id="substyle_859">
                <colorMode>normal</colorMode>
                <scale>1</scale>
                <heading>0</heading>
                <Icon id="link_859">
                    <href>wifi4.png</href>
                </Icon>
            </IconStyle>
        </Style>
        <Style id="stylesel_860">
            <IconStyle id="substyle_860">
                <colorMode>normal</colorMode>
                <scale>1</scale>
                <heading>0</heading>
                <Icon id="link_860">
                    <href>wifi4.png</href>
                </Icon>
            </IconStyle>
        </Style>
        <Style id="stylesel_861">
            <IconStyle id="substyle_861">
                <colorMode>normal</colorMode>
                <scale>1</scale>
                <heading>0</heading>
                <Icon id="link_861">
                    <href>wifi4.png</href>
                </Icon>
            </IconStyle>
        </Style>
        <Style id="stylesel_862">
            <IconStyle id="substyle_862">
                <colorMode>normal</colorMode>
                <scale>1</scale>
                <heading>0</heading>
                <Icon id="link_862">
                    <href>wifi4.png</href>
                </Icon>
            </IconStyle>
        </Style>
        <Style id="stylesel_863">
            <IconStyle id="substyle_863">
                <colorMode>normal</colorMode>
                <scale>1</scale>
                <heading>0</heading>
                <Icon id="link_863">
                    <href>wifi4.png</href>
                </Icon>
            </IconStyle>
        </Style>
        <Style id="stylesel_864">
            <IconStyle id="substyle_864">
                <colorMode>normal</colorMode>
                <scale>1</scale>
                <heading>0</heading>
                <Icon id="link_864">
                    <href>wifi4.png</href>
                </Icon>
            </IconStyle>
        </Style>
        <Style id="stylesel_865">
            <IconStyle id="substyle_865">
                <colorMode>normal</colorMode>
                <scale>1</scale>
                <heading>0</heading>
                <Icon id="link_865">
                    <href>wifi4.png</href>
                </Icon>
            </IconStyle>
        </Style>
        <Style id="stylesel_866">
            <IconStyle id="substyle_866">
                <colorMode>normal</colorMode>
                <scale>1</scale>
                <heading>0</heading>
                <Icon id="link_866">
                    <href>wifi4.png</href>
                </Icon>
            </IconStyle>
        </Style>
        <Style id="stylesel_867">
            <IconStyle id="substyle_867">
                <colorMode>normal</colorMode>
                <scale>1</scale>
                <heading>0</heading>
                <Icon id="link_867">
                    <href>wifi4.png</href>
                </Icon>
            </IconStyle>
        </Style>
        <Style id="stylesel_868">
            <IconStyle id="substyle_868">
                <colorMode>normal</colorMode>
                <scale>1</scale>
                <heading>0</heading>
                <Icon id="link_868">
                    <href>wifi4.png</href>
                </Icon>
            </IconStyle>
        </Style>
        <Style id="stylesel_869">
            <IconStyle id="substyle_869">
                <colorMode>normal</colorMode>
                <scale>1</scale>
                <heading>0</heading>
                <Icon id="link_869">
                    <href>wifi4.png</href>
                </Icon>
            </IconStyle>
        </Style>
        <Placemark id="feat_870">
            <name>LDSAccess</name>
            <description>2017-02-25T21:37:54.000Z</description>
            <styleUrl>#stylesel_854</styleUrl>
            <Point id="geom_854">
                <coordinates>-111.77349091,40.35631561,0.0</coordinates>
            </Point>
        </Placemark>
        <Placemark id="feat_871">
            <name>LDSAccess</name>
            <description>2017-03-05T00:52:28.000Z</description>
            <styleUrl>#stylesel_855</styleUrl>
            <Point id="geom_855">
                <coordinates>-111.77346802,40.35319519,0.0</coordinates>
            </Point>
        </Placemark>
        <Placemark id="feat_872">
            <name>LDSAccess</name>
            <description>2017-03-05T00:52:19.000Z</description>
            <styleUrl>#stylesel_856</styleUrl>
            <Point id="geom_856">
                <coordinates>-111.77098846,40.35175705,0.0</coordinates>
            </Point>
        </Placemark>
        <Placemark id="feat_873">
            <name>LDSAccess</name>
            <description>2017-03-05T00:52:23.000Z</description>
            <styleUrl>#stylesel_857</styleUrl>
            <Point id="geom_857">
                <coordinates>-111.77206421,40.3523407,0.0</coordinates>
            </Point>
        </Placemark>
        <Placemark id="feat_874">
            <name>LDSAccess</name>
            <description>2017-02-25T21:37:54.000Z</description>
            <styleUrl>#stylesel_858</styleUrl>
            <Point id="geom_858">
                <coordinates>-111.77355194,40.35625076,0.0</coordinates>
            </Point>
        </Placemark>
        <Placemark id="feat_875">
            <name>LDSAccess</name>
            <description>2016-01-29T21:13:51.000Z</description>
            <styleUrl>#stylesel_859</styleUrl>
            <Point id="geom_859">
                <coordinates>-111.77345276,40.35316849,0.0</coordinates>
            </Point>
        </Placemark>
        <Placemark id="feat_876">
            <name>LDSAccess</name>
            <description>2016-01-29T21:13:43.000Z</description>
            <styleUrl>#stylesel_860</styleUrl>
            <Point id="geom_860">
                <coordinates>-111.77131653,40.35197449,0.0</coordinates>
            </Point>
        </Placemark>
        <Placemark id="feat_877">
            <name>LDSAccess</name>
            <description>2017-03-27T13:45:10.000Z</description>
            <styleUrl>#stylesel_861</styleUrl>
            <Point id="geom_861">
                <coordinates>-111.77337646,40.35312271,0.0</coordinates>
            </Point>
        </Placemark>
        <Placemark id="feat_878">
            <name>LDSAccess</name>
            <description>2017-03-27T13:45:05.000Z</description>
            <styleUrl>#stylesel_862</styleUrl>
            <Point id="geom_862">
                <coordinates>-111.77210999,40.3523407,0.0</coordinates>
            </Point>
        </Placemark>
        <Placemark id="feat_879">
            <name>LDSAccess</name>
            <description>2017-03-10T15:49:20.000Z</description>
            <styleUrl>#stylesel_863</styleUrl>
            <Point id="geom_863">
                <coordinates>-111.77088165,40.35175323,0.0</coordinates>
            </Point>
        </Placemark>
        <Placemark id="feat_880">
            <name>LDSAccess</name>
            <description>2017-03-27T13:45:00.000Z</description>
            <styleUrl>#stylesel_864</styleUrl>
            <Point id="geom_864">
                <coordinates>-111.77092743,40.35167694,0.0</coordinates>
            </Point>
        </Placemark>
        <Placemark id="feat_881">
            <name>LDSAccess</name>
            <description>2017-04-12T01:06:43.000Z</description>
            <styleUrl>#stylesel_865</styleUrl>
            <Point id="geom_865">
                <coordinates>-111.7710495,40.35343933,0.0</coordinates>
            </Point>
        </Placemark>
        <Placemark id="feat_882">
            <name>LDSAccess</name>
            <description>2017-02-25T21:38:01.000Z</description>
            <styleUrl>#stylesel_866</styleUrl>
            <Point id="geom_866">
                <coordinates>-111.77359772,40.35665512,0.0</coordinates>
            </Point>
        </Placemark>
        <Placemark id="feat_883">
            <name>LDSAccess</name>
            <description>2017-02-23T17:11:56.000Z</description>
            <styleUrl>#stylesel_867</styleUrl>
            <Point id="geom_867">
                <coordinates>-111.77133179,40.35190582,0.0</coordinates>
            </Point>
        </Placemark>
        <Placemark id="feat_884">
            <name>LDSAccess</name>
            <description>2017-03-05T20:39:45.000Z</description>
            <styleUrl>#stylesel_868</styleUrl>
            <Point id="geom_868">
                <coordinates>-111.77145386,40.3519516,0.0</coordinates>
            </Point>
        </Placemark>
        <Placemark id="feat_885">
            <name>LDSAccess</name>
            <description>2017-03-05T20:39:49.000Z</description>
            <styleUrl>#stylesel_869</styleUrl>
            <Point id="geom_869">
                <coordinates>-111.77246094,40.35255051,0.0</coordinates>
            </Point>
        </Placemark>
    </Document>
</kml>
