<?xml version="1.0" encoding="UTF-8"?>
<kml xmlns="http://www.opengis.net/kml/2.2" xmlns:gx="http://www.google.com/kml/ext/2.2">
    <Document id="feat_9693">
        <Style id="stylesel_9405">
            <IconStyle id="substyle_9405">
                <colorMode>normal</colorMode>
                <scale>1</scale>
                <heading>0</heading>
                <Icon id="link_9405">
                    <href>wifi4.png</href>
                </Icon>
            </IconStyle>
        </Style>
        <Style id="stylesel_9406">
            <IconStyle id="substyle_9406">
                <colorMode>normal</colorMode>
                <scale>1</scale>
                <heading>0</heading>
                <Icon id="link_9406">
                    <href>wifi4.png</href>
                </Icon>
            </IconStyle>
        </Style>
        <Style id="stylesel_9407">
            <IconStyle id="substyle_9407">
                <colorMode>normal</colorMode>
                <scale>1</scale>
                <heading>0</heading>
                <Icon id="link_9407">
                    <href>wifi4.png</href>
                </Icon>
            </IconStyle>
        </Style>
        <Style id="stylesel_9408">
            <IconStyle id="substyle_9408">
                <colorMode>normal</colorMode>
                <scale>1</scale>
                <heading>0</heading>
                <Icon id="link_9408">
                    <href>wifi4.png</href>
                </Icon>
            </IconStyle>
        </Style>
        <Style id="stylesel_9409">
            <IconStyle id="substyle_9409">
                <colorMode>normal</colorMode>
                <scale>1</scale>
                <heading>0</heading>
                <Icon id="link_9409">
                    <href>wifi4.png</href>
                </Icon>
            </IconStyle>
        </Style>
        <Style id="stylesel_9410">
            <IconStyle id="substyle_9410">
                <colorMode>normal</colorMode>
                <scale>1</scale>
                <heading>0</heading>
                <Icon id="link_9410">
                    <href>wifi4.png</href>
                </Icon>
            </IconStyle>
        </Style>
        <Style id="stylesel_9411">
            <IconStyle id="substyle_9411">
                <colorMode>normal</colorMode>
                <scale>1</scale>
                <heading>0</heading>
                <Icon id="link_9411">
                    <href>wifi4.png</href>
                </Icon>
            </IconStyle>
        </Style>
        <Style id="stylesel_9412">
            <IconStyle id="substyle_9412">
                <colorMode>normal</colorMode>
                <scale>1</scale>
                <heading>0</heading>
                <Icon id="link_9412">
                    <href>wifi4.png</href>
                </Icon>
            </IconStyle>
        </Style>
        <Style id="stylesel_9413">
            <IconStyle id="substyle_9413">
                <colorMode>normal</colorMode>
                <scale>1</scale>
                <heading>0</heading>
                <Icon id="link_9413">
                    <href>wifi4.png</href>
                </Icon>
            </IconStyle>
        </Style>
        <Style id="stylesel_9414">
            <IconStyle id="substyle_9414">
                <colorMode>normal</colorMode>
                <scale>1</scale>
                <heading>0</heading>
                <Icon id="link_9414">
                    <href>wifi4.png</href>
                </Icon>
            </IconStyle>
        </Style>
        <Style id="stylesel_9415">
            <IconStyle id="substyle_9415">
                <colorMode>normal</colorMode>
                <scale>1</scale>
                <heading>0</heading>
                <Icon id="link_9415">
                    <href>wifi4.png</href>
                </Icon>
            </IconStyle>
        </Style>
        <Style id="stylesel_9416">
            <IconStyle id="substyle_9416">
                <colorMode>normal</colorMode>
                <scale>1</scale>
                <heading>0</heading>
                <Icon id="link_9416">
                    <href>wifi4.png</href>
                </Icon>
            </IconStyle>
        </Style>
        <Style id="stylesel_9417">
            <IconStyle id="substyle_9417">
                <colorMode>normal</colorMode>
                <scale>1</scale>
                <heading>0</heading>
                <Icon id="link_9417">
                    <href>wifi4.png</href>
                </Icon>
            </IconStyle>
        </Style>
        <Style id="stylesel_9418">
            <IconStyle id="substyle_9418">
                <colorMode>normal</colorMode>
                <scale>1</scale>
                <heading>0</heading>
                <Icon id="link_9418">
                    <href>wifi4.png</href>
                </Icon>
            </IconStyle>
        </Style>
        <Style id="stylesel_9419">
            <IconStyle id="substyle_9419">
                <colorMode>normal</colorMode>
                <scale>1</scale>
                <heading>0</heading>
                <Icon id="link_9419">
                    <href>wifi4.png</href>
                </Icon>
            </IconStyle>
        </Style>
        <Style id="stylesel_9420">
            <IconStyle id="substyle_9420">
                <colorMode>normal</colorMode>
                <scale>1</scale>
                <heading>0</heading>
                <Icon id="link_9420">
                    <href>wifi4.png</href>
                </Icon>
            </IconStyle>
        </Style>
        <Style id="stylesel_9421">
            <IconStyle id="substyle_9421">
                <colorMode>normal</colorMode>
                <scale>1</scale>
                <heading>0</heading>
                <Icon id="link_9421">
                    <href>wifi4.png</href>
                </Icon>
            </IconStyle>
        </Style>
        <Style id="stylesel_9422">
            <IconStyle id="substyle_9422">
                <colorMode>normal</colorMode>
                <scale>1</scale>
                <heading>0</heading>
                <Icon id="link_9422">
                    <href>wifi4.png</href>
                </Icon>
            </IconStyle>
        </Style>
        <Style id="stylesel_9423">
            <IconStyle id="substyle_9423">
                <colorMode>normal</colorMode>
                <scale>1</scale>
                <heading>0</heading>
                <Icon id="link_9423">
                    <href>wifi4.png</href>
                </Icon>
            </IconStyle>
        </Style>
        <Style id="stylesel_9424">
            <IconStyle id="substyle_9424">
                <colorMode>normal</colorMode>
                <scale>1</scale>
                <heading>0</heading>
                <Icon id="link_9424">
                    <href>wifi4.png</href>
                </Icon>
            </IconStyle>
        </Style>
        <Style id="stylesel_9425">
            <IconStyle id="substyle_9425">
                <colorMode>normal</colorMode>
                <scale>1</scale>
                <heading>0</heading>
                <Icon id="link_9425">
                    <href>wifi4.png</href>
                </Icon>
            </IconStyle>
        </Style>
        <Style id="stylesel_9426">
            <IconStyle id="substyle_9426">
                <colorMode>normal</colorMode>
                <scale>1</scale>
                <heading>0</heading>
                <Icon id="link_9426">
                    <href>wifi4.png</href>
                </Icon>
            </IconStyle>
        </Style>
        <Style id="stylesel_9427">
            <IconStyle id="substyle_9427">
                <colorMode>normal</colorMode>
                <scale>1</scale>
                <heading>0</heading>
                <Icon id="link_9427">
                    <href>wifi4.png</href>
                </Icon>
            </IconStyle>
        </Style>
        <Style id="stylesel_9428">
            <IconStyle id="substyle_9428">
                <colorMode>normal</colorMode>
                <scale>1</scale>
                <heading>0</heading>
                <Icon id="link_9428">
                    <href>wifi4.png</href>
                </Icon>
            </IconStyle>
        </Style>
        <Style id="stylesel_9429">
            <IconStyle id="substyle_9429">
                <colorMode>normal</colorMode>
                <scale>1</scale>
                <heading>0</heading>
                <Icon id="link_9429">
                    <href>wifi4.png</href>
                </Icon>
            </IconStyle>
        </Style>
        <Style id="stylesel_9430">
            <IconStyle id="substyle_9430">
                <colorMode>normal</colorMode>
                <scale>1</scale>
                <heading>0</heading>
                <Icon id="link_9430">
                    <href>wifi4.png</href>
                </Icon>
            </IconStyle>
        </Style>
        <Style id="stylesel_9431">
            <IconStyle id="substyle_9431">
                <colorMode>normal</colorMode>
                <scale>1</scale>
                <heading>0</heading>
                <Icon id="link_9431">
                    <href>wifi4.png</href>
                </Icon>
            </IconStyle>
        </Style>
        <Style id="stylesel_9432">
            <IconStyle id="substyle_9432">
                <colorMode>normal</colorMode>
                <scale>1</scale>
                <heading>0</heading>
                <Icon id="link_9432">
                    <href>wifi4.png</href>
                </Icon>
            </IconStyle>
        </Style>
        <Style id="stylesel_9433">
            <IconStyle id="substyle_9433">
                <colorMode>normal</colorMode>
                <scale>1</scale>
                <heading>0</heading>
                <Icon id="link_9433">
                    <href>wifi4.png</href>
                </Icon>
            </IconStyle>
        </Style>
        <Style id="stylesel_9434">
            <IconStyle id="substyle_9434">
                <colorMode>normal</colorMode>
                <scale>1</scale>
                <heading>0</heading>
                <Icon id="link_9434">
                    <href>wifi4.png</href>
                </Icon>
            </IconStyle>
        </Style>
        <Style id="stylesel_9435">
            <IconStyle id="substyle_9435">
                <colorMode>normal</colorMode>
                <scale>1</scale>
                <heading>0</heading>
                <Icon id="link_9435">
                    <href>wifi4.png</href>
                </Icon>
            </IconStyle>
        </Style>
        <Style id="stylesel_9436">
            <IconStyle id="substyle_9436">
                <colorMode>normal</colorMode>
                <scale>1</scale>
                <heading>0</heading>
                <Icon id="link_9436">
                    <href>wifi4.png</href>
                </Icon>
            </IconStyle>
        </Style>
        <Style id="stylesel_9437">
            <IconStyle id="substyle_9437">
                <colorMode>normal</colorMode>
                <scale>1</scale>
                <heading>0</heading>
                <Icon id="link_9437">
                    <href>wifi4.png</href>
                </Icon>
            </IconStyle>
        </Style>
        <Style id="stylesel_9438">
            <IconStyle id="substyle_9438">
                <colorMode>normal</colorMode>
                <scale>1</scale>
                <heading>0</heading>
                <Icon id="link_9438">
                    <href>wifi4.png</href>
                </Icon>
            </IconStyle>
        </Style>
        <Style id="stylesel_9439">
            <IconStyle id="substyle_9439">
                <colorMode>normal</colorMode>
                <scale>1</scale>
                <heading>0</heading>
                <Icon id="link_9439">
                    <href>wifi4.png</href>
                </Icon>
            </IconStyle>
        </Style>
        <Style id="stylesel_9440">
            <IconStyle id="substyle_9440">
                <colorMode>normal</colorMode>
                <scale>1</scale>
                <heading>0</heading>
                <Icon id="link_9440">
                    <href>wifi4.png</href>
                </Icon>
            </IconStyle>
        </Style>
        <Style id="stylesel_9441">
            <IconStyle id="substyle_9441">
                <colorMode>normal</colorMode>
                <scale>1</scale>
                <heading>0</heading>
                <Icon id="link_9441">
                    <href>wifi4.png</href>
                </Icon>
            </IconStyle>
        </Style>
        <Style id="stylesel_9442">
            <IconStyle id="substyle_9442">
                <colorMode>normal</colorMode>
                <scale>1</scale>
                <heading>0</heading>
                <Icon id="link_9442">
                    <href>wifi4.png</href>
                </Icon>
            </IconStyle>
        </Style>
        <Style id="stylesel_9443">
            <IconStyle id="substyle_9443">
                <colorMode>normal</colorMode>
                <scale>1</scale>
                <heading>0</heading>
                <Icon id="link_9443">
                    <href>wifi4.png</href>
                </Icon>
            </IconStyle>
        </Style>
        <Style id="stylesel_9444">
            <IconStyle id="substyle_9444">
                <colorMode>normal</colorMode>
                <scale>1</scale>
                <heading>0</heading>
                <Icon id="link_9444">
                    <href>wifi4.png</href>
                </Icon>
            </IconStyle>
        </Style>
        <Style id="stylesel_9445">
            <IconStyle id="substyle_9445">
                <colorMode>normal</colorMode>
                <scale>1</scale>
                <heading>0</heading>
                <Icon id="link_9445">
                    <href>wifi4.png</href>
                </Icon>
            </IconStyle>
        </Style>
        <Style id="stylesel_9446">
            <IconStyle id="substyle_9446">
                <colorMode>normal</colorMode>
                <scale>1</scale>
                <heading>0</heading>
                <Icon id="link_9446">
                    <href>wifi4.png</href>
                </Icon>
            </IconStyle>
        </Style>
        <Style id="stylesel_9447">
            <IconStyle id="substyle_9447">
                <colorMode>normal</colorMode>
                <scale>1</scale>
                <heading>0</heading>
                <Icon id="link_9447">
                    <href>wifi4.png</href>
                </Icon>
            </IconStyle>
        </Style>
        <Style id="stylesel_9448">
            <IconStyle id="substyle_9448">
                <colorMode>normal</colorMode>
                <scale>1</scale>
                <heading>0</heading>
                <Icon id="link_9448">
                    <href>wifi4.png</href>
                </Icon>
            </IconStyle>
        </Style>
        <Style id="stylesel_9449">
            <IconStyle id="substyle_9449">
                <colorMode>normal</colorMode>
                <scale>1</scale>
                <heading>0</heading>
                <Icon id="link_9449">
                    <href>wifi4.png</href>
                </Icon>
            </IconStyle>
        </Style>
        <Style id="stylesel_9450">
            <IconStyle id="substyle_9450">
                <colorMode>normal</colorMode>
                <scale>1</scale>
                <heading>0</heading>
                <Icon id="link_9450">
                    <href>wifi4.png</href>
                </Icon>
            </IconStyle>
        </Style>
        <Style id="stylesel_9451">
            <IconStyle id="substyle_9451">
                <colorMode>normal</colorMode>
                <scale>1</scale>
                <heading>0</heading>
                <Icon id="link_9451">
                    <href>wifi4.png</href>
                </Icon>
            </IconStyle>
        </Style>
        <Style id="stylesel_9452">
            <IconStyle id="substyle_9452">
                <colorMode>normal</colorMode>
                <scale>1</scale>
                <heading>0</heading>
                <Icon id="link_9452">
                    <href>wifi4.png</href>
                </Icon>
            </IconStyle>
        </Style>
        <Style id="stylesel_9453">
            <IconStyle id="substyle_9453">
                <colorMode>normal</colorMode>
                <scale>1</scale>
                <heading>0</heading>
                <Icon id="link_9453">
                    <href>wifi4.png</href>
                </Icon>
            </IconStyle>
        </Style>
        <Style id="stylesel_9454">
            <IconStyle id="substyle_9454">
                <colorMode>normal</colorMode>
                <scale>1</scale>
                <heading>0</heading>
                <Icon id="link_9454">
                    <href>wifi4.png</href>
                </Icon>
            </IconStyle>
        </Style>
        <Style id="stylesel_9455">
            <IconStyle id="substyle_9455">
                <colorMode>normal</colorMode>
                <scale>1</scale>
                <heading>0</heading>
                <Icon id="link_9455">
                    <href>wifi4.png</href>
                </Icon>
            </IconStyle>
        </Style>
        <Style id="stylesel_9456">
            <IconStyle id="substyle_9456">
                <colorMode>normal</colorMode>
                <scale>1</scale>
                <heading>0</heading>
                <Icon id="link_9456">
                    <href>wifi4.png</href>
                </Icon>
            </IconStyle>
        </Style>
        <Style id="stylesel_9457">
            <IconStyle id="substyle_9457">
                <colorMode>normal</colorMode>
                <scale>1</scale>
                <heading>0</heading>
                <Icon id="link_9457">
                    <href>wifi4.png</href>
                </Icon>
            </IconStyle>
        </Style>
        <Style id="stylesel_9458">
            <IconStyle id="substyle_9458">
                <colorMode>normal</colorMode>
                <scale>1</scale>
                <heading>0</heading>
                <Icon id="link_9458">
                    <href>wifi4.png</href>
                </Icon>
            </IconStyle>
        </Style>
        <Style id="stylesel_9459">
            <IconStyle id="substyle_9459">
                <colorMode>normal</colorMode>
                <scale>1</scale>
                <heading>0</heading>
                <Icon id="link_9459">
                    <href>wifi4.png</href>
                </Icon>
            </IconStyle>
        </Style>
        <Style id="stylesel_9460">
            <IconStyle id="substyle_9460">
                <colorMode>normal</colorMode>
                <scale>1</scale>
                <heading>0</heading>
                <Icon id="link_9460">
                    <href>wifi4.png</href>
                </Icon>
            </IconStyle>
        </Style>
        <Style id="stylesel_9461">
            <IconStyle id="substyle_9461">
                <colorMode>normal</colorMode>
                <scale>1</scale>
                <heading>0</heading>
                <Icon id="link_9461">
                    <href>wifi4.png</href>
                </Icon>
            </IconStyle>
        </Style>
        <Style id="stylesel_9462">
            <IconStyle id="substyle_9462">
                <colorMode>normal</colorMode>
                <scale>1</scale>
                <heading>0</heading>
                <Icon id="link_9462">
                    <href>wifi4.png</href>
                </Icon>
            </IconStyle>
        </Style>
        <Style id="stylesel_9463">
            <IconStyle id="substyle_9463">
                <colorMode>normal</colorMode>
                <scale>1</scale>
                <heading>0</heading>
                <Icon id="link_9463">
                    <href>wifi4.png</href>
                </Icon>
            </IconStyle>
        </Style>
        <Style id="stylesel_9464">
            <IconStyle id="substyle_9464">
                <colorMode>normal</colorMode>
                <scale>1</scale>
                <heading>0</heading>
                <Icon id="link_9464">
                    <href>wifi4.png</href>
                </Icon>
            </IconStyle>
        </Style>
        <Style id="stylesel_9465">
            <IconStyle id="substyle_9465">
                <colorMode>normal</colorMode>
                <scale>1</scale>
                <heading>0</heading>
                <Icon id="link_9465">
                    <href>wifi4.png</href>
                </Icon>
            </IconStyle>
        </Style>
        <Style id="stylesel_9466">
            <IconStyle id="substyle_9466">
                <colorMode>normal</colorMode>
                <scale>1</scale>
                <heading>0</heading>
                <Icon id="link_9466">
                    <href>wifi4.png</href>
                </Icon>
            </IconStyle>
        </Style>
        <Style id="stylesel_9467">
            <IconStyle id="substyle_9467">
                <colorMode>normal</colorMode>
                <scale>1</scale>
                <heading>0</heading>
                <Icon id="link_9467">
                    <href>wifi4.png</href>
                </Icon>
            </IconStyle>
        </Style>
        <Style id="stylesel_9468">
            <IconStyle id="substyle_9468">
                <colorMode>normal</colorMode>
                <scale>1</scale>
                <heading>0</heading>
                <Icon id="link_9468">
                    <href>wifi4.png</href>
                </Icon>
            </IconStyle>
        </Style>
        <Style id="stylesel_9469">
            <IconStyle id="substyle_9469">
                <colorMode>normal</colorMode>
                <scale>1</scale>
                <heading>0</heading>
                <Icon id="link_9469">
                    <href>wifi4.png</href>
                </Icon>
            </IconStyle>
        </Style>
        <Style id="stylesel_9470">
            <IconStyle id="substyle_9470">
                <colorMode>normal</colorMode>
                <scale>1</scale>
                <heading>0</heading>
                <Icon id="link_9470">
                    <href>wifi4.png</href>
                </Icon>
            </IconStyle>
        </Style>
        <Style id="stylesel_9471">
            <IconStyle id="substyle_9471">
                <colorMode>normal</colorMode>
                <scale>1</scale>
                <heading>0</heading>
                <Icon id="link_9471">
                    <href>wifi4.png</href>
                </Icon>
            </IconStyle>
        </Style>
        <Style id="stylesel_9472">
            <IconStyle id="substyle_9472">
                <colorMode>normal</colorMode>
                <scale>1</scale>
                <heading>0</heading>
                <Icon id="link_9472">
                    <href>wifi4.png</href>
                </Icon>
            </IconStyle>
        </Style>
        <Style id="stylesel_9473">
            <IconStyle id="substyle_9473">
                <colorMode>normal</colorMode>
                <scale>1</scale>
                <heading>0</heading>
                <Icon id="link_9473">
                    <href>wifi4.png</href>
                </Icon>
            </IconStyle>
        </Style>
        <Style id="stylesel_9474">
            <IconStyle id="substyle_9474">
                <colorMode>normal</colorMode>
                <scale>1</scale>
                <heading>0</heading>
                <Icon id="link_9474">
                    <href>wifi4.png</href>
                </Icon>
            </IconStyle>
        </Style>
        <Style id="stylesel_9475">
            <IconStyle id="substyle_9475">
                <colorMode>normal</colorMode>
                <scale>1</scale>
                <heading>0</heading>
                <Icon id="link_9475">
                    <href>wifi4.png</href>
                </Icon>
            </IconStyle>
        </Style>
        <Style id="stylesel_9476">
            <IconStyle id="substyle_9476">
                <colorMode>normal</colorMode>
                <scale>1</scale>
                <heading>0</heading>
                <Icon id="link_9476">
                    <href>wifi4.png</href>
                </Icon>
            </IconStyle>
        </Style>
        <Style id="stylesel_9477">
            <IconStyle id="substyle_9477">
                <colorMode>normal</colorMode>
                <scale>1</scale>
                <heading>0</heading>
                <Icon id="link_9477">
                    <href>wifi4.png</href>
                </Icon>
            </IconStyle>
        </Style>
        <Style id="stylesel_9478">
            <IconStyle id="substyle_9478">
                <colorMode>normal</colorMode>
                <scale>1</scale>
                <heading>0</heading>
                <Icon id="link_9478">
                    <href>wifi4.png</href>
                </Icon>
            </IconStyle>
        </Style>
        <Style id="stylesel_9479">
            <IconStyle id="substyle_9479">
                <colorMode>normal</colorMode>
                <scale>1</scale>
                <heading>0</heading>
                <Icon id="link_9479">
                    <href>wifi4.png</href>
                </Icon>
            </IconStyle>
        </Style>
        <Style id="stylesel_9480">
            <IconStyle id="substyle_9480">
                <colorMode>normal</colorMode>
                <scale>1</scale>
                <heading>0</heading>
                <Icon id="link_9480">
                    <href>wifi4.png</href>
                </Icon>
            </IconStyle>
        </Style>
        <Style id="stylesel_9481">
            <IconStyle id="substyle_9481">
                <colorMode>normal</colorMode>
                <scale>1</scale>
                <heading>0</heading>
                <Icon id="link_9481">
                    <href>wifi4.png</href>
                </Icon>
            </IconStyle>
        </Style>
        <Style id="stylesel_9482">
            <IconStyle id="substyle_9482">
                <colorMode>normal</colorMode>
                <scale>1</scale>
                <heading>0</heading>
                <Icon id="link_9482">
                    <href>wifi4.png</href>
                </Icon>
            </IconStyle>
        </Style>
        <Style id="stylesel_9483">
            <IconStyle id="substyle_9483">
                <colorMode>normal</colorMode>
                <scale>1</scale>
                <heading>0</heading>
                <Icon id="link_9483">
                    <href>wifi4.png</href>
                </Icon>
            </IconStyle>
        </Style>
        <Style id="stylesel_9484">
            <IconStyle id="substyle_9484">
                <colorMode>normal</colorMode>
                <scale>1</scale>
                <heading>0</heading>
                <Icon id="link_9484">
                    <href>wifi4.png</href>
                </Icon>
            </IconStyle>
        </Style>
        <Style id="stylesel_9485">
            <IconStyle id="substyle_9485">
                <colorMode>normal</colorMode>
                <scale>1</scale>
                <heading>0</heading>
                <Icon id="link_9485">
                    <href>wifi4.png</href>
                </Icon>
            </IconStyle>
        </Style>
        <Style id="stylesel_9486">
            <IconStyle id="substyle_9486">
                <colorMode>normal</colorMode>
                <scale>1</scale>
                <heading>0</heading>
                <Icon id="link_9486">
                    <href>wifi4.png</href>
                </Icon>
            </IconStyle>
        </Style>
        <Style id="stylesel_9487">
            <IconStyle id="substyle_9487">
                <colorMode>normal</colorMode>
                <scale>1</scale>
                <heading>0</heading>
                <Icon id="link_9487">
                    <href>wifi4.png</href>
                </Icon>
            </IconStyle>
        </Style>
        <Style id="stylesel_9488">
            <IconStyle id="substyle_9488">
                <colorMode>normal</colorMode>
                <scale>1</scale>
                <heading>0</heading>
                <Icon id="link_9488">
                    <href>wifi4.png</href>
                </Icon>
            </IconStyle>
        </Style>
        <Style id="stylesel_9489">
            <IconStyle id="substyle_9489">
                <colorMode>normal</colorMode>
                <scale>1</scale>
                <heading>0</heading>
                <Icon id="link_9489">
                    <href>wifi4.png</href>
                </Icon>
            </IconStyle>
        </Style>
        <Style id="stylesel_9490">
            <IconStyle id="substyle_9490">
                <colorMode>normal</colorMode>
                <scale>1</scale>
                <heading>0</heading>
                <Icon id="link_9490">
                    <href>wifi4.png</href>
                </Icon>
            </IconStyle>
        </Style>
        <Style id="stylesel_9491">
            <IconStyle id="substyle_9491">
                <colorMode>normal</colorMode>
                <scale>1</scale>
                <heading>0</heading>
                <Icon id="link_9491">
                    <href>wifi4.png</href>
                </Icon>
            </IconStyle>
        </Style>
        <Style id="stylesel_9492">
            <IconStyle id="substyle_9492">
                <colorMode>normal</colorMode>
                <scale>1</scale>
                <heading>0</heading>
                <Icon id="link_9492">
                    <href>wifi4.png</href>
                </Icon>
            </IconStyle>
        </Style>
        <Style id="stylesel_9493">
            <IconStyle id="substyle_9493">
                <colorMode>normal</colorMode>
                <scale>1</scale>
                <heading>0</heading>
                <Icon id="link_9493">
                    <href>wifi4.png</href>
                </Icon>
            </IconStyle>
        </Style>
        <Style id="stylesel_9494">
            <IconStyle id="substyle_9494">
                <colorMode>normal</colorMode>
                <scale>1</scale>
                <heading>0</heading>
                <Icon id="link_9494">
                    <href>wifi4.png</href>
                </Icon>
            </IconStyle>
        </Style>
        <Style id="stylesel_9495">
            <IconStyle id="substyle_9495">
                <colorMode>normal</colorMode>
                <scale>1</scale>
                <heading>0</heading>
                <Icon id="link_9495">
                    <href>wifi4.png</href>
                </Icon>
            </IconStyle>
        </Style>
        <Style id="stylesel_9496">
            <IconStyle id="substyle_9496">
                <colorMode>normal</colorMode>
                <scale>1</scale>
                <heading>0</heading>
                <Icon id="link_9496">
                    <href>wifi4.png</href>
                </Icon>
            </IconStyle>
        </Style>
        <Style id="stylesel_9497">
            <IconStyle id="substyle_9497">
                <colorMode>normal</colorMode>
                <scale>1</scale>
                <heading>0</heading>
                <Icon id="link_9497">
                    <href>wifi4.png</href>
                </Icon>
            </IconStyle>
        </Style>
        <Style id="stylesel_9498">
            <IconStyle id="substyle_9498">
                <colorMode>normal</colorMode>
                <scale>1</scale>
                <heading>0</heading>
                <Icon id="link_9498">
                    <href>wifi4.png</href>
                </Icon>
            </IconStyle>
        </Style>
        <Style id="stylesel_9499">
            <IconStyle id="substyle_9499">
                <colorMode>normal</colorMode>
                <scale>1</scale>
                <heading>0</heading>
                <Icon id="link_9499">
                    <href>wifi4.png</href>
                </Icon>
            </IconStyle>
        </Style>
        <Style id="stylesel_9500">
            <IconStyle id="substyle_9500">
                <colorMode>normal</colorMode>
                <scale>1</scale>
                <heading>0</heading>
                <Icon id="link_9500">
                    <href>wifi4.png</href>
                </Icon>
            </IconStyle>
        </Style>
        <Style id="stylesel_9501">
            <IconStyle id="substyle_9501">
                <colorMode>normal</colorMode>
                <scale>1</scale>
                <heading>0</heading>
                <Icon id="link_9501">
                    <href>wifi4.png</href>
                </Icon>
            </IconStyle>
        </Style>
        <Style id="stylesel_9502">
            <IconStyle id="substyle_9502">
                <colorMode>normal</colorMode>
                <scale>1</scale>
                <heading>0</heading>
                <Icon id="link_9502">
                    <href>wifi4.png</href>
                </Icon>
            </IconStyle>
        </Style>
        <Style id="stylesel_9503">
            <IconStyle id="substyle_9503">
                <colorMode>normal</colorMode>
                <scale>1</scale>
                <heading>0</heading>
                <Icon id="link_9503">
                    <href>wifi4.png</href>
                </Icon>
            </IconStyle>
        </Style>
        <Style id="stylesel_9504">
            <IconStyle id="substyle_9504">
                <colorMode>normal</colorMode>
                <scale>1</scale>
                <heading>0</heading>
                <Icon id="link_9504">
                    <href>wifi4.png</href>
                </Icon>
            </IconStyle>
        </Style>
        <Style id="stylesel_9505">
            <IconStyle id="substyle_9505">
                <colorMode>normal</colorMode>
                <scale>1</scale>
                <heading>0</heading>
                <Icon id="link_9505">
                    <href>wifi4.png</href>
                </Icon>
            </IconStyle>
        </Style>
        <Style id="stylesel_9506">
            <IconStyle id="substyle_9506">
                <colorMode>normal</colorMode>
                <scale>1</scale>
                <heading>0</heading>
                <Icon id="link_9506">
                    <href>wifi4.png</href>
                </Icon>
            </IconStyle>
        </Style>
        <Style id="stylesel_9507">
            <IconStyle id="substyle_9507">
                <colorMode>normal</colorMode>
                <scale>1</scale>
                <heading>0</heading>
                <Icon id="link_9507">
                    <href>wifi4.png</href>
                </Icon>
            </IconStyle>
        </Style>
        <Style id="stylesel_9508">
            <IconStyle id="substyle_9508">
                <colorMode>normal</colorMode>
                <scale>1</scale>
                <heading>0</heading>
                <Icon id="link_9508">
                    <href>wifi4.png</href>
                </Icon>
            </IconStyle>
        </Style>
        <Style id="stylesel_9509">
            <IconStyle id="substyle_9509">
                <colorMode>normal</colorMode>
                <scale>1</scale>
                <heading>0</heading>
                <Icon id="link_9509">
                    <href>wifi4.png</href>
                </Icon>
            </IconStyle>
        </Style>
        <Style id="stylesel_9510">
            <IconStyle id="substyle_9510">
                <colorMode>normal</colorMode>
                <scale>1</scale>
                <heading>0</heading>
                <Icon id="link_9510">
                    <href>wifi4.png</href>
                </Icon>
            </IconStyle>
        </Style>
        <Style id="stylesel_9511">
            <IconStyle id="substyle_9511">
                <colorMode>normal</colorMode>
                <scale>1</scale>
                <heading>0</heading>
                <Icon id="link_9511">
                    <href>wifi4.png</href>
                </Icon>
            </IconStyle>
        </Style>
        <Style id="stylesel_9512">
            <IconStyle id="substyle_9512">
                <colorMode>normal</colorMode>
                <scale>1</scale>
                <heading>0</heading>
                <Icon id="link_9512">
                    <href>wifi4.png</href>
                </Icon>
            </IconStyle>
        </Style>
        <Style id="stylesel_9513">
            <IconStyle id="substyle_9513">
                <colorMode>normal</colorMode>
                <scale>1</scale>
                <heading>0</heading>
                <Icon id="link_9513">
                    <href>wifi4.png</href>
                </Icon>
            </IconStyle>
        </Style>
        <Style id="stylesel_9514">
            <IconStyle id="substyle_9514">
                <colorMode>normal</colorMode>
                <scale>1</scale>
                <heading>0</heading>
                <Icon id="link_9514">
                    <href>wifi4.png</href>
                </Icon>
            </IconStyle>
        </Style>
        <Style id="stylesel_9515">
            <IconStyle id="substyle_9515">
                <colorMode>normal</colorMode>
                <scale>1</scale>
                <heading>0</heading>
                <Icon id="link_9515">
                    <href>wifi4.png</href>
                </Icon>
            </IconStyle>
        </Style>
        <Style id="stylesel_9516">
            <IconStyle id="substyle_9516">
                <colorMode>normal</colorMode>
                <scale>1</scale>
                <heading>0</heading>
                <Icon id="link_9516">
                    <href>wifi4.png</href>
                </Icon>
            </IconStyle>
        </Style>
        <Style id="stylesel_9517">
            <IconStyle id="substyle_9517">
                <colorMode>normal</colorMode>
                <scale>1</scale>
                <heading>0</heading>
                <Icon id="link_9517">
                    <href>wifi4.png</href>
                </Icon>
            </IconStyle>
        </Style>
        <Style id="stylesel_9518">
            <IconStyle id="substyle_9518">
                <colorMode>normal</colorMode>
                <scale>1</scale>
                <heading>0</heading>
                <Icon id="link_9518">
                    <href>wifi4.png</href>
                </Icon>
            </IconStyle>
        </Style>
        <Style id="stylesel_9519">
            <IconStyle id="substyle_9519">
                <colorMode>normal</colorMode>
                <scale>1</scale>
                <heading>0</heading>
                <Icon id="link_9519">
                    <href>wifi4.png</href>
                </Icon>
            </IconStyle>
        </Style>
        <Style id="stylesel_9520">
            <IconStyle id="substyle_9520">
                <colorMode>normal</colorMode>
                <scale>1</scale>
                <heading>0</heading>
                <Icon id="link_9520">
                    <href>wifi4.png</href>
                </Icon>
            </IconStyle>
        </Style>
        <Style id="stylesel_9521">
            <IconStyle id="substyle_9521">
                <colorMode>normal</colorMode>
                <scale>1</scale>
                <heading>0</heading>
                <Icon id="link_9521">
                    <href>wifi4.png</href>
                </Icon>
            </IconStyle>
        </Style>
        <Style id="stylesel_9522">
            <IconStyle id="substyle_9522">
                <colorMode>normal</colorMode>
                <scale>1</scale>
                <heading>0</heading>
                <Icon id="link_9522">
                    <href>wifi4.png</href>
                </Icon>
            </IconStyle>
        </Style>
        <Style id="stylesel_9523">
            <IconStyle id="substyle_9523">
                <colorMode>normal</colorMode>
                <scale>1</scale>
                <heading>0</heading>
                <Icon id="link_9523">
                    <href>wifi4.png</href>
                </Icon>
            </IconStyle>
        </Style>
        <Style id="stylesel_9524">
            <IconStyle id="substyle_9524">
                <colorMode>normal</colorMode>
                <scale>1</scale>
                <heading>0</heading>
                <Icon id="link_9524">
                    <href>wifi4.png</href>
                </Icon>
            </IconStyle>
        </Style>
        <Style id="stylesel_9525">
            <IconStyle id="substyle_9525">
                <colorMode>normal</colorMode>
                <scale>1</scale>
                <heading>0</heading>
                <Icon id="link_9525">
                    <href>wifi4.png</href>
                </Icon>
            </IconStyle>
        </Style>
        <Style id="stylesel_9526">
            <IconStyle id="substyle_9526">
                <colorMode>normal</colorMode>
                <scale>1</scale>
                <heading>0</heading>
                <Icon id="link_9526">
                    <href>wifi4.png</href>
                </Icon>
            </IconStyle>
        </Style>
        <Style id="stylesel_9527">
            <IconStyle id="substyle_9527">
                <colorMode>normal</colorMode>
                <scale>1</scale>
                <heading>0</heading>
                <Icon id="link_9527">
                    <href>wifi4.png</href>
                </Icon>
            </IconStyle>
        </Style>
        <Style id="stylesel_9528">
            <IconStyle id="substyle_9528">
                <colorMode>normal</colorMode>
                <scale>1</scale>
                <heading>0</heading>
                <Icon id="link_9528">
                    <href>wifi4.png</href>
                </Icon>
            </IconStyle>
        </Style>
        <Style id="stylesel_9529">
            <IconStyle id="substyle_9529">
                <colorMode>normal</colorMode>
                <scale>1</scale>
                <heading>0</heading>
                <Icon id="link_9529">
                    <href>wifi4.png</href>
                </Icon>
            </IconStyle>
        </Style>
        <Style id="stylesel_9530">
            <IconStyle id="substyle_9530">
                <colorMode>normal</colorMode>
                <scale>1</scale>
                <heading>0</heading>
                <Icon id="link_9530">
                    <href>wifi4.png</href>
                </Icon>
            </IconStyle>
        </Style>
        <Style id="stylesel_9531">
            <IconStyle id="substyle_9531">
                <colorMode>normal</colorMode>
                <scale>1</scale>
                <heading>0</heading>
                <Icon id="link_9531">
                    <href>wifi4.png</href>
                </Icon>
            </IconStyle>
        </Style>
        <Style id="stylesel_9532">
            <IconStyle id="substyle_9532">
                <colorMode>normal</colorMode>
                <scale>1</scale>
                <heading>0</heading>
                <Icon id="link_9532">
                    <href>wifi4.png</href>
                </Icon>
            </IconStyle>
        </Style>
        <Style id="stylesel_9533">
            <IconStyle id="substyle_9533">
                <colorMode>normal</colorMode>
                <scale>1</scale>
                <heading>0</heading>
                <Icon id="link_9533">
                    <href>wifi4.png</href>
                </Icon>
            </IconStyle>
        </Style>
        <Style id="stylesel_9534">
            <IconStyle id="substyle_9534">
                <colorMode>normal</colorMode>
                <scale>1</scale>
                <heading>0</heading>
                <Icon id="link_9534">
                    <href>wifi4.png</href>
                </Icon>
            </IconStyle>
        </Style>
        <Style id="stylesel_9535">
            <IconStyle id="substyle_9535">
                <colorMode>normal</colorMode>
                <scale>1</scale>
                <heading>0</heading>
                <Icon id="link_9535">
                    <href>wifi4.png</href>
                </Icon>
            </IconStyle>
        </Style>
        <Style id="stylesel_9536">
            <IconStyle id="substyle_9536">
                <colorMode>normal</colorMode>
                <scale>1</scale>
                <heading>0</heading>
                <Icon id="link_9536">
                    <href>wifi4.png</href>
                </Icon>
            </IconStyle>
        </Style>
        <Style id="stylesel_9537">
            <IconStyle id="substyle_9537">
                <colorMode>normal</colorMode>
                <scale>1</scale>
                <heading>0</heading>
                <Icon id="link_9537">
                    <href>wifi4.png</href>
                </Icon>
            </IconStyle>
        </Style>
        <Style id="stylesel_9538">
            <IconStyle id="substyle_9538">
                <colorMode>normal</colorMode>
                <scale>1</scale>
                <heading>0</heading>
                <Icon id="link_9538">
                    <href>wifi4.png</href>
                </Icon>
            </IconStyle>
        </Style>
        <Style id="stylesel_9539">
            <IconStyle id="substyle_9539">
                <colorMode>normal</colorMode>
                <scale>1</scale>
                <heading>0</heading>
                <Icon id="link_9539">
                    <href>wifi4.png</href>
                </Icon>
            </IconStyle>
        </Style>
        <Style id="stylesel_9540">
            <IconStyle id="substyle_9540">
                <colorMode>normal</colorMode>
                <scale>1</scale>
                <heading>0</heading>
                <Icon id="link_9540">
                    <href>wifi4.png</href>
                </Icon>
            </IconStyle>
        </Style>
        <Style id="stylesel_9541">
            <IconStyle id="substyle_9541">
                <colorMode>normal</colorMode>
                <scale>1</scale>
                <heading>0</heading>
                <Icon id="link_9541">
                    <href>wifi4.png</href>
                </Icon>
            </IconStyle>
        </Style>
        <Style id="stylesel_9542">
            <IconStyle id="substyle_9542">
                <colorMode>normal</colorMode>
                <scale>1</scale>
                <heading>0</heading>
                <Icon id="link_9542">
                    <href>wifi4.png</href>
                </Icon>
            </IconStyle>
        </Style>
        <Style id="stylesel_9543">
            <IconStyle id="substyle_9543">
                <colorMode>normal</colorMode>
                <scale>1</scale>
                <heading>0</heading>
                <Icon id="link_9543">
                    <href>wifi4.png</href>
                </Icon>
            </IconStyle>
        </Style>
        <Style id="stylesel_9544">
            <IconStyle id="substyle_9544">
                <colorMode>normal</colorMode>
                <scale>1</scale>
                <heading>0</heading>
                <Icon id="link_9544">
                    <href>wifi4.png</href>
                </Icon>
            </IconStyle>
        </Style>
        <Placemark id="feat_9694">
            <name>LDSAccess</name>
            <description>2016-01-19T22:59:41.000Z</description>
            <styleUrl>#stylesel_9405</styleUrl>
            <Point id="geom_9405">
                <coordinates>-111.73977661,40.38711166,0.0</coordinates>
            </Point>
        </Placemark>
        <Placemark id="feat_9695">
            <name>LDSAccess</name>
            <description>2016-01-19T23:00:01.000Z</description>
            <styleUrl>#stylesel_9406</styleUrl>
            <Point id="geom_9406">
                <coordinates>-111.74008179,40.39031219,0.0</coordinates>
            </Point>
        </Placemark>
        <Placemark id="feat_9696">
            <name>LDSAccess</name>
            <description>2016-03-24T00:42:47.000Z</description>
            <styleUrl>#stylesel_9407</styleUrl>
            <Point id="geom_9407">
                <coordinates>-111.73985291,40.38559341,0.0</coordinates>
            </Point>
        </Placemark>
        <Placemark id="feat_9697">
            <name>LDSAccess</name>
            <description>2016-03-24T00:42:41.000Z</description>
            <styleUrl>#stylesel_9408</styleUrl>
            <Point id="geom_9408">
                <coordinates>-111.73984528,40.38679886,0.0</coordinates>
            </Point>
        </Placemark>
        <Placemark id="feat_9698">
            <name>LDSAccess</name>
            <description>2016-03-24T00:42:35.000Z</description>
            <styleUrl>#stylesel_9409</styleUrl>
            <Point id="geom_9409">
                <coordinates>-111.73983002,40.38804245,0.0</coordinates>
            </Point>
        </Placemark>
        <Placemark id="feat_9699">
            <name>LDSAccess</name>
            <description>2016-03-24T00:42:53.000Z</description>
            <styleUrl>#stylesel_9410</styleUrl>
            <Point id="geom_9410">
                <coordinates>-111.73983765,40.38452148,0.0</coordinates>
            </Point>
        </Placemark>
        <Placemark id="feat_9700">
            <name>LDSAccess</name>
            <description>2016-03-24T00:43:01.000Z</description>
            <styleUrl>#stylesel_9411</styleUrl>
            <Point id="geom_9411">
                <coordinates>-111.73984528,40.38335419,0.0</coordinates>
            </Point>
        </Placemark>
        <Placemark id="feat_9701">
            <name>LDSAccess</name>
            <description>2016-03-24T00:42:29.000Z</description>
            <styleUrl>#stylesel_9412</styleUrl>
            <Point id="geom_9412">
                <coordinates>-111.7397995,40.38924026,0.0</coordinates>
            </Point>
        </Placemark>
        <Placemark id="feat_9702">
            <name>LDSAccess</name>
            <description>2016-01-01T02:20:11.000Z</description>
            <styleUrl>#stylesel_9413</styleUrl>
            <Point id="geom_9413">
                <coordinates>-111.73986053,40.38618851,0.0</coordinates>
            </Point>
        </Placemark>
        <Placemark id="feat_9703">
            <name>LDSAccess</name>
            <description>2016-01-01T02:20:03.000Z</description>
            <styleUrl>#stylesel_9414</styleUrl>
            <Point id="geom_9414">
                <coordinates>-111.73984528,40.38755035,0.0</coordinates>
            </Point>
        </Placemark>
        <Placemark id="feat_9704">
            <name>LDSAccess</name>
            <description>2016-01-01T02:20:37.000Z</description>
            <styleUrl>#stylesel_9415</styleUrl>
            <Point id="geom_9415">
                <coordinates>-111.73986053,40.38201904,0.0</coordinates>
            </Point>
        </Placemark>
        <Placemark id="feat_9705">
            <name>LDSAccess</name>
            <description>2014-08-27T22:14:59.000Z</description>
            <styleUrl>#stylesel_9416</styleUrl>
            <Point id="geom_9416">
                <coordinates>-111.73983002,40.38724518,0.0</coordinates>
            </Point>
        </Placemark>
        <Placemark id="feat_9706">
            <name>LDSAccess</name>
            <description>2016-07-01T14:45:10.000Z</description>
            <styleUrl>#stylesel_9417</styleUrl>
            <Point id="geom_9417">
                <coordinates>-111.73976135,40.38772202,0.0</coordinates>
            </Point>
        </Placemark>
        <Placemark id="feat_9707">
            <name>LDSAccess</name>
            <description>2016-01-26T23:57:45.000Z</description>
            <styleUrl>#stylesel_9418</styleUrl>
            <Point id="geom_9418">
                <coordinates>-111.73984528,40.38392258,0.0</coordinates>
            </Point>
        </Placemark>
        <Placemark id="feat_9708">
            <name>LDSAccess</name>
            <description>2016-01-26T23:57:11.000Z</description>
            <styleUrl>#stylesel_9419</styleUrl>
            <Point id="geom_9419">
                <coordinates>-111.73981476,40.38940811,0.0</coordinates>
            </Point>
        </Placemark>
        <Placemark id="feat_9709">
            <name>LDSAccess</name>
            <description>2016-01-26T23:57:23.000Z</description>
            <styleUrl>#stylesel_9420</styleUrl>
            <Point id="geom_9420">
                <coordinates>-111.73986816,40.38721085,0.0</coordinates>
            </Point>
        </Placemark>
        <Placemark id="feat_9710">
            <name>LDSAccess</name>
            <description>2016-01-16T23:19:30.000Z</description>
            <styleUrl>#stylesel_9421</styleUrl>
            <Point id="geom_9421">
                <coordinates>-111.73985291,40.38841629,0.0</coordinates>
            </Point>
        </Placemark>
        <Placemark id="feat_9711">
            <name>LDSAccess</name>
            <description>2016-01-26T23:57:35.000Z</description>
            <styleUrl>#stylesel_9422</styleUrl>
            <Point id="geom_9422">
                <coordinates>-111.73986053,40.38511276,0.0</coordinates>
            </Point>
        </Placemark>
        <Placemark id="feat_9712">
            <name>LDSAccess</name>
            <description>2016-07-09T15:44:28.000Z</description>
            <styleUrl>#stylesel_9423</styleUrl>
            <Point id="geom_9423">
                <coordinates>-111.73418427,40.39101028,0.0</coordinates>
            </Point>
        </Placemark>
        <Placemark id="feat_9713">
            <name>LDSAccess</name>
            <description>2016-01-26T23:57:29.000Z</description>
            <styleUrl>#stylesel_9424</styleUrl>
            <Point id="geom_9424">
                <coordinates>-111.73986816,40.38614273,0.0</coordinates>
            </Point>
        </Placemark>
        <Placemark id="feat_9714">
            <name>LDSAccess</name>
            <description>2017-03-14T01:35:39.000Z</description>
            <styleUrl>#stylesel_9425</styleUrl>
            <Point id="geom_9425">
                <coordinates>-111.73986053,40.38733673,0.0</coordinates>
            </Point>
        </Placemark>
        <Placemark id="feat_9715">
            <name>LDSAccess</name>
            <description>2016-01-26T23:57:17.000Z</description>
            <styleUrl>#stylesel_9426</styleUrl>
            <Point id="geom_9426">
                <coordinates>-111.73983765,40.38831711,0.0</coordinates>
            </Point>
        </Placemark>
        <Placemark id="feat_9716">
            <name>LDSAccess</name>
            <description>2016-01-01T02:19:57.000Z</description>
            <styleUrl>#stylesel_9427</styleUrl>
            <Point id="geom_9427">
                <coordinates>-111.73981476,40.38863373,0.0</coordinates>
            </Point>
        </Placemark>
        <Placemark id="feat_9717">
            <name>LDSAccess</name>
            <description>2016-01-16T23:19:54.000Z</description>
            <styleUrl>#stylesel_9428</styleUrl>
            <Point id="geom_9428">
                <coordinates>-111.73985291,40.3844986,0.0</coordinates>
            </Point>
        </Placemark>
        <Placemark id="feat_9718">
            <name>LDSAccess</name>
            <description>2017-09-04T16:27:21.000Z</description>
            <styleUrl>#stylesel_9429</styleUrl>
            <Point id="geom_9429">
                <coordinates>-111.73982239,40.38735199,0.0</coordinates>
            </Point>
        </Placemark>
        <Placemark id="feat_9719">
            <name>LDSAccess</name>
            <description>2016-01-16T23:19:46.000Z</description>
            <styleUrl>#stylesel_9430</styleUrl>
            <Point id="geom_9430">
                <coordinates>-111.73987579,40.38581467,0.0</coordinates>
            </Point>
        </Placemark>
        <Placemark id="feat_9720">
            <name>LDSAccess</name>
            <description>2017-09-04T16:11:59.000Z</description>
            <styleUrl>#stylesel_9431</styleUrl>
            <Point id="geom_9431">
                <coordinates>-111.73976898,40.38764572,0.0</coordinates>
            </Point>
        </Placemark>
        <Placemark id="feat_9721">
            <name>LDSAccess</name>
            <description>2016-01-16T23:19:38.000Z</description>
            <styleUrl>#stylesel_9432</styleUrl>
            <Point id="geom_9432">
                <coordinates>-111.73987579,40.38712692,0.0</coordinates>
            </Point>
        </Placemark>
        <Placemark id="feat_9722">
            <name>LDSAccess</name>
            <description>2014-11-23T01:23:54.000Z</description>
            <styleUrl>#stylesel_9433</styleUrl>
            <Point id="geom_9433">
                <coordinates>-111.73983002,40.3891716,0.0</coordinates>
            </Point>
        </Placemark>
        <Placemark id="feat_9723">
            <name>LDSAccess</name>
            <description>2014-04-28T21:28:17.000Z</description>
            <styleUrl>#stylesel_9434</styleUrl>
            <Point id="geom_9434">
                <coordinates>-111.73977661,40.38778305,0.0</coordinates>
            </Point>
        </Placemark>
        <Placemark id="feat_9724">
            <name>LDSAccess</name>
            <description>2014-04-28T21:28:31.000Z</description>
            <styleUrl>#stylesel_9435</styleUrl>
            <Point id="geom_9435">
                <coordinates>-111.73992157,40.39001846,0.0</coordinates>
            </Point>
        </Placemark>
        <Placemark id="feat_9725">
            <name>LDSAccess</name>
            <description>2017-06-21T01:07:55.000Z</description>
            <styleUrl>#stylesel_9436</styleUrl>
            <Point id="geom_9436">
                <coordinates>-111.73991394,40.38734436,0.0</coordinates>
            </Point>
        </Placemark>
        <Placemark id="feat_9726">
            <name>LDSAccess</name>
            <description>2015-01-13T02:54:01.000Z</description>
            <styleUrl>#stylesel_9437</styleUrl>
            <Point id="geom_9437">
                <coordinates>-111.73975372,40.38819504,0.0</coordinates>
            </Point>
        </Placemark>
        <Placemark id="feat_9727">
            <name>LDSAccess</name>
            <description>2017-03-08T00:34:02.000Z</description>
            <styleUrl>#stylesel_9438</styleUrl>
            <Point id="geom_9438">
                <coordinates>-111.73987579,40.38591003,0.0</coordinates>
            </Point>
        </Placemark>
        <Placemark id="feat_9728">
            <name>LDSAccess</name>
            <description>2014-11-23T00:19:55.000Z</description>
            <styleUrl>#stylesel_9439</styleUrl>
            <Point id="geom_9439">
                <coordinates>-111.73973083,40.38825607,0.0</coordinates>
            </Point>
        </Placemark>
        <Placemark id="feat_9729">
            <name>LDSAccess</name>
            <description>2014-11-23T01:24:04.000Z</description>
            <styleUrl>#stylesel_9440</styleUrl>
            <Point id="geom_9440">
                <coordinates>-111.73987579,40.3878479,0.0</coordinates>
            </Point>
        </Placemark>
        <Placemark id="feat_9730">
            <name>LDSAccess</name>
            <description>2014-07-13T02:37:11.000Z</description>
            <styleUrl>#stylesel_9441</styleUrl>
            <Point id="geom_9441">
                <coordinates>-111.73977661,40.38781357,0.0</coordinates>
            </Point>
        </Placemark>
        <Placemark id="feat_9731">
            <name>LDSAccess</name>
            <description>2015-01-13T03:13:10.000Z</description>
            <styleUrl>#stylesel_9442</styleUrl>
            <Point id="geom_9442">
                <coordinates>-111.73983765,40.38705826,0.0</coordinates>
            </Point>
        </Placemark>
        <Placemark id="feat_9732">
            <name>LDSAccess</name>
            <description>2014-11-23T01:24:11.000Z</description>
            <styleUrl>#stylesel_9443</styleUrl>
            <Point id="geom_9443">
                <coordinates>-111.73988342,40.38677597,0.0</coordinates>
            </Point>
        </Placemark>
        <Placemark id="feat_9733">
            <name>LDSAccess</name>
            <description>2014-04-28T21:28:23.000Z</description>
            <styleUrl>#stylesel_9444</styleUrl>
            <Point id="geom_9444">
                <coordinates>-111.73973846,40.38878632,0.0</coordinates>
            </Point>
        </Placemark>
        <Placemark id="feat_9734">
            <name>LDSAccess</name>
            <description>2014-07-14T05:09:12.000Z</description>
            <styleUrl>#stylesel_9445</styleUrl>
            <Point id="geom_9445">
                <coordinates>-111.73974609,40.38838196,0.0</coordinates>
            </Point>
        </Placemark>
        <Placemark id="feat_9735">
            <name>LDSAccess</name>
            <description>2014-11-23T00:20:02.000Z</description>
            <styleUrl>#stylesel_9446</styleUrl>
            <Point id="geom_9446">
                <coordinates>-111.73968506,40.38939285,0.0</coordinates>
            </Point>
        </Placemark>
        <Placemark id="feat_9736">
            <name>LDSAccess</name>
            <description>2017-07-23T01:39:37.000Z</description>
            <styleUrl>#stylesel_9447</styleUrl>
            <Point id="geom_9447">
                <coordinates>-111.73976135,40.3879776,0.0</coordinates>
            </Point>
        </Placemark>
        <Placemark id="feat_9737">
            <name>LDSAccess</name>
            <description>2017-03-08T00:33:52.000Z</description>
            <styleUrl>#stylesel_9448</styleUrl>
            <Point id="geom_9448">
                <coordinates>-111.73985291,40.38776779,0.0</coordinates>
            </Point>
        </Placemark>
        <Placemark id="feat_9738">
            <name>LDSAccess</name>
            <description>2015-01-13T03:13:03.000Z</description>
            <styleUrl>#stylesel_9449</styleUrl>
            <Point id="geom_9449">
                <coordinates>-111.73984528,40.38817596,0.0</coordinates>
            </Point>
        </Placemark>
        <Placemark id="feat_9739">
            <name>LDSAccess</name>
            <description>2016-09-22T23:02:01.000Z</description>
            <styleUrl>#stylesel_9450</styleUrl>
            <Point id="geom_9450">
                <coordinates>-111.73413086,40.39100266,0.0</coordinates>
            </Point>
        </Placemark>
        <Placemark id="feat_9740">
            <name>LDSAccess</name>
            <description>2017-03-25T16:33:26.000Z</description>
            <styleUrl>#stylesel_9451</styleUrl>
            <Point id="geom_9451">
                <coordinates>-111.74069214,40.39079285,0.0</coordinates>
            </Point>
        </Placemark>
        <Placemark id="feat_9741">
            <name>LDSAccess</name>
            <description>2017-06-17T14:33:04.000Z</description>
            <styleUrl>#stylesel_9452</styleUrl>
            <Point id="geom_9452">
                <coordinates>-111.73484802,40.39191055,0.0</coordinates>
            </Point>
        </Placemark>
        <Placemark id="feat_9742">
            <name>LDSAccess</name>
            <description>2016-04-30T19:48:38.000Z</description>
            <styleUrl>#stylesel_9453</styleUrl>
            <Point id="geom_9453">
                <coordinates>-111.73980713,40.38642502,0.0</coordinates>
            </Point>
        </Placemark>
        <Placemark id="feat_9743">
            <name>LDSAccess</name>
            <description>2016-03-23T23:13:31.000Z</description>
            <styleUrl>#stylesel_9454</styleUrl>
            <Point id="geom_9454">
                <coordinates>-111.73978424,40.38812637,0.0</coordinates>
            </Point>
        </Placemark>
        <Placemark id="feat_9744">
            <name>LDSAccess</name>
            <description>2017-03-14T01:35:42.000Z</description>
            <styleUrl>#stylesel_9455</styleUrl>
            <Point id="geom_9455">
                <coordinates>-111.73984528,40.38677979,0.0</coordinates>
            </Point>
        </Placemark>
        <Placemark id="feat_9745">
            <name>LDSAccess</name>
            <description>2017-07-14T01:06:38.000Z</description>
            <styleUrl>#stylesel_9456</styleUrl>
            <Point id="geom_9456">
                <coordinates>-111.73985291,40.38653183,0.0</coordinates>
            </Point>
        </Placemark>
        <Placemark id="feat_9746">
            <name>LDSAccess</name>
            <description>2016-01-19T23:15:48.000Z</description>
            <styleUrl>#stylesel_9457</styleUrl>
            <Point id="geom_9457">
                <coordinates>-111.73986816,40.38737106,0.0</coordinates>
            </Point>
        </Placemark>
        <Placemark id="feat_9747">
            <name>LDSAccess</name>
            <description>2015-07-26T04:19:59.000Z</description>
            <styleUrl>#stylesel_9458</styleUrl>
            <Point id="geom_9458">
                <coordinates>-111.73983002,40.38800049,0.0</coordinates>
            </Point>
        </Placemark>
        <Placemark id="feat_9748">
            <name>LDSAccess</name>
            <description>2016-07-01T15:53:29.000Z</description>
            <styleUrl>#stylesel_9459</styleUrl>
            <Point id="geom_9459">
                <coordinates>-111.73977661,40.38787079,0.0</coordinates>
            </Point>
        </Placemark>
        <Placemark id="feat_9749">
            <name>LDSAccess</name>
            <description>2016-03-23T23:13:45.000Z</description>
            <styleUrl>#stylesel_9460</styleUrl>
            <Point id="geom_9460">
                <coordinates>-111.74024963,40.39043427,0.0</coordinates>
            </Point>
        </Placemark>
        <Placemark id="feat_9750">
            <name>LDSAccess</name>
            <description>2016-09-04T16:23:59.000Z</description>
            <styleUrl>#stylesel_9461</styleUrl>
            <Point id="geom_9461">
                <coordinates>-111.73976135,40.38750839,0.0</coordinates>
            </Point>
        </Placemark>
        <Placemark id="feat_9751">
            <name>LDSAccess</name>
            <description>2014-07-14T23:26:28.000Z</description>
            <styleUrl>#stylesel_9462</styleUrl>
            <Point id="geom_9462">
                <coordinates>-111.73989868,40.38695526,0.0</coordinates>
            </Point>
        </Placemark>
        <Placemark id="feat_9752">
            <name>LDSAccess</name>
            <description>2016-07-01T14:45:19.000Z</description>
            <styleUrl>#stylesel_9463</styleUrl>
            <Point id="geom_9463">
                <coordinates>-111.73973846,40.38917923,0.0</coordinates>
            </Point>
        </Placemark>
        <Placemark id="feat_9753">
            <name>LDSAccess</name>
            <description>2016-03-23T23:13:59.000Z</description>
            <styleUrl>#stylesel_9464</styleUrl>
            <Point id="geom_9464">
                <coordinates>-111.74268341,40.39208221,0.0</coordinates>
            </Point>
        </Placemark>
        <Placemark id="feat_9754">
            <name>LDSAccess</name>
            <description>2016-03-23T23:13:37.000Z</description>
            <styleUrl>#stylesel_9465</styleUrl>
            <Point id="geom_9465">
                <coordinates>-111.73976898,40.38917542,0.0</coordinates>
            </Point>
        </Placemark>
        <Placemark id="feat_9755">
            <name>LDSAccess</name>
            <description>2016-03-23T23:13:53.000Z</description>
            <styleUrl>#stylesel_9466</styleUrl>
            <Point id="geom_9466">
                <coordinates>-111.74158478,40.3913765,0.0</coordinates>
            </Point>
        </Placemark>
        <Placemark id="feat_9756">
            <name>LDSAccess</name>
            <description>2016-01-16T23:19:24.000Z</description>
            <styleUrl>#stylesel_9467</styleUrl>
            <Point id="geom_9467">
                <coordinates>-111.73983765,40.38943481,0.0</coordinates>
            </Point>
        </Placemark>
        <Placemark id="feat_9757">
            <name>LDSAccess</name>
            <description>2017-08-29T21:41:02.000Z</description>
            <styleUrl>#stylesel_9468</styleUrl>
            <Point id="geom_9468">
                <coordinates>-111.73990631,40.38663483,0.0</coordinates>
            </Point>
        </Placemark>
        <Placemark id="feat_9758">
            <name>LDSAccess</name>
            <description>2016-09-04T16:24:05.000Z</description>
            <styleUrl>#stylesel_9469</styleUrl>
            <Point id="geom_9469">
                <coordinates>-111.73976135,40.38856506,0.0</coordinates>
            </Point>
        </Placemark>
        <Placemark id="feat_9759">
            <name>LDSAccess</name>
            <description>2014-12-08T16:45:24.000Z</description>
            <styleUrl>#stylesel_9470</styleUrl>
            <Point id="geom_9470">
                <coordinates>-111.73984528,40.38782501,0.0</coordinates>
            </Point>
        </Placemark>
        <Placemark id="feat_9760">
            <name>LDSAccess</name>
            <description>2014-08-27T22:15:09.000Z</description>
            <styleUrl>#stylesel_9471</styleUrl>
            <Point id="geom_9471">
                <coordinates>-111.73984528,40.38541412,0.0</coordinates>
            </Point>
        </Placemark>
        <Placemark id="feat_9761">
            <name>LDSAccess</name>
            <description>2014-08-27T22:14:51.000Z</description>
            <styleUrl>#stylesel_9472</styleUrl>
            <Point id="geom_9472">
                <coordinates>-111.73979187,40.38868332,0.0</coordinates>
            </Point>
        </Placemark>
        <Placemark id="feat_9762">
            <name>LDSAccess</name>
            <description>2017-08-29T21:40:56.000Z</description>
            <styleUrl>#stylesel_9473</styleUrl>
            <Point id="geom_9473">
                <coordinates>-111.73987579,40.38767242,0.0</coordinates>
            </Point>
        </Placemark>
        <Placemark id="feat_9763">
            <name>LDSAccess</name>
            <description>2016-03-23T23:13:25.000Z</description>
            <styleUrl>#stylesel_9474</styleUrl>
            <Point id="geom_9474">
                <coordinates>-111.73979187,40.387043,0.0</coordinates>
            </Point>
        </Placemark>
        <Placemark id="feat_9764">
            <name>LDSAccess</name>
            <description>2014-11-23T00:19:49.000Z</description>
            <styleUrl>#stylesel_9475</styleUrl>
            <Point id="geom_9475">
                <coordinates>-111.73973846,40.38724136,0.0</coordinates>
            </Point>
        </Placemark>
        <Placemark id="feat_9765">
            <name>LDSAccess</name>
            <description>2014-07-13T02:37:21.000Z</description>
            <styleUrl>#stylesel_9476</styleUrl>
            <Point id="geom_9476">
                <coordinates>-111.73976898,40.38921738,0.0</coordinates>
            </Point>
        </Placemark>
        <Placemark id="feat_9766">
            <name>LDSAccess</name>
            <description>2016-07-01T15:19:31.000Z</description>
            <styleUrl>#stylesel_9477</styleUrl>
            <Point id="geom_9477">
                <coordinates>-111.73447418,40.39147568,0.0</coordinates>
            </Point>
        </Placemark>
        <Placemark id="feat_9767">
            <name>LDSAccess</name>
            <description>2014-08-28T18:29:21.000Z</description>
            <styleUrl>#stylesel_9478</styleUrl>
            <Point id="geom_9478">
                <coordinates>-111.73629761,40.38921738,0.0</coordinates>
            </Point>
        </Placemark>
        <Placemark id="feat_9768">
            <name>LDSAccess</name>
            <description>2016-07-01T16:02:47.000Z</description>
            <styleUrl>#stylesel_9479</styleUrl>
            <Point id="geom_9479">
                <coordinates>-111.73983002,40.38665009,0.0</coordinates>
            </Point>
        </Placemark>
        <Placemark id="feat_9769">
            <name>LDSAccess</name>
            <description>2017-03-14T01:35:33.000Z</description>
            <styleUrl>#stylesel_9480</styleUrl>
            <Point id="geom_9480">
                <coordinates>-111.73982239,40.38847351,0.0</coordinates>
            </Point>
        </Placemark>
        <Placemark id="feat_9770">
            <name>LDSAccess</name>
            <description>2015-01-13T02:54:09.000Z</description>
            <styleUrl>#stylesel_9481</styleUrl>
            <Point id="geom_9481">
                <coordinates>-111.73973846,40.38927841,0.0</coordinates>
            </Point>
        </Placemark>
        <Placemark id="feat_9771">
            <name>LDSAccess</name>
            <description>2014-08-28T18:28:59.000Z</description>
            <styleUrl>#stylesel_9482</styleUrl>
            <Point id="geom_9482">
                <coordinates>-111.73543549,40.38809204,0.0</coordinates>
            </Point>
        </Placemark>
        <Placemark id="feat_9772">
            <name>LDSAccess</name>
            <description>2014-07-14T05:09:05.000Z</description>
            <styleUrl>#stylesel_9483</styleUrl>
            <Point id="geom_9483">
                <coordinates>-111.73975372,40.38735199,0.0</coordinates>
            </Point>
        </Placemark>
        <Placemark id="feat_9773">
            <name>LDSAccess</name>
            <description>2017-02-15T20:20:26.000Z</description>
            <styleUrl>#stylesel_9484</styleUrl>
            <Point id="geom_9484">
                <coordinates>-111.73979187,40.3879776,0.0</coordinates>
            </Point>
        </Placemark>
        <Placemark id="feat_9774">
            <name>LDSAccess</name>
            <description>2015-07-26T04:20:06.000Z</description>
            <styleUrl>#stylesel_9485</styleUrl>
            <Point id="geom_9485">
                <coordinates>-111.73984528,40.38693619,0.0</coordinates>
            </Point>
        </Placemark>
        <Placemark id="feat_9775">
            <name>LDSAccess</name>
            <description>2017-02-15T20:20:24.000Z</description>
            <styleUrl>#stylesel_9486</styleUrl>
            <Point id="geom_9486">
                <coordinates>-111.73984528,40.38762665,0.0</coordinates>
            </Point>
        </Placemark>
        <Placemark id="feat_9776">
            <name>LDSAccess</name>
            <description>2014-08-28T18:28:39.000Z</description>
            <styleUrl>#stylesel_9487</styleUrl>
            <Point id="geom_9487">
                <coordinates>-111.73468781,40.3870697,0.0</coordinates>
            </Point>
        </Placemark>
        <Placemark id="feat_9777">
            <name>LDSAccess</name>
            <description>2017-07-14T01:06:39.000Z</description>
            <styleUrl>#stylesel_9488</styleUrl>
            <Point id="geom_9488">
                <coordinates>-111.73982239,40.38632202,0.0</coordinates>
            </Point>
        </Placemark>
        <Placemark id="feat_9778">
            <name>LDSAccess</name>
            <description>2015-07-26T04:19:51.000Z</description>
            <styleUrl>#stylesel_9489</styleUrl>
            <Point id="geom_9489">
                <coordinates>-111.73979187,40.38921738,0.0</coordinates>
            </Point>
        </Placemark>
        <Placemark id="feat_9779">
            <name>LDSAccess</name>
            <description>2014-04-28T21:28:10.000Z</description>
            <styleUrl>#stylesel_9490</styleUrl>
            <Point id="geom_9490">
                <coordinates>-111.7397995,40.38659286,0.0</coordinates>
            </Point>
        </Placemark>
        <Placemark id="feat_9780">
            <name>LDSAccess</name>
            <description>2016-05-07T15:33:59.000Z</description>
            <styleUrl>#stylesel_9491</styleUrl>
            <Point id="geom_9491">
                <coordinates>-111.73468018,40.39177322,0.0</coordinates>
            </Point>
        </Placemark>
        <Placemark id="feat_9781">
            <name>LDSAccess</name>
            <description>2017-09-04T16:12:05.000Z</description>
            <styleUrl>#stylesel_9492</styleUrl>
            <Point id="geom_9492">
                <coordinates>-111.73975372,40.38870621,0.0</coordinates>
            </Point>
        </Placemark>
        <Placemark id="feat_9782">
            <name>LDSAccess</name>
            <description>2017-02-21T20:36:30.000Z</description>
            <styleUrl>#stylesel_9493</styleUrl>
            <Point id="geom_9493">
                <coordinates>-111.73978424,40.3891983,0.0</coordinates>
            </Point>
        </Placemark>
        <Placemark id="feat_9783">
            <name>LDSAccess</name>
            <description>2017-03-25T16:33:06.000Z</description>
            <styleUrl>#stylesel_9494</styleUrl>
            <Point id="geom_9494">
                <coordinates>-111.73979187,40.38774872,0.0</coordinates>
            </Point>
        </Placemark>
        <Placemark id="feat_9784">
            <name>LDSAccess</name>
            <description>2017-03-25T16:33:03.000Z</description>
            <styleUrl>#stylesel_9495</styleUrl>
            <Point id="geom_9495">
                <coordinates>-111.73976898,40.38720703,0.0</coordinates>
            </Point>
        </Placemark>
        <Placemark id="feat_9785">
            <name>LDSAccess</name>
            <description>2017-06-21T01:07:57.000Z</description>
            <styleUrl>#stylesel_9496</styleUrl>
            <Point id="geom_9496">
                <coordinates>-111.73983765,40.38695145,0.0</coordinates>
            </Point>
        </Placemark>
        <Placemark id="feat_9786">
            <name>LDSAccess</name>
            <description>2014-08-28T18:58:44.000Z</description>
            <styleUrl>#stylesel_9497</styleUrl>
            <Point id="geom_9497">
                <coordinates>-111.73633575,40.38919067,0.0</coordinates>
            </Point>
        </Placemark>
        <Placemark id="feat_9787">
            <name>LDSAccess</name>
            <description>2017-03-08T00:33:58.000Z</description>
            <styleUrl>#stylesel_9498</styleUrl>
            <Point id="geom_9498">
                <coordinates>-111.73985291,40.38666153,0.0</coordinates>
            </Point>
        </Placemark>
        <Placemark id="feat_9788">
            <name>LDSAccess</name>
            <description>2017-03-08T00:33:51.000Z</description>
            <styleUrl>#stylesel_9499</styleUrl>
            <Point id="geom_9499">
                <coordinates>-111.73985291,40.38796234,0.0</coordinates>
            </Point>
        </Placemark>
        <Placemark id="feat_9789">
            <name>LDSAccess</name>
            <description>2017-07-14T01:06:28.000Z</description>
            <styleUrl>#stylesel_9500</styleUrl>
            <Point id="geom_9500">
                <coordinates>-111.73982239,40.38831329,0.0</coordinates>
            </Point>
        </Placemark>
        <Placemark id="feat_9790">
            <name>LDSAccess</name>
            <description>2017-06-21T01:07:51.000Z</description>
            <styleUrl>#stylesel_9501</styleUrl>
            <Point id="geom_9501">
                <coordinates>-111.73983002,40.38824463,0.0</coordinates>
            </Point>
        </Placemark>
        <Placemark id="feat_9791">
            <name>LDSAccess</name>
            <description>2014-08-28T18:29:44.000Z</description>
            <styleUrl>#stylesel_9502</styleUrl>
            <Point id="geom_9502">
                <coordinates>-111.73739624,40.39028549,0.0</coordinates>
            </Point>
        </Placemark>
        <Placemark id="feat_9792">
            <name>LDSAccess</name>
            <description>2017-02-15T20:20:23.000Z</description>
            <styleUrl>#stylesel_9503</styleUrl>
            <Point id="geom_9503">
                <coordinates>-111.73979187,40.38747025,0.0</coordinates>
            </Point>
        </Placemark>
        <Placemark id="feat_9793">
            <name>LDSAccess</name>
            <description>2017-03-08T00:33:51.000Z</description>
            <styleUrl>#stylesel_9504</styleUrl>
            <Point id="geom_9504">
                <coordinates>-111.73982239,40.38794708,0.0</coordinates>
            </Point>
        </Placemark>
        <Placemark id="feat_9794">
            <name>LDSAccess</name>
            <description>2016-08-20T23:31:08.000Z</description>
            <styleUrl>#stylesel_9505</styleUrl>
            <Point id="geom_9505">
                <coordinates>-111.73977661,40.38953781,0.0</coordinates>
            </Point>
        </Placemark>
        <Placemark id="feat_9795">
            <name>LDSAccess</name>
            <description>2017-03-14T01:35:31.000Z</description>
            <styleUrl>#stylesel_9506</styleUrl>
            <Point id="geom_9506">
                <coordinates>-111.73980713,40.38881683,0.0</coordinates>
            </Point>
        </Placemark>
        <Placemark id="feat_9796">
            <name>LDSAccess</name>
            <description>2017-02-15T20:20:34.000Z</description>
            <styleUrl>#stylesel_9507</styleUrl>
            <Point id="geom_9507">
                <coordinates>-111.73980713,40.38937378,0.0</coordinates>
            </Point>
        </Placemark>
        <Placemark id="feat_9797">
            <name>LDSAccess</name>
            <description>2016-11-11T02:38:27.000Z</description>
            <styleUrl>#stylesel_9508</styleUrl>
            <Point id="geom_9508">
                <coordinates>-111.73987579,40.38711166,0.0</coordinates>
            </Point>
        </Placemark>
        <Placemark id="feat_9798">
            <name>LDSAccess</name>
            <description>2017-07-23T01:39:34.000Z</description>
            <styleUrl>#stylesel_9509</styleUrl>
            <Point id="geom_9509">
                <coordinates>-111.73978424,40.38753128,0.0</coordinates>
            </Point>
        </Placemark>
        <Placemark id="feat_9799">
            <name>LDSAccess</name>
            <description>2017-02-21T20:36:29.000Z</description>
            <styleUrl>#stylesel_9510</styleUrl>
            <Point id="geom_9510">
                <coordinates>-111.73976135,40.3890419,0.0</coordinates>
            </Point>
        </Placemark>
        <Placemark id="feat_9800">
            <name>LDSAccess</name>
            <description>2016-08-20T23:31:00.000Z</description>
            <styleUrl>#stylesel_9511</styleUrl>
            <Point id="geom_9511">
                <coordinates>-111.73976135,40.38835907,0.0</coordinates>
            </Point>
        </Placemark>
        <Placemark id="feat_9801">
            <name>LDSAccess</name>
            <description>2017-02-21T20:36:23.000Z</description>
            <styleUrl>#stylesel_9512</styleUrl>
            <Point id="geom_9512">
                <coordinates>-111.73977661,40.38802338,0.0</coordinates>
            </Point>
        </Placemark>
        <Placemark id="feat_9802">
            <name>LDSAccess</name>
            <description>2016-04-09T13:58:40.000Z</description>
            <styleUrl>#stylesel_9513</styleUrl>
            <Point id="geom_9513">
                <coordinates>-111.73978424,40.3880806,0.0</coordinates>
            </Point>
        </Placemark>
        <Placemark id="feat_9803">
            <name>LDSAccess</name>
            <description>2017-03-17T00:54:09.000Z</description>
            <styleUrl>#stylesel_9514</styleUrl>
            <Point id="geom_9514">
                <coordinates>-111.73996735,40.39011383,0.0</coordinates>
            </Point>
        </Placemark>
        <Placemark id="feat_9804">
            <name>LDSAccess</name>
            <description>2016-08-16T15:21:23.000Z</description>
            <styleUrl>#stylesel_9515</styleUrl>
            <Point id="geom_9515">
                <coordinates>-111.7397995,40.38736725,0.0</coordinates>
            </Point>
        </Placemark>
        <Placemark id="feat_9805">
            <name>LDSAccess</name>
            <description>2017-09-04T16:27:27.000Z</description>
            <styleUrl>#stylesel_9516</styleUrl>
            <Point id="geom_9516">
                <coordinates>-111.73984528,40.3862915,0.0</coordinates>
            </Point>
        </Placemark>
        <Placemark id="feat_9806">
            <name>LDSAccess</name>
            <description>2014-11-23T00:19:43.000Z</description>
            <styleUrl>#stylesel_9517</styleUrl>
            <Point id="geom_9517">
                <coordinates>-111.73973083,40.38617706,0.0</coordinates>
            </Point>
        </Placemark>
        <Placemark id="feat_9807">
            <name>LDSAccess</name>
            <description>2017-03-17T00:54:00.000Z</description>
            <styleUrl>#stylesel_9518</styleUrl>
            <Point id="geom_9518">
                <coordinates>-111.73979187,40.3887291,0.0</coordinates>
            </Point>
        </Placemark>
        <Placemark id="feat_9808">
            <name>LDSAccess</name>
            <description>2017-07-23T01:39:42.000Z</description>
            <styleUrl>#stylesel_9519</styleUrl>
            <Point id="geom_9519">
                <coordinates>-111.73975372,40.38884354,0.0</coordinates>
            </Point>
        </Placemark>
        <Placemark id="feat_9809">
            <name>LDSAccess</name>
            <description>2017-07-23T01:39:34.000Z</description>
            <styleUrl>#stylesel_9520</styleUrl>
            <Point id="geom_9520">
                <coordinates>-111.73976898,40.38748932,0.0</coordinates>
            </Point>
        </Placemark>
        <Placemark id="feat_9810">
            <name>LDSAccess</name>
            <description>2016-05-14T14:55:46.000Z</description>
            <styleUrl>#stylesel_9521</styleUrl>
            <Point id="geom_9521">
                <coordinates>-111.73977661,40.38827896,0.0</coordinates>
            </Point>
        </Placemark>
        <Placemark id="feat_9811">
            <name>LDSAccess</name>
            <description>2014-08-28T19:01:44.000Z</description>
            <styleUrl>#stylesel_9522</styleUrl>
            <Point id="geom_9522">
                <coordinates>-111.73548126,40.38808823,0.0</coordinates>
            </Point>
        </Placemark>
        <Placemark id="feat_9812">
            <name>LDSAccess</name>
            <description>2015-01-13T02:53:50.000Z</description>
            <styleUrl>#stylesel_9523</styleUrl>
            <Point id="geom_9523">
                <coordinates>-111.73976898,40.3866272,0.0</coordinates>
            </Point>
        </Placemark>
        <Placemark id="feat_9813">
            <name>LDSAccess</name>
            <description>1970-01-01T01:00:00.000Z</description>
            <styleUrl>#stylesel_9524</styleUrl>
            <Point id="geom_9524">
                <coordinates>-111.78556824,40.46982193,0.0</coordinates>
            </Point>
        </Placemark>
        <Placemark id="feat_9814">
            <name>LDSAccess</name>
            <description>2017-03-25T14:36:03.000Z</description>
            <styleUrl>#stylesel_9525</styleUrl>
            <Point id="geom_9525">
                <coordinates>-111.73975372,40.38846588,0.0</coordinates>
            </Point>
        </Placemark>
        <Placemark id="feat_9815">
            <name>LDSAccess</name>
            <description>1970-01-01T01:00:00.000Z</description>
            <styleUrl>#stylesel_9526</styleUrl>
            <Point id="geom_9526">
                <coordinates>-111.80077362,40.49886703,0.0</coordinates>
            </Point>
        </Placemark>
        <Placemark id="feat_9816">
            <name>LDSAccess</name>
            <description>2017-03-17T00:53:54.000Z</description>
            <styleUrl>#stylesel_9527</styleUrl>
            <Point id="geom_9527">
                <coordinates>-111.73977661,40.38776779,0.0</coordinates>
            </Point>
        </Placemark>
        <Placemark id="feat_9817">
            <name>LDSAccess</name>
            <description>2016-01-19T23:15:40.000Z</description>
            <styleUrl>#stylesel_9528</styleUrl>
            <Point id="geom_9528">
                <coordinates>-111.73983765,40.38867188,0.0</coordinates>
            </Point>
        </Placemark>
        <Placemark id="feat_9818">
            <name>LDSAccess</name>
            <description>2016-08-01T01:39:07.000Z</description>
            <styleUrl>#stylesel_9529</styleUrl>
            <Point id="geom_9529">
                <coordinates>-111.73640442,40.38930511,0.0</coordinates>
            </Point>
        </Placemark>
        <Placemark id="feat_9819">
            <name>LDSAccess</name>
            <description>2017-02-21T20:36:22.000Z</description>
            <styleUrl>#stylesel_9530</styleUrl>
            <Point id="geom_9530">
                <coordinates>-111.73980713,40.38783264,0.0</coordinates>
            </Point>
        </Placemark>
        <Placemark id="feat_9820">
            <name>LDSAccess</name>
            <description>2016-04-30T19:48:30.000Z</description>
            <styleUrl>#stylesel_9531</styleUrl>
            <Point id="geom_9531">
                <coordinates>-111.7397995,40.38781357,0.0</coordinates>
            </Point>
        </Placemark>
        <Placemark id="feat_9821">
            <name>LDSAccess</name>
            <description>2016-08-16T15:21:30.000Z</description>
            <styleUrl>#stylesel_9532</styleUrl>
            <Point id="geom_9532">
                <coordinates>-111.73979187,40.38857269,0.0</coordinates>
            </Point>
        </Placemark>
        <Placemark id="feat_9822">
            <name>LDSAccess</name>
            <description>2016-11-11T02:38:19.000Z</description>
            <styleUrl>#stylesel_9533</styleUrl>
            <Point id="geom_9533">
                <coordinates>-111.73983765,40.3882637,0.0</coordinates>
            </Point>
        </Placemark>
        <Placemark id="feat_9823">
            <name>LDSAccess</name>
            <description>2014-12-08T16:45:18.000Z</description>
            <styleUrl>#stylesel_9534</styleUrl>
            <Point id="geom_9534">
                <coordinates>-111.73978424,40.38889694,0.0</coordinates>
            </Point>
        </Placemark>
        <Placemark id="feat_9824">
            <name>LDSAccess</name>
            <description>2014-12-08T16:45:42.000Z</description>
            <styleUrl>#stylesel_9535</styleUrl>
            <Point id="geom_9535">
                <coordinates>-111.73983002,40.38489151,0.0</coordinates>
            </Point>
        </Placemark>
        <Placemark id="feat_9825">
            <name>LDSAccess</name>
            <description>2014-12-08T16:45:35.000Z</description>
            <styleUrl>#stylesel_9536</styleUrl>
            <Point id="geom_9536">
                <coordinates>-111.73985291,40.38592148,0.0</coordinates>
            </Point>
        </Placemark>
        <Placemark id="feat_9826">
            <name>LDSAccess</name>
            <description>2016-08-01T01:58:51.000Z</description>
            <styleUrl>#stylesel_9537</styleUrl>
            <Point id="geom_9537">
                <coordinates>-111.73635101,40.38919449,0.0</coordinates>
            </Point>
        </Placemark>
        <Placemark id="feat_9827">
            <name>LDSAccess</name>
            <description>2017-02-15T20:20:30.000Z</description>
            <styleUrl>#stylesel_9538</styleUrl>
            <Point id="geom_9538">
                <coordinates>-111.73983765,40.3886795,0.0</coordinates>
            </Point>
        </Placemark>
        <Placemark id="feat_9828">
            <name>LDSAccess</name>
            <description>2016-08-26T22:36:58.000Z</description>
            <styleUrl>#stylesel_9539</styleUrl>
            <Point id="geom_9539">
                <coordinates>-111.73989868,40.38672638,0.0</coordinates>
            </Point>
        </Placemark>
        <Placemark id="feat_9829">
            <name>LDSAccess</name>
            <description>2017-03-25T14:35:57.000Z</description>
            <styleUrl>#stylesel_9540</styleUrl>
            <Point id="geom_9540">
                <coordinates>-111.73976898,40.38745117,0.0</coordinates>
            </Point>
        </Placemark>
        <Placemark id="feat_9830">
            <name>LDSAccess</name>
            <description>2016-05-14T14:55:54.000Z</description>
            <styleUrl>#stylesel_9541</styleUrl>
            <Point id="geom_9541">
                <coordinates>-111.73983002,40.38970566,0.0</coordinates>
            </Point>
        </Placemark>
        <Placemark id="feat_9831">
            <name>LDSAccess</name>
            <description>2016-08-26T22:36:50.000Z</description>
            <styleUrl>#stylesel_9542</styleUrl>
            <Point id="geom_9542">
                <coordinates>-111.73988342,40.38819885,0.0</coordinates>
            </Point>
        </Placemark>
        <Placemark id="feat_9832">
            <name>LDSAccess</name>
            <description>2016-08-01T01:39:57.000Z</description>
            <styleUrl>#stylesel_9543</styleUrl>
            <Point id="geom_9543">
                <coordinates>-111.73744965,40.39035034,0.0</coordinates>
            </Point>
        </Placemark>
        <Placemark id="feat_9833">
            <name>LDSAccess</name>
            <description>2016-04-09T13:58:48.000Z</description>
            <styleUrl>#stylesel_9544</styleUrl>
            <Point id="geom_9544">
                <coordinates>-111.73977661,40.38942719,0.0</coordinates>
            </Point>
        </Placemark>
    </Document>
</kml>
