<?xml version="1.0" encoding="UTF-8"?>
<kml xmlns="http://www.opengis.net/kml/2.2" xmlns:gx="http://www.google.com/kml/ext/2.2">
    <Document id="feat_9343">
        <Style id="stylesel_9065">
            <IconStyle id="substyle_9065">
                <colorMode>normal</colorMode>
                <scale>1</scale>
                <heading>0</heading>
                <Icon id="link_9065">
                    <href>wifi4.png</href>
                </Icon>
            </IconStyle>
        </Style>
        <Style id="stylesel_9066">
            <IconStyle id="substyle_9066">
                <colorMode>normal</colorMode>
                <scale>1</scale>
                <heading>0</heading>
                <Icon id="link_9066">
                    <href>wifi4.png</href>
                </Icon>
            </IconStyle>
        </Style>
        <Style id="stylesel_9067">
            <IconStyle id="substyle_9067">
                <colorMode>normal</colorMode>
                <scale>1</scale>
                <heading>0</heading>
                <Icon id="link_9067">
                    <href>wifi4.png</href>
                </Icon>
            </IconStyle>
        </Style>
        <Style id="stylesel_9068">
            <IconStyle id="substyle_9068">
                <colorMode>normal</colorMode>
                <scale>1</scale>
                <heading>0</heading>
                <Icon id="link_9068">
                    <href>wifi4.png</href>
                </Icon>
            </IconStyle>
        </Style>
        <Style id="stylesel_9069">
            <IconStyle id="substyle_9069">
                <colorMode>normal</colorMode>
                <scale>1</scale>
                <heading>0</heading>
                <Icon id="link_9069">
                    <href>wifi4.png</href>
                </Icon>
            </IconStyle>
        </Style>
        <Style id="stylesel_9070">
            <IconStyle id="substyle_9070">
                <colorMode>normal</colorMode>
                <scale>1</scale>
                <heading>0</heading>
                <Icon id="link_9070">
                    <href>wifi4.png</href>
                </Icon>
            </IconStyle>
        </Style>
        <Style id="stylesel_9071">
            <IconStyle id="substyle_9071">
                <colorMode>normal</colorMode>
                <scale>1</scale>
                <heading>0</heading>
                <Icon id="link_9071">
                    <href>wifi4.png</href>
                </Icon>
            </IconStyle>
        </Style>
        <Style id="stylesel_9072">
            <IconStyle id="substyle_9072">
                <colorMode>normal</colorMode>
                <scale>1</scale>
                <heading>0</heading>
                <Icon id="link_9072">
                    <href>wifi4.png</href>
                </Icon>
            </IconStyle>
        </Style>
        <Style id="stylesel_9073">
            <IconStyle id="substyle_9073">
                <colorMode>normal</colorMode>
                <scale>1</scale>
                <heading>0</heading>
                <Icon id="link_9073">
                    <href>wifi4.png</href>
                </Icon>
            </IconStyle>
        </Style>
        <Style id="stylesel_9074">
            <IconStyle id="substyle_9074">
                <colorMode>normal</colorMode>
                <scale>1</scale>
                <heading>0</heading>
                <Icon id="link_9074">
                    <href>wifi4.png</href>
                </Icon>
            </IconStyle>
        </Style>
        <Style id="stylesel_9075">
            <IconStyle id="substyle_9075">
                <colorMode>normal</colorMode>
                <scale>1</scale>
                <heading>0</heading>
                <Icon id="link_9075">
                    <href>wifi4.png</href>
                </Icon>
            </IconStyle>
        </Style>
        <Style id="stylesel_9076">
            <IconStyle id="substyle_9076">
                <colorMode>normal</colorMode>
                <scale>1</scale>
                <heading>0</heading>
                <Icon id="link_9076">
                    <href>wifi4.png</href>
                </Icon>
            </IconStyle>
        </Style>
        <Style id="stylesel_9077">
            <IconStyle id="substyle_9077">
                <colorMode>normal</colorMode>
                <scale>1</scale>
                <heading>0</heading>
                <Icon id="link_9077">
                    <href>wifi4.png</href>
                </Icon>
            </IconStyle>
        </Style>
        <Style id="stylesel_9078">
            <IconStyle id="substyle_9078">
                <colorMode>normal</colorMode>
                <scale>1</scale>
                <heading>0</heading>
                <Icon id="link_9078">
                    <href>wifi4.png</href>
                </Icon>
            </IconStyle>
        </Style>
        <Style id="stylesel_9079">
            <IconStyle id="substyle_9079">
                <colorMode>normal</colorMode>
                <scale>1</scale>
                <heading>0</heading>
                <Icon id="link_9079">
                    <href>wifi4.png</href>
                </Icon>
            </IconStyle>
        </Style>
        <Style id="stylesel_9080">
            <IconStyle id="substyle_9080">
                <colorMode>normal</colorMode>
                <scale>1</scale>
                <heading>0</heading>
                <Icon id="link_9080">
                    <href>wifi4.png</href>
                </Icon>
            </IconStyle>
        </Style>
        <Style id="stylesel_9081">
            <IconStyle id="substyle_9081">
                <colorMode>normal</colorMode>
                <scale>1</scale>
                <heading>0</heading>
                <Icon id="link_9081">
                    <href>wifi4.png</href>
                </Icon>
            </IconStyle>
        </Style>
        <Style id="stylesel_9082">
            <IconStyle id="substyle_9082">
                <colorMode>normal</colorMode>
                <scale>1</scale>
                <heading>0</heading>
                <Icon id="link_9082">
                    <href>wifi4.png</href>
                </Icon>
            </IconStyle>
        </Style>
        <Style id="stylesel_9083">
            <IconStyle id="substyle_9083">
                <colorMode>normal</colorMode>
                <scale>1</scale>
                <heading>0</heading>
                <Icon id="link_9083">
                    <href>wifi4.png</href>
                </Icon>
            </IconStyle>
        </Style>
        <Style id="stylesel_9084">
            <IconStyle id="substyle_9084">
                <colorMode>normal</colorMode>
                <scale>1</scale>
                <heading>0</heading>
                <Icon id="link_9084">
                    <href>wifi4.png</href>
                </Icon>
            </IconStyle>
        </Style>
        <Style id="stylesel_9085">
            <IconStyle id="substyle_9085">
                <colorMode>normal</colorMode>
                <scale>1</scale>
                <heading>0</heading>
                <Icon id="link_9085">
                    <href>wifi4.png</href>
                </Icon>
            </IconStyle>
        </Style>
        <Style id="stylesel_9086">
            <IconStyle id="substyle_9086">
                <colorMode>normal</colorMode>
                <scale>1</scale>
                <heading>0</heading>
                <Icon id="link_9086">
                    <href>wifi4.png</href>
                </Icon>
            </IconStyle>
        </Style>
        <Style id="stylesel_9087">
            <IconStyle id="substyle_9087">
                <colorMode>normal</colorMode>
                <scale>1</scale>
                <heading>0</heading>
                <Icon id="link_9087">
                    <href>wifi4.png</href>
                </Icon>
            </IconStyle>
        </Style>
        <Placemark id="feat_9344">
            <description>2017-03-14T01:25:09.000Z</description>
            <styleUrl>#stylesel_9065</styleUrl>
            <Point id="geom_9065">
                <coordinates>-111.74571991,40.39731216,0.0</coordinates>
            </Point>
        </Placemark>
        <Placemark id="feat_9345">
            <description>2017-03-14T01:25:17.000Z</description>
            <styleUrl>#stylesel_9066</styleUrl>
            <Point id="geom_9066">
                <coordinates>-111.74624634,40.39853668,0.0</coordinates>
            </Point>
        </Placemark>
        <Placemark id="feat_9346">
            <name>LDSAccess</name>
            <description>2017-06-21T01:06:56.000Z</description>
            <styleUrl>#stylesel_9067</styleUrl>
            <Point id="geom_9067">
                <coordinates>-111.7456131,40.39668655,0.0</coordinates>
            </Point>
        </Placemark>
        <Placemark id="feat_9347">
            <description>2017-03-14T01:25:12.000Z</description>
            <styleUrl>#stylesel_9068</styleUrl>
            <Point id="geom_9068">
                <coordinates>-111.74591064,40.39780426,0.0</coordinates>
            </Point>
        </Placemark>
        <Placemark id="feat_9348">
            <description>2017-03-25T16:34:12.000Z</description>
            <styleUrl>#stylesel_9069</styleUrl>
            <Point id="geom_9069">
                <coordinates>-111.74568939,40.39723969,0.0</coordinates>
            </Point>
        </Placemark>
        <Placemark id="feat_9349">
            <description>2017-03-14T01:25:10.000Z</description>
            <styleUrl>#stylesel_9070</styleUrl>
            <Point id="geom_9070">
                <coordinates>-111.7457962,40.39747238,0.0</coordinates>
            </Point>
        </Placemark>
        <Placemark id="feat_9350">
            <description>2017-03-23T22:43:19.000Z</description>
            <styleUrl>#stylesel_9071</styleUrl>
            <Point id="geom_9071">
                <coordinates>-111.74491119,40.39632797,0.0</coordinates>
            </Point>
        </Placemark>
        <Placemark id="feat_9351">
            <description>2017-03-14T01:34:39.000Z</description>
            <styleUrl>#stylesel_9072</styleUrl>
            <Point id="geom_9072">
                <coordinates>-111.74529266,40.3962059,0.0</coordinates>
            </Point>
        </Placemark>
        <Placemark id="feat_9352">
            <description>2017-03-08T00:32:54.000Z</description>
            <styleUrl>#stylesel_9073</styleUrl>
            <Point id="geom_9073">
                <coordinates>-111.74565125,40.39705658,0.0</coordinates>
            </Point>
        </Placemark>
        <Placemark id="feat_9353">
            <description>2017-03-17T00:54:59.000Z</description>
            <styleUrl>#stylesel_9074</styleUrl>
            <Point id="geom_9074">
                <coordinates>-111.74564362,40.39731979,0.0</coordinates>
            </Point>
        </Placemark>
        <Placemark id="feat_9354">
            <description>2017-03-08T00:33:00.000Z</description>
            <styleUrl>#stylesel_9075</styleUrl>
            <Point id="geom_9075">
                <coordinates>-111.74519348,40.39598083,0.0</coordinates>
            </Point>
        </Placemark>
        <Placemark id="feat_9355">
            <description>2017-09-04T16:26:17.000Z</description>
            <styleUrl>#stylesel_9076</styleUrl>
            <Point id="geom_9076">
                <coordinates>-111.74542236,40.39662933,0.0</coordinates>
            </Point>
        </Placemark>
        <Placemark id="feat_9356">
            <description>2017-09-04T16:26:24.000Z</description>
            <styleUrl>#stylesel_9077</styleUrl>
            <Point id="geom_9077">
                <coordinates>-111.74500275,40.39560699,0.0</coordinates>
            </Point>
        </Placemark>
        <Placemark id="feat_9357">
            <description>2017-03-25T14:37:05.000Z</description>
            <styleUrl>#stylesel_9078</styleUrl>
            <Point id="geom_9078">
                <coordinates>-111.74575043,40.39754105,0.0</coordinates>
            </Point>
        </Placemark>
        <Placemark id="feat_9358">
            <description>2017-03-25T14:37:11.000Z</description>
            <styleUrl>#stylesel_9079</styleUrl>
            <Point id="geom_9079">
                <coordinates>-111.74620819,40.39862823,0.0</coordinates>
            </Point>
        </Placemark>
        <Placemark id="feat_9359">
            <description>2017-03-17T00:54:59.000Z</description>
            <styleUrl>#stylesel_9080</styleUrl>
            <Point id="geom_9080">
                <coordinates>-111.74565125,40.39731216,0.0</coordinates>
            </Point>
        </Placemark>
        <Placemark id="feat_9360">
            <description>2017-03-17T00:54:59.000Z</description>
            <styleUrl>#stylesel_9081</styleUrl>
            <Point id="geom_9081">
                <coordinates>-111.74569702,40.39727402,0.0</coordinates>
            </Point>
        </Placemark>
        <Placemark id="feat_9361">
            <description>2017-03-17T00:55:06.000Z</description>
            <styleUrl>#stylesel_9082</styleUrl>
            <Point id="geom_9082">
                <coordinates>-111.74620819,40.39846039,0.0</coordinates>
            </Point>
        </Placemark>
        <Placemark id="feat_9362">
            <description>2017-03-14T01:25:04.000Z</description>
            <styleUrl>#stylesel_9083</styleUrl>
            <Point id="geom_9083">
                <coordinates>-111.74536896,40.39657974,0.0</coordinates>
            </Point>
        </Placemark>
        <Placemark id="feat_9363">
            <name>LDSAccess</name>
            <description>2017-07-14T01:05:34.000Z</description>
            <styleUrl>#stylesel_9084</styleUrl>
            <Point id="geom_9084">
                <coordinates>-111.74533081,40.3963089,0.0</coordinates>
            </Point>
        </Placemark>
        <Placemark id="feat_9364">
            <description>2017-08-29T21:39:52.000Z</description>
            <styleUrl>#stylesel_9085</styleUrl>
            <Point id="geom_9085">
                <coordinates>-111.74539185,40.39651871,0.0</coordinates>
            </Point>
        </Placemark>
        <Placemark id="feat_9365">
            <description>2017-03-23T22:43:26.000Z</description>
            <styleUrl>#stylesel_9086</styleUrl>
            <Point id="geom_9086">
                <coordinates>-111.74517822,40.39636612,0.0</coordinates>
            </Point>
        </Placemark>
        <Placemark id="feat_9366">
            <description>2017-09-04T16:26:13.000Z</description>
            <styleUrl>#stylesel_9087</styleUrl>
            <Point id="geom_9087">
                <coordinates>-111.74568939,40.39722824,0.0</coordinates>
            </Point>
        </Placemark>
    </Document>
</kml>
