<?xml version="1.0" encoding="UTF-8"?>
<kml xmlns="http://www.opengis.net/kml/2.2" xmlns:gx="http://www.google.com/kml/ext/2.2">
    <Document id="feat_8311">
        <Style id="stylesel_8052">
            <IconStyle id="substyle_8052">
                <colorMode>normal</colorMode>
                <scale>1</scale>
                <heading>0</heading>
                <Icon id="link_8052">
                    <href>wifi4.png</href>
                </Icon>
            </IconStyle>
        </Style>
        <Style id="stylesel_8053">
            <IconStyle id="substyle_8053">
                <colorMode>normal</colorMode>
                <scale>1</scale>
                <heading>0</heading>
                <Icon id="link_8053">
                    <href>wifi4.png</href>
                </Icon>
            </IconStyle>
        </Style>
        <Style id="stylesel_8054">
            <IconStyle id="substyle_8054">
                <colorMode>normal</colorMode>
                <scale>1</scale>
                <heading>0</heading>
                <Icon id="link_8054">
                    <href>wifi4.png</href>
                </Icon>
            </IconStyle>
        </Style>
        <Style id="stylesel_8055">
            <IconStyle id="substyle_8055">
                <colorMode>normal</colorMode>
                <scale>1</scale>
                <heading>0</heading>
                <Icon id="link_8055">
                    <href>wifi4.png</href>
                </Icon>
            </IconStyle>
        </Style>
        <Style id="stylesel_8056">
            <IconStyle id="substyle_8056">
                <colorMode>normal</colorMode>
                <scale>1</scale>
                <heading>0</heading>
                <Icon id="link_8056">
                    <href>wifi4.png</href>
                </Icon>
            </IconStyle>
        </Style>
        <Style id="stylesel_8057">
            <IconStyle id="substyle_8057">
                <colorMode>normal</colorMode>
                <scale>1</scale>
                <heading>0</heading>
                <Icon id="link_8057">
                    <href>wifi4.png</href>
                </Icon>
            </IconStyle>
        </Style>
        <Style id="stylesel_8058">
            <IconStyle id="substyle_8058">
                <colorMode>normal</colorMode>
                <scale>1</scale>
                <heading>0</heading>
                <Icon id="link_8058">
                    <href>wifi4.png</href>
                </Icon>
            </IconStyle>
        </Style>
        <Style id="stylesel_8059">
            <IconStyle id="substyle_8059">
                <colorMode>normal</colorMode>
                <scale>1</scale>
                <heading>0</heading>
                <Icon id="link_8059">
                    <href>wifi4.png</href>
                </Icon>
            </IconStyle>
        </Style>
        <Style id="stylesel_8060">
            <IconStyle id="substyle_8060">
                <colorMode>normal</colorMode>
                <scale>1</scale>
                <heading>0</heading>
                <Icon id="link_8060">
                    <href>wifi4.png</href>
                </Icon>
            </IconStyle>
        </Style>
        <Style id="stylesel_8061">
            <IconStyle id="substyle_8061">
                <colorMode>normal</colorMode>
                <scale>1</scale>
                <heading>0</heading>
                <Icon id="link_8061">
                    <href>wifi4.png</href>
                </Icon>
            </IconStyle>
        </Style>
        <Style id="stylesel_8062">
            <IconStyle id="substyle_8062">
                <colorMode>normal</colorMode>
                <scale>1</scale>
                <heading>0</heading>
                <Icon id="link_8062">
                    <href>wifi4.png</href>
                </Icon>
            </IconStyle>
        </Style>
        <Style id="stylesel_8063">
            <IconStyle id="substyle_8063">
                <colorMode>normal</colorMode>
                <scale>1</scale>
                <heading>0</heading>
                <Icon id="link_8063">
                    <href>wifi4.png</href>
                </Icon>
            </IconStyle>
        </Style>
        <Style id="stylesel_8064">
            <IconStyle id="substyle_8064">
                <colorMode>normal</colorMode>
                <scale>1</scale>
                <heading>0</heading>
                <Icon id="link_8064">
                    <href>wifi4.png</href>
                </Icon>
            </IconStyle>
        </Style>
        <Style id="stylesel_8065">
            <IconStyle id="substyle_8065">
                <colorMode>normal</colorMode>
                <scale>1</scale>
                <heading>0</heading>
                <Icon id="link_8065">
                    <href>wifi4.png</href>
                </Icon>
            </IconStyle>
        </Style>
        <Style id="stylesel_8066">
            <IconStyle id="substyle_8066">
                <colorMode>normal</colorMode>
                <scale>1</scale>
                <heading>0</heading>
                <Icon id="link_8066">
                    <href>wifi4.png</href>
                </Icon>
            </IconStyle>
        </Style>
        <Style id="stylesel_8067">
            <IconStyle id="substyle_8067">
                <colorMode>normal</colorMode>
                <scale>1</scale>
                <heading>0</heading>
                <Icon id="link_8067">
                    <href>wifi4.png</href>
                </Icon>
            </IconStyle>
        </Style>
        <Style id="stylesel_8068">
            <IconStyle id="substyle_8068">
                <colorMode>normal</colorMode>
                <scale>1</scale>
                <heading>0</heading>
                <Icon id="link_8068">
                    <href>wifi4.png</href>
                </Icon>
            </IconStyle>
        </Style>
        <Style id="stylesel_8069">
            <IconStyle id="substyle_8069">
                <colorMode>normal</colorMode>
                <scale>1</scale>
                <heading>0</heading>
                <Icon id="link_8069">
                    <href>wifi4.png</href>
                </Icon>
            </IconStyle>
        </Style>
        <Style id="stylesel_8070">
            <IconStyle id="substyle_8070">
                <colorMode>normal</colorMode>
                <scale>1</scale>
                <heading>0</heading>
                <Icon id="link_8070">
                    <href>wifi4.png</href>
                </Icon>
            </IconStyle>
        </Style>
        <Style id="stylesel_8071">
            <IconStyle id="substyle_8071">
                <colorMode>normal</colorMode>
                <scale>1</scale>
                <heading>0</heading>
                <Icon id="link_8071">
                    <href>wifi4.png</href>
                </Icon>
            </IconStyle>
        </Style>
        <Style id="stylesel_8072">
            <IconStyle id="substyle_8072">
                <colorMode>normal</colorMode>
                <scale>1</scale>
                <heading>0</heading>
                <Icon id="link_8072">
                    <href>wifi4.png</href>
                </Icon>
            </IconStyle>
        </Style>
        <Style id="stylesel_8073">
            <IconStyle id="substyle_8073">
                <colorMode>normal</colorMode>
                <scale>1</scale>
                <heading>0</heading>
                <Icon id="link_8073">
                    <href>wifi4.png</href>
                </Icon>
            </IconStyle>
        </Style>
        <Style id="stylesel_8074">
            <IconStyle id="substyle_8074">
                <colorMode>normal</colorMode>
                <scale>1</scale>
                <heading>0</heading>
                <Icon id="link_8074">
                    <href>wifi4.png</href>
                </Icon>
            </IconStyle>
        </Style>
        <Style id="stylesel_8075">
            <IconStyle id="substyle_8075">
                <colorMode>normal</colorMode>
                <scale>1</scale>
                <heading>0</heading>
                <Icon id="link_8075">
                    <href>wifi4.png</href>
                </Icon>
            </IconStyle>
        </Style>
        <Style id="stylesel_8076">
            <IconStyle id="substyle_8076">
                <colorMode>normal</colorMode>
                <scale>1</scale>
                <heading>0</heading>
                <Icon id="link_8076">
                    <href>wifi4.png</href>
                </Icon>
            </IconStyle>
        </Style>
        <Style id="stylesel_8077">
            <IconStyle id="substyle_8077">
                <colorMode>normal</colorMode>
                <scale>1</scale>
                <heading>0</heading>
                <Icon id="link_8077">
                    <href>wifi4.png</href>
                </Icon>
            </IconStyle>
        </Style>
        <Style id="stylesel_8078">
            <IconStyle id="substyle_8078">
                <colorMode>normal</colorMode>
                <scale>1</scale>
                <heading>0</heading>
                <Icon id="link_8078">
                    <href>wifi4.png</href>
                </Icon>
            </IconStyle>
        </Style>
        <Style id="stylesel_8079">
            <IconStyle id="substyle_8079">
                <colorMode>normal</colorMode>
                <scale>1</scale>
                <heading>0</heading>
                <Icon id="link_8079">
                    <href>wifi4.png</href>
                </Icon>
            </IconStyle>
        </Style>
        <Style id="stylesel_8080">
            <IconStyle id="substyle_8080">
                <colorMode>normal</colorMode>
                <scale>1</scale>
                <heading>0</heading>
                <Icon id="link_8080">
                    <href>wifi4.png</href>
                </Icon>
            </IconStyle>
        </Style>
        <Style id="stylesel_8081">
            <IconStyle id="substyle_8081">
                <colorMode>normal</colorMode>
                <scale>1</scale>
                <heading>0</heading>
                <Icon id="link_8081">
                    <href>wifi4.png</href>
                </Icon>
            </IconStyle>
        </Style>
        <Style id="stylesel_8082">
            <IconStyle id="substyle_8082">
                <colorMode>normal</colorMode>
                <scale>1</scale>
                <heading>0</heading>
                <Icon id="link_8082">
                    <href>wifi4.png</href>
                </Icon>
            </IconStyle>
        </Style>
        <Style id="stylesel_8083">
            <IconStyle id="substyle_8083">
                <colorMode>normal</colorMode>
                <scale>1</scale>
                <heading>0</heading>
                <Icon id="link_8083">
                    <href>wifi4.png</href>
                </Icon>
            </IconStyle>
        </Style>
        <Style id="stylesel_8084">
            <IconStyle id="substyle_8084">
                <colorMode>normal</colorMode>
                <scale>1</scale>
                <heading>0</heading>
                <Icon id="link_8084">
                    <href>wifi4.png</href>
                </Icon>
            </IconStyle>
        </Style>
        <Style id="stylesel_8085">
            <IconStyle id="substyle_8085">
                <colorMode>normal</colorMode>
                <scale>1</scale>
                <heading>0</heading>
                <Icon id="link_8085">
                    <href>wifi4.png</href>
                </Icon>
            </IconStyle>
        </Style>
        <Style id="stylesel_8086">
            <IconStyle id="substyle_8086">
                <colorMode>normal</colorMode>
                <scale>1</scale>
                <heading>0</heading>
                <Icon id="link_8086">
                    <href>wifi4.png</href>
                </Icon>
            </IconStyle>
        </Style>
        <Style id="stylesel_8087">
            <IconStyle id="substyle_8087">
                <colorMode>normal</colorMode>
                <scale>1</scale>
                <heading>0</heading>
                <Icon id="link_8087">
                    <href>wifi4.png</href>
                </Icon>
            </IconStyle>
        </Style>
        <Style id="stylesel_8088">
            <IconStyle id="substyle_8088">
                <colorMode>normal</colorMode>
                <scale>1</scale>
                <heading>0</heading>
                <Icon id="link_8088">
                    <href>wifi4.png</href>
                </Icon>
            </IconStyle>
        </Style>
        <Style id="stylesel_8089">
            <IconStyle id="substyle_8089">
                <colorMode>normal</colorMode>
                <scale>1</scale>
                <heading>0</heading>
                <Icon id="link_8089">
                    <href>wifi4.png</href>
                </Icon>
            </IconStyle>
        </Style>
        <Style id="stylesel_8090">
            <IconStyle id="substyle_8090">
                <colorMode>normal</colorMode>
                <scale>1</scale>
                <heading>0</heading>
                <Icon id="link_8090">
                    <href>wifi4.png</href>
                </Icon>
            </IconStyle>
        </Style>
        <Style id="stylesel_8091">
            <IconStyle id="substyle_8091">
                <colorMode>normal</colorMode>
                <scale>1</scale>
                <heading>0</heading>
                <Icon id="link_8091">
                    <href>wifi4.png</href>
                </Icon>
            </IconStyle>
        </Style>
        <Style id="stylesel_8092">
            <IconStyle id="substyle_8092">
                <colorMode>normal</colorMode>
                <scale>1</scale>
                <heading>0</heading>
                <Icon id="link_8092">
                    <href>wifi4.png</href>
                </Icon>
            </IconStyle>
        </Style>
        <Style id="stylesel_8093">
            <IconStyle id="substyle_8093">
                <colorMode>normal</colorMode>
                <scale>1</scale>
                <heading>0</heading>
                <Icon id="link_8093">
                    <href>wifi4.png</href>
                </Icon>
            </IconStyle>
        </Style>
        <Style id="stylesel_8094">
            <IconStyle id="substyle_8094">
                <colorMode>normal</colorMode>
                <scale>1</scale>
                <heading>0</heading>
                <Icon id="link_8094">
                    <href>wifi4.png</href>
                </Icon>
            </IconStyle>
        </Style>
        <Style id="stylesel_8095">
            <IconStyle id="substyle_8095">
                <colorMode>normal</colorMode>
                <scale>1</scale>
                <heading>0</heading>
                <Icon id="link_8095">
                    <href>wifi4.png</href>
                </Icon>
            </IconStyle>
        </Style>
        <Style id="stylesel_8096">
            <IconStyle id="substyle_8096">
                <colorMode>normal</colorMode>
                <scale>1</scale>
                <heading>0</heading>
                <Icon id="link_8096">
                    <href>wifi4.png</href>
                </Icon>
            </IconStyle>
        </Style>
        <Style id="stylesel_8097">
            <IconStyle id="substyle_8097">
                <colorMode>normal</colorMode>
                <scale>1</scale>
                <heading>0</heading>
                <Icon id="link_8097">
                    <href>wifi4.png</href>
                </Icon>
            </IconStyle>
        </Style>
        <Style id="stylesel_8098">
            <IconStyle id="substyle_8098">
                <colorMode>normal</colorMode>
                <scale>1</scale>
                <heading>0</heading>
                <Icon id="link_8098">
                    <href>wifi4.png</href>
                </Icon>
            </IconStyle>
        </Style>
        <Style id="stylesel_8099">
            <IconStyle id="substyle_8099">
                <colorMode>normal</colorMode>
                <scale>1</scale>
                <heading>0</heading>
                <Icon id="link_8099">
                    <href>wifi4.png</href>
                </Icon>
            </IconStyle>
        </Style>
        <Style id="stylesel_8100">
            <IconStyle id="substyle_8100">
                <colorMode>normal</colorMode>
                <scale>1</scale>
                <heading>0</heading>
                <Icon id="link_8100">
                    <href>wifi4.png</href>
                </Icon>
            </IconStyle>
        </Style>
        <Style id="stylesel_8101">
            <IconStyle id="substyle_8101">
                <colorMode>normal</colorMode>
                <scale>1</scale>
                <heading>0</heading>
                <Icon id="link_8101">
                    <href>wifi4.png</href>
                </Icon>
            </IconStyle>
        </Style>
        <Placemark id="feat_8312">
            <name>LDSaccess</name>
            <description>2017-07-15T03:21:30.000Z</description>
            <styleUrl>#stylesel_8052</styleUrl>
            <Point id="geom_8052">
                <coordinates>-111.75527954,40.37554932,0.0</coordinates>
            </Point>
        </Placemark>
        <Placemark id="feat_8313">
            <name>LDSaccess</name>
            <description>2017-07-09T19:57:37.000Z</description>
            <styleUrl>#stylesel_8053</styleUrl>
            <Point id="geom_8053">
                <coordinates>-111.75494385,40.37553406,0.0</coordinates>
            </Point>
        </Placemark>
        <Placemark id="feat_8314">
            <name>LDSaccess</name>
            <description>2017-02-19T01:25:15.000Z</description>
            <styleUrl>#stylesel_8054</styleUrl>
            <Point id="geom_8054">
                <coordinates>-111.75537872,40.3755188,0.0</coordinates>
            </Point>
        </Placemark>
        <Placemark id="feat_8315">
            <name>LDSaccess</name>
            <description>2017-02-21T02:31:31.000Z</description>
            <styleUrl>#stylesel_8055</styleUrl>
            <Point id="geom_8055">
                <coordinates>-111.75569153,40.37558365,0.0</coordinates>
            </Point>
        </Placemark>
        <Placemark id="feat_8316">
            <name>LDSaccess</name>
            <description>2017-07-04T21:37:38.000Z</description>
            <styleUrl>#stylesel_8056</styleUrl>
            <Point id="geom_8056">
                <coordinates>-111.75655365,40.3756485,0.0</coordinates>
            </Point>
        </Placemark>
        <Placemark id="feat_8317">
            <name>LDSaccess</name>
            <description>2017-02-20T18:38:34.000Z</description>
            <styleUrl>#stylesel_8057</styleUrl>
            <Point id="geom_8057">
                <coordinates>-111.75674438,40.37565231,0.0</coordinates>
            </Point>
        </Placemark>
        <Placemark id="feat_8318">
            <name>LDSaccess</name>
            <description>2017-07-09T19:57:34.000Z</description>
            <styleUrl>#stylesel_8058</styleUrl>
            <Point id="geom_8058">
                <coordinates>-111.75495148,40.37545013,0.0</coordinates>
            </Point>
        </Placemark>
        <Placemark id="feat_8319">
            <name>LDSaccess</name>
            <description>2017-03-17T02:40:04.000Z</description>
            <styleUrl>#stylesel_8059</styleUrl>
            <Point id="geom_8059">
                <coordinates>-111.75549316,40.37553787,0.0</coordinates>
            </Point>
        </Placemark>
        <Placemark id="feat_8320">
            <name>LDSaccess</name>
            <description>2017-07-04T21:37:21.000Z</description>
            <styleUrl>#stylesel_8060</styleUrl>
            <Point id="geom_8060">
                <coordinates>-111.75495148,40.37551117,0.0</coordinates>
            </Point>
        </Placemark>
        <Placemark id="feat_8321">
            <name>LDSaccess</name>
            <description>2017-03-25T15:39:05.000Z</description>
            <styleUrl>#stylesel_8061</styleUrl>
            <Point id="geom_8061">
                <coordinates>-111.75480652,40.37550735,0.0</coordinates>
            </Point>
        </Placemark>
        <Placemark id="feat_8322">
            <name>LDSaccess</name>
            <description>2016-12-24T22:39:11.000Z</description>
            <styleUrl>#stylesel_8062</styleUrl>
            <Point id="geom_8062">
                <coordinates>-111.75574493,40.37553024,0.0</coordinates>
            </Point>
        </Placemark>
        <Placemark id="feat_8323">
            <name>LDSaccess</name>
            <description>2017-07-04T21:37:28.000Z</description>
            <styleUrl>#stylesel_8063</styleUrl>
            <Point id="geom_8063">
                <coordinates>-111.75514984,40.37562561,0.0</coordinates>
            </Point>
        </Placemark>
        <Placemark id="feat_8324">
            <name>LDSaccess</name>
            <description>2017-07-05T19:08:49.000Z</description>
            <styleUrl>#stylesel_8064</styleUrl>
            <Point id="geom_8064">
                <coordinates>-111.75536346,40.37555313,0.0</coordinates>
            </Point>
        </Placemark>
        <Placemark id="feat_8325">
            <name>LDSaccess</name>
            <description>2017-02-18T22:13:49.000Z</description>
            <styleUrl>#stylesel_8065</styleUrl>
            <Point id="geom_8065">
                <coordinates>-111.75598907,40.37566376,0.0</coordinates>
            </Point>
        </Placemark>
        <Placemark id="feat_8326">
            <name>LDSaccess</name>
            <description>2017-03-20T22:15:25.000Z</description>
            <styleUrl>#stylesel_8066</styleUrl>
            <Point id="geom_8066">
                <coordinates>-111.75669861,40.3755722,0.0</coordinates>
            </Point>
        </Placemark>
        <Placemark id="feat_8327">
            <name>LDSaccess</name>
            <description>2017-02-20T18:38:18.000Z</description>
            <styleUrl>#stylesel_8067</styleUrl>
            <Point id="geom_8067">
                <coordinates>-111.75495911,40.37551498,0.0</coordinates>
            </Point>
        </Placemark>
        <Placemark id="feat_8328">
            <name>LDSaccess</name>
            <description>2017-06-16T19:55:23.000Z</description>
            <styleUrl>#stylesel_8068</styleUrl>
            <Point id="geom_8068">
                <coordinates>-111.75498199,40.37551117,0.0</coordinates>
            </Point>
        </Placemark>
        <Placemark id="feat_8329">
            <name>LDSaccess</name>
            <description>2017-02-20T18:38:32.000Z</description>
            <styleUrl>#stylesel_8069</styleUrl>
            <Point id="geom_8069">
                <coordinates>-111.75635529,40.37563324,0.0</coordinates>
            </Point>
        </Placemark>
        <Placemark id="feat_8330">
            <name>LDSaccess</name>
            <description>2017-09-01T05:50:40.000Z</description>
            <styleUrl>#stylesel_8070</styleUrl>
            <Point id="geom_8070">
                <coordinates>-111.7554245,40.37559509,0.0</coordinates>
            </Point>
        </Placemark>
        <Placemark id="feat_8331">
            <name>LDSaccess</name>
            <description>2017-05-21T17:29:52.000Z</description>
            <styleUrl>#stylesel_8071</styleUrl>
            <Point id="geom_8071">
                <coordinates>-111.75540161,40.37559509,0.0</coordinates>
            </Point>
        </Placemark>
        <Placemark id="feat_8332">
            <name>LDSaccess</name>
            <description>2017-02-20T18:38:31.000Z</description>
            <styleUrl>#stylesel_8072</styleUrl>
            <Point id="geom_8072">
                <coordinates>-111.75622559,40.37564087,0.0</coordinates>
            </Point>
        </Placemark>
        <Placemark id="feat_8333">
            <name>LDSaccess</name>
            <description>2017-02-20T18:38:34.000Z</description>
            <styleUrl>#stylesel_8073</styleUrl>
            <Point id="geom_8073">
                <coordinates>-111.75675201,40.37566757,0.0</coordinates>
            </Point>
        </Placemark>
        <Placemark id="feat_8334">
            <name>LDSaccess</name>
            <description>2017-02-18T22:13:19.000Z</description>
            <styleUrl>#stylesel_8074</styleUrl>
            <Point id="geom_8074">
                <coordinates>-111.75494385,40.375103,0.0</coordinates>
            </Point>
        </Placemark>
        <Placemark id="feat_8335">
            <name>LDSaccess</name>
            <description>2017-02-18T22:13:25.000Z</description>
            <styleUrl>#stylesel_8075</styleUrl>
            <Point id="geom_8075">
                <coordinates>-111.75497437,40.37550735,0.0</coordinates>
            </Point>
        </Placemark>
        <Placemark id="feat_8336">
            <name>LDSaccess</name>
            <description>2017-04-08T15:15:08.000Z</description>
            <styleUrl>#stylesel_8076</styleUrl>
            <Point id="geom_8076">
                <coordinates>-111.75617981,40.37556839,0.0</coordinates>
            </Point>
        </Placemark>
        <Placemark id="feat_8337">
            <name>LDSaccess</name>
            <description>2017-02-04T23:09:43.000Z</description>
            <styleUrl>#stylesel_8077</styleUrl>
            <Point id="geom_8077">
                <coordinates>-111.75550842,40.37567139,0.0</coordinates>
            </Point>
        </Placemark>
        <Placemark id="feat_8338">
            <name>LDSaccess</name>
            <description>2017-04-08T15:15:20.000Z</description>
            <styleUrl>#stylesel_8078</styleUrl>
            <Point id="geom_8078">
                <coordinates>-111.75501251,40.3753891,0.0</coordinates>
            </Point>
        </Placemark>
        <Placemark id="feat_8339">
            <name>LDSaccess</name>
            <description>2017-02-19T01:25:15.000Z</description>
            <styleUrl>#stylesel_8079</styleUrl>
            <Point id="geom_8079">
                <coordinates>-111.75556183,40.37557983,0.0</coordinates>
            </Point>
        </Placemark>
        <Placemark id="feat_8340">
            <name>LDSaccess</name>
            <description>2017-02-18T22:13:49.000Z</description>
            <styleUrl>#stylesel_8080</styleUrl>
            <Point id="geom_8080">
                <coordinates>-111.75598907,40.3756485,0.0</coordinates>
            </Point>
        </Placemark>
        <Placemark id="feat_8341">
            <name>LDSaccess</name>
            <description>2017-02-21T02:31:31.000Z</description>
            <styleUrl>#stylesel_8081</styleUrl>
            <Point id="geom_8081">
                <coordinates>-111.75570679,40.37552643,0.0</coordinates>
            </Point>
        </Placemark>
        <Placemark id="feat_8342">
            <name>LDSaccess</name>
            <description>2017-02-21T02:31:31.000Z</description>
            <styleUrl>#stylesel_8082</styleUrl>
            <Point id="geom_8082">
                <coordinates>-111.75571442,40.37558365,0.0</coordinates>
            </Point>
        </Placemark>
        <Placemark id="feat_8343">
            <name>LDSaccess</name>
            <description>2017-01-30T04:44:53.000Z</description>
            <styleUrl>#stylesel_8083</styleUrl>
            <Point id="geom_8083">
                <coordinates>-111.75561523,40.37556839,0.0</coordinates>
            </Point>
        </Placemark>
        <Placemark id="feat_8344">
            <name>LDSaccess</name>
            <description>2017-02-19T01:25:21.000Z</description>
            <styleUrl>#stylesel_8084</styleUrl>
            <Point id="geom_8084">
                <coordinates>-111.75434113,40.3755722,0.0</coordinates>
            </Point>
        </Placemark>
        <Placemark id="feat_8345">
            <name>LDSaccess</name>
            <description>2017-06-03T21:13:26.000Z</description>
            <styleUrl>#stylesel_8085</styleUrl>
            <Point id="geom_8085">
                <coordinates>-111.75589752,40.37557983,0.0</coordinates>
            </Point>
        </Placemark>
        <Placemark id="feat_8346">
            <name>LDSaccess</name>
            <description>2017-04-08T15:15:10.000Z</description>
            <styleUrl>#stylesel_8086</styleUrl>
            <Point id="geom_8086">
                <coordinates>-111.755867,40.37556076,0.0</coordinates>
            </Point>
        </Placemark>
        <Placemark id="feat_8347">
            <name>LDSaccess</name>
            <description>2017-03-20T23:17:51.000Z</description>
            <styleUrl>#stylesel_8087</styleUrl>
            <Point id="geom_8087">
                <coordinates>-111.7556839,40.37559509,0.0</coordinates>
            </Point>
        </Placemark>
        <Placemark id="feat_8348">
            <name>LDSaccess</name>
            <description>2017-02-13T02:29:41.000Z</description>
            <styleUrl>#stylesel_8088</styleUrl>
            <Point id="geom_8088">
                <coordinates>-111.75493622,40.37553024,0.0</coordinates>
            </Point>
        </Placemark>
        <Placemark id="feat_8349">
            <name>LDSaccess</name>
            <description>2017-02-20T18:38:25.000Z</description>
            <styleUrl>#stylesel_8089</styleUrl>
            <Point id="geom_8089">
                <coordinates>-111.75539398,40.37565231,0.0</coordinates>
            </Point>
        </Placemark>
        <Placemark id="feat_8350">
            <name>LDSaccess</name>
            <description>2017-07-09T19:57:29.000Z</description>
            <styleUrl>#stylesel_8090</styleUrl>
            <Point id="geom_8090">
                <coordinates>-111.75497437,40.37521362,0.0</coordinates>
            </Point>
        </Placemark>
        <Placemark id="feat_8351">
            <name>LDSaccess</name>
            <description>2017-02-18T22:13:27.000Z</description>
            <styleUrl>#stylesel_8091</styleUrl>
            <Point id="geom_8091">
                <coordinates>-111.75492859,40.37554932,0.0</coordinates>
            </Point>
        </Placemark>
        <Placemark id="feat_8352">
            <name>LDSaccess</name>
            <description>2017-02-13T02:29:45.000Z</description>
            <styleUrl>#stylesel_8092</styleUrl>
            <Point id="geom_8092">
                <coordinates>-111.75478363,40.3755722,0.0</coordinates>
            </Point>
        </Placemark>
        <Placemark id="feat_8353">
            <name>LDSaccess</name>
            <description>2017-07-09T19:57:33.000Z</description>
            <styleUrl>#stylesel_8093</styleUrl>
            <Point id="geom_8093">
                <coordinates>-111.75493622,40.37544632,0.0</coordinates>
            </Point>
        </Placemark>
        <Placemark id="feat_8354">
            <name>LDSaccess</name>
            <description>2017-09-01T05:50:39.000Z</description>
            <styleUrl>#stylesel_8094</styleUrl>
            <Point id="geom_8094">
                <coordinates>-111.7555542,40.37557602,0.0</coordinates>
            </Point>
        </Placemark>
        <Placemark id="feat_8355">
            <name>LDSaccess</name>
            <description>2017-02-13T02:39:57.000Z</description>
            <styleUrl>#stylesel_8095</styleUrl>
            <Point id="geom_8095">
                <coordinates>-111.75543976,40.37732697,0.0</coordinates>
            </Point>
        </Placemark>
        <Placemark id="feat_8356">
            <name>LDSaccess</name>
            <description>2017-03-25T15:39:06.000Z</description>
            <styleUrl>#stylesel_8096</styleUrl>
            <Point id="geom_8096">
                <coordinates>-111.75493622,40.37539673,0.0</coordinates>
            </Point>
        </Placemark>
        <Placemark id="feat_8357">
            <name>LDSaccess</name>
            <description>2017-08-31T21:50:40.000Z</description>
            <styleUrl>#stylesel_8097</styleUrl>
            <Point id="geom_8097">
                <coordinates>-111.75540924,40.3755722,0.0</coordinates>
            </Point>
        </Placemark>
        <Placemark id="feat_8358">
            <name>LDSaccess</name>
            <description>2017-02-20T18:38:22.000Z</description>
            <styleUrl>#stylesel_8098</styleUrl>
            <Point id="geom_8098">
                <coordinates>-111.75509644,40.37563324,0.0</coordinates>
            </Point>
        </Placemark>
        <Placemark id="feat_8359">
            <name>LDSaccess</name>
            <description>2017-02-19T01:25:16.000Z</description>
            <styleUrl>#stylesel_8099</styleUrl>
            <Point id="geom_8099">
                <coordinates>-111.75534058,40.37556458,0.0</coordinates>
            </Point>
        </Placemark>
        <Placemark id="feat_8360">
            <name>LDSaccess</name>
            <description>2017-02-13T02:40:01.000Z</description>
            <styleUrl>#stylesel_8100</styleUrl>
            <Point id="geom_8100">
                <coordinates>-111.75543976,40.37693405,0.0</coordinates>
            </Point>
        </Placemark>
        <Placemark id="feat_8361">
            <name>LDSaccess</name>
            <description>2017-02-20T18:38:17.000Z</description>
            <styleUrl>#stylesel_8101</styleUrl>
            <Point id="geom_8101">
                <coordinates>-111.75493622,40.3754921,0.0</coordinates>
            </Point>
        </Placemark>
    </Document>
</kml>
