<?xml version="1.0" encoding="UTF-8"?>
<kml xmlns="http://www.opengis.net/kml/2.2" xmlns:gx="http://www.google.com/kml/ext/2.2">
    <Document id="feat_9250">
        <Style id="stylesel_8975">
            <IconStyle id="substyle_8975">
                <colorMode>normal</colorMode>
                <scale>1</scale>
                <heading>0</heading>
                <Icon id="link_8975">
                    <href>wifi4.png</href>
                </Icon>
            </IconStyle>
        </Style>
        <Style id="stylesel_8976">
            <IconStyle id="substyle_8976">
                <colorMode>normal</colorMode>
                <scale>1</scale>
                <heading>0</heading>
                <Icon id="link_8976">
                    <href>wifi4.png</href>
                </Icon>
            </IconStyle>
        </Style>
        <Style id="stylesel_8977">
            <IconStyle id="substyle_8977">
                <colorMode>normal</colorMode>
                <scale>1</scale>
                <heading>0</heading>
                <Icon id="link_8977">
                    <href>wifi4.png</href>
                </Icon>
            </IconStyle>
        </Style>
        <Style id="stylesel_8978">
            <IconStyle id="substyle_8978">
                <colorMode>normal</colorMode>
                <scale>1</scale>
                <heading>0</heading>
                <Icon id="link_8978">
                    <href>wifi4.png</href>
                </Icon>
            </IconStyle>
        </Style>
        <Style id="stylesel_8979">
            <IconStyle id="substyle_8979">
                <colorMode>normal</colorMode>
                <scale>1</scale>
                <heading>0</heading>
                <Icon id="link_8979">
                    <href>wifi4.png</href>
                </Icon>
            </IconStyle>
        </Style>
        <Style id="stylesel_8980">
            <IconStyle id="substyle_8980">
                <colorMode>normal</colorMode>
                <scale>1</scale>
                <heading>0</heading>
                <Icon id="link_8980">
                    <href>wifi4.png</href>
                </Icon>
            </IconStyle>
        </Style>
        <Style id="stylesel_8981">
            <IconStyle id="substyle_8981">
                <colorMode>normal</colorMode>
                <scale>1</scale>
                <heading>0</heading>
                <Icon id="link_8981">
                    <href>wifi4.png</href>
                </Icon>
            </IconStyle>
        </Style>
        <Style id="stylesel_8982">
            <IconStyle id="substyle_8982">
                <colorMode>normal</colorMode>
                <scale>1</scale>
                <heading>0</heading>
                <Icon id="link_8982">
                    <href>wifi4.png</href>
                </Icon>
            </IconStyle>
        </Style>
        <Style id="stylesel_8983">
            <IconStyle id="substyle_8983">
                <colorMode>normal</colorMode>
                <scale>1</scale>
                <heading>0</heading>
                <Icon id="link_8983">
                    <href>wifi4.png</href>
                </Icon>
            </IconStyle>
        </Style>
        <Style id="stylesel_8984">
            <IconStyle id="substyle_8984">
                <colorMode>normal</colorMode>
                <scale>1</scale>
                <heading>0</heading>
                <Icon id="link_8984">
                    <href>wifi4.png</href>
                </Icon>
            </IconStyle>
        </Style>
        <Style id="stylesel_8985">
            <IconStyle id="substyle_8985">
                <colorMode>normal</colorMode>
                <scale>1</scale>
                <heading>0</heading>
                <Icon id="link_8985">
                    <href>wifi4.png</href>
                </Icon>
            </IconStyle>
        </Style>
        <Style id="stylesel_8986">
            <IconStyle id="substyle_8986">
                <colorMode>normal</colorMode>
                <scale>1</scale>
                <heading>0</heading>
                <Icon id="link_8986">
                    <href>wifi4.png</href>
                </Icon>
            </IconStyle>
        </Style>
        <Style id="stylesel_8987">
            <IconStyle id="substyle_8987">
                <colorMode>normal</colorMode>
                <scale>1</scale>
                <heading>0</heading>
                <Icon id="link_8987">
                    <href>wifi4.png</href>
                </Icon>
            </IconStyle>
        </Style>
        <Style id="stylesel_8988">
            <IconStyle id="substyle_8988">
                <colorMode>normal</colorMode>
                <scale>1</scale>
                <heading>0</heading>
                <Icon id="link_8988">
                    <href>wifi4.png</href>
                </Icon>
            </IconStyle>
        </Style>
        <Style id="stylesel_8989">
            <IconStyle id="substyle_8989">
                <colorMode>normal</colorMode>
                <scale>1</scale>
                <heading>0</heading>
                <Icon id="link_8989">
                    <href>wifi4.png</href>
                </Icon>
            </IconStyle>
        </Style>
        <Style id="stylesel_8990">
            <IconStyle id="substyle_8990">
                <colorMode>normal</colorMode>
                <scale>1</scale>
                <heading>0</heading>
                <Icon id="link_8990">
                    <href>wifi4.png</href>
                </Icon>
            </IconStyle>
        </Style>
        <Style id="stylesel_8991">
            <IconStyle id="substyle_8991">
                <colorMode>normal</colorMode>
                <scale>1</scale>
                <heading>0</heading>
                <Icon id="link_8991">
                    <href>wifi4.png</href>
                </Icon>
            </IconStyle>
        </Style>
        <Style id="stylesel_8992">
            <IconStyle id="substyle_8992">
                <colorMode>normal</colorMode>
                <scale>1</scale>
                <heading>0</heading>
                <Icon id="link_8992">
                    <href>wifi4.png</href>
                </Icon>
            </IconStyle>
        </Style>
        <Style id="stylesel_8993">
            <IconStyle id="substyle_8993">
                <colorMode>normal</colorMode>
                <scale>1</scale>
                <heading>0</heading>
                <Icon id="link_8993">
                    <href>wifi4.png</href>
                </Icon>
            </IconStyle>
        </Style>
        <Style id="stylesel_8994">
            <IconStyle id="substyle_8994">
                <colorMode>normal</colorMode>
                <scale>1</scale>
                <heading>0</heading>
                <Icon id="link_8994">
                    <href>wifi4.png</href>
                </Icon>
            </IconStyle>
        </Style>
        <Style id="stylesel_8995">
            <IconStyle id="substyle_8995">
                <colorMode>normal</colorMode>
                <scale>1</scale>
                <heading>0</heading>
                <Icon id="link_8995">
                    <href>wifi4.png</href>
                </Icon>
            </IconStyle>
        </Style>
        <Style id="stylesel_8996">
            <IconStyle id="substyle_8996">
                <colorMode>normal</colorMode>
                <scale>1</scale>
                <heading>0</heading>
                <Icon id="link_8996">
                    <href>wifi4.png</href>
                </Icon>
            </IconStyle>
        </Style>
        <Style id="stylesel_8997">
            <IconStyle id="substyle_8997">
                <colorMode>normal</colorMode>
                <scale>1</scale>
                <heading>0</heading>
                <Icon id="link_8997">
                    <href>wifi4.png</href>
                </Icon>
            </IconStyle>
        </Style>
        <Style id="stylesel_8998">
            <IconStyle id="substyle_8998">
                <colorMode>normal</colorMode>
                <scale>1</scale>
                <heading>0</heading>
                <Icon id="link_8998">
                    <href>wifi4.png</href>
                </Icon>
            </IconStyle>
        </Style>
        <Style id="stylesel_8999">
            <IconStyle id="substyle_8999">
                <colorMode>normal</colorMode>
                <scale>1</scale>
                <heading>0</heading>
                <Icon id="link_8999">
                    <href>wifi4.png</href>
                </Icon>
            </IconStyle>
        </Style>
        <Style id="stylesel_9000">
            <IconStyle id="substyle_9000">
                <colorMode>normal</colorMode>
                <scale>1</scale>
                <heading>0</heading>
                <Icon id="link_9000">
                    <href>wifi4.png</href>
                </Icon>
            </IconStyle>
        </Style>
        <Style id="stylesel_9001">
            <IconStyle id="substyle_9001">
                <colorMode>normal</colorMode>
                <scale>1</scale>
                <heading>0</heading>
                <Icon id="link_9001">
                    <href>wifi4.png</href>
                </Icon>
            </IconStyle>
        </Style>
        <Style id="stylesel_9002">
            <IconStyle id="substyle_9002">
                <colorMode>normal</colorMode>
                <scale>1</scale>
                <heading>0</heading>
                <Icon id="link_9002">
                    <href>wifi4.png</href>
                </Icon>
            </IconStyle>
        </Style>
        <Style id="stylesel_9003">
            <IconStyle id="substyle_9003">
                <colorMode>normal</colorMode>
                <scale>1</scale>
                <heading>0</heading>
                <Icon id="link_9003">
                    <href>wifi4.png</href>
                </Icon>
            </IconStyle>
        </Style>
        <Style id="stylesel_9004">
            <IconStyle id="substyle_9004">
                <colorMode>normal</colorMode>
                <scale>1</scale>
                <heading>0</heading>
                <Icon id="link_9004">
                    <href>wifi4.png</href>
                </Icon>
            </IconStyle>
        </Style>
        <Style id="stylesel_9005">
            <IconStyle id="substyle_9005">
                <colorMode>normal</colorMode>
                <scale>1</scale>
                <heading>0</heading>
                <Icon id="link_9005">
                    <href>wifi4.png</href>
                </Icon>
            </IconStyle>
        </Style>
        <Style id="stylesel_9006">
            <IconStyle id="substyle_9006">
                <colorMode>normal</colorMode>
                <scale>1</scale>
                <heading>0</heading>
                <Icon id="link_9006">
                    <href>wifi4.png</href>
                </Icon>
            </IconStyle>
        </Style>
        <Style id="stylesel_9007">
            <IconStyle id="substyle_9007">
                <colorMode>normal</colorMode>
                <scale>1</scale>
                <heading>0</heading>
                <Icon id="link_9007">
                    <href>wifi4.png</href>
                </Icon>
            </IconStyle>
        </Style>
        <Style id="stylesel_9008">
            <IconStyle id="substyle_9008">
                <colorMode>normal</colorMode>
                <scale>1</scale>
                <heading>0</heading>
                <Icon id="link_9008">
                    <href>wifi4.png</href>
                </Icon>
            </IconStyle>
        </Style>
        <Style id="stylesel_9009">
            <IconStyle id="substyle_9009">
                <colorMode>normal</colorMode>
                <scale>1</scale>
                <heading>0</heading>
                <Icon id="link_9009">
                    <href>wifi4.png</href>
                </Icon>
            </IconStyle>
        </Style>
        <Style id="stylesel_9010">
            <IconStyle id="substyle_9010">
                <colorMode>normal</colorMode>
                <scale>1</scale>
                <heading>0</heading>
                <Icon id="link_9010">
                    <href>wifi4.png</href>
                </Icon>
            </IconStyle>
        </Style>
        <Style id="stylesel_9011">
            <IconStyle id="substyle_9011">
                <colorMode>normal</colorMode>
                <scale>1</scale>
                <heading>0</heading>
                <Icon id="link_9011">
                    <href>wifi4.png</href>
                </Icon>
            </IconStyle>
        </Style>
        <Style id="stylesel_9012">
            <IconStyle id="substyle_9012">
                <colorMode>normal</colorMode>
                <scale>1</scale>
                <heading>0</heading>
                <Icon id="link_9012">
                    <href>wifi4.png</href>
                </Icon>
            </IconStyle>
        </Style>
        <Style id="stylesel_9013">
            <IconStyle id="substyle_9013">
                <colorMode>normal</colorMode>
                <scale>1</scale>
                <heading>0</heading>
                <Icon id="link_9013">
                    <href>wifi4.png</href>
                </Icon>
            </IconStyle>
        </Style>
        <Style id="stylesel_9014">
            <IconStyle id="substyle_9014">
                <colorMode>normal</colorMode>
                <scale>1</scale>
                <heading>0</heading>
                <Icon id="link_9014">
                    <href>wifi4.png</href>
                </Icon>
            </IconStyle>
        </Style>
        <Style id="stylesel_9015">
            <IconStyle id="substyle_9015">
                <colorMode>normal</colorMode>
                <scale>1</scale>
                <heading>0</heading>
                <Icon id="link_9015">
                    <href>wifi4.png</href>
                </Icon>
            </IconStyle>
        </Style>
        <Style id="stylesel_9016">
            <IconStyle id="substyle_9016">
                <colorMode>normal</colorMode>
                <scale>1</scale>
                <heading>0</heading>
                <Icon id="link_9016">
                    <href>wifi4.png</href>
                </Icon>
            </IconStyle>
        </Style>
        <Style id="stylesel_9017">
            <IconStyle id="substyle_9017">
                <colorMode>normal</colorMode>
                <scale>1</scale>
                <heading>0</heading>
                <Icon id="link_9017">
                    <href>wifi4.png</href>
                </Icon>
            </IconStyle>
        </Style>
        <Style id="stylesel_9018">
            <IconStyle id="substyle_9018">
                <colorMode>normal</colorMode>
                <scale>1</scale>
                <heading>0</heading>
                <Icon id="link_9018">
                    <href>wifi4.png</href>
                </Icon>
            </IconStyle>
        </Style>
        <Style id="stylesel_9019">
            <IconStyle id="substyle_9019">
                <colorMode>normal</colorMode>
                <scale>1</scale>
                <heading>0</heading>
                <Icon id="link_9019">
                    <href>wifi4.png</href>
                </Icon>
            </IconStyle>
        </Style>
        <Style id="stylesel_9020">
            <IconStyle id="substyle_9020">
                <colorMode>normal</colorMode>
                <scale>1</scale>
                <heading>0</heading>
                <Icon id="link_9020">
                    <href>wifi4.png</href>
                </Icon>
            </IconStyle>
        </Style>
        <Placemark id="feat_9251">
            <name>LDSAccess</name>
            <description>2016-07-23T16:27:01.000Z</description>
            <styleUrl>#stylesel_8975</styleUrl>
            <Point id="geom_8975">
                <coordinates>-111.75408173,40.40015793,0.0</coordinates>
            </Point>
        </Placemark>
        <Placemark id="feat_9252">
            <name>LDSAccess</name>
            <description>2016-07-09T16:07:59.000Z</description>
            <styleUrl>#stylesel_8976</styleUrl>
            <Point id="geom_8976">
                <coordinates>-111.75413513,40.40073776,0.0</coordinates>
            </Point>
        </Placemark>
        <Placemark id="feat_9253">
            <name>LDSAccess</name>
            <description>2017-03-25T15:20:31.000Z</description>
            <styleUrl>#stylesel_8977</styleUrl>
            <Point id="geom_8977">
                <coordinates>-111.7541275,40.40020752,0.0</coordinates>
            </Point>
        </Placemark>
        <Placemark id="feat_9254">
            <name>LDSAccess</name>
            <description>2017-03-14T02:03:00.000Z</description>
            <styleUrl>#stylesel_8978</styleUrl>
            <Point id="geom_8978">
                <coordinates>-111.75411224,40.39830017,0.0</coordinates>
            </Point>
        </Placemark>
        <Placemark id="feat_9255">
            <name>LDSAccess</name>
            <description>2017-03-25T15:19:45.000Z</description>
            <styleUrl>#stylesel_8979</styleUrl>
            <Point id="geom_8979">
                <coordinates>-111.75411224,40.40136719,0.0</coordinates>
            </Point>
        </Placemark>
        <Placemark id="feat_9256">
            <name>LDSAccess</name>
            <description>2017-03-14T02:02:02.000Z</description>
            <styleUrl>#stylesel_8980</styleUrl>
            <Point id="geom_8980">
                <coordinates>-111.75405884,40.40008926,0.0</coordinates>
            </Point>
        </Placemark>
        <Placemark id="feat_9257">
            <name>LDSAccess</name>
            <description>2016-07-09T16:07:23.000Z</description>
            <styleUrl>#stylesel_8981</styleUrl>
            <Point id="geom_8981">
                <coordinates>-111.7542038,40.40177536,0.0</coordinates>
            </Point>
        </Placemark>
        <Placemark id="feat_9258">
            <name>LDSAccess</name>
            <description>2017-02-21T21:08:29.000Z</description>
            <styleUrl>#stylesel_8982</styleUrl>
            <Point id="geom_8982">
                <coordinates>-111.7542038,40.40016174,0.0</coordinates>
            </Point>
        </Placemark>
        <Placemark id="feat_9259">
            <name>LDSAccess</name>
            <description>2016-07-23T16:26:25.000Z</description>
            <styleUrl>#stylesel_8983</styleUrl>
            <Point id="geom_8983">
                <coordinates>-111.7541275,40.4012413,0.0</coordinates>
            </Point>
        </Placemark>
        <Placemark id="feat_9260">
            <name>LDSAccess</name>
            <description>2017-02-21T21:08:20.000Z</description>
            <styleUrl>#stylesel_8984</styleUrl>
            <Point id="geom_8984">
                <coordinates>-111.75422668,40.40136719,0.0</coordinates>
            </Point>
        </Placemark>
        <Placemark id="feat_9261">
            <name>LDSAccess</name>
            <description>2017-07-21T03:10:11.000Z</description>
            <styleUrl>#stylesel_8985</styleUrl>
            <Point id="geom_8985">
                <coordinates>-111.75421143,40.40021896,0.0</coordinates>
            </Point>
        </Placemark>
        <Placemark id="feat_9262">
            <name>LDSAccess</name>
            <description>2017-03-14T02:00:56.000Z</description>
            <styleUrl>#stylesel_8986</styleUrl>
            <Point id="geom_8986">
                <coordinates>-111.75410461,40.4007988,0.0</coordinates>
            </Point>
        </Placemark>
        <Placemark id="feat_9263">
            <name>LDSAccess</name>
            <description>2017-07-21T01:58:03.000Z</description>
            <styleUrl>#stylesel_8987</styleUrl>
            <Point id="geom_8987">
                <coordinates>-111.75416565,40.40224838,0.0</coordinates>
            </Point>
        </Placemark>
        <Placemark id="feat_9264">
            <name>LDSAccess</name>
            <description>2017-01-31T14:51:28.000Z</description>
            <styleUrl>#stylesel_8988</styleUrl>
            <Point id="geom_8988">
                <coordinates>-111.75414276,40.40047073,0.0</coordinates>
            </Point>
        </Placemark>
        <Placemark id="feat_9265">
            <name>LDSAccess</name>
            <description>2017-02-21T21:08:19.000Z</description>
            <styleUrl>#stylesel_8989</styleUrl>
            <Point id="geom_8989">
                <coordinates>-111.75419617,40.40148544,0.0</coordinates>
            </Point>
        </Placemark>
        <Placemark id="feat_9266">
            <name>LDSAccess</name>
            <description>2017-03-25T15:20:24.000Z</description>
            <styleUrl>#stylesel_8990</styleUrl>
            <Point id="geom_8990">
                <coordinates>-111.75408936,40.40034103,0.0</coordinates>
            </Point>
        </Placemark>
        <Placemark id="feat_9267">
            <name>LDSAccess</name>
            <description>2017-03-25T15:21:23.000Z</description>
            <styleUrl>#stylesel_8991</styleUrl>
            <Point id="geom_8991">
                <coordinates>-111.7540741,40.39894485,0.0</coordinates>
            </Point>
        </Placemark>
        <Placemark id="feat_9268">
            <name>LDSAccess</name>
            <description>2016-07-09T16:06:46.000Z</description>
            <styleUrl>#stylesel_8992</styleUrl>
            <Point id="geom_8992">
                <coordinates>-111.7542038,40.4028244,0.0</coordinates>
            </Point>
        </Placemark>
        <Placemark id="feat_9269">
            <name>LDSAccess</name>
            <description>2017-01-31T14:51:40.000Z</description>
            <styleUrl>#stylesel_8993</styleUrl>
            <Point id="geom_8993">
                <coordinates>-111.75418091,40.40221786,0.0</coordinates>
            </Point>
        </Placemark>
        <Placemark id="feat_9270">
            <name>LDSAccess</name>
            <description>2017-03-14T02:00:45.000Z</description>
            <styleUrl>#stylesel_8994</styleUrl>
            <Point id="geom_8994">
                <coordinates>-111.75413513,40.40110779,0.0</coordinates>
            </Point>
        </Placemark>
        <Placemark id="feat_9271">
            <name>LDSAccess</name>
            <description>2016-07-23T16:25:49.000Z</description>
            <styleUrl>#stylesel_8995</styleUrl>
            <Point id="geom_8995">
                <coordinates>-111.7541275,40.40229034,0.0</coordinates>
            </Point>
        </Placemark>
        <Placemark id="feat_9272">
            <name>LDSAccess</name>
            <description>2014-12-10T16:45:23.000Z</description>
            <styleUrl>#stylesel_8996</styleUrl>
            <Point id="geom_8996">
                <coordinates>-111.75400543,40.39933014,0.0</coordinates>
            </Point>
        </Placemark>
        <Placemark id="feat_9273">
            <name>LDSAccess</name>
            <description>2017-07-21T01:58:31.000Z</description>
            <styleUrl>#stylesel_8997</styleUrl>
            <Point id="geom_8997">
                <coordinates>-111.75417328,40.40324783,0.0</coordinates>
            </Point>
        </Placemark>
        <Placemark id="feat_9274">
            <name>LDSAccess</name>
            <description>2017-07-21T03:08:43.000Z</description>
            <styleUrl>#stylesel_8998</styleUrl>
            <Point id="geom_8998">
                <coordinates>-111.75654602,40.40419388,0.0</coordinates>
            </Point>
        </Placemark>
        <Placemark id="feat_9275">
            <name>LDSAccess</name>
            <description>2017-09-04T23:16:39.000Z</description>
            <styleUrl>#stylesel_8999</styleUrl>
            <Point id="geom_8999">
                <coordinates>-111.75417328,40.40057373,0.0</coordinates>
            </Point>
        </Placemark>
        <Placemark id="feat_9276">
            <name>LDSAccess</name>
            <description>2017-07-21T03:10:03.000Z</description>
            <styleUrl>#stylesel_9000</styleUrl>
            <Point id="geom_9000">
                <coordinates>-111.75424194,40.40089035,0.0</coordinates>
            </Point>
        </Placemark>
        <Placemark id="feat_9277">
            <name>LDSAccess</name>
            <description>2017-09-04T23:16:48.000Z</description>
            <styleUrl>#stylesel_9001</styleUrl>
            <Point id="geom_9001">
                <coordinates>-111.7542038,40.40177536,0.0</coordinates>
            </Point>
        </Placemark>
        <Placemark id="feat_9278">
            <name>LDSAccess</name>
            <description>2017-07-21T03:10:31.000Z</description>
            <styleUrl>#stylesel_9002</styleUrl>
            <Point id="geom_9002">
                <coordinates>-111.75419617,40.39862061,0.0</coordinates>
            </Point>
        </Placemark>
        <Placemark id="feat_9279">
            <name>LDSAccess</name>
            <description>2017-03-14T02:00:10.000Z</description>
            <styleUrl>#stylesel_9003</styleUrl>
            <Point id="geom_9003">
                <coordinates>-111.75413513,40.40219879,0.0</coordinates>
            </Point>
        </Placemark>
        <Placemark id="feat_9280">
            <name>LDSAccess</name>
            <description>2017-02-21T21:08:39.000Z</description>
            <styleUrl>#stylesel_9004</styleUrl>
            <Point id="geom_9004">
                <coordinates>-111.75398254,40.39927673,0.0</coordinates>
            </Point>
        </Placemark>
        <Placemark id="feat_9281">
            <name>LDSAccess</name>
            <description>2017-02-21T21:08:27.000Z</description>
            <styleUrl>#stylesel_9005</styleUrl>
            <Point id="geom_9005">
                <coordinates>-111.75418854,40.40042114,0.0</coordinates>
            </Point>
        </Placemark>
        <Placemark id="feat_9282">
            <name>LDSAccess</name>
            <description>2017-07-21T01:57:48.000Z</description>
            <styleUrl>#stylesel_9006</styleUrl>
            <Point id="geom_9006">
                <coordinates>-111.75415802,40.40163803,0.0</coordinates>
            </Point>
        </Placemark>
        <Placemark id="feat_9283">
            <name>LDSAccess</name>
            <description>2017-03-25T15:19:55.000Z</description>
            <styleUrl>#stylesel_9007</styleUrl>
            <Point id="geom_9007">
                <coordinates>-111.75414276,40.40127182,0.0</coordinates>
            </Point>
        </Placemark>
        <Placemark id="feat_9284">
            <name>LDSAccess</name>
            <description>2016-07-09T16:05:45.000Z</description>
            <styleUrl>#stylesel_9008</styleUrl>
            <Point id="geom_9008">
                <coordinates>-111.75411987,40.4038353,0.0</coordinates>
            </Point>
        </Placemark>
        <Placemark id="feat_9285">
            <name>LDSAccess</name>
            <description>2014-08-28T18:36:18.000Z</description>
            <styleUrl>#stylesel_9009</styleUrl>
            <Point id="geom_9009">
                <coordinates>-111.75674438,40.40425491,0.0</coordinates>
            </Point>
        </Placemark>
        <Placemark id="feat_9286">
            <name>LDSAccess</name>
            <description>2017-03-14T01:59:38.000Z</description>
            <styleUrl>#stylesel_9010</styleUrl>
            <Point id="geom_9010">
                <coordinates>-111.75416565,40.40324783,0.0</coordinates>
            </Point>
        </Placemark>
        <Placemark id="feat_9287">
            <name>LDSAccess</name>
            <description>2017-07-21T01:59:32.000Z</description>
            <styleUrl>#stylesel_9011</styleUrl>
            <Point id="geom_9011">
                <coordinates>-111.75653839,40.40424347,0.0</coordinates>
            </Point>
        </Placemark>
        <Placemark id="feat_9288">
            <name>LDSAccess</name>
            <description>2017-03-25T15:18:27.000Z</description>
            <styleUrl>#stylesel_9012</styleUrl>
            <Point id="geom_9012">
                <coordinates>-111.75417328,40.4034996,0.0</coordinates>
            </Point>
        </Placemark>
        <Placemark id="feat_9289">
            <name>LDSAccess</name>
            <description>2017-02-21T21:08:02.000Z</description>
            <styleUrl>#stylesel_9013</styleUrl>
            <Point id="geom_9013">
                <coordinates>-111.7542572,40.40361023,0.0</coordinates>
            </Point>
        </Placemark>
        <Placemark id="feat_9290">
            <name>LDSAccess</name>
            <description>2017-03-25T15:19:06.000Z</description>
            <styleUrl>#stylesel_9014</styleUrl>
            <Point id="geom_9014">
                <coordinates>-111.75414276,40.40243912,0.0</coordinates>
            </Point>
        </Placemark>
        <Placemark id="feat_9291">
            <name>LDSAccess</name>
            <description>2017-07-21T03:08:39.000Z</description>
            <styleUrl>#stylesel_9015</styleUrl>
            <Point id="geom_9015">
                <coordinates>-111.75686646,40.40417862,0.0</coordinates>
            </Point>
        </Placemark>
        <Placemark id="feat_9292">
            <name>LDSAccess</name>
            <description>2017-07-21T03:10:27.000Z</description>
            <styleUrl>#stylesel_9016</styleUrl>
            <Point id="geom_9016">
                <coordinates>-111.75419617,40.39893341,0.0</coordinates>
            </Point>
        </Placemark>
        <Placemark id="feat_9293">
            <name>LDSAccess</name>
            <description>2017-03-25T15:19:18.000Z</description>
            <styleUrl>#stylesel_9017</styleUrl>
            <Point id="geom_9017">
                <coordinates>-111.75410461,40.40236282,0.0</coordinates>
            </Point>
        </Placemark>
        <Placemark id="feat_9294">
            <name>LDSAccess</name>
            <description>2017-03-25T15:22:41.000Z</description>
            <styleUrl>#stylesel_9018</styleUrl>
            <Point id="geom_9018">
                <coordinates>-111.75410461,40.39678574,0.0</coordinates>
            </Point>
        </Placemark>
        <Placemark id="feat_9295">
            <name>LDSAccess</name>
            <description>2017-02-21T21:08:07.000Z</description>
            <styleUrl>#stylesel_9019</styleUrl>
            <Point id="geom_9019">
                <coordinates>-111.75423431,40.40300369,0.0</coordinates>
            </Point>
        </Placemark>
        <Placemark id="feat_9296">
            <name>LDSAccess</name>
            <description>2017-02-21T21:08:11.000Z</description>
            <styleUrl>#stylesel_9020</styleUrl>
            <Point id="geom_9020">
                <coordinates>-111.75423431,40.40253067,0.0</coordinates>
            </Point>
        </Placemark>
    </Document>
</kml>
