<?xml version="1.0" encoding="UTF-8"?>
<kml xmlns="http://www.opengis.net/kml/2.2" xmlns:gx="http://www.google.com/kml/ext/2.2">
    <Document id="feat_4036">
        <Style id="stylesel_3908">
            <IconStyle id="substyle_3908">
                <colorMode>normal</colorMode>
                <scale>1</scale>
                <heading>0</heading>
                <Icon id="link_3908">
                    <href>wifi4.png</href>
                </Icon>
            </IconStyle>
        </Style>
        <Style id="stylesel_3909">
            <IconStyle id="substyle_3909">
                <colorMode>normal</colorMode>
                <scale>1</scale>
                <heading>0</heading>
                <Icon id="link_3909">
                    <href>wifi4.png</href>
                </Icon>
            </IconStyle>
        </Style>
        <Style id="stylesel_3910">
            <IconStyle id="substyle_3910">
                <colorMode>normal</colorMode>
                <scale>1</scale>
                <heading>0</heading>
                <Icon id="link_3910">
                    <href>wifi4.png</href>
                </Icon>
            </IconStyle>
        </Style>
        <Style id="stylesel_3911">
            <IconStyle id="substyle_3911">
                <colorMode>normal</colorMode>
                <scale>1</scale>
                <heading>0</heading>
                <Icon id="link_3911">
                    <href>wifi4.png</href>
                </Icon>
            </IconStyle>
        </Style>
        <Style id="stylesel_3912">
            <IconStyle id="substyle_3912">
                <colorMode>normal</colorMode>
                <scale>1</scale>
                <heading>0</heading>
                <Icon id="link_3912">
                    <href>wifi4.png</href>
                </Icon>
            </IconStyle>
        </Style>
        <Style id="stylesel_3913">
            <IconStyle id="substyle_3913">
                <colorMode>normal</colorMode>
                <scale>1</scale>
                <heading>0</heading>
                <Icon id="link_3913">
                    <href>wifi4.png</href>
                </Icon>
            </IconStyle>
        </Style>
        <Style id="stylesel_3914">
            <IconStyle id="substyle_3914">
                <colorMode>normal</colorMode>
                <scale>1</scale>
                <heading>0</heading>
                <Icon id="link_3914">
                    <href>wifi4.png</href>
                </Icon>
            </IconStyle>
        </Style>
        <Style id="stylesel_3915">
            <IconStyle id="substyle_3915">
                <colorMode>normal</colorMode>
                <scale>1</scale>
                <heading>0</heading>
                <Icon id="link_3915">
                    <href>wifi4.png</href>
                </Icon>
            </IconStyle>
        </Style>
        <Style id="stylesel_3916">
            <IconStyle id="substyle_3916">
                <colorMode>normal</colorMode>
                <scale>1</scale>
                <heading>0</heading>
                <Icon id="link_3916">
                    <href>wifi4.png</href>
                </Icon>
            </IconStyle>
        </Style>
        <Style id="stylesel_3917">
            <IconStyle id="substyle_3917">
                <colorMode>normal</colorMode>
                <scale>1</scale>
                <heading>0</heading>
                <Icon id="link_3917">
                    <href>wifi4.png</href>
                </Icon>
            </IconStyle>
        </Style>
        <Style id="stylesel_3918">
            <IconStyle id="substyle_3918">
                <colorMode>normal</colorMode>
                <scale>1</scale>
                <heading>0</heading>
                <Icon id="link_3918">
                    <href>wifi4.png</href>
                </Icon>
            </IconStyle>
        </Style>
        <Style id="stylesel_3919">
            <IconStyle id="substyle_3919">
                <colorMode>normal</colorMode>
                <scale>1</scale>
                <heading>0</heading>
                <Icon id="link_3919">
                    <href>wifi4.png</href>
                </Icon>
            </IconStyle>
        </Style>
        <Style id="stylesel_3920">
            <IconStyle id="substyle_3920">
                <colorMode>normal</colorMode>
                <scale>1</scale>
                <heading>0</heading>
                <Icon id="link_3920">
                    <href>wifi4.png</href>
                </Icon>
            </IconStyle>
        </Style>
        <Style id="stylesel_3921">
            <IconStyle id="substyle_3921">
                <colorMode>normal</colorMode>
                <scale>1</scale>
                <heading>0</heading>
                <Icon id="link_3921">
                    <href>wifi4.png</href>
                </Icon>
            </IconStyle>
        </Style>
        <Style id="stylesel_3922">
            <IconStyle id="substyle_3922">
                <colorMode>normal</colorMode>
                <scale>1</scale>
                <heading>0</heading>
                <Icon id="link_3922">
                    <href>wifi4.png</href>
                </Icon>
            </IconStyle>
        </Style>
        <Style id="stylesel_3923">
            <IconStyle id="substyle_3923">
                <colorMode>normal</colorMode>
                <scale>1</scale>
                <heading>0</heading>
                <Icon id="link_3923">
                    <href>wifi4.png</href>
                </Icon>
            </IconStyle>
        </Style>
        <Style id="stylesel_3924">
            <IconStyle id="substyle_3924">
                <colorMode>normal</colorMode>
                <scale>1</scale>
                <heading>0</heading>
                <Icon id="link_3924">
                    <href>wifi4.png</href>
                </Icon>
            </IconStyle>
        </Style>
        <Style id="stylesel_3925">
            <IconStyle id="substyle_3925">
                <colorMode>normal</colorMode>
                <scale>1</scale>
                <heading>0</heading>
                <Icon id="link_3925">
                    <href>wifi4.png</href>
                </Icon>
            </IconStyle>
        </Style>
        <Style id="stylesel_3926">
            <IconStyle id="substyle_3926">
                <colorMode>normal</colorMode>
                <scale>1</scale>
                <heading>0</heading>
                <Icon id="link_3926">
                    <href>wifi4.png</href>
                </Icon>
            </IconStyle>
        </Style>
        <Style id="stylesel_3927">
            <IconStyle id="substyle_3927">
                <colorMode>normal</colorMode>
                <scale>1</scale>
                <heading>0</heading>
                <Icon id="link_3927">
                    <href>wifi4.png</href>
                </Icon>
            </IconStyle>
        </Style>
        <Style id="stylesel_3928">
            <IconStyle id="substyle_3928">
                <colorMode>normal</colorMode>
                <scale>1</scale>
                <heading>0</heading>
                <Icon id="link_3928">
                    <href>wifi4.png</href>
                </Icon>
            </IconStyle>
        </Style>
        <Style id="stylesel_3929">
            <IconStyle id="substyle_3929">
                <colorMode>normal</colorMode>
                <scale>1</scale>
                <heading>0</heading>
                <Icon id="link_3929">
                    <href>wifi4.png</href>
                </Icon>
            </IconStyle>
        </Style>
        <Style id="stylesel_3930">
            <IconStyle id="substyle_3930">
                <colorMode>normal</colorMode>
                <scale>1</scale>
                <heading>0</heading>
                <Icon id="link_3930">
                    <href>wifi4.png</href>
                </Icon>
            </IconStyle>
        </Style>
        <Style id="stylesel_3931">
            <IconStyle id="substyle_3931">
                <colorMode>normal</colorMode>
                <scale>1</scale>
                <heading>0</heading>
                <Icon id="link_3931">
                    <href>wifi4.png</href>
                </Icon>
            </IconStyle>
        </Style>
        <Placemark id="feat_4037">
            <name>LDSAccess</name>
            <description>2016-01-19T23:21:20.000Z</description>
            <styleUrl>#stylesel_3908</styleUrl>
            <Point id="geom_3908">
                <coordinates>-111.72554779,40.36914444,0.0</coordinates>
            </Point>
        </Placemark>
        <Placemark id="feat_4038">
            <name>LDSAccess</name>
            <description>2016-01-19T23:21:33.000Z</description>
            <styleUrl>#stylesel_3909</styleUrl>
            <Point id="geom_3909">
                <coordinates>-111.72360229,40.36930466,0.0</coordinates>
            </Point>
        </Placemark>
        <Placemark id="feat_4039">
            <name>LDSAccess</name>
            <description>2015-04-01T23:23:25.000Z</description>
            <styleUrl>#stylesel_3910</styleUrl>
            <Point id="geom_3910">
                <coordinates>-111.72479248,40.36916733,0.0</coordinates>
            </Point>
        </Placemark>
        <Placemark id="feat_4040">
            <name>LDSAccess</name>
            <description>2015-04-01T23:23:14.000Z</description>
            <styleUrl>#stylesel_3911</styleUrl>
            <Point id="geom_3911">
                <coordinates>-111.72647095,40.36909866,0.0</coordinates>
            </Point>
        </Placemark>
        <Placemark id="feat_4041">
            <name>LDSAccess</name>
            <description>2015-02-06T03:47:00.000Z</description>
            <styleUrl>#stylesel_3912</styleUrl>
            <Point id="geom_3912">
                <coordinates>-111.72483826,40.36914444,0.0</coordinates>
            </Point>
        </Placemark>
        <Placemark id="feat_4042">
            <name>LDSAccess</name>
            <description>2014-04-25T02:11:39.000Z</description>
            <styleUrl>#stylesel_3913</styleUrl>
            <Point id="geom_3913">
                <coordinates>-111.72558594,40.36916351,0.0</coordinates>
            </Point>
        </Placemark>
        <Placemark id="feat_4043">
            <name>LDSAccess</name>
            <description>2015-11-25T22:45:01.000Z</description>
            <styleUrl>#stylesel_3914</styleUrl>
            <Point id="geom_3914">
                <coordinates>-111.72576904,40.36911774,0.0</coordinates>
            </Point>
        </Placemark>
        <Placemark id="feat_4044">
            <name>LDSAccess</name>
            <description>2014-12-01T04:32:05.000Z</description>
            <styleUrl>#stylesel_3915</styleUrl>
            <Point id="geom_3915">
                <coordinates>-111.72553253,40.36905289,0.0</coordinates>
            </Point>
        </Placemark>
        <Placemark id="feat_4045">
            <name>LDSAccess</name>
            <description>2015-04-06T20:29:57.000Z</description>
            <styleUrl>#stylesel_3916</styleUrl>
            <Point id="geom_3916">
                <coordinates>-111.72568512,40.36909103,0.0</coordinates>
            </Point>
        </Placemark>
        <Placemark id="feat_4046">
            <name>LDSAccess</name>
            <description>2016-10-08T22:59:21.000Z</description>
            <styleUrl>#stylesel_3917</styleUrl>
            <Point id="geom_3917">
                <coordinates>-111.72556305,40.36911392,0.0</coordinates>
            </Point>
        </Placemark>
        <Placemark id="feat_4047">
            <name>LDSAccess</name>
            <description>2016-09-30T19:07:30.000Z</description>
            <styleUrl>#stylesel_3918</styleUrl>
            <Point id="geom_3918">
                <coordinates>-111.72561646,40.36910248,0.0</coordinates>
            </Point>
        </Placemark>
        <Placemark id="feat_4048">
            <name>LDSAccess</name>
            <description>2016-10-08T22:59:35.000Z</description>
            <styleUrl>#stylesel_3919</styleUrl>
            <Point id="geom_3919">
                <coordinates>-111.72332001,40.3693924,0.0</coordinates>
            </Point>
        </Placemark>
        <Placemark id="feat_4049">
            <name>LDSAccess</name>
            <description>2016-04-30T03:44:19.000Z</description>
            <styleUrl>#stylesel_3920</styleUrl>
            <Point id="geom_3920">
                <coordinates>-111.72556305,40.3690033,0.0</coordinates>
            </Point>
        </Placemark>
        <Placemark id="feat_4050">
            <name>LDSAccess</name>
            <description>2015-07-24T22:40:21.000Z</description>
            <styleUrl>#stylesel_3921</styleUrl>
            <Point id="geom_3921">
                <coordinates>-111.72519684,40.369133,0.0</coordinates>
            </Point>
        </Placemark>
        <Placemark id="feat_4051">
            <name>LDSAccess</name>
            <description>2015-07-24T22:40:28.000Z</description>
            <styleUrl>#stylesel_3922</styleUrl>
            <Point id="geom_3922">
                <coordinates>-111.72414398,40.36925888,0.0</coordinates>
            </Point>
        </Placemark>
        <Placemark id="feat_4052">
            <name>LDSAccess</name>
            <description>2016-08-07T01:56:45.000Z</description>
            <styleUrl>#stylesel_3923</styleUrl>
            <Point id="geom_3923">
                <coordinates>-111.72551727,40.36915588,0.0</coordinates>
            </Point>
        </Placemark>
        <Placemark id="feat_4053">
            <name>LDSAccess</name>
            <description>2016-05-03T16:24:24.000Z</description>
            <styleUrl>#stylesel_3924</styleUrl>
            <Point id="geom_3924">
                <coordinates>-111.72661591,40.36908722,0.0</coordinates>
            </Point>
        </Placemark>
        <Placemark id="feat_4054">
            <name>LDSAccess</name>
            <description>2016-02-03T23:20:23.000Z</description>
            <styleUrl>#stylesel_3925</styleUrl>
            <Point id="geom_3925">
                <coordinates>-111.72502136,40.36914444,0.0</coordinates>
            </Point>
        </Placemark>
        <Placemark id="feat_4055">
            <name>LDSAccess</name>
            <description>2016-09-30T19:16:25.000Z</description>
            <styleUrl>#stylesel_3926</styleUrl>
            <Point id="geom_3926">
                <coordinates>-111.72710419,40.36915588,0.0</coordinates>
            </Point>
        </Placemark>
        <Placemark id="feat_4056">
            <name>LDSAccess</name>
            <description>2016-05-07T15:57:26.000Z</description>
            <styleUrl>#stylesel_3927</styleUrl>
            <Point id="geom_3927">
                <coordinates>-111.72631073,40.36915207,0.0</coordinates>
            </Point>
        </Placemark>
        <Placemark id="feat_4057">
            <name>LDSAccess</name>
            <description>2016-02-03T23:20:15.000Z</description>
            <styleUrl>#stylesel_3928</styleUrl>
            <Point id="geom_3928">
                <coordinates>-111.7261734,40.36914062,0.0</coordinates>
            </Point>
        </Placemark>
        <Placemark id="feat_4058">
            <name>LDSAccess</name>
            <description>2016-05-24T07:14:30.000Z</description>
            <styleUrl>#stylesel_3929</styleUrl>
            <Point id="geom_3929">
                <coordinates>-111.72570801,40.3691597,0.0</coordinates>
            </Point>
        </Placemark>
        <Placemark id="feat_4059">
            <name>LDSAccess</name>
            <description>2016-06-10T04:10:55.000Z</description>
            <styleUrl>#stylesel_3930</styleUrl>
            <Point id="geom_3930">
                <coordinates>-111.72600555,40.36906052,0.0</coordinates>
            </Point>
        </Placemark>
        <Placemark id="feat_4060">
            <name>LDSAccess</name>
            <description>2016-02-24T23:09:37.000Z</description>
            <styleUrl>#stylesel_3931</styleUrl>
            <Point id="geom_3931">
                <coordinates>-111.72636414,40.36917877,0.0</coordinates>
            </Point>
        </Placemark>
    </Document>
</kml>
