<?xml version="1.0" encoding="UTF-8"?>
<kml xmlns="http://www.opengis.net/kml/2.2" xmlns:gx="http://www.google.com/kml/ext/2.2">
    <Document id="feat_1406">
        <Style id="stylesel_1367">
            <IconStyle id="substyle_1367">
                <colorMode>normal</colorMode>
                <scale>1</scale>
                <heading>0</heading>
                <Icon id="link_1367">
                    <href>wifi4.png</href>
                </Icon>
            </IconStyle>
        </Style>
        <Style id="stylesel_1368">
            <IconStyle id="substyle_1368">
                <colorMode>normal</colorMode>
                <scale>1</scale>
                <heading>0</heading>
                <Icon id="link_1368">
                    <href>wifi4.png</href>
                </Icon>
            </IconStyle>
        </Style>
        <Style id="stylesel_1369">
            <IconStyle id="substyle_1369">
                <colorMode>normal</colorMode>
                <scale>1</scale>
                <heading>0</heading>
                <Icon id="link_1369">
                    <href>wifi4.png</href>
                </Icon>
            </IconStyle>
        </Style>
        <Placemark id="feat_1407">
            <name>LDSAccess</name>
            <description>2017-03-25T17:15:58.000Z</description>
            <styleUrl>#stylesel_1367</styleUrl>
            <Point id="geom_1367">
                <coordinates>-111.77379608,40.39538574,0.0</coordinates>
            </Point>
        </Placemark>
        <Placemark id="feat_1408">
            <name>LDSAccess</name>
            <description>2017-03-25T17:16:13.000Z</description>
            <styleUrl>#stylesel_1368</styleUrl>
            <Point id="geom_1368">
                <coordinates>-111.77355194,40.39638901,0.0</coordinates>
            </Point>
        </Placemark>
        <Placemark id="feat_1409">
            <name>LDSAccess</name>
            <description>2014-11-21T22:51:08.000Z</description>
            <styleUrl>#stylesel_1369</styleUrl>
            <Point id="geom_1369">
                <coordinates>-111.77484894,40.39348221,0.0</coordinates>
            </Point>
        </Placemark>
    </Document>
</kml>
