<?xml version="1.0" encoding="UTF-8"?>
<kml xmlns="http://www.opengis.net/kml/2.2" xmlns:gx="http://www.google.com/kml/ext/2.2">
    <Document id="feat_408">
        <Style id="stylesel_403">
            <IconStyle id="substyle_403">
                <colorMode>normal</colorMode>
                <scale>1</scale>
                <heading>0</heading>
                <Icon id="link_403">
                    <href>wifi4.png</href>
                </Icon>
            </IconStyle>
        </Style>
        <Style id="stylesel_404">
            <IconStyle id="substyle_404">
                <colorMode>normal</colorMode>
                <scale>1</scale>
                <heading>0</heading>
                <Icon id="link_404">
                    <href>wifi4.png</href>
                </Icon>
            </IconStyle>
        </Style>
        <Style id="stylesel_405">
            <IconStyle id="substyle_405">
                <colorMode>normal</colorMode>
                <scale>1</scale>
                <heading>0</heading>
                <Icon id="link_405">
                    <href>wifi4.png</href>
                </Icon>
            </IconStyle>
        </Style>
        <Style id="stylesel_406">
            <IconStyle id="substyle_406">
                <colorMode>normal</colorMode>
                <scale>1</scale>
                <heading>0</heading>
                <Icon id="link_406">
                    <href>wifi4.png</href>
                </Icon>
            </IconStyle>
        </Style>
        <Style id="stylesel_407">
            <IconStyle id="substyle_407">
                <colorMode>normal</colorMode>
                <scale>1</scale>
                <heading>0</heading>
                <Icon id="link_407">
                    <href>wifi4.png</href>
                </Icon>
            </IconStyle>
        </Style>
        <Style id="stylesel_408">
            <IconStyle id="substyle_408">
                <colorMode>normal</colorMode>
                <scale>1</scale>
                <heading>0</heading>
                <Icon id="link_408">
                    <href>wifi4.png</href>
                </Icon>
            </IconStyle>
        </Style>
        <Style id="stylesel_409">
            <IconStyle id="substyle_409">
                <colorMode>normal</colorMode>
                <scale>1</scale>
                <heading>0</heading>
                <Icon id="link_409">
                    <href>wifi4.png</href>
                </Icon>
            </IconStyle>
        </Style>
        <Style id="stylesel_410">
            <IconStyle id="substyle_410">
                <colorMode>normal</colorMode>
                <scale>1</scale>
                <heading>0</heading>
                <Icon id="link_410">
                    <href>wifi4.png</href>
                </Icon>
            </IconStyle>
        </Style>
        <Style id="stylesel_411">
            <IconStyle id="substyle_411">
                <colorMode>normal</colorMode>
                <scale>1</scale>
                <heading>0</heading>
                <Icon id="link_411">
                    <href>wifi4.png</href>
                </Icon>
            </IconStyle>
        </Style>
        <Style id="stylesel_412">
            <IconStyle id="substyle_412">
                <colorMode>normal</colorMode>
                <scale>1</scale>
                <heading>0</heading>
                <Icon id="link_412">
                    <href>wifi4.png</href>
                </Icon>
            </IconStyle>
        </Style>
        <Style id="stylesel_413">
            <IconStyle id="substyle_413">
                <colorMode>normal</colorMode>
                <scale>1</scale>
                <heading>0</heading>
                <Icon id="link_413">
                    <href>wifi4.png</href>
                </Icon>
            </IconStyle>
        </Style>
        <Style id="stylesel_414">
            <IconStyle id="substyle_414">
                <colorMode>normal</colorMode>
                <scale>1</scale>
                <heading>0</heading>
                <Icon id="link_414">
                    <href>wifi4.png</href>
                </Icon>
            </IconStyle>
        </Style>
        <Style id="stylesel_415">
            <IconStyle id="substyle_415">
                <colorMode>normal</colorMode>
                <scale>1</scale>
                <heading>0</heading>
                <Icon id="link_415">
                    <href>wifi4.png</href>
                </Icon>
            </IconStyle>
        </Style>
        <Style id="stylesel_416">
            <IconStyle id="substyle_416">
                <colorMode>normal</colorMode>
                <scale>1</scale>
                <heading>0</heading>
                <Icon id="link_416">
                    <href>wifi4.png</href>
                </Icon>
            </IconStyle>
        </Style>
        <Style id="stylesel_417">
            <IconStyle id="substyle_417">
                <colorMode>normal</colorMode>
                <scale>1</scale>
                <heading>0</heading>
                <Icon id="link_417">
                    <href>wifi4.png</href>
                </Icon>
            </IconStyle>
        </Style>
        <Style id="stylesel_418">
            <IconStyle id="substyle_418">
                <colorMode>normal</colorMode>
                <scale>1</scale>
                <heading>0</heading>
                <Icon id="link_418">
                    <href>wifi4.png</href>
                </Icon>
            </IconStyle>
        </Style>
        <Style id="stylesel_419">
            <IconStyle id="substyle_419">
                <colorMode>normal</colorMode>
                <scale>1</scale>
                <heading>0</heading>
                <Icon id="link_419">
                    <href>wifi4.png</href>
                </Icon>
            </IconStyle>
        </Style>
        <Placemark id="feat_409">
            <name>LDSAccess</name>
            <description>2017-03-20T15:16:35.000Z</description>
            <styleUrl>#stylesel_403</styleUrl>
            <Point id="geom_403">
                <coordinates>-111.73322296,40.36738205,0.0</coordinates>
            </Point>
        </Placemark>
        <Placemark id="feat_410">
            <name>LDSAccess</name>
            <description>2017-03-20T15:16:06.000Z</description>
            <styleUrl>#stylesel_404</styleUrl>
            <Point id="geom_404">
                <coordinates>-111.7332077,40.3701973,0.0</coordinates>
            </Point>
        </Placemark>
        <Placemark id="feat_411">
            <name>LDSAccess</name>
            <description>2017-06-17T14:04:07.000Z</description>
            <styleUrl>#stylesel_405</styleUrl>
            <Point id="geom_405">
                <coordinates>-111.73321533,40.36956787,0.0</coordinates>
            </Point>
        </Placemark>
        <Placemark id="feat_412">
            <name>LDSAccess</name>
            <description>2015-02-06T03:46:13.000Z</description>
            <styleUrl>#stylesel_406</styleUrl>
            <Point id="geom_406">
                <coordinates>-111.7327652,40.36908722,0.0</coordinates>
            </Point>
        </Placemark>
        <Placemark id="feat_413">
            <name>LDSAccess</name>
            <description>2015-02-06T03:45:52.000Z</description>
            <styleUrl>#stylesel_407</styleUrl>
            <Point id="geom_407">
                <coordinates>-111.7332077,40.37011719,0.0</coordinates>
            </Point>
        </Placemark>
        <Placemark id="feat_414">
            <name>LDSAccess</name>
            <description>2014-04-25T02:12:10.000Z</description>
            <styleUrl>#stylesel_408</styleUrl>
            <Point id="geom_408">
                <coordinates>-111.73057556,40.3691597,0.0</coordinates>
            </Point>
        </Placemark>
        <Placemark id="feat_415">
            <name>LDSAccess</name>
            <description>2014-12-15T19:50:23.000Z</description>
            <styleUrl>#stylesel_409</styleUrl>
            <Point id="geom_409">
                <coordinates>-111.73265076,40.36912537,0.0</coordinates>
            </Point>
        </Placemark>
        <Placemark id="feat_416">
            <name>LDSAccess</name>
            <description>2014-04-25T02:12:19.000Z</description>
            <styleUrl>#stylesel_410</styleUrl>
            <Point id="geom_410">
                <coordinates>-111.73193359,40.36916351,0.0</coordinates>
            </Point>
        </Placemark>
        <Placemark id="feat_417">
            <name>LDSAccess</name>
            <description>2014-12-15T19:50:14.000Z</description>
            <styleUrl>#stylesel_411</styleUrl>
            <Point id="geom_411">
                <coordinates>-111.73145294,40.36913681,0.0</coordinates>
            </Point>
        </Placemark>
        <Placemark id="feat_418">
            <name>LDSAccess</name>
            <description>2017-03-20T15:16:11.000Z</description>
            <styleUrl>#stylesel_412</styleUrl>
            <Point id="geom_412">
                <coordinates>-111.73321533,40.36962509,0.0</coordinates>
            </Point>
        </Placemark>
        <Placemark id="feat_419">
            <name>LDSAccess</name>
            <description>2014-12-01T04:31:30.000Z</description>
            <styleUrl>#stylesel_413</styleUrl>
            <Point id="geom_413">
                <coordinates>-111.73123169,40.36907196,0.0</coordinates>
            </Point>
        </Placemark>
        <Placemark id="feat_420">
            <name>LDSAccess</name>
            <description>2014-12-15T19:57:06.000Z</description>
            <styleUrl>#stylesel_414</styleUrl>
            <Point id="geom_414">
                <coordinates>-111.73131561,40.36911774,0.0</coordinates>
            </Point>
        </Placemark>
        <Placemark id="feat_421">
            <name>LDSAccess</name>
            <description>2016-01-19T23:20:38.000Z</description>
            <styleUrl>#stylesel_415</styleUrl>
            <Point id="geom_415">
                <coordinates>-111.73163605,40.36908722,0.0</coordinates>
            </Point>
        </Placemark>
        <Placemark id="feat_422">
            <name>LDSAccess</name>
            <description>2016-01-19T23:20:46.000Z</description>
            <styleUrl>#stylesel_416</styleUrl>
            <Point id="geom_416">
                <coordinates>-111.73059845,40.36913681,0.0</coordinates>
            </Point>
        </Placemark>
        <Placemark id="feat_423">
            <name>LDSAccess</name>
            <description>2015-02-06T03:46:27.000Z</description>
            <styleUrl>#stylesel_417</styleUrl>
            <Point id="geom_417">
                <coordinates>-111.73061371,40.36909866,0.0</coordinates>
            </Point>
        </Placemark>
        <Placemark id="feat_424">
            <name>LDSAccess</name>
            <description>2016-05-03T16:24:56.000Z</description>
            <styleUrl>#stylesel_418</styleUrl>
            <Point id="geom_418">
                <coordinates>-111.73196411,40.36912537,0.0</coordinates>
            </Point>
        </Placemark>
        <Placemark id="feat_425">
            <name>LDSAccess</name>
            <description>2016-04-07T17:56:01.000Z</description>
            <styleUrl>#stylesel_419</styleUrl>
            <Point id="geom_419">
                <coordinates>-111.73060608,40.36898041,0.0</coordinates>
            </Point>
        </Placemark>
    </Document>
</kml>
