<?xml version="1.0" encoding="UTF-8"?>
<kml xmlns="http://www.opengis.net/kml/2.2" xmlns:gx="http://www.google.com/kml/ext/2.2">
    <Document id="feat_7998">
        <Style id="stylesel_7748">
            <IconStyle id="substyle_7748">
                <colorMode>normal</colorMode>
                <scale>1</scale>
                <heading>0</heading>
                <Icon id="link_7748">
                    <href>wifi4.png</href>
                </Icon>
            </IconStyle>
        </Style>
        <Style id="stylesel_7749">
            <IconStyle id="substyle_7749">
                <colorMode>normal</colorMode>
                <scale>1</scale>
                <heading>0</heading>
                <Icon id="link_7749">
                    <href>wifi4.png</href>
                </Icon>
            </IconStyle>
        </Style>
        <Style id="stylesel_7750">
            <IconStyle id="substyle_7750">
                <colorMode>normal</colorMode>
                <scale>1</scale>
                <heading>0</heading>
                <Icon id="link_7750">
                    <href>wifi4.png</href>
                </Icon>
            </IconStyle>
        </Style>
        <Style id="stylesel_7751">
            <IconStyle id="substyle_7751">
                <colorMode>normal</colorMode>
                <scale>1</scale>
                <heading>0</heading>
                <Icon id="link_7751">
                    <href>wifi4.png</href>
                </Icon>
            </IconStyle>
        </Style>
        <Style id="stylesel_7752">
            <IconStyle id="substyle_7752">
                <colorMode>normal</colorMode>
                <scale>1</scale>
                <heading>0</heading>
                <Icon id="link_7752">
                    <href>wifi4.png</href>
                </Icon>
            </IconStyle>
        </Style>
        <Style id="stylesel_7753">
            <IconStyle id="substyle_7753">
                <colorMode>normal</colorMode>
                <scale>1</scale>
                <heading>0</heading>
                <Icon id="link_7753">
                    <href>wifi4.png</href>
                </Icon>
            </IconStyle>
        </Style>
        <Style id="stylesel_7754">
            <IconStyle id="substyle_7754">
                <colorMode>normal</colorMode>
                <scale>1</scale>
                <heading>0</heading>
                <Icon id="link_7754">
                    <href>wifi4.png</href>
                </Icon>
            </IconStyle>
        </Style>
        <Style id="stylesel_7755">
            <IconStyle id="substyle_7755">
                <colorMode>normal</colorMode>
                <scale>1</scale>
                <heading>0</heading>
                <Icon id="link_7755">
                    <href>wifi4.png</href>
                </Icon>
            </IconStyle>
        </Style>
        <Style id="stylesel_7756">
            <IconStyle id="substyle_7756">
                <colorMode>normal</colorMode>
                <scale>1</scale>
                <heading>0</heading>
                <Icon id="link_7756">
                    <href>wifi4.png</href>
                </Icon>
            </IconStyle>
        </Style>
        <Style id="stylesel_7757">
            <IconStyle id="substyle_7757">
                <colorMode>normal</colorMode>
                <scale>1</scale>
                <heading>0</heading>
                <Icon id="link_7757">
                    <href>wifi4.png</href>
                </Icon>
            </IconStyle>
        </Style>
        <Style id="stylesel_7758">
            <IconStyle id="substyle_7758">
                <colorMode>normal</colorMode>
                <scale>1</scale>
                <heading>0</heading>
                <Icon id="link_7758">
                    <href>wifi4.png</href>
                </Icon>
            </IconStyle>
        </Style>
        <Style id="stylesel_7759">
            <IconStyle id="substyle_7759">
                <colorMode>normal</colorMode>
                <scale>1</scale>
                <heading>0</heading>
                <Icon id="link_7759">
                    <href>wifi4.png</href>
                </Icon>
            </IconStyle>
        </Style>
        <Style id="stylesel_7760">
            <IconStyle id="substyle_7760">
                <colorMode>normal</colorMode>
                <scale>1</scale>
                <heading>0</heading>
                <Icon id="link_7760">
                    <href>wifi4.png</href>
                </Icon>
            </IconStyle>
        </Style>
        <Style id="stylesel_7761">
            <IconStyle id="substyle_7761">
                <colorMode>normal</colorMode>
                <scale>1</scale>
                <heading>0</heading>
                <Icon id="link_7761">
                    <href>wifi4.png</href>
                </Icon>
            </IconStyle>
        </Style>
        <Style id="stylesel_7762">
            <IconStyle id="substyle_7762">
                <colorMode>normal</colorMode>
                <scale>1</scale>
                <heading>0</heading>
                <Icon id="link_7762">
                    <href>wifi4.png</href>
                </Icon>
            </IconStyle>
        </Style>
        <Style id="stylesel_7763">
            <IconStyle id="substyle_7763">
                <colorMode>normal</colorMode>
                <scale>1</scale>
                <heading>0</heading>
                <Icon id="link_7763">
                    <href>wifi4.png</href>
                </Icon>
            </IconStyle>
        </Style>
        <Style id="stylesel_7764">
            <IconStyle id="substyle_7764">
                <colorMode>normal</colorMode>
                <scale>1</scale>
                <heading>0</heading>
                <Icon id="link_7764">
                    <href>wifi4.png</href>
                </Icon>
            </IconStyle>
        </Style>
        <Style id="stylesel_7765">
            <IconStyle id="substyle_7765">
                <colorMode>normal</colorMode>
                <scale>1</scale>
                <heading>0</heading>
                <Icon id="link_7765">
                    <href>wifi4.png</href>
                </Icon>
            </IconStyle>
        </Style>
        <Style id="stylesel_7766">
            <IconStyle id="substyle_7766">
                <colorMode>normal</colorMode>
                <scale>1</scale>
                <heading>0</heading>
                <Icon id="link_7766">
                    <href>wifi4.png</href>
                </Icon>
            </IconStyle>
        </Style>
        <Style id="stylesel_7767">
            <IconStyle id="substyle_7767">
                <colorMode>normal</colorMode>
                <scale>1</scale>
                <heading>0</heading>
                <Icon id="link_7767">
                    <href>wifi4.png</href>
                </Icon>
            </IconStyle>
        </Style>
        <Style id="stylesel_7768">
            <IconStyle id="substyle_7768">
                <colorMode>normal</colorMode>
                <scale>1</scale>
                <heading>0</heading>
                <Icon id="link_7768">
                    <href>wifi4.png</href>
                </Icon>
            </IconStyle>
        </Style>
        <Style id="stylesel_7769">
            <IconStyle id="substyle_7769">
                <colorMode>normal</colorMode>
                <scale>1</scale>
                <heading>0</heading>
                <Icon id="link_7769">
                    <href>wifi4.png</href>
                </Icon>
            </IconStyle>
        </Style>
        <Style id="stylesel_7770">
            <IconStyle id="substyle_7770">
                <colorMode>normal</colorMode>
                <scale>1</scale>
                <heading>0</heading>
                <Icon id="link_7770">
                    <href>wifi4.png</href>
                </Icon>
            </IconStyle>
        </Style>
        <Style id="stylesel_7771">
            <IconStyle id="substyle_7771">
                <colorMode>normal</colorMode>
                <scale>1</scale>
                <heading>0</heading>
                <Icon id="link_7771">
                    <href>wifi4.png</href>
                </Icon>
            </IconStyle>
        </Style>
        <Style id="stylesel_7772">
            <IconStyle id="substyle_7772">
                <colorMode>normal</colorMode>
                <scale>1</scale>
                <heading>0</heading>
                <Icon id="link_7772">
                    <href>wifi4.png</href>
                </Icon>
            </IconStyle>
        </Style>
        <Style id="stylesel_7773">
            <IconStyle id="substyle_7773">
                <colorMode>normal</colorMode>
                <scale>1</scale>
                <heading>0</heading>
                <Icon id="link_7773">
                    <href>wifi4.png</href>
                </Icon>
            </IconStyle>
        </Style>
        <Style id="stylesel_7774">
            <IconStyle id="substyle_7774">
                <colorMode>normal</colorMode>
                <scale>1</scale>
                <heading>0</heading>
                <Icon id="link_7774">
                    <href>wifi4.png</href>
                </Icon>
            </IconStyle>
        </Style>
        <Style id="stylesel_7775">
            <IconStyle id="substyle_7775">
                <colorMode>normal</colorMode>
                <scale>1</scale>
                <heading>0</heading>
                <Icon id="link_7775">
                    <href>wifi4.png</href>
                </Icon>
            </IconStyle>
        </Style>
        <Style id="stylesel_7776">
            <IconStyle id="substyle_7776">
                <colorMode>normal</colorMode>
                <scale>1</scale>
                <heading>0</heading>
                <Icon id="link_7776">
                    <href>wifi4.png</href>
                </Icon>
            </IconStyle>
        </Style>
        <Style id="stylesel_7777">
            <IconStyle id="substyle_7777">
                <colorMode>normal</colorMode>
                <scale>1</scale>
                <heading>0</heading>
                <Icon id="link_7777">
                    <href>wifi4.png</href>
                </Icon>
            </IconStyle>
        </Style>
        <Style id="stylesel_7778">
            <IconStyle id="substyle_7778">
                <colorMode>normal</colorMode>
                <scale>1</scale>
                <heading>0</heading>
                <Icon id="link_7778">
                    <href>wifi4.png</href>
                </Icon>
            </IconStyle>
        </Style>
        <Style id="stylesel_7779">
            <IconStyle id="substyle_7779">
                <colorMode>normal</colorMode>
                <scale>1</scale>
                <heading>0</heading>
                <Icon id="link_7779">
                    <href>wifi4.png</href>
                </Icon>
            </IconStyle>
        </Style>
        <Style id="stylesel_7780">
            <IconStyle id="substyle_7780">
                <colorMode>normal</colorMode>
                <scale>1</scale>
                <heading>0</heading>
                <Icon id="link_7780">
                    <href>wifi4.png</href>
                </Icon>
            </IconStyle>
        </Style>
        <Style id="stylesel_7781">
            <IconStyle id="substyle_7781">
                <colorMode>normal</colorMode>
                <scale>1</scale>
                <heading>0</heading>
                <Icon id="link_7781">
                    <href>wifi4.png</href>
                </Icon>
            </IconStyle>
        </Style>
        <Style id="stylesel_7782">
            <IconStyle id="substyle_7782">
                <colorMode>normal</colorMode>
                <scale>1</scale>
                <heading>0</heading>
                <Icon id="link_7782">
                    <href>wifi4.png</href>
                </Icon>
            </IconStyle>
        </Style>
        <Style id="stylesel_7783">
            <IconStyle id="substyle_7783">
                <colorMode>normal</colorMode>
                <scale>1</scale>
                <heading>0</heading>
                <Icon id="link_7783">
                    <href>wifi4.png</href>
                </Icon>
            </IconStyle>
        </Style>
        <Style id="stylesel_7784">
            <IconStyle id="substyle_7784">
                <colorMode>normal</colorMode>
                <scale>1</scale>
                <heading>0</heading>
                <Icon id="link_7784">
                    <href>wifi4.png</href>
                </Icon>
            </IconStyle>
        </Style>
        <Style id="stylesel_7785">
            <IconStyle id="substyle_7785">
                <colorMode>normal</colorMode>
                <scale>1</scale>
                <heading>0</heading>
                <Icon id="link_7785">
                    <href>wifi4.png</href>
                </Icon>
            </IconStyle>
        </Style>
        <Style id="stylesel_7786">
            <IconStyle id="substyle_7786">
                <colorMode>normal</colorMode>
                <scale>1</scale>
                <heading>0</heading>
                <Icon id="link_7786">
                    <href>wifi4.png</href>
                </Icon>
            </IconStyle>
        </Style>
        <Style id="stylesel_7787">
            <IconStyle id="substyle_7787">
                <colorMode>normal</colorMode>
                <scale>1</scale>
                <heading>0</heading>
                <Icon id="link_7787">
                    <href>wifi4.png</href>
                </Icon>
            </IconStyle>
        </Style>
        <Style id="stylesel_7788">
            <IconStyle id="substyle_7788">
                <colorMode>normal</colorMode>
                <scale>1</scale>
                <heading>0</heading>
                <Icon id="link_7788">
                    <href>wifi4.png</href>
                </Icon>
            </IconStyle>
        </Style>
        <Style id="stylesel_7789">
            <IconStyle id="substyle_7789">
                <colorMode>normal</colorMode>
                <scale>1</scale>
                <heading>0</heading>
                <Icon id="link_7789">
                    <href>wifi4.png</href>
                </Icon>
            </IconStyle>
        </Style>
        <Style id="stylesel_7790">
            <IconStyle id="substyle_7790">
                <colorMode>normal</colorMode>
                <scale>1</scale>
                <heading>0</heading>
                <Icon id="link_7790">
                    <href>wifi4.png</href>
                </Icon>
            </IconStyle>
        </Style>
        <Style id="stylesel_7791">
            <IconStyle id="substyle_7791">
                <colorMode>normal</colorMode>
                <scale>1</scale>
                <heading>0</heading>
                <Icon id="link_7791">
                    <href>wifi4.png</href>
                </Icon>
            </IconStyle>
        </Style>
        <Style id="stylesel_7792">
            <IconStyle id="substyle_7792">
                <colorMode>normal</colorMode>
                <scale>1</scale>
                <heading>0</heading>
                <Icon id="link_7792">
                    <href>wifi4.png</href>
                </Icon>
            </IconStyle>
        </Style>
        <Style id="stylesel_7793">
            <IconStyle id="substyle_7793">
                <colorMode>normal</colorMode>
                <scale>1</scale>
                <heading>0</heading>
                <Icon id="link_7793">
                    <href>wifi4.png</href>
                </Icon>
            </IconStyle>
        </Style>
        <Style id="stylesel_7794">
            <IconStyle id="substyle_7794">
                <colorMode>normal</colorMode>
                <scale>1</scale>
                <heading>0</heading>
                <Icon id="link_7794">
                    <href>wifi4.png</href>
                </Icon>
            </IconStyle>
        </Style>
        <Style id="stylesel_7795">
            <IconStyle id="substyle_7795">
                <colorMode>normal</colorMode>
                <scale>1</scale>
                <heading>0</heading>
                <Icon id="link_7795">
                    <href>wifi4.png</href>
                </Icon>
            </IconStyle>
        </Style>
        <Style id="stylesel_7796">
            <IconStyle id="substyle_7796">
                <colorMode>normal</colorMode>
                <scale>1</scale>
                <heading>0</heading>
                <Icon id="link_7796">
                    <href>wifi4.png</href>
                </Icon>
            </IconStyle>
        </Style>
        <Style id="stylesel_7797">
            <IconStyle id="substyle_7797">
                <colorMode>normal</colorMode>
                <scale>1</scale>
                <heading>0</heading>
                <Icon id="link_7797">
                    <href>wifi4.png</href>
                </Icon>
            </IconStyle>
        </Style>
        <Style id="stylesel_7798">
            <IconStyle id="substyle_7798">
                <colorMode>normal</colorMode>
                <scale>1</scale>
                <heading>0</heading>
                <Icon id="link_7798">
                    <href>wifi4.png</href>
                </Icon>
            </IconStyle>
        </Style>
        <Style id="stylesel_7799">
            <IconStyle id="substyle_7799">
                <colorMode>normal</colorMode>
                <scale>1</scale>
                <heading>0</heading>
                <Icon id="link_7799">
                    <href>wifi4.png</href>
                </Icon>
            </IconStyle>
        </Style>
        <Style id="stylesel_7800">
            <IconStyle id="substyle_7800">
                <colorMode>normal</colorMode>
                <scale>1</scale>
                <heading>0</heading>
                <Icon id="link_7800">
                    <href>wifi4.png</href>
                </Icon>
            </IconStyle>
        </Style>
        <Style id="stylesel_7801">
            <IconStyle id="substyle_7801">
                <colorMode>normal</colorMode>
                <scale>1</scale>
                <heading>0</heading>
                <Icon id="link_7801">
                    <href>wifi4.png</href>
                </Icon>
            </IconStyle>
        </Style>
        <Style id="stylesel_7802">
            <IconStyle id="substyle_7802">
                <colorMode>normal</colorMode>
                <scale>1</scale>
                <heading>0</heading>
                <Icon id="link_7802">
                    <href>wifi4.png</href>
                </Icon>
            </IconStyle>
        </Style>
        <Style id="stylesel_7803">
            <IconStyle id="substyle_7803">
                <colorMode>normal</colorMode>
                <scale>1</scale>
                <heading>0</heading>
                <Icon id="link_7803">
                    <href>wifi4.png</href>
                </Icon>
            </IconStyle>
        </Style>
        <Style id="stylesel_7804">
            <IconStyle id="substyle_7804">
                <colorMode>normal</colorMode>
                <scale>1</scale>
                <heading>0</heading>
                <Icon id="link_7804">
                    <href>wifi4.png</href>
                </Icon>
            </IconStyle>
        </Style>
        <Style id="stylesel_7805">
            <IconStyle id="substyle_7805">
                <colorMode>normal</colorMode>
                <scale>1</scale>
                <heading>0</heading>
                <Icon id="link_7805">
                    <href>wifi4.png</href>
                </Icon>
            </IconStyle>
        </Style>
        <Style id="stylesel_7806">
            <IconStyle id="substyle_7806">
                <colorMode>normal</colorMode>
                <scale>1</scale>
                <heading>0</heading>
                <Icon id="link_7806">
                    <href>wifi4.png</href>
                </Icon>
            </IconStyle>
        </Style>
        <Placemark id="feat_7999">
            <name>LDSAccess</name>
            <description>2016-01-31T02:47:30.000Z</description>
            <styleUrl>#stylesel_7748</styleUrl>
            <Point id="geom_7748">
                <coordinates>-111.7206955,40.36114502,0.0</coordinates>
            </Point>
        </Placemark>
        <Placemark id="feat_8000">
            <name>LDSAccess</name>
            <description>2016-01-31T02:47:06.000Z</description>
            <styleUrl>#stylesel_7749</styleUrl>
            <Point id="geom_7749">
                <coordinates>-111.72444153,40.36114502,0.0</coordinates>
            </Point>
        </Placemark>
        <Placemark id="feat_8001">
            <name>LDSAccess</name>
            <description>2016-01-31T02:47:22.000Z</description>
            <styleUrl>#stylesel_7750</styleUrl>
            <Point id="geom_7750">
                <coordinates>-111.72198486,40.36114502,0.0</coordinates>
            </Point>
        </Placemark>
        <Placemark id="feat_8002">
            <name>LDSAccess</name>
            <description>2016-01-31T02:47:14.000Z</description>
            <styleUrl>#stylesel_7751</styleUrl>
            <Point id="geom_7751">
                <coordinates>-111.72319794,40.3611412,0.0</coordinates>
            </Point>
        </Placemark>
        <Placemark id="feat_8003">
            <name>LDSAccess</name>
            <description>2016-02-01T01:29:56.000Z</description>
            <styleUrl>#stylesel_7752</styleUrl>
            <Point id="geom_7752">
                <coordinates>-111.7244339,40.36115646,0.0</coordinates>
            </Point>
        </Placemark>
        <Placemark id="feat_8004">
            <name>LDSAccess</name>
            <description>2016-01-07T17:27:27.000Z</description>
            <styleUrl>#stylesel_7753</styleUrl>
            <Point id="geom_7753">
                <coordinates>-111.72233582,40.36114883,0.0</coordinates>
            </Point>
        </Placemark>
        <Placemark id="feat_8005">
            <name>LDSAccess</name>
            <description>2016-01-07T17:27:13.000Z</description>
            <styleUrl>#stylesel_7754</styleUrl>
            <Point id="geom_7754">
                <coordinates>-111.72451019,40.36114502,0.0</coordinates>
            </Point>
        </Placemark>
        <Placemark id="feat_8006">
            <name>LDSAccess</name>
            <description>2016-02-01T01:30:04.000Z</description>
            <styleUrl>#stylesel_7755</styleUrl>
            <Point id="geom_7755">
                <coordinates>-111.72319031,40.36115646,0.0</coordinates>
            </Point>
        </Placemark>
        <Placemark id="feat_8007">
            <name>LDSAccess</name>
            <description>2016-02-01T01:30:12.000Z</description>
            <styleUrl>#stylesel_7756</styleUrl>
            <Point id="geom_7756">
                <coordinates>-111.72187805,40.36116028,0.0</coordinates>
            </Point>
        </Placemark>
        <Placemark id="feat_8008">
            <name>LDSAccess</name>
            <description>2016-01-07T17:27:21.000Z</description>
            <styleUrl>#stylesel_7757</styleUrl>
            <Point id="geom_7757">
                <coordinates>-111.7233429,40.36114883,0.0</coordinates>
            </Point>
        </Placemark>
        <Placemark id="feat_8009">
            <name>LDSAccess</name>
            <description>2016-02-01T01:30:20.000Z</description>
            <styleUrl>#stylesel_7758</styleUrl>
            <Point id="geom_7758">
                <coordinates>-111.72055817,40.36116028,0.0</coordinates>
            </Point>
        </Placemark>
        <Placemark id="feat_8010">
            <name>LDSAccess</name>
            <description>2016-01-07T17:27:33.000Z</description>
            <styleUrl>#stylesel_7759</styleUrl>
            <Point id="geom_7759">
                <coordinates>-111.72125244,40.36115265,0.0</coordinates>
            </Point>
        </Placemark>
        <Placemark id="feat_8011">
            <name>LDSAccess</name>
            <description>2016-01-09T18:45:23.000Z</description>
            <styleUrl>#stylesel_7760</styleUrl>
            <Point id="geom_7760">
                <coordinates>-111.72142029,40.36115646,0.0</coordinates>
            </Point>
        </Placemark>
        <Placemark id="feat_8012">
            <name>LDSAccess</name>
            <description>2016-01-09T18:45:31.000Z</description>
            <styleUrl>#stylesel_7761</styleUrl>
            <Point id="geom_7761">
                <coordinates>-111.71971893,40.36115265,0.0</coordinates>
            </Point>
        </Placemark>
        <Placemark id="feat_8013">
            <name>LDSAccess</name>
            <description>2016-01-09T18:45:09.000Z</description>
            <styleUrl>#stylesel_7762</styleUrl>
            <Point id="geom_7762">
                <coordinates>-111.72407532,40.36115646,0.0</coordinates>
            </Point>
        </Placemark>
        <Placemark id="feat_8014">
            <name>LDSAccess</name>
            <description>2016-01-09T18:45:15.000Z</description>
            <styleUrl>#stylesel_7763</styleUrl>
            <Point id="geom_7763">
                <coordinates>-111.72296143,40.36115646,0.0</coordinates>
            </Point>
        </Placemark>
        <Placemark id="feat_8015">
            <name>LDSAccess</name>
            <description>2016-01-20T17:51:39.000Z</description>
            <styleUrl>#stylesel_7764</styleUrl>
            <Point id="geom_7764">
                <coordinates>-111.72234344,40.36113739,0.0</coordinates>
            </Point>
        </Placemark>
        <Placemark id="feat_8016">
            <name>LDSAccess</name>
            <description>2016-01-20T17:51:52.000Z</description>
            <styleUrl>#stylesel_7765</styleUrl>
            <Point id="geom_7765">
                <coordinates>-111.71995544,40.36114502,0.0</coordinates>
            </Point>
        </Placemark>
        <Placemark id="feat_8017">
            <name>LDSAccess</name>
            <description>2016-01-20T17:51:45.000Z</description>
            <styleUrl>#stylesel_7766</styleUrl>
            <Point id="geom_7766">
                <coordinates>-111.72125244,40.36114502,0.0</coordinates>
            </Point>
        </Placemark>
        <Placemark id="feat_8018">
            <name>LDSAccess</name>
            <description>2016-01-20T17:51:27.000Z</description>
            <styleUrl>#stylesel_7767</styleUrl>
            <Point id="geom_7767">
                <coordinates>-111.72452545,40.36113358,0.0</coordinates>
            </Point>
        </Placemark>
        <Placemark id="feat_8019">
            <name>LDSAccess</name>
            <description>2016-01-20T18:13:07.000Z</description>
            <styleUrl>#stylesel_7768</styleUrl>
            <Point id="geom_7768">
                <coordinates>-111.72451019,40.36114502,0.0</coordinates>
            </Point>
        </Placemark>
        <Placemark id="feat_8020">
            <name>LDSAccess</name>
            <description>2016-01-20T17:51:33.000Z</description>
            <styleUrl>#stylesel_7769</styleUrl>
            <Point id="geom_7769">
                <coordinates>-111.72345734,40.36113739,0.0</coordinates>
            </Point>
        </Placemark>
        <Placemark id="feat_8021">
            <name>LDSAccess</name>
            <description>2016-01-01T08:24:41.000Z</description>
            <styleUrl>#stylesel_7770</styleUrl>
            <Point id="geom_7770">
                <coordinates>-111.72823334,40.36119461,0.0</coordinates>
            </Point>
        </Placemark>
        <Placemark id="feat_8022">
            <name>LDSAccess</name>
            <description>2016-01-20T18:21:24.000Z</description>
            <styleUrl>#stylesel_7771</styleUrl>
            <Point id="geom_7771">
                <coordinates>-111.72801971,40.36119461,0.0</coordinates>
            </Point>
        </Placemark>
        <Placemark id="feat_8023">
            <name>LDSAccess</name>
            <description>2016-02-01T05:08:14.000Z</description>
            <styleUrl>#stylesel_7772</styleUrl>
            <Point id="geom_7772">
                <coordinates>-111.72439575,40.36116409,0.0</coordinates>
            </Point>
        </Placemark>
        <Placemark id="feat_8024">
            <name>LDSAccess</name>
            <description>2016-02-01T05:08:54.000Z</description>
            <styleUrl>#stylesel_7773</styleUrl>
            <Point id="geom_7773">
                <coordinates>-111.7289505,40.36117935,0.0</coordinates>
            </Point>
        </Placemark>
        <Placemark id="feat_8025">
            <name>LDSAccess</name>
            <description>2016-01-20T18:21:00.000Z</description>
            <styleUrl>#stylesel_7774</styleUrl>
            <Point id="geom_7774">
                <coordinates>-111.72426605,40.3611908,0.0</coordinates>
            </Point>
        </Placemark>
        <Placemark id="feat_8026">
            <name>LDSAccess</name>
            <description>2016-01-20T18:13:23.000Z</description>
            <styleUrl>#stylesel_7775</styleUrl>
            <Point id="geom_7775">
                <coordinates>-111.72186279,40.3611412,0.0</coordinates>
            </Point>
        </Placemark>
        <Placemark id="feat_8027">
            <name>LDSAccess</name>
            <description>2016-01-01T08:24:35.000Z</description>
            <styleUrl>#stylesel_7776</styleUrl>
            <Point id="geom_7776">
                <coordinates>-111.72719574,40.36119461,0.0</coordinates>
            </Point>
        </Placemark>
        <Placemark id="feat_8028">
            <name>LDSAccess</name>
            <description>2016-01-01T08:24:28.000Z</description>
            <styleUrl>#stylesel_7777</styleUrl>
            <Point id="geom_7777">
                <coordinates>-111.72606659,40.36119843,0.0</coordinates>
            </Point>
        </Placemark>
        <Placemark id="feat_8029">
            <name>LDSAccess</name>
            <description>2016-01-20T18:21:08.000Z</description>
            <styleUrl>#stylesel_7778</styleUrl>
            <Point id="geom_7778">
                <coordinates>-111.72550964,40.36119843,0.0</coordinates>
            </Point>
        </Placemark>
        <Placemark id="feat_8030">
            <name>LDSAccess</name>
            <description>2016-01-01T08:24:20.000Z</description>
            <styleUrl>#stylesel_7779</styleUrl>
            <Point id="geom_7779">
                <coordinates>-111.72481537,40.36119461,0.0</coordinates>
            </Point>
        </Placemark>
        <Placemark id="feat_8031">
            <name>LDSAccess</name>
            <description>2016-03-23T20:36:19.000Z</description>
            <styleUrl>#stylesel_7780</styleUrl>
            <Point id="geom_7780">
                <coordinates>-111.7191925,40.36113739,0.0</coordinates>
            </Point>
        </Placemark>
        <Placemark id="feat_8032">
            <name>LDSAccess</name>
            <description>2016-01-20T18:21:16.000Z</description>
            <styleUrl>#stylesel_7781</styleUrl>
            <Point id="geom_7781">
                <coordinates>-111.72674561,40.36119461,0.0</coordinates>
            </Point>
        </Placemark>
        <Placemark id="feat_8033">
            <name>LDSAccess</name>
            <description>2016-01-20T18:13:15.000Z</description>
            <styleUrl>#stylesel_7782</styleUrl>
            <Point id="geom_7782">
                <coordinates>-111.72319794,40.3611412,0.0</coordinates>
            </Point>
        </Placemark>
        <Placemark id="feat_8034">
            <name>LDSAccess</name>
            <description>2016-01-20T18:13:30.000Z</description>
            <styleUrl>#stylesel_7783</styleUrl>
            <Point id="geom_7783">
                <coordinates>-111.72058868,40.3611412,0.0</coordinates>
            </Point>
        </Placemark>
        <Placemark id="feat_8035">
            <name>LDSAccess</name>
            <description>2016-03-23T20:35:53.000Z</description>
            <styleUrl>#stylesel_7784</styleUrl>
            <Point id="geom_7784">
                <coordinates>-111.72386169,40.3611412,0.0</coordinates>
            </Point>
        </Placemark>
        <Placemark id="feat_8036">
            <name>LDSAccess</name>
            <description>2016-01-31T05:23:12.000Z</description>
            <styleUrl>#stylesel_7785</styleUrl>
            <Point id="geom_7785">
                <coordinates>-111.7268219,40.36119461,0.0</coordinates>
            </Point>
        </Placemark>
        <Placemark id="feat_8037">
            <name>LDSAccess</name>
            <description>2016-01-31T05:23:04.000Z</description>
            <styleUrl>#stylesel_7786</styleUrl>
            <Point id="geom_7786">
                <coordinates>-111.72563934,40.36119843,0.0</coordinates>
            </Point>
        </Placemark>
        <Placemark id="feat_8038">
            <name>LDSAccess</name>
            <description>2016-01-31T05:23:21.000Z</description>
            <styleUrl>#stylesel_7787</styleUrl>
            <Point id="geom_7787">
                <coordinates>-111.72808075,40.36119461,0.0</coordinates>
            </Point>
        </Placemark>
        <Placemark id="feat_8039">
            <name>LDSAccess</name>
            <description>2016-01-31T05:22:56.000Z</description>
            <styleUrl>#stylesel_7788</styleUrl>
            <Point id="geom_7788">
                <coordinates>-111.72442627,40.36119461,0.0</coordinates>
            </Point>
        </Placemark>
        <Placemark id="feat_8040">
            <name>LDSAccess</name>
            <description>2017-03-05T18:57:35.000Z</description>
            <styleUrl>#stylesel_7789</styleUrl>
            <Point id="geom_7789">
                <coordinates>-111.72412872,40.36077118,0.0</coordinates>
            </Point>
        </Placemark>
        <Placemark id="feat_8041">
            <name>LDSAccess</name>
            <description>2017-03-05T18:57:38.000Z</description>
            <styleUrl>#stylesel_7790</styleUrl>
            <Point id="geom_7790">
                <coordinates>-111.72396851,40.36082458,0.0</coordinates>
            </Point>
        </Placemark>
        <Placemark id="feat_8042">
            <name>LDSAccess</name>
            <description>2017-03-05T18:57:38.000Z</description>
            <styleUrl>#stylesel_7791</styleUrl>
            <Point id="geom_7791">
                <coordinates>-111.72398376,40.36083603,0.0</coordinates>
            </Point>
        </Placemark>
        <Placemark id="feat_8043">
            <name>LDSAccess</name>
            <description>2017-03-05T18:57:30.000Z</description>
            <styleUrl>#stylesel_7792</styleUrl>
            <Point id="geom_7792">
                <coordinates>-111.72450256,40.36060333,0.0</coordinates>
            </Point>
        </Placemark>
        <Placemark id="feat_8044">
            <name>LDSAccess</name>
            <description>2017-03-04T17:08:08.000Z</description>
            <styleUrl>#stylesel_7793</styleUrl>
            <Point id="geom_7793">
                <coordinates>-111.72471619,40.36116791,0.0</coordinates>
            </Point>
        </Placemark>
        <Placemark id="feat_8045">
            <name>LDSAccess</name>
            <description>2017-02-18T17:50:48.000Z</description>
            <styleUrl>#stylesel_7794</styleUrl>
            <Point id="geom_7794">
                <coordinates>-111.72410583,40.36077118,0.0</coordinates>
            </Point>
        </Placemark>
        <Placemark id="feat_8046">
            <name>LDSAccess</name>
            <description>2017-02-22T00:22:27.000Z</description>
            <styleUrl>#stylesel_7795</styleUrl>
            <Point id="geom_7795">
                <coordinates>-111.72399139,40.36109924,0.0</coordinates>
            </Point>
        </Placemark>
        <Placemark id="feat_8047">
            <name>LDSAccess</name>
            <description>2017-02-18T17:50:48.000Z</description>
            <styleUrl>#stylesel_7796</styleUrl>
            <Point id="geom_7796">
                <coordinates>-111.72414398,40.36074829,0.0</coordinates>
            </Point>
        </Placemark>
        <Placemark id="feat_8048">
            <name>LDSAccess</name>
            <description>2016-10-16T00:50:15.000Z</description>
            <styleUrl>#stylesel_7797</styleUrl>
            <Point id="geom_7797">
                <coordinates>-111.72533417,40.36118698,0.0</coordinates>
            </Point>
        </Placemark>
        <Placemark id="feat_8049">
            <name>LDSAccess</name>
            <description>2017-03-11T16:08:45.000Z</description>
            <styleUrl>#stylesel_7798</styleUrl>
            <Point id="geom_7798">
                <coordinates>-111.72518158,40.36117554,0.0</coordinates>
            </Point>
        </Placemark>
        <Placemark id="feat_8050">
            <name>LDSAccess</name>
            <description>2016-10-16T00:49:12.000Z</description>
            <styleUrl>#stylesel_7799</styleUrl>
            <Point id="geom_7799">
                <coordinates>-111.72399139,40.36109924,0.0</coordinates>
            </Point>
        </Placemark>
        <Placemark id="feat_8051">
            <name>LDSAccess</name>
            <description>2017-02-22T00:22:34.000Z</description>
            <styleUrl>#stylesel_7800</styleUrl>
            <Point id="geom_7800">
                <coordinates>-111.72428894,40.36110687,0.0</coordinates>
            </Point>
        </Placemark>
        <Placemark id="feat_8052">
            <name>LDSAccess</name>
            <description>2016-08-10T21:05:56.000Z</description>
            <styleUrl>#stylesel_7801</styleUrl>
            <Point id="geom_7801">
                <coordinates>-111.72446442,40.36117554,0.0</coordinates>
            </Point>
        </Placemark>
        <Placemark id="feat_8053">
            <name>LDSAccess</name>
            <description>2014-03-29T01:14:30.000Z</description>
            <styleUrl>#stylesel_7802</styleUrl>
            <Point id="geom_7802">
                <coordinates>-111.72457123,40.36118317,0.0</coordinates>
            </Point>
        </Placemark>
        <Placemark id="feat_8054">
            <name>LDSAccess</name>
            <description>2017-08-28T20:21:30.000Z</description>
            <styleUrl>#stylesel_7803</styleUrl>
            <Point id="geom_7803">
                <coordinates>-111.72332001,40.36116791,0.0</coordinates>
            </Point>
        </Placemark>
        <Placemark id="feat_8055">
            <name>LDSAccess</name>
            <description>2017-02-22T00:22:06.000Z</description>
            <styleUrl>#stylesel_7804</styleUrl>
            <Point id="geom_7804">
                <coordinates>-111.72327423,40.36106873,0.0</coordinates>
            </Point>
        </Placemark>
        <Placemark id="feat_8056">
            <name>LDSAccess</name>
            <description>2017-06-02T13:52:19.000Z</description>
            <styleUrl>#stylesel_7805</styleUrl>
            <Point id="geom_7805">
                <coordinates>-111.72346497,40.36114883,0.0</coordinates>
            </Point>
        </Placemark>
        <Placemark id="feat_8057">
            <name>LDSAccess</name>
            <description>2014-03-29T03:55:18.000Z</description>
            <styleUrl>#stylesel_7806</styleUrl>
            <Point id="geom_7806">
                <coordinates>-111.72438812,40.36130905,0.0</coordinates>
            </Point>
        </Placemark>
    </Document>
</kml>
