<?xml version="1.0" encoding="UTF-8"?>
<kml xmlns="http://www.opengis.net/kml/2.2" xmlns:gx="http://www.google.com/kml/ext/2.2">
    <Document id="feat_3676">
        <Style id="stylesel_3566">
            <IconStyle id="substyle_3566">
                <colorMode>normal</colorMode>
                <scale>1</scale>
                <heading>0</heading>
                <Icon id="link_3566">
                    <href>wifi4.png</href>
                </Icon>
            </IconStyle>
        </Style>
        <Style id="stylesel_3567">
            <IconStyle id="substyle_3567">
                <colorMode>normal</colorMode>
                <scale>1</scale>
                <heading>0</heading>
                <Icon id="link_3567">
                    <href>wifi4.png</href>
                </Icon>
            </IconStyle>
        </Style>
        <Style id="stylesel_3568">
            <IconStyle id="substyle_3568">
                <colorMode>normal</colorMode>
                <scale>1</scale>
                <heading>0</heading>
                <Icon id="link_3568">
                    <href>wifi4.png</href>
                </Icon>
            </IconStyle>
        </Style>
        <Style id="stylesel_3569">
            <IconStyle id="substyle_3569">
                <colorMode>normal</colorMode>
                <scale>1</scale>
                <heading>0</heading>
                <Icon id="link_3569">
                    <href>wifi4.png</href>
                </Icon>
            </IconStyle>
        </Style>
        <Style id="stylesel_3570">
            <IconStyle id="substyle_3570">
                <colorMode>normal</colorMode>
                <scale>1</scale>
                <heading>0</heading>
                <Icon id="link_3570">
                    <href>wifi4.png</href>
                </Icon>
            </IconStyle>
        </Style>
        <Style id="stylesel_3571">
            <IconStyle id="substyle_3571">
                <colorMode>normal</colorMode>
                <scale>1</scale>
                <heading>0</heading>
                <Icon id="link_3571">
                    <href>wifi4.png</href>
                </Icon>
            </IconStyle>
        </Style>
        <Style id="stylesel_3572">
            <IconStyle id="substyle_3572">
                <colorMode>normal</colorMode>
                <scale>1</scale>
                <heading>0</heading>
                <Icon id="link_3572">
                    <href>wifi4.png</href>
                </Icon>
            </IconStyle>
        </Style>
        <Style id="stylesel_3573">
            <IconStyle id="substyle_3573">
                <colorMode>normal</colorMode>
                <scale>1</scale>
                <heading>0</heading>
                <Icon id="link_3573">
                    <href>wifi4.png</href>
                </Icon>
            </IconStyle>
        </Style>
        <Style id="stylesel_3574">
            <IconStyle id="substyle_3574">
                <colorMode>normal</colorMode>
                <scale>1</scale>
                <heading>0</heading>
                <Icon id="link_3574">
                    <href>wifi4.png</href>
                </Icon>
            </IconStyle>
        </Style>
        <Style id="stylesel_3575">
            <IconStyle id="substyle_3575">
                <colorMode>normal</colorMode>
                <scale>1</scale>
                <heading>0</heading>
                <Icon id="link_3575">
                    <href>wifi4.png</href>
                </Icon>
            </IconStyle>
        </Style>
        <Style id="stylesel_3576">
            <IconStyle id="substyle_3576">
                <colorMode>normal</colorMode>
                <scale>1</scale>
                <heading>0</heading>
                <Icon id="link_3576">
                    <href>wifi4.png</href>
                </Icon>
            </IconStyle>
        </Style>
        <Style id="stylesel_3577">
            <IconStyle id="substyle_3577">
                <colorMode>normal</colorMode>
                <scale>1</scale>
                <heading>0</heading>
                <Icon id="link_3577">
                    <href>wifi4.png</href>
                </Icon>
            </IconStyle>
        </Style>
        <Style id="stylesel_3578">
            <IconStyle id="substyle_3578">
                <colorMode>normal</colorMode>
                <scale>1</scale>
                <heading>0</heading>
                <Icon id="link_3578">
                    <href>wifi4.png</href>
                </Icon>
            </IconStyle>
        </Style>
        <Style id="stylesel_3579">
            <IconStyle id="substyle_3579">
                <colorMode>normal</colorMode>
                <scale>1</scale>
                <heading>0</heading>
                <Icon id="link_3579">
                    <href>wifi4.png</href>
                </Icon>
            </IconStyle>
        </Style>
        <Style id="stylesel_3580">
            <IconStyle id="substyle_3580">
                <colorMode>normal</colorMode>
                <scale>1</scale>
                <heading>0</heading>
                <Icon id="link_3580">
                    <href>wifi4.png</href>
                </Icon>
            </IconStyle>
        </Style>
        <Style id="stylesel_3581">
            <IconStyle id="substyle_3581">
                <colorMode>normal</colorMode>
                <scale>1</scale>
                <heading>0</heading>
                <Icon id="link_3581">
                    <href>wifi4.png</href>
                </Icon>
            </IconStyle>
        </Style>
        <Style id="stylesel_3582">
            <IconStyle id="substyle_3582">
                <colorMode>normal</colorMode>
                <scale>1</scale>
                <heading>0</heading>
                <Icon id="link_3582">
                    <href>wifi4.png</href>
                </Icon>
            </IconStyle>
        </Style>
        <Style id="stylesel_3583">
            <IconStyle id="substyle_3583">
                <colorMode>normal</colorMode>
                <scale>1</scale>
                <heading>0</heading>
                <Icon id="link_3583">
                    <href>wifi4.png</href>
                </Icon>
            </IconStyle>
        </Style>
        <Style id="stylesel_3584">
            <IconStyle id="substyle_3584">
                <colorMode>normal</colorMode>
                <scale>1</scale>
                <heading>0</heading>
                <Icon id="link_3584">
                    <href>wifi4.png</href>
                </Icon>
            </IconStyle>
        </Style>
        <Style id="stylesel_3585">
            <IconStyle id="substyle_3585">
                <colorMode>normal</colorMode>
                <scale>1</scale>
                <heading>0</heading>
                <Icon id="link_3585">
                    <href>wifi4.png</href>
                </Icon>
            </IconStyle>
        </Style>
        <Style id="stylesel_3586">
            <IconStyle id="substyle_3586">
                <colorMode>normal</colorMode>
                <scale>1</scale>
                <heading>0</heading>
                <Icon id="link_3586">
                    <href>wifi4.png</href>
                </Icon>
            </IconStyle>
        </Style>
        <Style id="stylesel_3587">
            <IconStyle id="substyle_3587">
                <colorMode>normal</colorMode>
                <scale>1</scale>
                <heading>0</heading>
                <Icon id="link_3587">
                    <href>wifi4.png</href>
                </Icon>
            </IconStyle>
        </Style>
        <Style id="stylesel_3588">
            <IconStyle id="substyle_3588">
                <colorMode>normal</colorMode>
                <scale>1</scale>
                <heading>0</heading>
                <Icon id="link_3588">
                    <href>wifi4.png</href>
                </Icon>
            </IconStyle>
        </Style>
        <Style id="stylesel_3589">
            <IconStyle id="substyle_3589">
                <colorMode>normal</colorMode>
                <scale>1</scale>
                <heading>0</heading>
                <Icon id="link_3589">
                    <href>wifi4.png</href>
                </Icon>
            </IconStyle>
        </Style>
        <Style id="stylesel_3590">
            <IconStyle id="substyle_3590">
                <colorMode>normal</colorMode>
                <scale>1</scale>
                <heading>0</heading>
                <Icon id="link_3590">
                    <href>wifi4.png</href>
                </Icon>
            </IconStyle>
        </Style>
        <Style id="stylesel_3591">
            <IconStyle id="substyle_3591">
                <colorMode>normal</colorMode>
                <scale>1</scale>
                <heading>0</heading>
                <Icon id="link_3591">
                    <href>wifi4.png</href>
                </Icon>
            </IconStyle>
        </Style>
        <Style id="stylesel_3592">
            <IconStyle id="substyle_3592">
                <colorMode>normal</colorMode>
                <scale>1</scale>
                <heading>0</heading>
                <Icon id="link_3592">
                    <href>wifi4.png</href>
                </Icon>
            </IconStyle>
        </Style>
        <Style id="stylesel_3593">
            <IconStyle id="substyle_3593">
                <colorMode>normal</colorMode>
                <scale>1</scale>
                <heading>0</heading>
                <Icon id="link_3593">
                    <href>wifi4.png</href>
                </Icon>
            </IconStyle>
        </Style>
        <Style id="stylesel_3594">
            <IconStyle id="substyle_3594">
                <colorMode>normal</colorMode>
                <scale>1</scale>
                <heading>0</heading>
                <Icon id="link_3594">
                    <href>wifi4.png</href>
                </Icon>
            </IconStyle>
        </Style>
        <Style id="stylesel_3595">
            <IconStyle id="substyle_3595">
                <colorMode>normal</colorMode>
                <scale>1</scale>
                <heading>0</heading>
                <Icon id="link_3595">
                    <href>wifi4.png</href>
                </Icon>
            </IconStyle>
        </Style>
        <Style id="stylesel_3596">
            <IconStyle id="substyle_3596">
                <colorMode>normal</colorMode>
                <scale>1</scale>
                <heading>0</heading>
                <Icon id="link_3596">
                    <href>wifi4.png</href>
                </Icon>
            </IconStyle>
        </Style>
        <Style id="stylesel_3597">
            <IconStyle id="substyle_3597">
                <colorMode>normal</colorMode>
                <scale>1</scale>
                <heading>0</heading>
                <Icon id="link_3597">
                    <href>wifi4.png</href>
                </Icon>
            </IconStyle>
        </Style>
        <Style id="stylesel_3598">
            <IconStyle id="substyle_3598">
                <colorMode>normal</colorMode>
                <scale>1</scale>
                <heading>0</heading>
                <Icon id="link_3598">
                    <href>wifi4.png</href>
                </Icon>
            </IconStyle>
        </Style>
        <Style id="stylesel_3599">
            <IconStyle id="substyle_3599">
                <colorMode>normal</colorMode>
                <scale>1</scale>
                <heading>0</heading>
                <Icon id="link_3599">
                    <href>wifi4.png</href>
                </Icon>
            </IconStyle>
        </Style>
        <Style id="stylesel_3600">
            <IconStyle id="substyle_3600">
                <colorMode>normal</colorMode>
                <scale>1</scale>
                <heading>0</heading>
                <Icon id="link_3600">
                    <href>wifi4.png</href>
                </Icon>
            </IconStyle>
        </Style>
        <Style id="stylesel_3601">
            <IconStyle id="substyle_3601">
                <colorMode>normal</colorMode>
                <scale>1</scale>
                <heading>0</heading>
                <Icon id="link_3601">
                    <href>wifi4.png</href>
                </Icon>
            </IconStyle>
        </Style>
        <Style id="stylesel_3602">
            <IconStyle id="substyle_3602">
                <colorMode>normal</colorMode>
                <scale>1</scale>
                <heading>0</heading>
                <Icon id="link_3602">
                    <href>wifi4.png</href>
                </Icon>
            </IconStyle>
        </Style>
        <Style id="stylesel_3603">
            <IconStyle id="substyle_3603">
                <colorMode>normal</colorMode>
                <scale>1</scale>
                <heading>0</heading>
                <Icon id="link_3603">
                    <href>wifi4.png</href>
                </Icon>
            </IconStyle>
        </Style>
        <Style id="stylesel_3604">
            <IconStyle id="substyle_3604">
                <colorMode>normal</colorMode>
                <scale>1</scale>
                <heading>0</heading>
                <Icon id="link_3604">
                    <href>wifi4.png</href>
                </Icon>
            </IconStyle>
        </Style>
        <Style id="stylesel_3605">
            <IconStyle id="substyle_3605">
                <colorMode>normal</colorMode>
                <scale>1</scale>
                <heading>0</heading>
                <Icon id="link_3605">
                    <href>wifi4.png</href>
                </Icon>
            </IconStyle>
        </Style>
        <Style id="stylesel_3606">
            <IconStyle id="substyle_3606">
                <colorMode>normal</colorMode>
                <scale>1</scale>
                <heading>0</heading>
                <Icon id="link_3606">
                    <href>wifi4.png</href>
                </Icon>
            </IconStyle>
        </Style>
        <Style id="stylesel_3607">
            <IconStyle id="substyle_3607">
                <colorMode>normal</colorMode>
                <scale>1</scale>
                <heading>0</heading>
                <Icon id="link_3607">
                    <href>wifi4.png</href>
                </Icon>
            </IconStyle>
        </Style>
        <Style id="stylesel_3608">
            <IconStyle id="substyle_3608">
                <colorMode>normal</colorMode>
                <scale>1</scale>
                <heading>0</heading>
                <Icon id="link_3608">
                    <href>wifi4.png</href>
                </Icon>
            </IconStyle>
        </Style>
        <Style id="stylesel_3609">
            <IconStyle id="substyle_3609">
                <colorMode>normal</colorMode>
                <scale>1</scale>
                <heading>0</heading>
                <Icon id="link_3609">
                    <href>wifi4.png</href>
                </Icon>
            </IconStyle>
        </Style>
        <Style id="stylesel_3610">
            <IconStyle id="substyle_3610">
                <colorMode>normal</colorMode>
                <scale>1</scale>
                <heading>0</heading>
                <Icon id="link_3610">
                    <href>wifi4.png</href>
                </Icon>
            </IconStyle>
        </Style>
        <Style id="stylesel_3611">
            <IconStyle id="substyle_3611">
                <colorMode>normal</colorMode>
                <scale>1</scale>
                <heading>0</heading>
                <Icon id="link_3611">
                    <href>wifi4.png</href>
                </Icon>
            </IconStyle>
        </Style>
        <Style id="stylesel_3612">
            <IconStyle id="substyle_3612">
                <colorMode>normal</colorMode>
                <scale>1</scale>
                <heading>0</heading>
                <Icon id="link_3612">
                    <href>wifi4.png</href>
                </Icon>
            </IconStyle>
        </Style>
        <Style id="stylesel_3613">
            <IconStyle id="substyle_3613">
                <colorMode>normal</colorMode>
                <scale>1</scale>
                <heading>0</heading>
                <Icon id="link_3613">
                    <href>wifi4.png</href>
                </Icon>
            </IconStyle>
        </Style>
        <Placemark id="feat_3677">
            <name>LDSAccess</name>
            <description>2014-04-25T02:04:46.000Z</description>
            <styleUrl>#stylesel_3566</styleUrl>
            <Point id="geom_3566">
                <coordinates>-111.75588989,40.37558365,0.0</coordinates>
            </Point>
        </Placemark>
        <Placemark id="feat_3678">
            <name>LDSAccess</name>
            <description>2014-04-25T02:04:54.000Z</description>
            <styleUrl>#stylesel_3567</styleUrl>
            <Point id="geom_3567">
                <coordinates>-111.75439453,40.37555695,0.0</coordinates>
            </Point>
        </Placemark>
        <Placemark id="feat_3679">
            <name>LDSAccess</name>
            <description>2014-11-23T00:17:16.000Z</description>
            <styleUrl>#stylesel_3568</styleUrl>
            <Point id="geom_3568">
                <coordinates>-111.75437927,40.37555695,0.0</coordinates>
            </Point>
        </Placemark>
        <Placemark id="feat_3680">
            <name>LDSAccess</name>
            <description>2014-11-23T00:17:04.000Z</description>
            <styleUrl>#stylesel_3569</styleUrl>
            <Point id="geom_3569">
                <coordinates>-111.75695801,40.37558365,0.0</coordinates>
            </Point>
        </Placemark>
        <Placemark id="feat_3681">
            <name>LDSAccess</name>
            <description>2014-04-25T02:04:40.000Z</description>
            <styleUrl>#stylesel_3570</styleUrl>
            <Point id="geom_3570">
                <coordinates>-111.75708771,40.37559128,0.0</coordinates>
            </Point>
        </Placemark>
        <Placemark id="feat_3682">
            <name>LDSAccess</name>
            <description>2016-03-24T00:45:44.000Z</description>
            <styleUrl>#stylesel_3571</styleUrl>
            <Point id="geom_3571">
                <coordinates>-111.75836945,40.37565231,0.0</coordinates>
            </Point>
        </Placemark>
        <Placemark id="feat_3683">
            <name>LDSAccess</name>
            <description>2016-03-24T00:45:36.000Z</description>
            <styleUrl>#stylesel_3572</styleUrl>
            <Point id="geom_3572">
                <coordinates>-111.75683594,40.3756485,0.0</coordinates>
            </Point>
        </Placemark>
        <Placemark id="feat_3684">
            <name>LDSAccess</name>
            <description>2015-01-13T02:50:57.000Z</description>
            <styleUrl>#stylesel_3573</styleUrl>
            <Point id="geom_3573">
                <coordinates>-111.75641632,40.37556839,0.0</coordinates>
            </Point>
        </Placemark>
        <Placemark id="feat_3685">
            <name>LDSAccess</name>
            <description>2016-01-12T18:29:02.000Z</description>
            <styleUrl>#stylesel_3574</styleUrl>
            <Point id="geom_3574">
                <coordinates>-111.75928497,40.37557983,0.0</coordinates>
            </Point>
        </Placemark>
        <Placemark id="feat_3686">
            <name>LDSAccess</name>
            <description>2016-01-12T18:28:47.000Z</description>
            <styleUrl>#stylesel_3575</styleUrl>
            <Point id="geom_3575">
                <coordinates>-111.7565918,40.37564468,0.0</coordinates>
            </Point>
        </Placemark>
        <Placemark id="feat_3687">
            <name>LDSAccess</name>
            <description>2016-01-12T18:28:54.000Z</description>
            <styleUrl>#stylesel_3576</styleUrl>
            <Point id="geom_3576">
                <coordinates>-111.75811768,40.37565231,0.0</coordinates>
            </Point>
        </Placemark>
        <Placemark id="feat_3688">
            <name>LDSAccess</name>
            <description>2014-10-29T01:50:28.000Z</description>
            <styleUrl>#stylesel_3577</styleUrl>
            <Point id="geom_3577">
                <coordinates>-111.75707245,40.37556839,0.0</coordinates>
            </Point>
        </Placemark>
        <Placemark id="feat_3689">
            <name>LDSAccess</name>
            <description>2014-12-06T03:22:25.000Z</description>
            <styleUrl>#stylesel_3578</styleUrl>
            <Point id="geom_3578">
                <coordinates>-111.75469971,40.37557983,0.0</coordinates>
            </Point>
        </Placemark>
        <Placemark id="feat_3690">
            <name>LDSAccess</name>
            <description>2016-03-23T23:10:24.000Z</description>
            <styleUrl>#stylesel_3579</styleUrl>
            <Point id="geom_3579">
                <coordinates>-111.75265503,40.37557983,0.0</coordinates>
            </Point>
        </Placemark>
        <Placemark id="feat_3691">
            <name>LDSAccess</name>
            <description>2016-03-23T23:10:18.000Z</description>
            <styleUrl>#stylesel_3580</styleUrl>
            <Point id="geom_3580">
                <coordinates>-111.75376892,40.37558365,0.0</coordinates>
            </Point>
        </Placemark>
        <Placemark id="feat_3692">
            <name>LDSAccess</name>
            <description>2014-05-15T00:51:42.000Z</description>
            <styleUrl>#stylesel_3581</styleUrl>
            <Point id="geom_3581">
                <coordinates>-111.75683594,40.37559509,0.0</coordinates>
            </Point>
        </Placemark>
        <Placemark id="feat_3693">
            <name>LDSAccess</name>
            <description>2015-02-25T18:17:46.000Z</description>
            <styleUrl>#stylesel_3582</styleUrl>
            <Point id="geom_3582">
                <coordinates>-111.75751495,40.37554169,0.0</coordinates>
            </Point>
        </Placemark>
        <Placemark id="feat_3694">
            <name>LDSAccess</name>
            <description>2016-03-23T23:10:06.000Z</description>
            <styleUrl>#stylesel_3583</styleUrl>
            <Point id="geom_3583">
                <coordinates>-111.75592804,40.37559128,0.0</coordinates>
            </Point>
        </Placemark>
        <Placemark id="feat_3695">
            <name>LDSAccess</name>
            <description>2014-12-06T03:22:19.000Z</description>
            <styleUrl>#stylesel_3584</styleUrl>
            <Point id="geom_3584">
                <coordinates>-111.75590515,40.37559128,0.0</coordinates>
            </Point>
        </Placemark>
        <Placemark id="feat_3696">
            <name>LDSAccess</name>
            <description>2014-10-29T01:50:35.000Z</description>
            <styleUrl>#stylesel_3585</styleUrl>
            <Point id="geom_3585">
                <coordinates>-111.75582123,40.37555695,0.0</coordinates>
            </Point>
        </Placemark>
        <Placemark id="feat_3697">
            <name>LDSAccess</name>
            <description>2015-02-25T18:17:56.000Z</description>
            <styleUrl>#stylesel_3586</styleUrl>
            <Point id="geom_3586">
                <coordinates>-111.75537109,40.37554169,0.0</coordinates>
            </Point>
        </Placemark>
        <Placemark id="feat_3698">
            <name>LDSAccess</name>
            <description>2016-03-23T23:10:12.000Z</description>
            <styleUrl>#stylesel_3587</styleUrl>
            <Point id="geom_3587">
                <coordinates>-111.75485229,40.37558746,0.0</coordinates>
            </Point>
        </Placemark>
        <Placemark id="feat_3699">
            <name>LDSAccess</name>
            <description>2015-01-13T02:51:03.000Z</description>
            <styleUrl>#stylesel_3588</styleUrl>
            <Point id="geom_3588">
                <coordinates>-111.75523376,40.37556458,0.0</coordinates>
            </Point>
        </Placemark>
        <Placemark id="feat_3700">
            <name>LDSAccess</name>
            <description>2015-01-13T02:51:09.000Z</description>
            <styleUrl>#stylesel_3589</styleUrl>
            <Point id="geom_3589">
                <coordinates>-111.75402069,40.37558365,0.0</coordinates>
            </Point>
        </Placemark>
        <Placemark id="feat_3701">
            <name>LDSAccess</name>
            <description>2016-01-12T18:28:26.000Z</description>
            <styleUrl>#stylesel_3590</styleUrl>
            <Point id="geom_3590">
                <coordinates>-111.75550842,40.37557602,0.0</coordinates>
            </Point>
        </Placemark>
        <Placemark id="feat_3702">
            <name>LDSAccess</name>
            <description>2016-01-12T18:28:19.000Z</description>
            <styleUrl>#stylesel_3591</styleUrl>
            <Point id="geom_3591">
                <coordinates>-111.75675201,40.37559128,0.0</coordinates>
            </Point>
        </Placemark>
        <Placemark id="feat_3703">
            <name>LDSAccess</name>
            <description>2014-05-08T02:37:04.000Z</description>
            <styleUrl>#stylesel_3592</styleUrl>
            <Point id="geom_3592">
                <coordinates>-111.75624847,40.37551498,0.0</coordinates>
            </Point>
        </Placemark>
        <Placemark id="feat_3704">
            <name>LDSAccess</name>
            <description>2014-05-15T00:51:48.000Z</description>
            <styleUrl>#stylesel_3593</styleUrl>
            <Point id="geom_3593">
                <coordinates>-111.75556946,40.37558365,0.0</coordinates>
            </Point>
        </Placemark>
        <Placemark id="feat_3705">
            <name>LDSAccess</name>
            <description>2014-05-15T00:52:02.000Z</description>
            <styleUrl>#stylesel_3594</styleUrl>
            <Point id="geom_3594">
                <coordinates>-111.75275421,40.37555695,0.0</coordinates>
            </Point>
        </Placemark>
        <Placemark id="feat_3706">
            <name>LDSAccess</name>
            <description>2016-03-23T23:10:00.000Z</description>
            <styleUrl>#stylesel_3595</styleUrl>
            <Point id="geom_3595">
                <coordinates>-111.7569809,40.37559509,0.0</coordinates>
            </Point>
        </Placemark>
        <Placemark id="feat_3707">
            <name>LDSAccess</name>
            <description>2014-06-25T04:15:24.000Z</description>
            <styleUrl>#stylesel_3596</styleUrl>
            <Point id="geom_3596">
                <coordinates>-111.75494385,40.3755455,0.0</coordinates>
            </Point>
        </Placemark>
        <Placemark id="feat_3708">
            <name>LDSAccess</name>
            <description>2016-06-25T22:20:51.000Z</description>
            <styleUrl>#stylesel_3597</styleUrl>
            <Point id="geom_3597">
                <coordinates>-111.7569046,40.37566376,0.0</coordinates>
            </Point>
        </Placemark>
        <Placemark id="feat_3709">
            <name>LDSAccess</name>
            <description>2014-05-18T01:57:02.000Z</description>
            <styleUrl>#stylesel_3598</styleUrl>
            <Point id="geom_3598">
                <coordinates>-111.75362396,40.37558365,0.0</coordinates>
            </Point>
        </Placemark>
        <Placemark id="feat_3710">
            <name>LDSAccess</name>
            <description>2014-08-17T04:05:36.000Z</description>
            <styleUrl>#stylesel_3599</styleUrl>
            <Point id="geom_3599">
                <coordinates>-111.75582886,40.37556458,0.0</coordinates>
            </Point>
        </Placemark>
        <Placemark id="feat_3711">
            <name>LDSAccess</name>
            <description>2016-05-29T00:11:16.000Z</description>
            <styleUrl>#stylesel_3600</styleUrl>
            <Point id="geom_3600">
                <coordinates>-111.75541687,40.3755722,0.0</coordinates>
            </Point>
        </Placemark>
        <Placemark id="feat_3712">
            <name>LDSAccess</name>
            <description>2014-08-23T20:30:15.000Z</description>
            <styleUrl>#stylesel_3601</styleUrl>
            <Point id="geom_3601">
                <coordinates>-111.75846863,40.37567902,0.0</coordinates>
            </Point>
        </Placemark>
        <Placemark id="feat_3713">
            <name>LDSAccess</name>
            <description>2014-08-23T20:30:04.000Z</description>
            <styleUrl>#stylesel_3602</styleUrl>
            <Point id="geom_3602">
                <coordinates>-111.75640869,40.3756485,0.0</coordinates>
            </Point>
        </Placemark>
        <Placemark id="feat_3714">
            <name>LDSAccess</name>
            <description>2014-04-27T05:21:44.000Z</description>
            <styleUrl>#stylesel_3603</styleUrl>
            <Point id="geom_3603">
                <coordinates>-111.75636292,40.37552643,0.0</coordinates>
            </Point>
        </Placemark>
        <Placemark id="feat_3715">
            <name>LDSAccess</name>
            <description>2014-06-25T04:15:15.000Z</description>
            <styleUrl>#stylesel_3604</styleUrl>
            <Point id="geom_3604">
                <coordinates>-111.75673676,40.37554169,0.0</coordinates>
            </Point>
        </Placemark>
        <Placemark id="feat_3716">
            <name>LDSAccess</name>
            <description>2014-12-14T03:13:01.000Z</description>
            <styleUrl>#stylesel_3605</styleUrl>
            <Point id="geom_3605">
                <coordinates>-111.75523376,40.37554169,0.0</coordinates>
            </Point>
        </Placemark>
        <Placemark id="feat_3717">
            <name>LDSAccess</name>
            <description>2016-05-14T19:54:38.000Z</description>
            <styleUrl>#stylesel_3606</styleUrl>
            <Point id="geom_3606">
                <coordinates>-111.757164,40.3756218,0.0</coordinates>
            </Point>
        </Placemark>
        <Placemark id="feat_3718">
            <name>LDSAccess</name>
            <description>2016-02-24T19:54:17.000Z</description>
            <styleUrl>#stylesel_3607</styleUrl>
            <Point id="geom_3607">
                <coordinates>-111.75639343,40.37572861,0.0</coordinates>
            </Point>
        </Placemark>
        <Placemark id="feat_3719">
            <name>LDSAccess</name>
            <description>2014-12-14T03:12:53.000Z</description>
            <styleUrl>#stylesel_3608</styleUrl>
            <Point id="geom_3608">
                <coordinates>-111.75663757,40.37554932,0.0</coordinates>
            </Point>
        </Placemark>
        <Placemark id="feat_3720">
            <name>LDSAccess</name>
            <description>2016-02-24T19:54:34.000Z</description>
            <styleUrl>#stylesel_3609</styleUrl>
            <Point id="geom_3609">
                <coordinates>-111.7550354,40.37494659,0.0</coordinates>
            </Point>
        </Placemark>
        <Placemark id="feat_3721">
            <name>LDSAccess</name>
            <description>2016-03-25T19:35:25.000Z</description>
            <styleUrl>#stylesel_3610</styleUrl>
            <Point id="geom_3610">
                <coordinates>-111.75657654,40.37563324,0.0</coordinates>
            </Point>
        </Placemark>
        <Placemark id="feat_3722">
            <name>LDSAccess</name>
            <description>2016-01-08T17:03:16.000Z</description>
            <styleUrl>#stylesel_3611</styleUrl>
            <Point id="geom_3611">
                <coordinates>-111.75657654,40.37561035,0.0</coordinates>
            </Point>
        </Placemark>
        <Placemark id="feat_3723">
            <name>LDSAccess</name>
            <description>2016-02-27T22:45:43.000Z</description>
            <styleUrl>#stylesel_3612</styleUrl>
            <Point id="geom_3612">
                <coordinates>-111.75531006,40.37555695,0.0</coordinates>
            </Point>
        </Placemark>
        <Placemark id="feat_3724">
            <name>LDSAccess</name>
            <description>2015-01-24T23:31:43.000Z</description>
            <styleUrl>#stylesel_3613</styleUrl>
            <Point id="geom_3613">
                <coordinates>-111.75572205,40.3755722,0.0</coordinates>
            </Point>
        </Placemark>
    </Document>
</kml>
