<?xml version="1.0" encoding="UTF-8"?>
<kml xmlns="http://www.opengis.net/kml/2.2" xmlns:gx="http://www.google.com/kml/ext/2.2">
    <Document id="feat_1402">
        <Style id="stylesel_1365">
            <IconStyle id="substyle_1365">
                <colorMode>normal</colorMode>
                <scale>1</scale>
                <heading>0</heading>
                <Icon id="link_1365">
                    <href>wifi4.png</href>
                </Icon>
            </IconStyle>
        </Style>
        <Placemark id="feat_1403">
            <name>LDSAccess</name>
            <description>2017-03-04T18:06:51.000Z</description>
            <styleUrl>#stylesel_1365</styleUrl>
            <Point id="geom_1365">
                <coordinates>-111.74600983,40.37892914,0.0</coordinates>
            </Point>
        </Placemark>
    </Document>
</kml>
