<?xml version="1.0" encoding="UTF-8"?>
<kml xmlns="http://www.opengis.net/kml/2.2" xmlns:gx="http://www.google.com/kml/ext/2.2">
    <Document id="feat_9657">
        <Style id="stylesel_9370">
            <IconStyle id="substyle_9370">
                <colorMode>normal</colorMode>
                <scale>1</scale>
                <heading>0</heading>
                <Icon id="link_9370">
                    <href>wifi4.png</href>
                </Icon>
            </IconStyle>
        </Style>
        <Style id="stylesel_9371">
            <IconStyle id="substyle_9371">
                <colorMode>normal</colorMode>
                <scale>1</scale>
                <heading>0</heading>
                <Icon id="link_9371">
                    <href>wifi4.png</href>
                </Icon>
            </IconStyle>
        </Style>
        <Style id="stylesel_9372">
            <IconStyle id="substyle_9372">
                <colorMode>normal</colorMode>
                <scale>1</scale>
                <heading>0</heading>
                <Icon id="link_9372">
                    <href>wifi4.png</href>
                </Icon>
            </IconStyle>
        </Style>
        <Style id="stylesel_9373">
            <IconStyle id="substyle_9373">
                <colorMode>normal</colorMode>
                <scale>1</scale>
                <heading>0</heading>
                <Icon id="link_9373">
                    <href>wifi4.png</href>
                </Icon>
            </IconStyle>
        </Style>
        <Style id="stylesel_9374">
            <IconStyle id="substyle_9374">
                <colorMode>normal</colorMode>
                <scale>1</scale>
                <heading>0</heading>
                <Icon id="link_9374">
                    <href>wifi4.png</href>
                </Icon>
            </IconStyle>
        </Style>
        <Style id="stylesel_9375">
            <IconStyle id="substyle_9375">
                <colorMode>normal</colorMode>
                <scale>1</scale>
                <heading>0</heading>
                <Icon id="link_9375">
                    <href>wifi4.png</href>
                </Icon>
            </IconStyle>
        </Style>
        <Style id="stylesel_9376">
            <IconStyle id="substyle_9376">
                <colorMode>normal</colorMode>
                <scale>1</scale>
                <heading>0</heading>
                <Icon id="link_9376">
                    <href>wifi4.png</href>
                </Icon>
            </IconStyle>
        </Style>
        <Style id="stylesel_9377">
            <IconStyle id="substyle_9377">
                <colorMode>normal</colorMode>
                <scale>1</scale>
                <heading>0</heading>
                <Icon id="link_9377">
                    <href>wifi4.png</href>
                </Icon>
            </IconStyle>
        </Style>
        <Style id="stylesel_9378">
            <IconStyle id="substyle_9378">
                <colorMode>normal</colorMode>
                <scale>1</scale>
                <heading>0</heading>
                <Icon id="link_9378">
                    <href>wifi4.png</href>
                </Icon>
            </IconStyle>
        </Style>
        <Style id="stylesel_9379">
            <IconStyle id="substyle_9379">
                <colorMode>normal</colorMode>
                <scale>1</scale>
                <heading>0</heading>
                <Icon id="link_9379">
                    <href>wifi4.png</href>
                </Icon>
            </IconStyle>
        </Style>
        <Style id="stylesel_9380">
            <IconStyle id="substyle_9380">
                <colorMode>normal</colorMode>
                <scale>1</scale>
                <heading>0</heading>
                <Icon id="link_9380">
                    <href>wifi4.png</href>
                </Icon>
            </IconStyle>
        </Style>
        <Style id="stylesel_9381">
            <IconStyle id="substyle_9381">
                <colorMode>normal</colorMode>
                <scale>1</scale>
                <heading>0</heading>
                <Icon id="link_9381">
                    <href>wifi4.png</href>
                </Icon>
            </IconStyle>
        </Style>
        <Style id="stylesel_9382">
            <IconStyle id="substyle_9382">
                <colorMode>normal</colorMode>
                <scale>1</scale>
                <heading>0</heading>
                <Icon id="link_9382">
                    <href>wifi4.png</href>
                </Icon>
            </IconStyle>
        </Style>
        <Style id="stylesel_9383">
            <IconStyle id="substyle_9383">
                <colorMode>normal</colorMode>
                <scale>1</scale>
                <heading>0</heading>
                <Icon id="link_9383">
                    <href>wifi4.png</href>
                </Icon>
            </IconStyle>
        </Style>
        <Style id="stylesel_9384">
            <IconStyle id="substyle_9384">
                <colorMode>normal</colorMode>
                <scale>1</scale>
                <heading>0</heading>
                <Icon id="link_9384">
                    <href>wifi4.png</href>
                </Icon>
            </IconStyle>
        </Style>
        <Style id="stylesel_9385">
            <IconStyle id="substyle_9385">
                <colorMode>normal</colorMode>
                <scale>1</scale>
                <heading>0</heading>
                <Icon id="link_9385">
                    <href>wifi4.png</href>
                </Icon>
            </IconStyle>
        </Style>
        <Style id="stylesel_9386">
            <IconStyle id="substyle_9386">
                <colorMode>normal</colorMode>
                <scale>1</scale>
                <heading>0</heading>
                <Icon id="link_9386">
                    <href>wifi4.png</href>
                </Icon>
            </IconStyle>
        </Style>
        <Style id="stylesel_9387">
            <IconStyle id="substyle_9387">
                <colorMode>normal</colorMode>
                <scale>1</scale>
                <heading>0</heading>
                <Icon id="link_9387">
                    <href>wifi4.png</href>
                </Icon>
            </IconStyle>
        </Style>
        <Style id="stylesel_9388">
            <IconStyle id="substyle_9388">
                <colorMode>normal</colorMode>
                <scale>1</scale>
                <heading>0</heading>
                <Icon id="link_9388">
                    <href>wifi4.png</href>
                </Icon>
            </IconStyle>
        </Style>
        <Style id="stylesel_9389">
            <IconStyle id="substyle_9389">
                <colorMode>normal</colorMode>
                <scale>1</scale>
                <heading>0</heading>
                <Icon id="link_9389">
                    <href>wifi4.png</href>
                </Icon>
            </IconStyle>
        </Style>
        <Style id="stylesel_9390">
            <IconStyle id="substyle_9390">
                <colorMode>normal</colorMode>
                <scale>1</scale>
                <heading>0</heading>
                <Icon id="link_9390">
                    <href>wifi4.png</href>
                </Icon>
            </IconStyle>
        </Style>
        <Style id="stylesel_9391">
            <IconStyle id="substyle_9391">
                <colorMode>normal</colorMode>
                <scale>1</scale>
                <heading>0</heading>
                <Icon id="link_9391">
                    <href>wifi4.png</href>
                </Icon>
            </IconStyle>
        </Style>
        <Style id="stylesel_9392">
            <IconStyle id="substyle_9392">
                <colorMode>normal</colorMode>
                <scale>1</scale>
                <heading>0</heading>
                <Icon id="link_9392">
                    <href>wifi4.png</href>
                </Icon>
            </IconStyle>
        </Style>
        <Style id="stylesel_9393">
            <IconStyle id="substyle_9393">
                <colorMode>normal</colorMode>
                <scale>1</scale>
                <heading>0</heading>
                <Icon id="link_9393">
                    <href>wifi4.png</href>
                </Icon>
            </IconStyle>
        </Style>
        <Style id="stylesel_9394">
            <IconStyle id="substyle_9394">
                <colorMode>normal</colorMode>
                <scale>1</scale>
                <heading>0</heading>
                <Icon id="link_9394">
                    <href>wifi4.png</href>
                </Icon>
            </IconStyle>
        </Style>
        <Style id="stylesel_9395">
            <IconStyle id="substyle_9395">
                <colorMode>normal</colorMode>
                <scale>1</scale>
                <heading>0</heading>
                <Icon id="link_9395">
                    <href>wifi4.png</href>
                </Icon>
            </IconStyle>
        </Style>
        <Style id="stylesel_9396">
            <IconStyle id="substyle_9396">
                <colorMode>normal</colorMode>
                <scale>1</scale>
                <heading>0</heading>
                <Icon id="link_9396">
                    <href>wifi4.png</href>
                </Icon>
            </IconStyle>
        </Style>
        <Style id="stylesel_9397">
            <IconStyle id="substyle_9397">
                <colorMode>normal</colorMode>
                <scale>1</scale>
                <heading>0</heading>
                <Icon id="link_9397">
                    <href>wifi4.png</href>
                </Icon>
            </IconStyle>
        </Style>
        <Style id="stylesel_9398">
            <IconStyle id="substyle_9398">
                <colorMode>normal</colorMode>
                <scale>1</scale>
                <heading>0</heading>
                <Icon id="link_9398">
                    <href>wifi4.png</href>
                </Icon>
            </IconStyle>
        </Style>
        <Style id="stylesel_9399">
            <IconStyle id="substyle_9399">
                <colorMode>normal</colorMode>
                <scale>1</scale>
                <heading>0</heading>
                <Icon id="link_9399">
                    <href>wifi4.png</href>
                </Icon>
            </IconStyle>
        </Style>
        <Style id="stylesel_9400">
            <IconStyle id="substyle_9400">
                <colorMode>normal</colorMode>
                <scale>1</scale>
                <heading>0</heading>
                <Icon id="link_9400">
                    <href>wifi4.png</href>
                </Icon>
            </IconStyle>
        </Style>
        <Style id="stylesel_9401">
            <IconStyle id="substyle_9401">
                <colorMode>normal</colorMode>
                <scale>1</scale>
                <heading>0</heading>
                <Icon id="link_9401">
                    <href>wifi4.png</href>
                </Icon>
            </IconStyle>
        </Style>
        <Style id="stylesel_9402">
            <IconStyle id="substyle_9402">
                <colorMode>normal</colorMode>
                <scale>1</scale>
                <heading>0</heading>
                <Icon id="link_9402">
                    <href>wifi4.png</href>
                </Icon>
            </IconStyle>
        </Style>
        <Style id="stylesel_9403">
            <IconStyle id="substyle_9403">
                <colorMode>normal</colorMode>
                <scale>1</scale>
                <heading>0</heading>
                <Icon id="link_9403">
                    <href>wifi4.png</href>
                </Icon>
            </IconStyle>
        </Style>
        <Style id="stylesel_9404">
            <IconStyle id="substyle_9404">
                <colorMode>normal</colorMode>
                <scale>1</scale>
                <heading>0</heading>
                <Icon id="link_9404">
                    <href>wifi4.png</href>
                </Icon>
            </IconStyle>
        </Style>
        <Placemark id="feat_9658">
            <name>LDSAccess</name>
            <description>2017-02-26T03:53:07.000Z</description>
            <styleUrl>#stylesel_9370</styleUrl>
            <Point id="geom_9370">
                <coordinates>-111.75263977,40.37036514,0.0</coordinates>
            </Point>
        </Placemark>
        <Placemark id="feat_9659">
            <name>LDSAccess</name>
            <description>2017-02-25T22:21:02.000Z</description>
            <styleUrl>#stylesel_9371</styleUrl>
            <Point id="geom_9371">
                <coordinates>-111.75272369,40.3703537,0.0</coordinates>
            </Point>
        </Placemark>
        <Placemark id="feat_9660">
            <name>LDSAccess</name>
            <description>2017-07-09T20:01:40.000Z</description>
            <styleUrl>#stylesel_9372</styleUrl>
            <Point id="geom_9372">
                <coordinates>-111.75080109,40.37080002,0.0</coordinates>
            </Point>
        </Placemark>
        <Placemark id="feat_9661">
            <name>LDSAccess</name>
            <description>2017-03-14T02:33:23.000Z</description>
            <styleUrl>#stylesel_9373</styleUrl>
            <Point id="geom_9373">
                <coordinates>-111.75279999,40.37093735,0.0</coordinates>
            </Point>
        </Placemark>
        <Placemark id="feat_9662">
            <name>LDSAccess</name>
            <description>2017-02-07T22:02:54.000Z</description>
            <styleUrl>#stylesel_9374</styleUrl>
            <Point id="geom_9374">
                <coordinates>-111.75283051,40.37122345,0.0</coordinates>
            </Point>
        </Placemark>
        <Placemark id="feat_9663">
            <name>LDSAccess</name>
            <description>2017-07-22T05:01:10.000Z</description>
            <styleUrl>#stylesel_9375</styleUrl>
            <Point id="geom_9375">
                <coordinates>-111.75261688,40.370327,0.0</coordinates>
            </Point>
        </Placemark>
        <Placemark id="feat_9664">
            <name>LDSAccess</name>
            <description>2017-04-12T17:13:01.000Z</description>
            <styleUrl>#stylesel_9376</styleUrl>
            <Point id="geom_9376">
                <coordinates>-111.75280762,40.37137604,0.0</coordinates>
            </Point>
        </Placemark>
        <Placemark id="feat_9665">
            <name>LDSAccess</name>
            <description>2017-07-09T20:01:51.000Z</description>
            <styleUrl>#stylesel_9377</styleUrl>
            <Point id="geom_9377">
                <coordinates>-111.75082397,40.37120438,0.0</coordinates>
            </Point>
        </Placemark>
        <Placemark id="feat_9666">
            <name>LDSAccess</name>
            <description>2017-07-13T01:25:46.000Z</description>
            <styleUrl>#stylesel_9378</styleUrl>
            <Point id="geom_9378">
                <coordinates>-111.75288391,40.37076187,0.0</coordinates>
            </Point>
        </Placemark>
        <Placemark id="feat_9667">
            <name>LDSAccess</name>
            <description>2017-02-15T22:11:15.000Z</description>
            <styleUrl>#stylesel_9379</styleUrl>
            <Point id="geom_9379">
                <coordinates>-111.75268555,40.37036514,0.0</coordinates>
            </Point>
        </Placemark>
        <Placemark id="feat_9668">
            <name>LDSAccess</name>
            <description>2017-07-09T20:01:35.000Z</description>
            <styleUrl>#stylesel_9380</styleUrl>
            <Point id="geom_9380">
                <coordinates>-111.75051117,40.3707695,0.0</coordinates>
            </Point>
        </Placemark>
        <Placemark id="feat_9669">
            <name>LDSAccess</name>
            <description>2017-03-14T01:20:04.000Z</description>
            <styleUrl>#stylesel_9381</styleUrl>
            <Point id="geom_9381">
                <coordinates>-111.75138855,40.37192154,0.0</coordinates>
            </Point>
        </Placemark>
        <Placemark id="feat_9670">
            <name>LDSAccess</name>
            <description>2017-07-06T20:33:00.000Z</description>
            <styleUrl>#stylesel_9382</styleUrl>
            <Point id="geom_9382">
                <coordinates>-111.75263214,40.37028503,0.0</coordinates>
            </Point>
        </Placemark>
        <Placemark id="feat_9671">
            <name>LDSAccess</name>
            <description>2017-05-15T19:36:09.000Z</description>
            <styleUrl>#stylesel_9383</styleUrl>
            <Point id="geom_9383">
                <coordinates>-111.75263214,40.37034988,0.0</coordinates>
            </Point>
        </Placemark>
        <Placemark id="feat_9672">
            <name>LDSAccess</name>
            <description>2017-03-02T15:31:59.000Z</description>
            <styleUrl>#stylesel_9384</styleUrl>
            <Point id="geom_9384">
                <coordinates>-111.75099182,40.37193298,0.0</coordinates>
            </Point>
        </Placemark>
        <Placemark id="feat_9673">
            <name>LDSAccess</name>
            <description>2017-03-02T15:32:09.000Z</description>
            <styleUrl>#stylesel_9385</styleUrl>
            <Point id="geom_9385">
                <coordinates>-111.74980927,40.3718338,0.0</coordinates>
            </Point>
        </Placemark>
        <Placemark id="feat_9674">
            <name>LDSAccess</name>
            <description>2017-05-14T08:49:59.000Z</description>
            <styleUrl>#stylesel_9386</styleUrl>
            <Point id="geom_9386">
                <coordinates>-111.75268555,40.37041473,0.0</coordinates>
            </Point>
        </Placemark>
        <Placemark id="feat_9675">
            <name>LDSAccess</name>
            <description>2017-03-11T01:36:45.000Z</description>
            <styleUrl>#stylesel_9387</styleUrl>
            <Point id="geom_9387">
                <coordinates>-111.75267792,40.37036514,0.0</coordinates>
            </Point>
        </Placemark>
        <Placemark id="feat_9676">
            <name>LDSAccess</name>
            <description>2017-02-18T18:03:55.000Z</description>
            <styleUrl>#stylesel_9388</styleUrl>
            <Point id="geom_9388">
                <coordinates>-111.75262451,40.3703537,0.0</coordinates>
            </Point>
        </Placemark>
        <Placemark id="feat_9677">
            <name>LDSAccess</name>
            <description>2016-03-29T04:59:23.000Z</description>
            <styleUrl>#stylesel_9389</styleUrl>
            <Point id="geom_9389">
                <coordinates>-111.75258636,40.37034988,0.0</coordinates>
            </Point>
        </Placemark>
        <Placemark id="feat_9678">
            <name>LDSAccess</name>
            <description>2017-03-04T19:00:35.000Z</description>
            <styleUrl>#stylesel_9390</styleUrl>
            <Point id="geom_9390">
                <coordinates>-111.75257874,40.37047195,0.0</coordinates>
            </Point>
        </Placemark>
        <Placemark id="feat_9679">
            <name>LDSAccess</name>
            <description>2017-07-03T22:20:52.000Z</description>
            <styleUrl>#stylesel_9391</styleUrl>
            <Point id="geom_9391">
                <coordinates>-111.75262451,40.37033081,0.0</coordinates>
            </Point>
        </Placemark>
        <Placemark id="feat_9680">
            <name>LDSAccess</name>
            <description>2017-03-17T00:26:25.000Z</description>
            <styleUrl>#stylesel_9392</styleUrl>
            <Point id="geom_9392">
                <coordinates>-111.75265503,40.37038422,0.0</coordinates>
            </Point>
        </Placemark>
        <Placemark id="feat_9681">
            <name>LDSAccess</name>
            <description>2016-04-20T04:44:35.000Z</description>
            <styleUrl>#stylesel_9393</styleUrl>
            <Point id="geom_9393">
                <coordinates>-111.75262451,40.37037277,0.0</coordinates>
            </Point>
        </Placemark>
        <Placemark id="feat_9682">
            <name>LDSAccess</name>
            <description>2017-06-17T22:23:10.000Z</description>
            <styleUrl>#stylesel_9394</styleUrl>
            <Point id="geom_9394">
                <coordinates>-111.75288391,40.37080002,0.0</coordinates>
            </Point>
        </Placemark>
        <Placemark id="feat_9683">
            <name>LDSAccess</name>
            <description>2016-03-29T13:34:10.000Z</description>
            <styleUrl>#stylesel_9395</styleUrl>
            <Point id="geom_9395">
                <coordinates>-111.7526474,40.37041855,0.0</coordinates>
            </Point>
        </Placemark>
        <Placemark id="feat_9684">
            <name>LDSAccess</name>
            <description>2017-06-22T01:58:10.000Z</description>
            <styleUrl>#stylesel_9396</styleUrl>
            <Point id="geom_9396">
                <coordinates>-111.75270081,40.37041855,0.0</coordinates>
            </Point>
        </Placemark>
        <Placemark id="feat_9685">
            <name>LDSAccess</name>
            <description>2016-03-29T06:17:16.000Z</description>
            <styleUrl>#stylesel_9397</styleUrl>
            <Point id="geom_9397">
                <coordinates>-111.75270844,40.370224,0.0</coordinates>
            </Point>
        </Placemark>
        <Placemark id="feat_9686">
            <name>LDSAccess</name>
            <description>2016-03-29T07:28:11.000Z</description>
            <styleUrl>#stylesel_9398</styleUrl>
            <Point id="geom_9398">
                <coordinates>-111.75260162,40.37026215,0.0</coordinates>
            </Point>
        </Placemark>
        <Placemark id="feat_9687">
            <name>LDSAccess</name>
            <description>2016-03-19T17:28:22.000Z</description>
            <styleUrl>#stylesel_9399</styleUrl>
            <Point id="geom_9399">
                <coordinates>-111.75259399,40.37031937,0.0</coordinates>
            </Point>
        </Placemark>
        <Placemark id="feat_9688">
            <name>LDSAccess</name>
            <description>2017-07-26T00:42:12.000Z</description>
            <styleUrl>#stylesel_9400</styleUrl>
            <Point id="geom_9400">
                <coordinates>-111.75268555,40.37038803,0.0</coordinates>
            </Point>
        </Placemark>
        <Placemark id="feat_9689">
            <name>LDSAccess</name>
            <description>2017-02-21T19:51:45.000Z</description>
            <styleUrl>#stylesel_9401</styleUrl>
            <Point id="geom_9401">
                <coordinates>-111.75260925,40.37039566,0.0</coordinates>
            </Point>
        </Placemark>
        <Placemark id="feat_9690">
            <name>LDSAccess</name>
            <description>1970-01-01T01:00:00.000Z</description>
            <styleUrl>#stylesel_9402</styleUrl>
            <Point id="geom_9402">
                <coordinates>-111.75350189,40.37107086,0.0</coordinates>
            </Point>
        </Placemark>
        <Placemark id="feat_9691">
            <name>LDSAccess</name>
            <description>2016-07-23T23:26:10.000Z</description>
            <styleUrl>#stylesel_9403</styleUrl>
            <Point id="geom_9403">
                <coordinates>-111.75261688,40.37036896,0.0</coordinates>
            </Point>
        </Placemark>
        <Placemark id="feat_9692">
            <name>LDSAccess</name>
            <description>2017-02-03T01:23:01.000Z</description>
            <styleUrl>#stylesel_9404</styleUrl>
            <Point id="geom_9404">
                <coordinates>-111.75291443,40.37081146,0.0</coordinates>
            </Point>
        </Placemark>
    </Document>
</kml>
