<?xml version="1.0" encoding="UTF-8"?>
<kml xmlns="http://www.opengis.net/kml/2.2" xmlns:gx="http://www.google.com/kml/ext/2.2">
    <Document id="feat_913">
        <Style id="stylesel_893">
            <IconStyle id="substyle_893">
                <colorMode>normal</colorMode>
                <scale>1</scale>
                <heading>0</heading>
                <Icon id="link_893">
                    <href>wifi4.png</href>
                </Icon>
            </IconStyle>
        </Style>
        <Style id="stylesel_894">
            <IconStyle id="substyle_894">
                <colorMode>normal</colorMode>
                <scale>1</scale>
                <heading>0</heading>
                <Icon id="link_894">
                    <href>wifi4.png</href>
                </Icon>
            </IconStyle>
        </Style>
        <Style id="stylesel_895">
            <IconStyle id="substyle_895">
                <colorMode>normal</colorMode>
                <scale>1</scale>
                <heading>0</heading>
                <Icon id="link_895">
                    <href>wifi4.png</href>
                </Icon>
            </IconStyle>
        </Style>
        <Style id="stylesel_896">
            <IconStyle id="substyle_896">
                <colorMode>normal</colorMode>
                <scale>1</scale>
                <heading>0</heading>
                <Icon id="link_896">
                    <href>wifi4.png</href>
                </Icon>
            </IconStyle>
        </Style>
        <Style id="stylesel_897">
            <IconStyle id="substyle_897">
                <colorMode>normal</colorMode>
                <scale>1</scale>
                <heading>0</heading>
                <Icon id="link_897">
                    <href>wifi4.png</href>
                </Icon>
            </IconStyle>
        </Style>
        <Placemark id="feat_914">
            <name>LDSAccess</name>
            <description>2017-03-11T16:09:28.000Z</description>
            <styleUrl>#stylesel_893</styleUrl>
            <Point id="geom_893">
                <coordinates>-111.73201752,40.3611908,0.0</coordinates>
            </Point>
        </Placemark>
        <Placemark id="feat_915">
            <name>LDSAccess</name>
            <description>2016-07-04T15:41:38.000Z</description>
            <styleUrl>#stylesel_894</styleUrl>
            <Point id="geom_894">
                <coordinates>-111.73174286,40.36120224,0.0</coordinates>
            </Point>
        </Placemark>
        <Placemark id="feat_916">
            <name>LDSAccess</name>
            <description>2016-09-21T17:17:24.000Z</description>
            <styleUrl>#stylesel_895</styleUrl>
            <Point id="geom_895">
                <coordinates>-111.7321701,40.36115646,0.0</coordinates>
            </Point>
        </Placemark>
        <Placemark id="feat_917">
            <name>LDSAccess</name>
            <description>2017-03-04T17:15:08.000Z</description>
            <styleUrl>#stylesel_896</styleUrl>
            <Point id="geom_896">
                <coordinates>-111.73162842,40.36116409,0.0</coordinates>
            </Point>
        </Placemark>
        <Placemark id="feat_918">
            <name>LDSAccess</name>
            <description>2017-03-29T02:46:21.000Z</description>
            <styleUrl>#stylesel_897</styleUrl>
            <Point id="geom_897">
                <coordinates>-111.73267365,40.36122894,0.0</coordinates>
            </Point>
        </Placemark>
    </Document>
</kml>
