<?xml version="1.0" encoding="UTF-8"?>
<kml xmlns="http://www.opengis.net/kml/2.2" xmlns:gx="http://www.google.com/kml/ext/2.2">
    <Document id="feat_5887">
        <Style id="stylesel_5686">
            <IconStyle id="substyle_5686">
                <colorMode>normal</colorMode>
                <scale>1</scale>
                <heading>0</heading>
                <Icon id="link_5686">
                    <href>wifi4.png</href>
                </Icon>
            </IconStyle>
        </Style>
        <Style id="stylesel_5687">
            <IconStyle id="substyle_5687">
                <colorMode>normal</colorMode>
                <scale>1</scale>
                <heading>0</heading>
                <Icon id="link_5687">
                    <href>wifi4.png</href>
                </Icon>
            </IconStyle>
        </Style>
        <Style id="stylesel_5688">
            <IconStyle id="substyle_5688">
                <colorMode>normal</colorMode>
                <scale>1</scale>
                <heading>0</heading>
                <Icon id="link_5688">
                    <href>wifi4.png</href>
                </Icon>
            </IconStyle>
        </Style>
        <Style id="stylesel_5689">
            <IconStyle id="substyle_5689">
                <colorMode>normal</colorMode>
                <scale>1</scale>
                <heading>0</heading>
                <Icon id="link_5689">
                    <href>wifi4.png</href>
                </Icon>
            </IconStyle>
        </Style>
        <Style id="stylesel_5690">
            <IconStyle id="substyle_5690">
                <colorMode>normal</colorMode>
                <scale>1</scale>
                <heading>0</heading>
                <Icon id="link_5690">
                    <href>wifi4.png</href>
                </Icon>
            </IconStyle>
        </Style>
        <Style id="stylesel_5691">
            <IconStyle id="substyle_5691">
                <colorMode>normal</colorMode>
                <scale>1</scale>
                <heading>0</heading>
                <Icon id="link_5691">
                    <href>wifi4.png</href>
                </Icon>
            </IconStyle>
        </Style>
        <Style id="stylesel_5692">
            <IconStyle id="substyle_5692">
                <colorMode>normal</colorMode>
                <scale>1</scale>
                <heading>0</heading>
                <Icon id="link_5692">
                    <href>wifi4.png</href>
                </Icon>
            </IconStyle>
        </Style>
        <Style id="stylesel_5693">
            <IconStyle id="substyle_5693">
                <colorMode>normal</colorMode>
                <scale>1</scale>
                <heading>0</heading>
                <Icon id="link_5693">
                    <href>wifi4.png</href>
                </Icon>
            </IconStyle>
        </Style>
        <Style id="stylesel_5694">
            <IconStyle id="substyle_5694">
                <colorMode>normal</colorMode>
                <scale>1</scale>
                <heading>0</heading>
                <Icon id="link_5694">
                    <href>wifi4.png</href>
                </Icon>
            </IconStyle>
        </Style>
        <Style id="stylesel_5695">
            <IconStyle id="substyle_5695">
                <colorMode>normal</colorMode>
                <scale>1</scale>
                <heading>0</heading>
                <Icon id="link_5695">
                    <href>wifi4.png</href>
                </Icon>
            </IconStyle>
        </Style>
        <Style id="stylesel_5696">
            <IconStyle id="substyle_5696">
                <colorMode>normal</colorMode>
                <scale>1</scale>
                <heading>0</heading>
                <Icon id="link_5696">
                    <href>wifi4.png</href>
                </Icon>
            </IconStyle>
        </Style>
        <Style id="stylesel_5697">
            <IconStyle id="substyle_5697">
                <colorMode>normal</colorMode>
                <scale>1</scale>
                <heading>0</heading>
                <Icon id="link_5697">
                    <href>wifi4.png</href>
                </Icon>
            </IconStyle>
        </Style>
        <Style id="stylesel_5698">
            <IconStyle id="substyle_5698">
                <colorMode>normal</colorMode>
                <scale>1</scale>
                <heading>0</heading>
                <Icon id="link_5698">
                    <href>wifi4.png</href>
                </Icon>
            </IconStyle>
        </Style>
        <Style id="stylesel_5699">
            <IconStyle id="substyle_5699">
                <colorMode>normal</colorMode>
                <scale>1</scale>
                <heading>0</heading>
                <Icon id="link_5699">
                    <href>wifi4.png</href>
                </Icon>
            </IconStyle>
        </Style>
        <Style id="stylesel_5700">
            <IconStyle id="substyle_5700">
                <colorMode>normal</colorMode>
                <scale>1</scale>
                <heading>0</heading>
                <Icon id="link_5700">
                    <href>wifi4.png</href>
                </Icon>
            </IconStyle>
        </Style>
        <Style id="stylesel_5701">
            <IconStyle id="substyle_5701">
                <colorMode>normal</colorMode>
                <scale>1</scale>
                <heading>0</heading>
                <Icon id="link_5701">
                    <href>wifi4.png</href>
                </Icon>
            </IconStyle>
        </Style>
        <Style id="stylesel_5702">
            <IconStyle id="substyle_5702">
                <colorMode>normal</colorMode>
                <scale>1</scale>
                <heading>0</heading>
                <Icon id="link_5702">
                    <href>wifi4.png</href>
                </Icon>
            </IconStyle>
        </Style>
        <Style id="stylesel_5703">
            <IconStyle id="substyle_5703">
                <colorMode>normal</colorMode>
                <scale>1</scale>
                <heading>0</heading>
                <Icon id="link_5703">
                    <href>wifi4.png</href>
                </Icon>
            </IconStyle>
        </Style>
        <Style id="stylesel_5704">
            <IconStyle id="substyle_5704">
                <colorMode>normal</colorMode>
                <scale>1</scale>
                <heading>0</heading>
                <Icon id="link_5704">
                    <href>wifi4.png</href>
                </Icon>
            </IconStyle>
        </Style>
        <Style id="stylesel_5705">
            <IconStyle id="substyle_5705">
                <colorMode>normal</colorMode>
                <scale>1</scale>
                <heading>0</heading>
                <Icon id="link_5705">
                    <href>wifi4.png</href>
                </Icon>
            </IconStyle>
        </Style>
        <Style id="stylesel_5706">
            <IconStyle id="substyle_5706">
                <colorMode>normal</colorMode>
                <scale>1</scale>
                <heading>0</heading>
                <Icon id="link_5706">
                    <href>wifi4.png</href>
                </Icon>
            </IconStyle>
        </Style>
        <Style id="stylesel_5707">
            <IconStyle id="substyle_5707">
                <colorMode>normal</colorMode>
                <scale>1</scale>
                <heading>0</heading>
                <Icon id="link_5707">
                    <href>wifi4.png</href>
                </Icon>
            </IconStyle>
        </Style>
        <Style id="stylesel_5708">
            <IconStyle id="substyle_5708">
                <colorMode>normal</colorMode>
                <scale>1</scale>
                <heading>0</heading>
                <Icon id="link_5708">
                    <href>wifi4.png</href>
                </Icon>
            </IconStyle>
        </Style>
        <Style id="stylesel_5709">
            <IconStyle id="substyle_5709">
                <colorMode>normal</colorMode>
                <scale>1</scale>
                <heading>0</heading>
                <Icon id="link_5709">
                    <href>wifi4.png</href>
                </Icon>
            </IconStyle>
        </Style>
        <Style id="stylesel_5710">
            <IconStyle id="substyle_5710">
                <colorMode>normal</colorMode>
                <scale>1</scale>
                <heading>0</heading>
                <Icon id="link_5710">
                    <href>wifi4.png</href>
                </Icon>
            </IconStyle>
        </Style>
        <Style id="stylesel_5711">
            <IconStyle id="substyle_5711">
                <colorMode>normal</colorMode>
                <scale>1</scale>
                <heading>0</heading>
                <Icon id="link_5711">
                    <href>wifi4.png</href>
                </Icon>
            </IconStyle>
        </Style>
        <Style id="stylesel_5712">
            <IconStyle id="substyle_5712">
                <colorMode>normal</colorMode>
                <scale>1</scale>
                <heading>0</heading>
                <Icon id="link_5712">
                    <href>wifi4.png</href>
                </Icon>
            </IconStyle>
        </Style>
        <Style id="stylesel_5713">
            <IconStyle id="substyle_5713">
                <colorMode>normal</colorMode>
                <scale>1</scale>
                <heading>0</heading>
                <Icon id="link_5713">
                    <href>wifi4.png</href>
                </Icon>
            </IconStyle>
        </Style>
        <Style id="stylesel_5714">
            <IconStyle id="substyle_5714">
                <colorMode>normal</colorMode>
                <scale>1</scale>
                <heading>0</heading>
                <Icon id="link_5714">
                    <href>wifi4.png</href>
                </Icon>
            </IconStyle>
        </Style>
        <Style id="stylesel_5715">
            <IconStyle id="substyle_5715">
                <colorMode>normal</colorMode>
                <scale>1</scale>
                <heading>0</heading>
                <Icon id="link_5715">
                    <href>wifi4.png</href>
                </Icon>
            </IconStyle>
        </Style>
        <Style id="stylesel_5716">
            <IconStyle id="substyle_5716">
                <colorMode>normal</colorMode>
                <scale>1</scale>
                <heading>0</heading>
                <Icon id="link_5716">
                    <href>wifi4.png</href>
                </Icon>
            </IconStyle>
        </Style>
        <Style id="stylesel_5717">
            <IconStyle id="substyle_5717">
                <colorMode>normal</colorMode>
                <scale>1</scale>
                <heading>0</heading>
                <Icon id="link_5717">
                    <href>wifi4.png</href>
                </Icon>
            </IconStyle>
        </Style>
        <Style id="stylesel_5718">
            <IconStyle id="substyle_5718">
                <colorMode>normal</colorMode>
                <scale>1</scale>
                <heading>0</heading>
                <Icon id="link_5718">
                    <href>wifi4.png</href>
                </Icon>
            </IconStyle>
        </Style>
        <Style id="stylesel_5719">
            <IconStyle id="substyle_5719">
                <colorMode>normal</colorMode>
                <scale>1</scale>
                <heading>0</heading>
                <Icon id="link_5719">
                    <href>wifi4.png</href>
                </Icon>
            </IconStyle>
        </Style>
        <Style id="stylesel_5720">
            <IconStyle id="substyle_5720">
                <colorMode>normal</colorMode>
                <scale>1</scale>
                <heading>0</heading>
                <Icon id="link_5720">
                    <href>wifi4.png</href>
                </Icon>
            </IconStyle>
        </Style>
        <Style id="stylesel_5721">
            <IconStyle id="substyle_5721">
                <colorMode>normal</colorMode>
                <scale>1</scale>
                <heading>0</heading>
                <Icon id="link_5721">
                    <href>wifi4.png</href>
                </Icon>
            </IconStyle>
        </Style>
        <Style id="stylesel_5722">
            <IconStyle id="substyle_5722">
                <colorMode>normal</colorMode>
                <scale>1</scale>
                <heading>0</heading>
                <Icon id="link_5722">
                    <href>wifi4.png</href>
                </Icon>
            </IconStyle>
        </Style>
        <Style id="stylesel_5723">
            <IconStyle id="substyle_5723">
                <colorMode>normal</colorMode>
                <scale>1</scale>
                <heading>0</heading>
                <Icon id="link_5723">
                    <href>wifi4.png</href>
                </Icon>
            </IconStyle>
        </Style>
        <Placemark id="feat_5888">
            <name>LDSAccess</name>
            <description>2017-03-20T15:12:24.000Z</description>
            <styleUrl>#stylesel_5686</styleUrl>
            <Point id="geom_5686">
                <coordinates>-111.74232483,40.3725853,0.0</coordinates>
            </Point>
        </Placemark>
        <Placemark id="feat_5889">
            <name>LDSAccess</name>
            <description>2017-03-20T15:12:38.000Z</description>
            <styleUrl>#stylesel_5687</styleUrl>
            <Point id="geom_5687">
                <coordinates>-111.74227142,40.3743782,0.0</coordinates>
            </Point>
        </Placemark>
        <Placemark id="feat_5890">
            <name>LDSAccess</name>
            <description>2017-03-23T04:01:52.000Z</description>
            <styleUrl>#stylesel_5688</styleUrl>
            <Point id="geom_5688">
                <coordinates>-111.74232483,40.37238312,0.0</coordinates>
            </Point>
        </Placemark>
        <Placemark id="feat_5891">
            <name>LDSAccess</name>
            <description>2017-03-04T17:57:33.000Z</description>
            <styleUrl>#stylesel_5689</styleUrl>
            <Point id="geom_5689">
                <coordinates>-111.7423172,40.37176132,0.0</coordinates>
            </Point>
        </Placemark>
        <Placemark id="feat_5892">
            <name>LDSAccess</name>
            <description>2014-04-08T03:46:57.000Z</description>
            <styleUrl>#stylesel_5690</styleUrl>
            <Point id="geom_5690">
                <coordinates>-111.74124146,40.37284851,0.0</coordinates>
            </Point>
        </Placemark>
        <Placemark id="feat_5893">
            <name>LDSAccess</name>
            <description>2016-05-03T14:57:52.000Z</description>
            <styleUrl>#stylesel_5691</styleUrl>
            <Point id="geom_5691">
                <coordinates>-111.74217987,40.37293243,0.0</coordinates>
            </Point>
        </Placemark>
        <Placemark id="feat_5894">
            <name>LDSAccess</name>
            <description>2017-05-16T14:45:59.000Z</description>
            <styleUrl>#stylesel_5692</styleUrl>
            <Point id="geom_5692">
                <coordinates>-111.74238586,40.37179565,0.0</coordinates>
            </Point>
        </Placemark>
        <Placemark id="feat_5895">
            <name>LDSAccess</name>
            <description>2017-05-16T14:46:09.000Z</description>
            <styleUrl>#stylesel_5693</styleUrl>
            <Point id="geom_5693">
                <coordinates>-111.74342346,40.37182617,0.0</coordinates>
            </Point>
        </Placemark>
        <Placemark id="feat_5896">
            <name>LDSAccess</name>
            <description>2017-02-07T22:08:22.000Z</description>
            <styleUrl>#stylesel_5694</styleUrl>
            <Point id="geom_5694">
                <coordinates>-111.74243164,40.37177658,0.0</coordinates>
            </Point>
        </Placemark>
        <Placemark id="feat_5897">
            <name>LDSAccess</name>
            <description>2016-04-23T04:09:40.000Z</description>
            <styleUrl>#stylesel_5695</styleUrl>
            <Point id="geom_5695">
                <coordinates>-111.74230194,40.37292862,0.0</coordinates>
            </Point>
        </Placemark>
        <Placemark id="feat_5898">
            <name>LDSAccess</name>
            <description>2014-05-15T00:53:12.000Z</description>
            <styleUrl>#stylesel_5696</styleUrl>
            <Point id="geom_5696">
                <coordinates>-111.74237823,40.37307358,0.0</coordinates>
            </Point>
        </Placemark>
        <Placemark id="feat_5899">
            <name>LDSAccess</name>
            <description>2014-12-06T03:24:13.000Z</description>
            <styleUrl>#stylesel_5697</styleUrl>
            <Point id="geom_5697">
                <coordinates>-111.74233246,40.37044144,0.0</coordinates>
            </Point>
        </Placemark>
        <Placemark id="feat_5900">
            <name>LDSAccess</name>
            <description>2014-12-06T03:23:49.000Z</description>
            <styleUrl>#stylesel_5698</styleUrl>
            <Point id="geom_5698">
                <coordinates>-111.74238586,40.37363052,0.0</coordinates>
            </Point>
        </Placemark>
        <Placemark id="feat_5901">
            <name>LDSAccess</name>
            <description>2017-03-20T15:12:15.000Z</description>
            <styleUrl>#stylesel_5699</styleUrl>
            <Point id="geom_5699">
                <coordinates>-111.74229431,40.3715477,0.0</coordinates>
            </Point>
        </Placemark>
        <Placemark id="feat_5902">
            <name>LDSAccess</name>
            <description>2017-03-04T17:57:37.000Z</description>
            <styleUrl>#stylesel_5700</styleUrl>
            <Point id="geom_5700">
                <coordinates>-111.74233246,40.37220764,0.0</coordinates>
            </Point>
        </Placemark>
        <Placemark id="feat_5903">
            <name>LDSAccess</name>
            <description>2017-06-17T14:01:28.000Z</description>
            <styleUrl>#stylesel_5701</styleUrl>
            <Point id="geom_5701">
                <coordinates>-111.7423172,40.37300491,0.0</coordinates>
            </Point>
        </Placemark>
        <Placemark id="feat_5904">
            <name>LDSAccess</name>
            <description>2014-04-08T03:45:31.000Z</description>
            <styleUrl>#stylesel_5702</styleUrl>
            <Point id="geom_5702">
                <coordinates>-111.74226379,40.37294769,0.0</coordinates>
            </Point>
        </Placemark>
        <Placemark id="feat_5905">
            <name>LDSAccess</name>
            <description>2017-02-13T21:03:42.000Z</description>
            <styleUrl>#stylesel_5703</styleUrl>
            <Point id="geom_5703">
                <coordinates>-111.74229431,40.3719368,0.0</coordinates>
            </Point>
        </Placemark>
        <Placemark id="feat_5906">
            <name>LDSAccess</name>
            <description>2016-03-25T19:28:51.000Z</description>
            <styleUrl>#stylesel_5704</styleUrl>
            <Point id="geom_5704">
                <coordinates>-111.74227905,40.3722496,0.0</coordinates>
            </Point>
        </Placemark>
        <Placemark id="feat_5907">
            <name>LDSAccess</name>
            <description>2017-03-23T04:02:04.000Z</description>
            <styleUrl>#stylesel_5705</styleUrl>
            <Point id="geom_5705">
                <coordinates>-111.74232483,40.3736496,0.0</coordinates>
            </Point>
        </Placemark>
        <Placemark id="feat_5908">
            <name>LDSAccess</name>
            <description>2017-07-24T15:01:51.000Z</description>
            <styleUrl>#stylesel_5706</styleUrl>
            <Point id="geom_5706">
                <coordinates>-111.74233246,40.37239456,0.0</coordinates>
            </Point>
        </Placemark>
        <Placemark id="feat_5909">
            <name>LDSAccess</name>
            <description>2017-02-26T01:37:03.000Z</description>
            <styleUrl>#stylesel_5707</styleUrl>
            <Point id="geom_5707">
                <coordinates>-111.74245453,40.37178421,0.0</coordinates>
            </Point>
        </Placemark>
        <Placemark id="feat_5910">
            <name>LDSAccess</name>
            <description>2017-03-04T17:57:49.000Z</description>
            <styleUrl>#stylesel_5708</styleUrl>
            <Point id="geom_5708">
                <coordinates>-111.74232483,40.37346268,0.0</coordinates>
            </Point>
        </Placemark>
        <Placemark id="feat_5911">
            <name>LDSAccess</name>
            <description>2014-06-23T12:33:09.000Z</description>
            <styleUrl>#stylesel_5709</styleUrl>
            <Point id="geom_5709">
                <coordinates>-111.74233246,40.37378311,0.0</coordinates>
            </Point>
        </Placemark>
        <Placemark id="feat_5912">
            <name>LDSAccess</name>
            <description>2017-02-26T01:37:19.000Z</description>
            <styleUrl>#stylesel_5710</styleUrl>
            <Point id="geom_5710">
                <coordinates>-111.74229431,40.37312317,0.0</coordinates>
            </Point>
        </Placemark>
        <Placemark id="feat_5913">
            <name>LDSAccess</name>
            <description>2014-03-17T21:20:20.000Z</description>
            <styleUrl>#stylesel_5711</styleUrl>
            <Point id="geom_5711">
                <coordinates>-111.74134064,40.37298203,0.0</coordinates>
            </Point>
        </Placemark>
        <Placemark id="feat_5914">
            <name>LDSAccess</name>
            <description>2014-06-23T12:33:26.000Z</description>
            <styleUrl>#stylesel_5712</styleUrl>
            <Point id="geom_5712">
                <coordinates>-111.74237823,40.37176514,0.0</coordinates>
            </Point>
        </Placemark>
        <Placemark id="feat_5915">
            <name>LDSAccess</name>
            <description>2017-03-04T17:57:44.000Z</description>
            <styleUrl>#stylesel_5713</styleUrl>
            <Point id="geom_5713">
                <coordinates>-111.74228668,40.37292099,0.0</coordinates>
            </Point>
        </Placemark>
        <Placemark id="feat_5916">
            <name>LDSAccess</name>
            <description>2014-05-15T00:53:20.000Z</description>
            <styleUrl>#stylesel_5714</styleUrl>
            <Point id="geom_5714">
                <coordinates>-111.74239349,40.37191391,0.0</coordinates>
            </Point>
        </Placemark>
        <Placemark id="feat_5917">
            <name>LDSAccess</name>
            <description>2016-05-03T14:56:34.000Z</description>
            <styleUrl>#stylesel_5715</styleUrl>
            <Point id="geom_5715">
                <coordinates>-111.74250793,40.37175751,0.0</coordinates>
            </Point>
        </Placemark>
        <Placemark id="feat_5918">
            <name>LDSAccess</name>
            <description>2016-05-03T14:58:08.000Z</description>
            <styleUrl>#stylesel_5716</styleUrl>
            <Point id="geom_5716">
                <coordinates>-111.74234772,40.37410355,0.0</coordinates>
            </Point>
        </Placemark>
        <Placemark id="feat_5919">
            <name>LDSAccess</name>
            <description>2017-03-20T15:12:35.000Z</description>
            <styleUrl>#stylesel_5717</styleUrl>
            <Point id="geom_5717">
                <coordinates>-111.7423172,40.3739624,0.0</coordinates>
            </Point>
        </Placemark>
        <Placemark id="feat_5920">
            <name>LDSAccess</name>
            <description>2014-06-25T04:16:56.000Z</description>
            <styleUrl>#stylesel_5718</styleUrl>
            <Point id="geom_5718">
                <coordinates>-111.74235535,40.37308121,0.0</coordinates>
            </Point>
        </Placemark>
        <Placemark id="feat_5921">
            <name>LDSAccess</name>
            <description>2016-04-23T04:09:28.000Z</description>
            <styleUrl>#stylesel_5719</styleUrl>
            <Point id="geom_5719">
                <coordinates>-111.74241638,40.37185287,0.0</coordinates>
            </Point>
        </Placemark>
        <Placemark id="feat_5922">
            <name>LDSAccess</name>
            <description>2017-03-23T04:01:57.000Z</description>
            <styleUrl>#stylesel_5720</styleUrl>
            <Point id="geom_5720">
                <coordinates>-111.74230957,40.37281036,0.0</coordinates>
            </Point>
        </Placemark>
        <Placemark id="feat_5923">
            <name>LDSAccess</name>
            <description>2017-03-20T15:12:26.000Z</description>
            <styleUrl>#stylesel_5721</styleUrl>
            <Point id="geom_5721">
                <coordinates>-111.74230957,40.37282181,0.0</coordinates>
            </Point>
        </Placemark>
        <Placemark id="feat_5924">
            <name>LDSAccess</name>
            <description>2017-03-23T04:01:45.000Z</description>
            <styleUrl>#stylesel_5722</styleUrl>
            <Point id="geom_5722">
                <coordinates>-111.74230194,40.371521,0.0</coordinates>
            </Point>
        </Placemark>
        <Placemark id="feat_5925">
            <name>LDSAccess</name>
            <description>2014-03-17T21:20:37.000Z</description>
            <styleUrl>#stylesel_5723</styleUrl>
            <Point id="geom_5723">
                <coordinates>-111.74237823,40.37315369,0.0</coordinates>
            </Point>
        </Placemark>
    </Document>
</kml>
