<?xml version="1.0" encoding="UTF-8"?>
<kml xmlns="http://www.opengis.net/kml/2.2" xmlns:gx="http://www.google.com/kml/ext/2.2">
    <Document id="feat_808">
        <Style id="stylesel_750">
            <IconStyle id="substyle_750">
                <colorMode>normal</colorMode>
                <scale>1</scale>
                <heading>0</heading>
                <Icon id="link_750">
                    <href>http://www.freepngimg.com/download/wifi/4-2-wi-fi-png-images.png</href>
                </Icon>
            </IconStyle>
        </Style>
        <Style id="stylesel_751">
            <IconStyle id="substyle_751">
                <colorMode>normal</colorMode>
                <scale>1</scale>
                <heading>0</heading>
                <Icon id="link_751">
                    <href>http://www.freepngimg.com/download/wifi/4-2-wi-fi-png-images.png</href>
                </Icon>
            </IconStyle>
        </Style>
        <Style id="stylesel_752">
            <IconStyle id="substyle_752">
                <colorMode>normal</colorMode>
                <scale>1</scale>
                <heading>0</heading>
                <Icon id="link_752">
                    <href>http://www.freepngimg.com/download/wifi/4-2-wi-fi-png-images.png</href>
                </Icon>
            </IconStyle>
        </Style>
        <Style id="stylesel_753">
            <IconStyle id="substyle_753">
                <colorMode>normal</colorMode>
                <scale>1</scale>
                <heading>0</heading>
                <Icon id="link_753">
                    <href>http://www.freepngimg.com/download/wifi/4-2-wi-fi-png-images.png</href>
                </Icon>
            </IconStyle>
        </Style>
        <Style id="stylesel_754">
            <IconStyle id="substyle_754">
                <colorMode>normal</colorMode>
                <scale>1</scale>
                <heading>0</heading>
                <Icon id="link_754">
                    <href>http://www.freepngimg.com/download/wifi/4-2-wi-fi-png-images.png</href>
                </Icon>
            </IconStyle>
        </Style>
        <Style id="stylesel_755">
            <IconStyle id="substyle_755">
                <colorMode>normal</colorMode>
                <scale>1</scale>
                <heading>0</heading>
                <Icon id="link_755">
                    <href>http://www.freepngimg.com/download/wifi/4-2-wi-fi-png-images.png</href>
                </Icon>
            </IconStyle>
        </Style>
        <Style id="stylesel_756">
            <IconStyle id="substyle_756">
                <colorMode>normal</colorMode>
                <scale>1</scale>
                <heading>0</heading>
                <Icon id="link_756">
                    <href>http://www.freepngimg.com/download/wifi/4-2-wi-fi-png-images.png</href>
                </Icon>
            </IconStyle>
        </Style>
        <Style id="stylesel_757">
            <IconStyle id="substyle_757">
                <colorMode>normal</colorMode>
                <scale>1</scale>
                <heading>0</heading>
                <Icon id="link_757">
                    <href>http://www.freepngimg.com/download/wifi/4-2-wi-fi-png-images.png</href>
                </Icon>
            </IconStyle>
        </Style>
        <Style id="stylesel_758">
            <IconStyle id="substyle_758">
                <colorMode>normal</colorMode>
                <scale>1</scale>
                <heading>0</heading>
                <Icon id="link_758">
                    <href>http://www.freepngimg.com/download/wifi/4-2-wi-fi-png-images.png</href>
                </Icon>
            </IconStyle>
        </Style>
        <Style id="stylesel_759">
            <IconStyle id="substyle_759">
                <colorMode>normal</colorMode>
                <scale>1</scale>
                <heading>0</heading>
                <Icon id="link_759">
                    <href>http://www.freepngimg.com/download/wifi/4-2-wi-fi-png-images.png</href>
                </Icon>
            </IconStyle>
        </Style>
        <Style id="stylesel_760">
            <IconStyle id="substyle_760">
                <colorMode>normal</colorMode>
                <scale>1</scale>
                <heading>0</heading>
                <Icon id="link_760">
                    <href>http://www.freepngimg.com/download/wifi/4-2-wi-fi-png-images.png</href>
                </Icon>
            </IconStyle>
        </Style>
        <Style id="stylesel_761">
            <IconStyle id="substyle_761">
                <colorMode>normal</colorMode>
                <scale>1</scale>
                <heading>0</heading>
                <Icon id="link_761">
                    <href>http://www.freepngimg.com/download/wifi/4-2-wi-fi-png-images.png</href>
                </Icon>
            </IconStyle>
        </Style>
        <Style id="stylesel_762">
            <IconStyle id="substyle_762">
                <colorMode>normal</colorMode>
                <scale>1</scale>
                <heading>0</heading>
                <Icon id="link_762">
                    <href>http://www.freepngimg.com/download/wifi/4-2-wi-fi-png-images.png</href>
                </Icon>
            </IconStyle>
        </Style>
        <Style id="stylesel_763">
            <IconStyle id="substyle_763">
                <colorMode>normal</colorMode>
                <scale>1</scale>
                <heading>0</heading>
                <Icon id="link_763">
                    <href>http://www.freepngimg.com/download/wifi/4-2-wi-fi-png-images.png</href>
                </Icon>
            </IconStyle>
        </Style>
        <Style id="stylesel_764">
            <IconStyle id="substyle_764">
                <colorMode>normal</colorMode>
                <scale>1</scale>
                <heading>0</heading>
                <Icon id="link_764">
                    <href>http://www.freepngimg.com/download/wifi/4-2-wi-fi-png-images.png</href>
                </Icon>
            </IconStyle>
        </Style>
        <Style id="stylesel_765">
            <IconStyle id="substyle_765">
                <colorMode>normal</colorMode>
                <scale>1</scale>
                <heading>0</heading>
                <Icon id="link_765">
                    <href>http://www.freepngimg.com/download/wifi/4-2-wi-fi-png-images.png</href>
                </Icon>
            </IconStyle>
        </Style>
        <Style id="stylesel_766">
            <IconStyle id="substyle_766">
                <colorMode>normal</colorMode>
                <scale>1</scale>
                <heading>0</heading>
                <Icon id="link_766">
                    <href>http://www.freepngimg.com/download/wifi/4-2-wi-fi-png-images.png</href>
                </Icon>
            </IconStyle>
        </Style>
        <Style id="stylesel_767">
            <IconStyle id="substyle_767">
                <colorMode>normal</colorMode>
                <scale>1</scale>
                <heading>0</heading>
                <Icon id="link_767">
                    <href>http://www.freepngimg.com/download/wifi/4-2-wi-fi-png-images.png</href>
                </Icon>
            </IconStyle>
        </Style>
        <Style id="stylesel_768">
            <IconStyle id="substyle_768">
                <colorMode>normal</colorMode>
                <scale>1</scale>
                <heading>0</heading>
                <Icon id="link_768">
                    <href>http://www.freepngimg.com/download/wifi/4-2-wi-fi-png-images.png</href>
                </Icon>
            </IconStyle>
        </Style>
        <Style id="stylesel_769">
            <IconStyle id="substyle_769">
                <colorMode>normal</colorMode>
                <scale>1</scale>
                <heading>0</heading>
                <Icon id="link_769">
                    <href>http://www.freepngimg.com/download/wifi/4-2-wi-fi-png-images.png</href>
                </Icon>
            </IconStyle>
        </Style>
        <Style id="stylesel_770">
            <IconStyle id="substyle_770">
                <colorMode>normal</colorMode>
                <scale>1</scale>
                <heading>0</heading>
                <Icon id="link_770">
                    <href>http://www.freepngimg.com/download/wifi/4-2-wi-fi-png-images.png</href>
                </Icon>
            </IconStyle>
        </Style>
        <Style id="stylesel_771">
            <IconStyle id="substyle_771">
                <colorMode>normal</colorMode>
                <scale>1</scale>
                <heading>0</heading>
                <Icon id="link_771">
                    <href>http://www.freepngimg.com/download/wifi/4-2-wi-fi-png-images.png</href>
                </Icon>
            </IconStyle>
        </Style>
        <Style id="stylesel_772">
            <IconStyle id="substyle_772">
                <colorMode>normal</colorMode>
                <scale>1</scale>
                <heading>0</heading>
                <Icon id="link_772">
                    <href>http://www.freepngimg.com/download/wifi/4-2-wi-fi-png-images.png</href>
                </Icon>
            </IconStyle>
        </Style>
        <Style id="stylesel_773">
            <IconStyle id="substyle_773">
                <colorMode>normal</colorMode>
                <scale>1</scale>
                <heading>0</heading>
                <Icon id="link_773">
                    <href>http://www.freepngimg.com/download/wifi/4-2-wi-fi-png-images.png</href>
                </Icon>
            </IconStyle>
        </Style>
        <Style id="stylesel_774">
            <IconStyle id="substyle_774">
                <colorMode>normal</colorMode>
                <scale>1</scale>
                <heading>0</heading>
                <Icon id="link_774">
                    <href>http://www.freepngimg.com/download/wifi/4-2-wi-fi-png-images.png</href>
                </Icon>
            </IconStyle>
        </Style>
        <Style id="stylesel_775">
            <IconStyle id="substyle_775">
                <colorMode>normal</colorMode>
                <scale>1</scale>
                <heading>0</heading>
                <Icon id="link_775">
                    <href>http://www.freepngimg.com/download/wifi/4-2-wi-fi-png-images.png</href>
                </Icon>
            </IconStyle>
        </Style>
        <Style id="stylesel_776">
            <IconStyle id="substyle_776">
                <colorMode>normal</colorMode>
                <scale>1</scale>
                <heading>0</heading>
                <Icon id="link_776">
                    <href>http://www.freepngimg.com/download/wifi/4-2-wi-fi-png-images.png</href>
                </Icon>
            </IconStyle>
        </Style>
        <Style id="stylesel_777">
            <IconStyle id="substyle_777">
                <colorMode>normal</colorMode>
                <scale>1</scale>
                <heading>0</heading>
                <Icon id="link_777">
                    <href>http://www.freepngimg.com/download/wifi/4-2-wi-fi-png-images.png</href>
                </Icon>
            </IconStyle>
        </Style>
        <Style id="stylesel_778">
            <IconStyle id="substyle_778">
                <colorMode>normal</colorMode>
                <scale>1</scale>
                <heading>0</heading>
                <Icon id="link_778">
                    <href>http://www.freepngimg.com/download/wifi/4-2-wi-fi-png-images.png</href>
                </Icon>
            </IconStyle>
        </Style>
        <Style id="stylesel_779">
            <IconStyle id="substyle_779">
                <colorMode>normal</colorMode>
                <scale>1</scale>
                <heading>0</heading>
                <Icon id="link_779">
                    <href>http://www.freepngimg.com/download/wifi/4-2-wi-fi-png-images.png</href>
                </Icon>
            </IconStyle>
        </Style>
        <Style id="stylesel_780">
            <IconStyle id="substyle_780">
                <colorMode>normal</colorMode>
                <scale>1</scale>
                <heading>0</heading>
                <Icon id="link_780">
                    <href>http://www.freepngimg.com/download/wifi/4-2-wi-fi-png-images.png</href>
                </Icon>
            </IconStyle>
        </Style>
        <Style id="stylesel_781">
            <IconStyle id="substyle_781">
                <colorMode>normal</colorMode>
                <scale>1</scale>
                <heading>0</heading>
                <Icon id="link_781">
                    <href>http://www.freepngimg.com/download/wifi/4-2-wi-fi-png-images.png</href>
                </Icon>
            </IconStyle>
        </Style>
        <Style id="stylesel_782">
            <IconStyle id="substyle_782">
                <colorMode>normal</colorMode>
                <scale>1</scale>
                <heading>0</heading>
                <Icon id="link_782">
                    <href>http://www.freepngimg.com/download/wifi/4-2-wi-fi-png-images.png</href>
                </Icon>
            </IconStyle>
        </Style>
        <Style id="stylesel_783">
            <IconStyle id="substyle_783">
                <colorMode>normal</colorMode>
                <scale>1</scale>
                <heading>0</heading>
                <Icon id="link_783">
                    <href>http://www.freepngimg.com/download/wifi/4-2-wi-fi-png-images.png</href>
                </Icon>
            </IconStyle>
        </Style>
        <Style id="stylesel_784">
            <IconStyle id="substyle_784">
                <colorMode>normal</colorMode>
                <scale>1</scale>
                <heading>0</heading>
                <Icon id="link_784">
                    <href>http://www.freepngimg.com/download/wifi/4-2-wi-fi-png-images.png</href>
                </Icon>
            </IconStyle>
        </Style>
        <Style id="stylesel_785">
            <IconStyle id="substyle_785">
                <colorMode>normal</colorMode>
                <scale>1</scale>
                <heading>0</heading>
                <Icon id="link_785">
                    <href>http://www.freepngimg.com/download/wifi/4-2-wi-fi-png-images.png</href>
                </Icon>
            </IconStyle>
        </Style>
        <Style id="stylesel_786">
            <IconStyle id="substyle_786">
                <colorMode>normal</colorMode>
                <scale>1</scale>
                <heading>0</heading>
                <Icon id="link_786">
                    <href>http://www.freepngimg.com/download/wifi/4-2-wi-fi-png-images.png</href>
                </Icon>
            </IconStyle>
        </Style>
        <Style id="stylesel_787">
            <IconStyle id="substyle_787">
                <colorMode>normal</colorMode>
                <scale>1</scale>
                <heading>0</heading>
                <Icon id="link_787">
                    <href>http://www.freepngimg.com/download/wifi/4-2-wi-fi-png-images.png</href>
                </Icon>
            </IconStyle>
        </Style>
        <Style id="stylesel_788">
            <IconStyle id="substyle_788">
                <colorMode>normal</colorMode>
                <scale>1</scale>
                <heading>0</heading>
                <Icon id="link_788">
                    <href>http://www.freepngimg.com/download/wifi/4-2-wi-fi-png-images.png</href>
                </Icon>
            </IconStyle>
        </Style>
        <Style id="stylesel_789">
            <IconStyle id="substyle_789">
                <colorMode>normal</colorMode>
                <scale>1</scale>
                <heading>0</heading>
                <Icon id="link_789">
                    <href>http://www.freepngimg.com/download/wifi/4-2-wi-fi-png-images.png</href>
                </Icon>
            </IconStyle>
        </Style>
        <Style id="stylesel_790">
            <IconStyle id="substyle_790">
                <colorMode>normal</colorMode>
                <scale>1</scale>
                <heading>0</heading>
                <Icon id="link_790">
                    <href>http://www.freepngimg.com/download/wifi/4-2-wi-fi-png-images.png</href>
                </Icon>
            </IconStyle>
        </Style>
        <Style id="stylesel_791">
            <IconStyle id="substyle_791">
                <colorMode>normal</colorMode>
                <scale>1</scale>
                <heading>0</heading>
                <Icon id="link_791">
                    <href>http://www.freepngimg.com/download/wifi/4-2-wi-fi-png-images.png</href>
                </Icon>
            </IconStyle>
        </Style>
        <Style id="stylesel_792">
            <IconStyle id="substyle_792">
                <colorMode>normal</colorMode>
                <scale>1</scale>
                <heading>0</heading>
                <Icon id="link_792">
                    <href>http://www.freepngimg.com/download/wifi/4-2-wi-fi-png-images.png</href>
                </Icon>
            </IconStyle>
        </Style>
        <Style id="stylesel_793">
            <IconStyle id="substyle_793">
                <colorMode>normal</colorMode>
                <scale>1</scale>
                <heading>0</heading>
                <Icon id="link_793">
                    <href>http://www.freepngimg.com/download/wifi/4-2-wi-fi-png-images.png</href>
                </Icon>
            </IconStyle>
        </Style>
        <Style id="stylesel_794">
            <IconStyle id="substyle_794">
                <colorMode>normal</colorMode>
                <scale>1</scale>
                <heading>0</heading>
                <Icon id="link_794">
                    <href>http://www.freepngimg.com/download/wifi/4-2-wi-fi-png-images.png</href>
                </Icon>
            </IconStyle>
        </Style>
        <Style id="stylesel_795">
            <IconStyle id="substyle_795">
                <colorMode>normal</colorMode>
                <scale>1</scale>
                <heading>0</heading>
                <Icon id="link_795">
                    <href>http://www.freepngimg.com/download/wifi/4-2-wi-fi-png-images.png</href>
                </Icon>
            </IconStyle>
        </Style>
        <Style id="stylesel_796">
            <IconStyle id="substyle_796">
                <colorMode>normal</colorMode>
                <scale>1</scale>
                <heading>0</heading>
                <Icon id="link_796">
                    <href>http://www.freepngimg.com/download/wifi/4-2-wi-fi-png-images.png</href>
                </Icon>
            </IconStyle>
        </Style>
        <Style id="stylesel_797">
            <IconStyle id="substyle_797">
                <colorMode>normal</colorMode>
                <scale>1</scale>
                <heading>0</heading>
                <Icon id="link_797">
                    <href>http://www.freepngimg.com/download/wifi/4-2-wi-fi-png-images.png</href>
                </Icon>
            </IconStyle>
        </Style>
        <Style id="stylesel_798">
            <IconStyle id="substyle_798">
                <colorMode>normal</colorMode>
                <scale>1</scale>
                <heading>0</heading>
                <Icon id="link_798">
                    <href>http://www.freepngimg.com/download/wifi/4-2-wi-fi-png-images.png</href>
                </Icon>
            </IconStyle>
        </Style>
        <Style id="stylesel_799">
            <IconStyle id="substyle_799">
                <colorMode>normal</colorMode>
                <scale>1</scale>
                <heading>0</heading>
                <Icon id="link_799">
                    <href>http://www.freepngimg.com/download/wifi/4-2-wi-fi-png-images.png</href>
                </Icon>
            </IconStyle>
        </Style>
        <Style id="stylesel_800">
            <IconStyle id="substyle_800">
                <colorMode>normal</colorMode>
                <scale>1</scale>
                <heading>0</heading>
                <Icon id="link_800">
                    <href>http://www.freepngimg.com/download/wifi/4-2-wi-fi-png-images.png</href>
                </Icon>
            </IconStyle>
        </Style>
        <Style id="stylesel_801">
            <IconStyle id="substyle_801">
                <colorMode>normal</colorMode>
                <scale>1</scale>
                <heading>0</heading>
                <Icon id="link_801">
                    <href>http://www.freepngimg.com/download/wifi/4-2-wi-fi-png-images.png</href>
                </Icon>
            </IconStyle>
        </Style>
        <Style id="stylesel_802">
            <IconStyle id="substyle_802">
                <colorMode>normal</colorMode>
                <scale>1</scale>
                <heading>0</heading>
                <Icon id="link_802">
                    <href>http://www.freepngimg.com/download/wifi/4-2-wi-fi-png-images.png</href>
                </Icon>
            </IconStyle>
        </Style>
        <Style id="stylesel_803">
            <IconStyle id="substyle_803">
                <colorMode>normal</colorMode>
                <scale>1</scale>
                <heading>0</heading>
                <Icon id="link_803">
                    <href>http://www.freepngimg.com/download/wifi/4-2-wi-fi-png-images.png</href>
                </Icon>
            </IconStyle>
        </Style>
        <Style id="stylesel_804">
            <IconStyle id="substyle_804">
                <colorMode>normal</colorMode>
                <scale>1</scale>
                <heading>0</heading>
                <Icon id="link_804">
                    <href>http://www.freepngimg.com/download/wifi/4-2-wi-fi-png-images.png</href>
                </Icon>
            </IconStyle>
        </Style>
        <Style id="stylesel_805">
            <IconStyle id="substyle_805">
                <colorMode>normal</colorMode>
                <scale>1</scale>
                <heading>0</heading>
                <Icon id="link_805">
                    <href>http://www.freepngimg.com/download/wifi/4-2-wi-fi-png-images.png</href>
                </Icon>
            </IconStyle>
        </Style>
        <Style id="stylesel_806">
            <IconStyle id="substyle_806">
                <colorMode>normal</colorMode>
                <scale>1</scale>
                <heading>0</heading>
                <Icon id="link_806">
                    <href>http://www.freepngimg.com/download/wifi/4-2-wi-fi-png-images.png</href>
                </Icon>
            </IconStyle>
        </Style>
        <Style id="stylesel_807">
            <IconStyle id="substyle_807">
                <colorMode>normal</colorMode>
                <scale>1</scale>
                <heading>0</heading>
                <Icon id="link_807">
                    <href>http://www.freepngimg.com/download/wifi/4-2-wi-fi-png-images.png</href>
                </Icon>
            </IconStyle>
        </Style>
        <Style id="stylesel_808">
            <IconStyle id="substyle_808">
                <colorMode>normal</colorMode>
                <scale>1</scale>
                <heading>0</heading>
                <Icon id="link_808">
                    <href>http://www.freepngimg.com/download/wifi/4-2-wi-fi-png-images.png</href>
                </Icon>
            </IconStyle>
        </Style>
        <Style id="stylesel_809">
            <IconStyle id="substyle_809">
                <colorMode>normal</colorMode>
                <scale>1</scale>
                <heading>0</heading>
                <Icon id="link_809">
                    <href>http://www.freepngimg.com/download/wifi/4-2-wi-fi-png-images.png</href>
                </Icon>
            </IconStyle>
        </Style>
        <Style id="stylesel_810">
            <IconStyle id="substyle_810">
                <colorMode>normal</colorMode>
                <scale>1</scale>
                <heading>0</heading>
                <Icon id="link_810">
                    <href>http://www.freepngimg.com/download/wifi/4-2-wi-fi-png-images.png</href>
                </Icon>
            </IconStyle>
        </Style>
        <Style id="stylesel_811">
            <IconStyle id="substyle_811">
                <colorMode>normal</colorMode>
                <scale>1</scale>
                <heading>0</heading>
                <Icon id="link_811">
                    <href>http://www.freepngimg.com/download/wifi/4-2-wi-fi-png-images.png</href>
                </Icon>
            </IconStyle>
        </Style>
        <Style id="stylesel_812">
            <IconStyle id="substyle_812">
                <colorMode>normal</colorMode>
                <scale>1</scale>
                <heading>0</heading>
                <Icon id="link_812">
                    <href>http://www.freepngimg.com/download/wifi/4-2-wi-fi-png-images.png</href>
                </Icon>
            </IconStyle>
        </Style>
        <Style id="stylesel_813">
            <IconStyle id="substyle_813">
                <colorMode>normal</colorMode>
                <scale>1</scale>
                <heading>0</heading>
                <Icon id="link_813">
                    <href>http://www.freepngimg.com/download/wifi/4-2-wi-fi-png-images.png</href>
                </Icon>
            </IconStyle>
        </Style>
        <Style id="stylesel_814">
            <IconStyle id="substyle_814">
                <colorMode>normal</colorMode>
                <scale>1</scale>
                <heading>0</heading>
                <Icon id="link_814">
                    <href>http://www.freepngimg.com/download/wifi/4-2-wi-fi-png-images.png</href>
                </Icon>
            </IconStyle>
        </Style>
        <Style id="stylesel_815">
            <IconStyle id="substyle_815">
                <colorMode>normal</colorMode>
                <scale>1</scale>
                <heading>0</heading>
                <Icon id="link_815">
                    <href>http://www.freepngimg.com/download/wifi/4-2-wi-fi-png-images.png</href>
                </Icon>
            </IconStyle>
        </Style>
        <Style id="stylesel_816">
            <IconStyle id="substyle_816">
                <colorMode>normal</colorMode>
                <scale>1</scale>
                <heading>0</heading>
                <Icon id="link_816">
                    <href>http://www.freepngimg.com/download/wifi/4-2-wi-fi-png-images.png</href>
                </Icon>
            </IconStyle>
        </Style>
        <Style id="stylesel_817">
            <IconStyle id="substyle_817">
                <colorMode>normal</colorMode>
                <scale>1</scale>
                <heading>0</heading>
                <Icon id="link_817">
                    <href>http://www.freepngimg.com/download/wifi/4-2-wi-fi-png-images.png</href>
                </Icon>
            </IconStyle>
        </Style>
        <Style id="stylesel_818">
            <IconStyle id="substyle_818">
                <colorMode>normal</colorMode>
                <scale>1</scale>
                <heading>0</heading>
                <Icon id="link_818">
                    <href>http://www.freepngimg.com/download/wifi/4-2-wi-fi-png-images.png</href>
                </Icon>
            </IconStyle>
        </Style>
        <Style id="stylesel_819">
            <IconStyle id="substyle_819">
                <colorMode>normal</colorMode>
                <scale>1</scale>
                <heading>0</heading>
                <Icon id="link_819">
                    <href>http://www.freepngimg.com/download/wifi/4-2-wi-fi-png-images.png</href>
                </Icon>
            </IconStyle>
        </Style>
        <Style id="stylesel_820">
            <IconStyle id="substyle_820">
                <colorMode>normal</colorMode>
                <scale>1</scale>
                <heading>0</heading>
                <Icon id="link_820">
                    <href>http://www.freepngimg.com/download/wifi/4-2-wi-fi-png-images.png</href>
                </Icon>
            </IconStyle>
        </Style>
        <Style id="stylesel_821">
            <IconStyle id="substyle_821">
                <colorMode>normal</colorMode>
                <scale>1</scale>
                <heading>0</heading>
                <Icon id="link_821">
                    <href>http://www.freepngimg.com/download/wifi/4-2-wi-fi-png-images.png</href>
                </Icon>
            </IconStyle>
        </Style>
        <Style id="stylesel_822">
            <IconStyle id="substyle_822">
                <colorMode>normal</colorMode>
                <scale>1</scale>
                <heading>0</heading>
                <Icon id="link_822">
                    <href>http://www.freepngimg.com/download/wifi/4-2-wi-fi-png-images.png</href>
                </Icon>
            </IconStyle>
        </Style>
        <Style id="stylesel_823">
            <IconStyle id="substyle_823">
                <colorMode>normal</colorMode>
                <scale>1</scale>
                <heading>0</heading>
                <Icon id="link_823">
                    <href>http://www.freepngimg.com/download/wifi/4-2-wi-fi-png-images.png</href>
                </Icon>
            </IconStyle>
        </Style>
        <Style id="stylesel_824">
            <IconStyle id="substyle_824">
                <colorMode>normal</colorMode>
                <scale>1</scale>
                <heading>0</heading>
                <Icon id="link_824">
                    <href>http://www.freepngimg.com/download/wifi/4-2-wi-fi-png-images.png</href>
                </Icon>
            </IconStyle>
        </Style>
        <Style id="stylesel_825">
            <IconStyle id="substyle_825">
                <colorMode>normal</colorMode>
                <scale>1</scale>
                <heading>0</heading>
                <Icon id="link_825">
                    <href>http://www.freepngimg.com/download/wifi/4-2-wi-fi-png-images.png</href>
                </Icon>
            </IconStyle>
        </Style>
        <Style id="stylesel_826">
            <IconStyle id="substyle_826">
                <colorMode>normal</colorMode>
                <scale>1</scale>
                <heading>0</heading>
                <Icon id="link_826">
                    <href>http://www.freepngimg.com/download/wifi/4-2-wi-fi-png-images.png</href>
                </Icon>
            </IconStyle>
        </Style>
        <Style id="stylesel_827">
            <IconStyle id="substyle_827">
                <colorMode>normal</colorMode>
                <scale>1</scale>
                <heading>0</heading>
                <Icon id="link_827">
                    <href>http://www.freepngimg.com/download/wifi/4-2-wi-fi-png-images.png</href>
                </Icon>
            </IconStyle>
        </Style>
        <Style id="stylesel_828">
            <IconStyle id="substyle_828">
                <colorMode>normal</colorMode>
                <scale>1</scale>
                <heading>0</heading>
                <Icon id="link_828">
                    <href>http://www.freepngimg.com/download/wifi/4-2-wi-fi-png-images.png</href>
                </Icon>
            </IconStyle>
        </Style>
        <Style id="stylesel_829">
            <IconStyle id="substyle_829">
                <colorMode>normal</colorMode>
                <scale>1</scale>
                <heading>0</heading>
                <Icon id="link_829">
                    <href>http://www.freepngimg.com/download/wifi/4-2-wi-fi-png-images.png</href>
                </Icon>
            </IconStyle>
        </Style>
        <Style id="stylesel_830">
            <IconStyle id="substyle_830">
                <colorMode>normal</colorMode>
                <scale>1</scale>
                <heading>0</heading>
                <Icon id="link_830">
                    <href>http://www.freepngimg.com/download/wifi/4-2-wi-fi-png-images.png</href>
                </Icon>
            </IconStyle>
        </Style>
        <Style id="stylesel_831">
            <IconStyle id="substyle_831">
                <colorMode>normal</colorMode>
                <scale>1</scale>
                <heading>0</heading>
                <Icon id="link_831">
                    <href>http://www.freepngimg.com/download/wifi/4-2-wi-fi-png-images.png</href>
                </Icon>
            </IconStyle>
        </Style>
        <Style id="stylesel_832">
            <IconStyle id="substyle_832">
                <colorMode>normal</colorMode>
                <scale>1</scale>
                <heading>0</heading>
                <Icon id="link_832">
                    <href>http://www.freepngimg.com/download/wifi/4-2-wi-fi-png-images.png</href>
                </Icon>
            </IconStyle>
        </Style>
        <Style id="stylesel_833">
            <IconStyle id="substyle_833">
                <colorMode>normal</colorMode>
                <scale>1</scale>
                <heading>0</heading>
                <Icon id="link_833">
                    <href>http://www.freepngimg.com/download/wifi/4-2-wi-fi-png-images.png</href>
                </Icon>
            </IconStyle>
        </Style>
        <Style id="stylesel_834">
            <IconStyle id="substyle_834">
                <colorMode>normal</colorMode>
                <scale>1</scale>
                <heading>0</heading>
                <Icon id="link_834">
                    <href>http://www.freepngimg.com/download/wifi/4-2-wi-fi-png-images.png</href>
                </Icon>
            </IconStyle>
        </Style>
        <Style id="stylesel_835">
            <IconStyle id="substyle_835">
                <colorMode>normal</colorMode>
                <scale>1</scale>
                <heading>0</heading>
                <Icon id="link_835">
                    <href>http://www.freepngimg.com/download/wifi/4-2-wi-fi-png-images.png</href>
                </Icon>
            </IconStyle>
        </Style>
        <Style id="stylesel_836">
            <IconStyle id="substyle_836">
                <colorMode>normal</colorMode>
                <scale>1</scale>
                <heading>0</heading>
                <Icon id="link_836">
                    <href>http://www.freepngimg.com/download/wifi/4-2-wi-fi-png-images.png</href>
                </Icon>
            </IconStyle>
        </Style>
        <Style id="stylesel_837">
            <IconStyle id="substyle_837">
                <colorMode>normal</colorMode>
                <scale>1</scale>
                <heading>0</heading>
                <Icon id="link_837">
                    <href>http://www.freepngimg.com/download/wifi/4-2-wi-fi-png-images.png</href>
                </Icon>
            </IconStyle>
        </Style>
        <Style id="stylesel_838">
            <IconStyle id="substyle_838">
                <colorMode>normal</colorMode>
                <scale>1</scale>
                <heading>0</heading>
                <Icon id="link_838">
                    <href>http://www.freepngimg.com/download/wifi/4-2-wi-fi-png-images.png</href>
                </Icon>
            </IconStyle>
        </Style>
        <Style id="stylesel_839">
            <IconStyle id="substyle_839">
                <colorMode>normal</colorMode>
                <scale>1</scale>
                <heading>0</heading>
                <Icon id="link_839">
                    <href>http://www.freepngimg.com/download/wifi/4-2-wi-fi-png-images.png</href>
                </Icon>
            </IconStyle>
        </Style>
        <Style id="stylesel_840">
            <IconStyle id="substyle_840">
                <colorMode>normal</colorMode>
                <scale>1</scale>
                <heading>0</heading>
                <Icon id="link_840">
                    <href>http://www.freepngimg.com/download/wifi/4-2-wi-fi-png-images.png</href>
                </Icon>
            </IconStyle>
        </Style>
        <Style id="stylesel_841">
            <IconStyle id="substyle_841">
                <colorMode>normal</colorMode>
                <scale>1</scale>
                <heading>0</heading>
                <Icon id="link_841">
                    <href>http://www.freepngimg.com/download/wifi/4-2-wi-fi-png-images.png</href>
                </Icon>
            </IconStyle>
        </Style>
        <Style id="stylesel_842">
            <IconStyle id="substyle_842">
                <colorMode>normal</colorMode>
                <scale>1</scale>
                <heading>0</heading>
                <Icon id="link_842">
                    <href>http://www.freepngimg.com/download/wifi/4-2-wi-fi-png-images.png</href>
                </Icon>
            </IconStyle>
        </Style>
        <Style id="stylesel_843">
            <IconStyle id="substyle_843">
                <colorMode>normal</colorMode>
                <scale>1</scale>
                <heading>0</heading>
                <Icon id="link_843">
                    <href>http://www.freepngimg.com/download/wifi/4-2-wi-fi-png-images.png</href>
                </Icon>
            </IconStyle>
        </Style>
        <Style id="stylesel_844">
            <IconStyle id="substyle_844">
                <colorMode>normal</colorMode>
                <scale>1</scale>
                <heading>0</heading>
                <Icon id="link_844">
                    <href>http://www.freepngimg.com/download/wifi/4-2-wi-fi-png-images.png</href>
                </Icon>
            </IconStyle>
        </Style>
        <Style id="stylesel_845">
            <IconStyle id="substyle_845">
                <colorMode>normal</colorMode>
                <scale>1</scale>
                <heading>0</heading>
                <Icon id="link_845">
                    <href>http://www.freepngimg.com/download/wifi/4-2-wi-fi-png-images.png</href>
                </Icon>
            </IconStyle>
        </Style>
        <Style id="stylesel_846">
            <IconStyle id="substyle_846">
                <colorMode>normal</colorMode>
                <scale>1</scale>
                <heading>0</heading>
                <Icon id="link_846">
                    <href>http://www.freepngimg.com/download/wifi/4-2-wi-fi-png-images.png</href>
                </Icon>
            </IconStyle>
        </Style>
        <Style id="stylesel_847">
            <IconStyle id="substyle_847">
                <colorMode>normal</colorMode>
                <scale>1</scale>
                <heading>0</heading>
                <Icon id="link_847">
                    <href>http://www.freepngimg.com/download/wifi/4-2-wi-fi-png-images.png</href>
                </Icon>
            </IconStyle>
        </Style>
        <Style id="stylesel_848">
            <IconStyle id="substyle_848">
                <colorMode>normal</colorMode>
                <scale>1</scale>
                <heading>0</heading>
                <Icon id="link_848">
                    <href>http://www.freepngimg.com/download/wifi/4-2-wi-fi-png-images.png</href>
                </Icon>
            </IconStyle>
        </Style>
        <Style id="stylesel_849">
            <IconStyle id="substyle_849">
                <colorMode>normal</colorMode>
                <scale>1</scale>
                <heading>0</heading>
                <Icon id="link_849">
                    <href>http://www.freepngimg.com/download/wifi/4-2-wi-fi-png-images.png</href>
                </Icon>
            </IconStyle>
        </Style>
        <Style id="stylesel_850">
            <IconStyle id="substyle_850">
                <colorMode>normal</colorMode>
                <scale>1</scale>
                <heading>0</heading>
                <Icon id="link_850">
                    <href>http://www.freepngimg.com/download/wifi/4-2-wi-fi-png-images.png</href>
                </Icon>
            </IconStyle>
        </Style>
        <Style id="stylesel_851">
            <IconStyle id="substyle_851">
                <colorMode>normal</colorMode>
                <scale>1</scale>
                <heading>0</heading>
                <Icon id="link_851">
                    <href>http://www.freepngimg.com/download/wifi/4-2-wi-fi-png-images.png</href>
                </Icon>
            </IconStyle>
        </Style>
        <Style id="stylesel_852">
            <IconStyle id="substyle_852">
                <colorMode>normal</colorMode>
                <scale>1</scale>
                <heading>0</heading>
                <Icon id="link_852">
                    <href>http://www.freepngimg.com/download/wifi/4-2-wi-fi-png-images.png</href>
                </Icon>
            </IconStyle>
        </Style>
        <Style id="stylesel_853">
            <IconStyle id="substyle_853">
                <colorMode>normal</colorMode>
                <scale>1</scale>
                <heading>0</heading>
                <Icon id="link_853">
                    <href>http://www.freepngimg.com/download/wifi/4-2-wi-fi-png-images.png</href>
                </Icon>
            </IconStyle>
        </Style>
        <Style id="stylesel_854">
            <IconStyle id="substyle_854">
                <colorMode>normal</colorMode>
                <scale>1</scale>
                <heading>0</heading>
                <Icon id="link_854">
                    <href>http://www.freepngimg.com/download/wifi/4-2-wi-fi-png-images.png</href>
                </Icon>
            </IconStyle>
        </Style>
        <Style id="stylesel_855">
            <IconStyle id="substyle_855">
                <colorMode>normal</colorMode>
                <scale>1</scale>
                <heading>0</heading>
                <Icon id="link_855">
                    <href>http://www.freepngimg.com/download/wifi/4-2-wi-fi-png-images.png</href>
                </Icon>
            </IconStyle>
        </Style>
        <Style id="stylesel_856">
            <IconStyle id="substyle_856">
                <colorMode>normal</colorMode>
                <scale>1</scale>
                <heading>0</heading>
                <Icon id="link_856">
                    <href>http://www.freepngimg.com/download/wifi/4-2-wi-fi-png-images.png</href>
                </Icon>
            </IconStyle>
        </Style>
        <Style id="stylesel_857">
            <IconStyle id="substyle_857">
                <colorMode>normal</colorMode>
                <scale>1</scale>
                <heading>0</heading>
                <Icon id="link_857">
                    <href>http://www.freepngimg.com/download/wifi/4-2-wi-fi-png-images.png</href>
                </Icon>
            </IconStyle>
        </Style>
        <Style id="stylesel_858">
            <IconStyle id="substyle_858">
                <colorMode>normal</colorMode>
                <scale>1</scale>
                <heading>0</heading>
                <Icon id="link_858">
                    <href>http://www.freepngimg.com/download/wifi/4-2-wi-fi-png-images.png</href>
                </Icon>
            </IconStyle>
        </Style>
        <Style id="stylesel_859">
            <IconStyle id="substyle_859">
                <colorMode>normal</colorMode>
                <scale>1</scale>
                <heading>0</heading>
                <Icon id="link_859">
                    <href>http://www.freepngimg.com/download/wifi/4-2-wi-fi-png-images.png</href>
                </Icon>
            </IconStyle>
        </Style>
        <Style id="stylesel_860">
            <IconStyle id="substyle_860">
                <colorMode>normal</colorMode>
                <scale>1</scale>
                <heading>0</heading>
                <Icon id="link_860">
                    <href>http://www.freepngimg.com/download/wifi/4-2-wi-fi-png-images.png</href>
                </Icon>
            </IconStyle>
        </Style>
        <Style id="stylesel_861">
            <IconStyle id="substyle_861">
                <colorMode>normal</colorMode>
                <scale>1</scale>
                <heading>0</heading>
                <Icon id="link_861">
                    <href>http://www.freepngimg.com/download/wifi/4-2-wi-fi-png-images.png</href>
                </Icon>
            </IconStyle>
        </Style>
        <Style id="stylesel_862">
            <IconStyle id="substyle_862">
                <colorMode>normal</colorMode>
                <scale>1</scale>
                <heading>0</heading>
                <Icon id="link_862">
                    <href>http://www.freepngimg.com/download/wifi/4-2-wi-fi-png-images.png</href>
                </Icon>
            </IconStyle>
        </Style>
        <Style id="stylesel_863">
            <IconStyle id="substyle_863">
                <colorMode>normal</colorMode>
                <scale>1</scale>
                <heading>0</heading>
                <Icon id="link_863">
                    <href>http://www.freepngimg.com/download/wifi/4-2-wi-fi-png-images.png</href>
                </Icon>
            </IconStyle>
        </Style>
        <Style id="stylesel_864">
            <IconStyle id="substyle_864">
                <colorMode>normal</colorMode>
                <scale>1</scale>
                <heading>0</heading>
                <Icon id="link_864">
                    <href>http://www.freepngimg.com/download/wifi/4-2-wi-fi-png-images.png</href>
                </Icon>
            </IconStyle>
        </Style>
        <Style id="stylesel_865">
            <IconStyle id="substyle_865">
                <colorMode>normal</colorMode>
                <scale>1</scale>
                <heading>0</heading>
                <Icon id="link_865">
                    <href>http://www.freepngimg.com/download/wifi/4-2-wi-fi-png-images.png</href>
                </Icon>
            </IconStyle>
        </Style>
        <Style id="stylesel_866">
            <IconStyle id="substyle_866">
                <colorMode>normal</colorMode>
                <scale>1</scale>
                <heading>0</heading>
                <Icon id="link_866">
                    <href>http://www.freepngimg.com/download/wifi/4-2-wi-fi-png-images.png</href>
                </Icon>
            </IconStyle>
        </Style>
        <Style id="stylesel_867">
            <IconStyle id="substyle_867">
                <colorMode>normal</colorMode>
                <scale>1</scale>
                <heading>0</heading>
                <Icon id="link_867">
                    <href>http://www.freepngimg.com/download/wifi/4-2-wi-fi-png-images.png</href>
                </Icon>
            </IconStyle>
        </Style>
        <Style id="stylesel_868">
            <IconStyle id="substyle_868">
                <colorMode>normal</colorMode>
                <scale>1</scale>
                <heading>0</heading>
                <Icon id="link_868">
                    <href>http://www.freepngimg.com/download/wifi/4-2-wi-fi-png-images.png</href>
                </Icon>
            </IconStyle>
        </Style>
        <Placemark id="feat_809">
            <name>2012-07-31T16:29:37.000Z</name>
            <TimeStamp id="time_500">
                <when>2017-06-22T00:35:08.000Z</when>
            </TimeStamp>
            <styleUrl>#stylesel_750</styleUrl>
            <Point id="geom_801">
                <coordinates>-111.85181427,40.40245438,0.0</coordinates>
            </Point>
        </Placemark>
        <Placemark id="feat_810">
            <name>2012-07-31T16:29:53.000Z</name>
            <TimeStamp id="time_501">
                <when>2017-06-22T00:35:08.000Z</when>
            </TimeStamp>
            <styleUrl>#stylesel_751</styleUrl>
            <Point id="geom_802">
                <coordinates>-111.84751892,40.39954758,0.0</coordinates>
            </Point>
        </Placemark>
        <Placemark id="feat_811">
            <name>2012-07-31T16:30:13.000Z</name>
            <TimeStamp id="time_502">
                <when>2017-06-22T00:35:08.000Z</when>
            </TimeStamp>
            <styleUrl>#stylesel_752</styleUrl>
            <Point id="geom_803">
                <coordinates>-111.84170532,40.39635086,0.0</coordinates>
            </Point>
        </Placemark>
        <Placemark id="feat_812">
            <name>2012-07-31T16:33:23.000Z</name>
            <TimeStamp id="time_503">
                <when>2017-06-22T00:35:08.000Z</when>
            </TimeStamp>
            <styleUrl>#stylesel_753</styleUrl>
            <Point id="geom_804">
                <coordinates>-111.78730774,40.36163712,0.0</coordinates>
            </Point>
        </Placemark>
        <Placemark id="feat_813">
            <name>2012-07-31T16:29:33.000Z</name>
            <TimeStamp id="time_504">
                <when>2017-06-22T00:35:08.000Z</when>
            </TimeStamp>
            <styleUrl>#stylesel_754</styleUrl>
            <Point id="geom_805">
                <coordinates>-111.8529892,40.40323639,0.0</coordinates>
            </Point>
        </Placemark>
        <Placemark id="feat_814">
            <name>2012-07-31T16:29:21.000Z</name>
            <TimeStamp id="time_505">
                <when>2017-06-22T00:35:08.000Z</when>
            </TimeStamp>
            <styleUrl>#stylesel_755</styleUrl>
            <Point id="geom_806">
                <coordinates>-111.8564682,40.40555191,0.0</coordinates>
            </Point>
        </Placemark>
        <Placemark id="feat_815">
            <name>2012-07-31T16:30:17.000Z</name>
            <TimeStamp id="time_506">
                <when>2017-06-22T00:35:08.000Z</when>
            </TimeStamp>
            <styleUrl>#stylesel_756</styleUrl>
            <Point id="geom_807">
                <coordinates>-111.8405304,40.39573669,0.0</coordinates>
            </Point>
        </Placemark>
        <Placemark id="feat_816">
            <name>2012-07-31T16:32:59.000Z</name>
            <TimeStamp id="time_507">
                <when>2017-06-22T00:35:08.000Z</when>
            </TimeStamp>
            <styleUrl>#stylesel_757</styleUrl>
            <Point id="geom_808">
                <coordinates>-111.79472351,40.36635208,0.0</coordinates>
            </Point>
        </Placemark>
        <Placemark id="feat_817">
            <name>2012-07-31T16:28:33.000Z</name>
            <TimeStamp id="time_508">
                <when>2017-06-22T00:35:08.000Z</when>
            </TimeStamp>
            <styleUrl>#stylesel_758</styleUrl>
            <Point id="geom_809">
                <coordinates>-111.8711319,40.41493225,0.0</coordinates>
            </Point>
        </Placemark>
        <Placemark id="feat_818">
            <name>2012-07-31T16:33:31.000Z</name>
            <TimeStamp id="time_509">
                <when>2017-06-22T00:35:08.000Z</when>
            </TimeStamp>
            <styleUrl>#stylesel_759</styleUrl>
            <Point id="geom_810">
                <coordinates>-111.78490448,40.36005783,0.0</coordinates>
            </Point>
        </Placemark>
        <Placemark id="feat_819">
            <name>2012-07-31T16:32:51.000Z</name>
            <TimeStamp id="time_510">
                <when>2017-06-22T00:35:08.000Z</when>
            </TimeStamp>
            <styleUrl>#stylesel_760</styleUrl>
            <Point id="geom_811">
                <coordinates>-111.79714203,40.36795425,0.0</coordinates>
            </Point>
        </Placemark>
        <Placemark id="feat_820">
            <name>2012-07-31T16:33:03.000Z</name>
            <TimeStamp id="time_511">
                <when>2017-06-22T00:35:08.000Z</when>
            </TimeStamp>
            <styleUrl>#stylesel_761</styleUrl>
            <Point id="geom_812">
                <coordinates>-111.79349518,40.36555099,0.0</coordinates>
            </Point>
        </Placemark>
        <Placemark id="feat_821">
            <name>2012-07-31T16:30:47.000Z</name>
            <TimeStamp id="time_512">
                <when>2017-06-22T00:35:08.000Z</when>
            </TimeStamp>
            <styleUrl>#stylesel_762</styleUrl>
            <Point id="geom_813">
                <coordinates>-111.83436584,40.38959503,0.0</coordinates>
            </Point>
        </Placemark>
        <Placemark id="feat_822">
            <name>2012-07-31T16:31:56.000Z</name>
            <TimeStamp id="time_513">
                <when>2017-06-22T00:35:08.000Z</when>
            </TimeStamp>
            <styleUrl>#stylesel_763</styleUrl>
            <Point id="geom_814">
                <coordinates>-111.81608582,40.37538147,0.0</coordinates>
            </Point>
        </Placemark>
        <Placemark id="feat_823">
            <name>2012-07-31T16:30:51.000Z</name>
            <TimeStamp id="time_514">
                <when>2017-06-22T00:35:08.000Z</when>
            </TimeStamp>
            <styleUrl>#stylesel_764</styleUrl>
            <Point id="geom_815">
                <coordinates>-111.83389282,40.38844681,0.0</coordinates>
            </Point>
        </Placemark>
        <Placemark id="feat_824">
            <name>2012-07-31T16:30:55.000Z</name>
            <TimeStamp id="time_515">
                <when>2017-06-22T00:35:08.000Z</when>
            </TimeStamp>
            <styleUrl>#stylesel_765</styleUrl>
            <Point id="geom_816">
                <coordinates>-111.83340454,40.38729095,0.0</coordinates>
            </Point>
        </Placemark>
        <Placemark id="feat_825">
            <name>2012-07-31T16:31:59.000Z</name>
            <TimeStamp id="time_516">
                <when>2017-06-22T00:35:08.000Z</when>
            </TimeStamp>
            <styleUrl>#stylesel_766</styleUrl>
            <Point id="geom_817">
                <coordinates>-111.81503296,40.37500381,0.0</coordinates>
            </Point>
        </Placemark>
        <Placemark id="feat_826">
            <name>2012-07-31T16:30:59.000Z</name>
            <TimeStamp id="time_517">
                <when>2017-06-22T00:35:08.000Z</when>
            </TimeStamp>
            <styleUrl>#stylesel_767</styleUrl>
            <Point id="geom_818">
                <coordinates>-111.83282471,40.38617325,0.0</coordinates>
            </Point>
        </Placemark>
        <Placemark id="feat_827">
            <name>2012-07-31T16:31:12.000Z</name>
            <TimeStamp id="time_518">
                <when>2017-06-22T00:35:08.000Z</when>
            </TimeStamp>
            <styleUrl>#stylesel_768</styleUrl>
            <Point id="geom_819">
                <coordinates>-111.82957458,40.38303375,0.0</coordinates>
            </Point>
        </Placemark>
        <Placemark id="feat_828">
            <name>2012-07-31T16:33:19.000Z</name>
            <TimeStamp id="time_519">
                <when>2017-06-22T00:35:08.000Z</when>
            </TimeStamp>
            <styleUrl>#stylesel_769</styleUrl>
            <Point id="geom_820">
                <coordinates>-111.78852081,40.3624382,0.0</coordinates>
            </Point>
        </Placemark>
        <Placemark id="feat_829">
            <name>2012-07-31T16:33:15.000Z</name>
            <TimeStamp id="time_520">
                <when>2017-06-22T00:35:08.000Z</when>
            </TimeStamp>
            <styleUrl>#stylesel_770</styleUrl>
            <Point id="geom_821">
                <coordinates>-111.78974152,40.36320877,0.0</coordinates>
            </Point>
        </Placemark>
        <Placemark id="feat_830">
            <name>2012-07-31T16:31:08.000Z</name>
            <TimeStamp id="time_521">
                <when>2017-06-22T00:35:08.000Z</when>
            </TimeStamp>
            <styleUrl>#stylesel_771</styleUrl>
            <Point id="geom_822">
                <coordinates>-111.83073425,40.38386917,0.0</coordinates>
            </Point>
        </Placemark>
        <Placemark id="feat_831">
            <name>2012-07-31T16:30:21.000Z</name>
            <TimeStamp id="time_522">
                <when>2017-06-22T00:35:08.000Z</when>
            </TimeStamp>
            <styleUrl>#stylesel_772</styleUrl>
            <Point id="geom_823">
                <coordinates>-111.83938599,40.39512634,0.0</coordinates>
            </Point>
        </Placemark>
        <Placemark id="feat_832">
            <name>2012-07-31T16:29:45.000Z</name>
            <TimeStamp id="time_523">
                <when>2017-06-22T00:35:08.000Z</when>
            </TimeStamp>
            <styleUrl>#stylesel_773</styleUrl>
            <Point id="geom_824">
                <coordinates>-111.84960175,40.40097046,0.0</coordinates>
            </Point>
        </Placemark>
        <Placemark id="feat_833">
            <name>2012-07-31T16:29:00.000Z</name>
            <TimeStamp id="time_524">
                <when>2017-06-22T00:35:08.000Z</when>
            </TimeStamp>
            <styleUrl>#stylesel_774</styleUrl>
            <Point id="geom_825">
                <coordinates>-111.86241913,40.40959549,0.0</coordinates>
            </Point>
        </Placemark>
        <Placemark id="feat_834">
            <name>2012-07-31T16:29:17.000Z</name>
            <TimeStamp id="time_525">
                <when>2017-06-22T00:35:08.000Z</when>
            </TimeStamp>
            <styleUrl>#stylesel_775</styleUrl>
            <Point id="geom_826">
                <coordinates>-111.85758209,40.40630722,0.0</coordinates>
            </Point>
        </Placemark>
        <Placemark id="feat_835">
            <name>2012-07-31T16:29:25.000Z</name>
            <TimeStamp id="time_526">
                <when>2017-06-22T00:35:08.000Z</when>
            </TimeStamp>
            <styleUrl>#stylesel_776</styleUrl>
            <Point id="geom_827">
                <coordinates>-111.85533905,40.40479279,0.0</coordinates>
            </Point>
        </Placemark>
        <Placemark id="feat_836">
            <name>2012-07-31T16:32:47.000Z</name>
            <TimeStamp id="time_527">
                <when>2017-06-22T00:35:08.000Z</when>
            </TimeStamp>
            <styleUrl>#stylesel_777</styleUrl>
            <Point id="geom_828">
                <coordinates>-111.79834747,40.36874771,0.0</coordinates>
            </Point>
        </Placemark>
        <Placemark id="feat_837">
            <name>2012-07-31T16:29:41.000Z</name>
            <TimeStamp id="time_528">
                <when>2017-06-22T00:35:08.000Z</when>
            </TimeStamp>
            <styleUrl>#stylesel_778</styleUrl>
            <Point id="geom_829">
                <coordinates>-111.85068512,40.40169144,0.0</coordinates>
            </Point>
        </Placemark>
        <Placemark id="feat_838">
            <name>2012-07-31T16:29:29.000Z</name>
            <TimeStamp id="time_529">
                <when>2017-06-22T00:35:08.000Z</when>
            </TimeStamp>
            <styleUrl>#stylesel_779</styleUrl>
            <Point id="geom_830">
                <coordinates>-111.85417938,40.40401077,0.0</coordinates>
            </Point>
        </Placemark>
        <Placemark id="feat_839">
            <name>2012-07-31T16:29:49.000Z</name>
            <TimeStamp id="time_530">
                <when>2017-06-22T00:35:08.000Z</when>
            </TimeStamp>
            <styleUrl>#stylesel_780</styleUrl>
            <Point id="geom_831">
                <coordinates>-111.84855652,40.40024948,0.0</coordinates>
            </Point>
        </Placemark>
        <Placemark id="feat_840">
            <name>2012-07-31T16:28:42.000Z</name>
            <TimeStamp id="time_531">
                <when>2017-06-22T00:35:08.000Z</when>
            </TimeStamp>
            <styleUrl>#stylesel_781</styleUrl>
            <Point id="geom_832">
                <coordinates>-111.86856842,40.41359711,0.0</coordinates>
            </Point>
        </Placemark>
        <Placemark id="feat_841">
            <name>2012-07-31T16:29:57.000Z</name>
            <TimeStamp id="time_532">
                <when>2017-06-22T00:35:08.000Z</when>
            </TimeStamp>
            <styleUrl>#stylesel_782</styleUrl>
            <Point id="geom_833">
                <coordinates>-111.84640503,40.39886475,0.0</coordinates>
            </Point>
        </Placemark>
        <Placemark id="feat_842">
            <name>2012-07-31T16:28:40.000Z</name>
            <TimeStamp id="time_533">
                <when>2017-06-22T00:35:08.000Z</when>
            </TimeStamp>
            <styleUrl>#stylesel_783</styleUrl>
            <Point id="geom_834">
                <coordinates>-111.86966705,40.41421127,0.0</coordinates>
            </Point>
        </Placemark>
        <Placemark id="feat_843">
            <name>2012-07-31T16:33:27.000Z</name>
            <TimeStamp id="time_534">
                <when>2017-06-22T00:35:08.000Z</when>
            </TimeStamp>
            <styleUrl>#stylesel_784</styleUrl>
            <Point id="geom_835">
                <coordinates>-111.78611755,40.36083603,0.0</coordinates>
            </Point>
        </Placemark>
        <Placemark id="feat_844">
            <name>2012-07-31T16:32:14.000Z</name>
            <TimeStamp id="time_535">
                <when>2017-06-22T00:35:08.000Z</when>
            </TimeStamp>
            <styleUrl>#stylesel_785</styleUrl>
            <Point id="geom_836">
                <coordinates>-111.80968475,40.37350464,0.0</coordinates>
            </Point>
        </Placemark>
        <Placemark id="feat_845">
            <name>2012-07-31T16:32:11.000Z</name>
            <TimeStamp id="time_536">
                <when>2017-06-22T00:35:08.000Z</when>
            </TimeStamp>
            <styleUrl>#stylesel_786</styleUrl>
            <Point id="geom_837">
                <coordinates>-111.81075287,40.37379837,0.0</coordinates>
            </Point>
        </Placemark>
        <Placemark id="feat_846">
            <name>2012-07-31T16:32:02.000Z</name>
            <TimeStamp id="time_537">
                <when>2017-06-22T00:35:08.000Z</when>
            </TimeStamp>
            <styleUrl>#stylesel_787</styleUrl>
            <Point id="geom_838">
                <coordinates>-111.81395721,40.37467957,0.0</coordinates>
            </Point>
        </Placemark>
        <Placemark id="feat_847">
            <name>2012-07-31T16:32:05.000Z</name>
            <TimeStamp id="time_538">
                <when>2017-06-22T00:35:08.000Z</when>
            </TimeStamp>
            <styleUrl>#stylesel_788</styleUrl>
            <Point id="geom_839">
                <coordinates>-111.81287384,40.37438202,0.0</coordinates>
            </Point>
        </Placemark>
        <Placemark id="feat_848">
            <name>2012-07-31T16:32:08.000Z</name>
            <TimeStamp id="time_539">
                <when>2017-06-22T00:35:08.000Z</when>
            </TimeStamp>
            <styleUrl>#stylesel_789</styleUrl>
            <Point id="geom_840">
                <coordinates>-111.81181335,40.37408829,0.0</coordinates>
            </Point>
        </Placemark>
        <Placemark id="feat_849">
            <name>2012-07-31T16:33:51.000Z</name>
            <TimeStamp id="time_540">
                <when>2017-06-22T00:35:08.000Z</when>
            </TimeStamp>
            <styleUrl>#stylesel_790</styleUrl>
            <Point id="geom_841">
                <coordinates>-111.77877808,40.35608673,0.0</coordinates>
            </Point>
        </Placemark>
        <Placemark id="feat_850">
            <name>2012-07-31T16:31:52.000Z</name>
            <TimeStamp id="time_541">
                <when>2017-06-22T00:35:08.000Z</when>
            </TimeStamp>
            <styleUrl>#stylesel_791</styleUrl>
            <Point id="geom_842">
                <coordinates>-111.81736755,40.37592697,0.0</coordinates>
            </Point>
        </Placemark>
        <Placemark id="feat_851">
            <name>2012-07-31T16:28:56.000Z</name>
            <TimeStamp id="time_542">
                <when>2017-06-22T00:35:08.000Z</when>
            </TimeStamp>
            <styleUrl>#stylesel_792</styleUrl>
            <Point id="geom_843">
                <coordinates>-111.86356354,40.41036606,0.0</coordinates>
            </Point>
        </Placemark>
        <Placemark id="feat_852">
            <name>2012-07-31T16:29:09.000Z</name>
            <TimeStamp id="time_543">
                <when>2017-06-22T00:35:08.000Z</when>
            </TimeStamp>
            <styleUrl>#stylesel_793</styleUrl>
            <Point id="geom_844">
                <coordinates>-111.85984039,40.40785217,0.0</coordinates>
            </Point>
        </Placemark>
        <Placemark id="feat_853">
            <name>2012-07-31T16:29:04.000Z</name>
            <TimeStamp id="time_544">
                <when>2017-06-22T00:35:08.000Z</when>
            </TimeStamp>
            <styleUrl>#stylesel_794</styleUrl>
            <Point id="geom_845">
                <coordinates>-111.86125946,40.40882111,0.0</coordinates>
            </Point>
        </Placemark>
        <Placemark id="feat_854">
            <name>2012-07-31T16:30:01.000Z</name>
            <TimeStamp id="time_545">
                <when>2017-06-22T00:35:08.000Z</when>
            </TimeStamp>
            <styleUrl>#stylesel_795</styleUrl>
            <Point id="geom_846">
                <coordinates>-111.84527588,40.39820099,0.0</coordinates>
            </Point>
        </Placemark>
        <Placemark id="feat_855">
            <name>2012-07-31T16:30:29.000Z</name>
            <TimeStamp id="time_546">
                <when>2017-06-22T00:35:08.000Z</when>
            </TimeStamp>
            <styleUrl>#stylesel_796</styleUrl>
            <Point id="geom_847">
                <coordinates>-111.83729553,40.39377594,0.0</coordinates>
            </Point>
        </Placemark>
        <Placemark id="feat_856">
            <name>2012-07-31T16:30:39.000Z</name>
            <TimeStamp id="time_547">
                <when>2017-06-22T00:35:08.000Z</when>
            </TimeStamp>
            <styleUrl>#stylesel_797</styleUrl>
            <Point id="geom_848">
                <coordinates>-111.83530426,40.3916626,0.0</coordinates>
            </Point>
        </Placemark>
        <Placemark id="feat_857">
            <name>2012-07-31T16:31:03.000Z</name>
            <TimeStamp id="time_548">
                <when>2017-06-22T00:35:08.000Z</when>
            </TimeStamp>
            <styleUrl>#stylesel_798</styleUrl>
            <Point id="geom_849">
                <coordinates>-111.83197021,40.38507843,0.0</coordinates>
            </Point>
        </Placemark>
        <Placemark id="feat_858">
            <name>2012-07-31T16:31:28.000Z</name>
            <TimeStamp id="time_549">
                <when>2017-06-22T00:35:08.000Z</when>
            </TimeStamp>
            <styleUrl>#stylesel_799</styleUrl>
            <Point id="geom_850">
                <coordinates>-111.82462311,40.38016891,0.0</coordinates>
            </Point>
        </Placemark>
        <Placemark id="feat_859">
            <name>2012-07-31T16:31:48.000Z</name>
            <TimeStamp id="time_550">
                <when>2017-06-22T00:35:08.000Z</when>
            </TimeStamp>
            <styleUrl>#stylesel_800</styleUrl>
            <Point id="geom_851">
                <coordinates>-111.81856537,40.3765831,0.0</coordinates>
            </Point>
        </Placemark>
        <Placemark id="feat_860">
            <name>2012-07-31T16:30:25.000Z</name>
            <TimeStamp id="time_551">
                <when>2017-06-22T00:35:08.000Z</when>
            </TimeStamp>
            <styleUrl>#stylesel_801</styleUrl>
            <Point id="geom_852">
                <coordinates>-111.83831787,40.39447784,0.0</coordinates>
            </Point>
        </Placemark>
        <Placemark id="feat_861">
            <name>2012-07-31T16:37:42.000Z</name>
            <TimeStamp id="time_552">
                <when>2017-06-22T00:35:08.000Z</when>
            </TimeStamp>
            <styleUrl>#stylesel_802</styleUrl>
            <Point id="geom_853">
                <coordinates>-111.7520752,40.36529922,0.0</coordinates>
            </Point>
        </Placemark>
        <Placemark id="feat_862">
            <name>2012-07-31T16:33:07.000Z</name>
            <TimeStamp id="time_553">
                <when>2017-06-22T00:35:08.000Z</when>
            </TimeStamp>
            <styleUrl>#stylesel_803</styleUrl>
            <Point id="geom_854">
                <coordinates>-111.7922287,40.36476135,0.0</coordinates>
            </Point>
        </Placemark>
        <Placemark id="feat_863">
            <name>2012-07-31T16:36:02.000Z</name>
            <TimeStamp id="time_554">
                <when>2017-06-22T00:35:08.000Z</when>
            </TimeStamp>
            <styleUrl>#stylesel_804</styleUrl>
            <Point id="geom_855">
                <coordinates>-111.7642746,40.3539505,0.0</coordinates>
            </Point>
        </Placemark>
        <Placemark id="feat_864">
            <name>2012-07-31T16:32:43.000Z</name>
            <TimeStamp id="time_555">
                <when>2017-06-22T00:35:08.000Z</when>
            </TimeStamp>
            <styleUrl>#stylesel_805</styleUrl>
            <Point id="geom_856">
                <coordinates>-111.79956055,40.36952591,0.0</coordinates>
            </Point>
        </Placemark>
        <Placemark id="feat_865">
            <name>2012-07-31T16:33:55.000Z</name>
            <TimeStamp id="time_556">
                <when>2017-06-22T00:35:08.000Z</when>
            </TimeStamp>
            <styleUrl>#stylesel_806</styleUrl>
            <Point id="geom_857">
                <coordinates>-111.7775116,40.3552475,0.0</coordinates>
            </Point>
        </Placemark>
        <Placemark id="feat_866">
            <name>2012-07-31T16:33:11.000Z</name>
            <TimeStamp id="time_557">
                <when>2017-06-22T00:35:08.000Z</when>
            </TimeStamp>
            <styleUrl>#stylesel_807</styleUrl>
            <Point id="geom_858">
                <coordinates>-111.79098511,40.3639679,0.0</coordinates>
            </Point>
        </Placemark>
        <Placemark id="feat_867">
            <name>2012-07-31T16:33:47.000Z</name>
            <TimeStamp id="time_558">
                <when>2017-06-22T00:35:08.000Z</when>
            </TimeStamp>
            <styleUrl>#stylesel_808</styleUrl>
            <Point id="geom_859">
                <coordinates>-111.78005219,40.35692596,0.0</coordinates>
            </Point>
        </Placemark>
        <Placemark id="feat_868">
            <name>2012-07-31T16:37:13.000Z</name>
            <TimeStamp id="time_559">
                <when>2017-06-22T00:35:08.000Z</when>
            </TimeStamp>
            <styleUrl>#stylesel_809</styleUrl>
            <Point id="geom_860">
                <coordinates>-111.75579071,40.36185074,0.0</coordinates>
            </Point>
        </Placemark>
        <Placemark id="feat_869">
            <name>2012-07-31T16:37:07.000Z</name>
            <TimeStamp id="time_560">
                <when>2017-06-22T00:35:08.000Z</when>
            </TimeStamp>
            <styleUrl>#stylesel_810</styleUrl>
            <Point id="geom_861">
                <coordinates>-111.75695038,40.36124039,0.0</coordinates>
            </Point>
        </Placemark>
        <Placemark id="feat_870">
            <name>2012-07-31T16:30:34.000Z</name>
            <TimeStamp id="time_561">
                <when>2017-06-22T00:35:08.000Z</when>
            </TimeStamp>
            <styleUrl>#stylesel_811</styleUrl>
            <Point id="geom_862">
                <coordinates>-111.83616638,40.39278412,0.0</coordinates>
            </Point>
        </Placemark>
        <Placemark id="feat_871">
            <name>2012-07-31T16:34:03.000Z</name>
            <TimeStamp id="time_562">
                <when>2017-06-22T00:35:08.000Z</when>
            </TimeStamp>
            <styleUrl>#stylesel_812</styleUrl>
            <Point id="geom_863">
                <coordinates>-111.7751236,40.35361862,0.0</coordinates>
            </Point>
        </Placemark>
        <Placemark id="feat_872">
            <name>2012-07-31T16:30:09.000Z</name>
            <TimeStamp id="time_563">
                <when>2017-06-22T00:35:08.000Z</when>
            </TimeStamp>
            <styleUrl>#stylesel_813</styleUrl>
            <Point id="geom_864">
                <coordinates>-111.84290314,40.39694977,0.0</coordinates>
            </Point>
        </Placemark>
        <Placemark id="feat_873">
            <name>2012-07-31T16:32:23.000Z</name>
            <TimeStamp id="time_564">
                <when>2017-06-22T00:35:08.000Z</when>
            </TimeStamp>
            <styleUrl>#stylesel_814</styleUrl>
            <Point id="geom_865">
                <coordinates>-111.80643463,40.37261581,0.0</coordinates>
            </Point>
        </Placemark>
        <Placemark id="feat_874">
            <name>2012-07-31T16:31:32.000Z</name>
            <TimeStamp id="time_565">
                <when>2017-06-22T00:35:08.000Z</when>
            </TimeStamp>
            <styleUrl>#stylesel_815</styleUrl>
            <Point id="geom_866">
                <coordinates>-111.82338715,40.37944794,0.0</coordinates>
            </Point>
        </Placemark>
        <Placemark id="feat_875">
            <name>2012-07-31T16:31:24.000Z</name>
            <TimeStamp id="time_566">
                <when>2017-06-22T00:35:08.000Z</when>
            </TimeStamp>
            <styleUrl>#stylesel_816</styleUrl>
            <Point id="geom_867">
                <coordinates>-111.82587433,40.38088226,0.0</coordinates>
            </Point>
        </Placemark>
        <Placemark id="feat_876">
            <name>2012-07-31T16:30:43.000Z</name>
            <TimeStamp id="time_567">
                <when>2017-06-22T00:35:08.000Z</when>
            </TimeStamp>
            <styleUrl>#stylesel_817</styleUrl>
            <Point id="geom_868">
                <coordinates>-111.83477783,40.39064789,0.0</coordinates>
            </Point>
        </Placemark>
        <Placemark id="feat_877">
            <name>2012-07-31T16:30:05.000Z</name>
            <TimeStamp id="time_568">
                <when>2017-06-22T00:35:08.000Z</when>
            </TimeStamp>
            <styleUrl>#stylesel_818</styleUrl>
            <Point id="geom_869">
                <coordinates>-111.84410095,40.39756012,0.0</coordinates>
            </Point>
        </Placemark>
        <Placemark id="feat_878">
            <name>2012-07-31T16:38:58.000Z</name>
            <TimeStamp id="time_569">
                <when>2017-06-22T00:35:08.000Z</when>
            </TimeStamp>
            <styleUrl>#stylesel_819</styleUrl>
            <Point id="geom_870">
                <coordinates>-111.75106049,40.36579514,0.0</coordinates>
            </Point>
        </Placemark>
        <Placemark id="feat_879">
            <name>2012-07-31T16:34:07.000Z</name>
            <TimeStamp id="time_570">
                <when>2017-06-22T00:35:08.000Z</when>
            </TimeStamp>
            <styleUrl>#stylesel_820</styleUrl>
            <Point id="geom_871">
                <coordinates>-111.77397156,40.35288239,0.0</coordinates>
            </Point>
        </Placemark>
        <Placemark id="feat_880">
            <name>2012-07-31T16:35:27.000Z</name>
            <TimeStamp id="time_571">
                <when>2017-06-22T00:35:08.000Z</when>
            </TimeStamp>
            <styleUrl>#stylesel_821</styleUrl>
            <Point id="geom_872">
                <coordinates>-111.76741791,40.35083389,0.0</coordinates>
            </Point>
        </Placemark>
        <Placemark id="feat_881">
            <name>2012-07-31T16:32:39.000Z</name>
            <TimeStamp id="time_572">
                <when>2017-06-22T00:35:08.000Z</when>
            </TimeStamp>
            <styleUrl>#stylesel_822</styleUrl>
            <Point id="geom_873">
                <coordinates>-111.80083466,40.37034225,0.0</coordinates>
            </Point>
        </Placemark>
        <Placemark id="feat_882">
            <name>2012-07-31T16:32:35.000Z</name>
            <TimeStamp id="time_573">
                <when>2017-06-22T00:35:08.000Z</when>
            </TimeStamp>
            <styleUrl>#stylesel_823</styleUrl>
            <Point id="geom_874">
                <coordinates>-111.80213165,40.37109756,0.0</coordinates>
            </Point>
        </Placemark>
        <Placemark id="feat_883">
            <name>2012-07-31T16:32:32.000Z</name>
            <TimeStamp id="time_574">
                <when>2017-06-22T00:35:08.000Z</when>
            </TimeStamp>
            <styleUrl>#stylesel_824</styleUrl>
            <Point id="geom_875">
                <coordinates>-111.80316162,40.37156296,0.0</coordinates>
            </Point>
        </Placemark>
        <Placemark id="feat_884">
            <name>2012-07-31T16:28:52.000Z</name>
            <TimeStamp id="time_575">
                <when>2017-06-22T00:35:08.000Z</when>
            </TimeStamp>
            <styleUrl>#stylesel_825</styleUrl>
            <Point id="geom_876">
                <coordinates>-111.86480713,40.41119385,0.0</coordinates>
            </Point>
        </Placemark>
        <Placemark id="feat_885">
            <name>2012-07-31T16:32:20.000Z</name>
            <TimeStamp id="time_576">
                <when>2017-06-22T00:35:08.000Z</when>
            </TimeStamp>
            <styleUrl>#stylesel_826</styleUrl>
            <Point id="geom_877">
                <coordinates>-111.80753326,40.37291336,0.0</coordinates>
            </Point>
        </Placemark>
        <Placemark id="feat_886">
            <name>2012-07-31T16:32:17.000Z</name>
            <TimeStamp id="time_577">
                <when>2017-06-22T00:35:08.000Z</when>
            </TimeStamp>
            <styleUrl>#stylesel_827</styleUrl>
            <Point id="geom_878">
                <coordinates>-111.80862427,40.37320328,0.0</coordinates>
            </Point>
        </Placemark>
        <Placemark id="feat_887">
            <name>2012-07-31T16:33:35.000Z</name>
            <TimeStamp id="time_578">
                <when>2017-06-22T00:35:08.000Z</when>
            </TimeStamp>
            <styleUrl>#stylesel_828</styleUrl>
            <Point id="geom_879">
                <coordinates>-111.78372955,40.35929871,0.0</coordinates>
            </Point>
        </Placemark>
        <Placemark id="feat_888">
            <name>2012-07-31T16:29:13.000Z</name>
            <TimeStamp id="time_579">
                <when>2017-06-22T00:35:08.000Z</when>
            </TimeStamp>
            <styleUrl>#stylesel_829</styleUrl>
            <Point id="geom_880">
                <coordinates>-111.85870361,40.4070816,0.0</coordinates>
            </Point>
        </Placemark>
        <Placemark id="feat_889">
            <name>2012-07-31T16:32:55.000Z</name>
            <TimeStamp id="time_580">
                <when>2017-06-22T00:35:08.000Z</when>
            </TimeStamp>
            <styleUrl>#stylesel_830</styleUrl>
            <Point id="geom_881">
                <coordinates>-111.79592896,40.36714935,0.0</coordinates>
            </Point>
        </Placemark>
        <Placemark id="feat_890">
            <name>2012-07-31T16:35:34.000Z</name>
            <TimeStamp id="time_581">
                <when>2017-06-22T00:35:08.000Z</when>
            </TimeStamp>
            <styleUrl>#stylesel_831</styleUrl>
            <Point id="geom_882">
                <coordinates>-111.76633453,40.35187531,0.0</coordinates>
            </Point>
        </Placemark>
        <Placemark id="feat_891">
            <name>2012-07-31T16:35:41.000Z</name>
            <TimeStamp id="time_582">
                <when>2017-06-22T00:35:08.000Z</when>
            </TimeStamp>
            <styleUrl>#stylesel_832</styleUrl>
            <Point id="geom_883">
                <coordinates>-111.76531982,40.35287857,0.0</coordinates>
            </Point>
        </Placemark>
        <Placemark id="feat_892">
            <name>2012-07-31T16:36:33.000Z</name>
            <TimeStamp id="time_583">
                <when>2017-06-22T00:35:08.000Z</when>
            </TimeStamp>
            <styleUrl>#stylesel_833</styleUrl>
            <Point id="geom_884">
                <coordinates>-111.76332092,40.358284,0.0</coordinates>
            </Point>
        </Placemark>
        <Placemark id="feat_893">
            <name>2012-07-31T16:28:45.000Z</name>
            <TimeStamp id="time_584">
                <when>2017-06-22T00:35:08.000Z</when>
            </TimeStamp>
            <styleUrl>#stylesel_834</styleUrl>
            <Point id="geom_885">
                <coordinates>-111.86725616,40.41278839,0.0</coordinates>
            </Point>
        </Placemark>
        <Placemark id="feat_894">
            <name>2012-07-31T16:28:48.000Z</name>
            <TimeStamp id="time_585">
                <when>2017-06-22T00:35:08.000Z</when>
            </TimeStamp>
            <styleUrl>#stylesel_835</styleUrl>
            <Point id="geom_886">
                <coordinates>-111.86611938,40.41205597,0.0</coordinates>
            </Point>
        </Placemark>
        <Placemark id="feat_895">
            <name>2012-07-31T16:33:43.000Z</name>
            <TimeStamp id="time_586">
                <when>2017-06-22T00:35:08.000Z</when>
            </TimeStamp>
            <styleUrl>#stylesel_836</styleUrl>
            <Point id="geom_887">
                <coordinates>-111.78127289,40.35773468,0.0</coordinates>
            </Point>
        </Placemark>
        <Placemark id="feat_896">
            <name>2012-07-31T16:33:59.000Z</name>
            <TimeStamp id="time_587">
                <when>2017-06-22T00:35:08.000Z</when>
            </TimeStamp>
            <styleUrl>#stylesel_837</styleUrl>
            <Point id="geom_888">
                <coordinates>-111.77629089,40.35441589,0.0</coordinates>
            </Point>
        </Placemark>
        <Placemark id="feat_897">
            <name>2012-07-31T16:34:16.000Z</name>
            <TimeStamp id="time_588">
                <when>2017-06-22T00:35:08.000Z</when>
            </TimeStamp>
            <styleUrl>#stylesel_838</styleUrl>
            <Point id="geom_889">
                <coordinates>-111.77172089,40.35129166,0.0</coordinates>
            </Point>
        </Placemark>
        <Placemark id="feat_898">
            <name>2012-07-31T16:35:19.000Z</name>
            <TimeStamp id="time_589">
                <when>2017-06-22T00:35:08.000Z</when>
            </TimeStamp>
            <styleUrl>#stylesel_839</styleUrl>
            <Point id="geom_890">
                <coordinates>-111.76851654,40.34980011,0.0</coordinates>
            </Point>
        </Placemark>
        <Placemark id="feat_899">
            <name>2012-07-31T16:37:34.000Z</name>
            <TimeStamp id="time_590">
                <when>2017-06-22T00:35:08.000Z</when>
            </TimeStamp>
            <styleUrl>#stylesel_840</styleUrl>
            <Point id="geom_891">
                <coordinates>-111.75267029,40.36428452,0.0</coordinates>
            </Point>
        </Placemark>
        <Placemark id="feat_900">
            <name>2012-07-31T16:37:19.000Z</name>
            <TimeStamp id="time_591">
                <when>2017-06-22T00:35:08.000Z</when>
            </TimeStamp>
            <styleUrl>#stylesel_841</styleUrl>
            <Point id="geom_892">
                <coordinates>-111.75471497,40.36242676,0.0</coordinates>
            </Point>
        </Placemark>
        <Placemark id="feat_901">
            <name>2012-07-31T16:34:11.000Z</name>
            <TimeStamp id="time_592">
                <when>2017-06-22T00:35:08.000Z</when>
            </TimeStamp>
            <styleUrl>#stylesel_842</styleUrl>
            <Point id="geom_893">
                <coordinates>-111.77293396,40.35216904,0.0</coordinates>
            </Point>
        </Placemark>
        <Placemark id="feat_902">
            <name>2012-07-31T16:39:07.000Z</name>
            <TimeStamp id="time_593">
                <when>2017-06-22T00:35:08.000Z</when>
            </TimeStamp>
            <styleUrl>#stylesel_843</styleUrl>
            <Point id="geom_894">
                <coordinates>-111.74994659,40.36587143,0.0</coordinates>
            </Point>
        </Placemark>
        <Placemark id="feat_903">
            <name>2012-07-31T16:32:26.000Z</name>
            <TimeStamp id="time_594">
                <when>2017-06-22T00:35:08.000Z</when>
            </TimeStamp>
            <styleUrl>#stylesel_844</styleUrl>
            <Point id="geom_895">
                <coordinates>-111.80532837,40.37231827,0.0</coordinates>
            </Point>
        </Placemark>
        <Placemark id="feat_904">
            <name>2012-07-31T16:32:29.000Z</name>
            <TimeStamp id="time_595">
                <when>2017-06-22T00:35:08.000Z</when>
            </TimeStamp>
            <styleUrl>#stylesel_845</styleUrl>
            <Point id="geom_896">
                <coordinates>-111.80422974,40.37197113,0.0</coordinates>
            </Point>
        </Placemark>
        <Placemark id="feat_905">
            <name>2012-07-31T16:40:01.000Z</name>
            <TimeStamp id="time_596">
                <when>2017-06-22T00:35:08.000Z</when>
            </TimeStamp>
            <styleUrl>#stylesel_846</styleUrl>
            <Point id="geom_897">
                <coordinates>-111.75074005,40.36990738,0.0</coordinates>
            </Point>
        </Placemark>
        <Placemark id="feat_906">
            <name>2012-07-31T16:40:09.000Z</name>
            <TimeStamp id="time_597">
                <when>2017-06-22T00:35:08.000Z</when>
            </TimeStamp>
            <styleUrl>#stylesel_847</styleUrl>
            <Point id="geom_898">
                <coordinates>-111.75175476,40.3699379,0.0</coordinates>
            </Point>
        </Placemark>
        <Placemark id="feat_907">
            <name>2012-07-31T16:31:40.000Z</name>
            <TimeStamp id="time_598">
                <when>2017-06-22T00:35:08.000Z</when>
            </TimeStamp>
            <styleUrl>#stylesel_848</styleUrl>
            <Point id="geom_899">
                <coordinates>-111.82095337,40.37802505,0.0</coordinates>
            </Point>
        </Placemark>
        <Placemark id="feat_908">
            <name>2012-07-31T16:31:36.000Z</name>
            <TimeStamp id="time_599">
                <when>2017-06-22T00:35:08.000Z</when>
            </TimeStamp>
            <styleUrl>#stylesel_849</styleUrl>
            <Point id="geom_900">
                <coordinates>-111.82217407,40.37873459,0.0</coordinates>
            </Point>
        </Placemark>
        <Placemark id="feat_909">
            <name>2012-07-31T16:36:46.000Z</name>
            <TimeStamp id="time_600">
                <when>2017-06-22T00:35:08.000Z</when>
            </TimeStamp>
            <styleUrl>#stylesel_850</styleUrl>
            <Point id="geom_901">
                <coordinates>-111.76143646,40.36003494,0.0</coordinates>
            </Point>
        </Placemark>
        <Placemark id="feat_910">
            <name>2012-07-31T16:36:40.000Z</name>
            <TimeStamp id="time_601">
                <when>2017-06-22T00:35:08.000Z</when>
            </TimeStamp>
            <styleUrl>#stylesel_851</styleUrl>
            <Point id="geom_902">
                <coordinates>-111.76255035,40.35938263,0.0</coordinates>
            </Point>
        </Placemark>
        <Placemark id="feat_911">
            <name>2012-07-31T16:37:26.000Z</name>
            <TimeStamp id="time_602">
                <when>2017-06-22T00:35:08.000Z</when>
            </TimeStamp>
            <styleUrl>#stylesel_852</styleUrl>
            <Point id="geom_903">
                <coordinates>-111.75366211,40.36322403,0.0</coordinates>
            </Point>
        </Placemark>
        <Placemark id="feat_912">
            <name>2012-07-31T16:36:27.000Z</name>
            <TimeStamp id="time_603">
                <when>2017-06-22T00:35:08.000Z</when>
            </TimeStamp>
            <styleUrl>#stylesel_853</styleUrl>
            <Point id="geom_904">
                <coordinates>-111.7633667,40.35725784,0.0</coordinates>
            </Point>
        </Placemark>
        <Placemark id="feat_913">
            <name>2012-07-31T16:36:51.000Z</name>
            <TimeStamp id="time_604">
                <when>2017-06-22T00:35:08.000Z</when>
            </TimeStamp>
            <styleUrl>#stylesel_854</styleUrl>
            <Point id="geom_905">
                <coordinates>-111.76028442,40.3602562,0.0</coordinates>
            </Point>
        </Placemark>
        <Placemark id="feat_914">
            <name>2012-07-31T16:33:39.000Z</name>
            <TimeStamp id="time_605">
                <when>2017-06-22T00:35:08.000Z</when>
            </TimeStamp>
            <styleUrl>#stylesel_855</styleUrl>
            <Point id="geom_906">
                <coordinates>-111.78252411,40.35852432,0.0</coordinates>
            </Point>
        </Placemark>
        <Placemark id="feat_915">
            <name>2012-07-31T16:34:28.000Z</name>
            <TimeStamp id="time_606">
                <when>2017-06-22T00:35:08.000Z</when>
            </TimeStamp>
            <styleUrl>#stylesel_856</styleUrl>
            <Point id="geom_907">
                <coordinates>-111.76956177,40.34973907,0.0</coordinates>
            </Point>
        </Placemark>
        <Placemark id="feat_916">
            <name>2012-07-31T16:40:18.000Z</name>
            <TimeStamp id="time_607">
                <when>2017-06-22T00:35:08.000Z</when>
            </TimeStamp>
            <styleUrl>#stylesel_857</styleUrl>
            <Point id="geom_908">
                <coordinates>-111.75276947,40.36996841,0.0</coordinates>
            </Point>
        </Placemark>
        <Placemark id="feat_917">
            <name>2012-07-31T16:31:44.000Z</name>
            <TimeStamp id="time_608">
                <when>2017-06-22T00:35:08.000Z</when>
            </TimeStamp>
            <styleUrl>#stylesel_858</styleUrl>
            <Point id="geom_909">
                <coordinates>-111.81974792,40.37729645,0.0</coordinates>
            </Point>
        </Placemark>
        <Placemark id="feat_918">
            <name>2012-07-31T16:34:21.000Z</name>
            <TimeStamp id="time_609">
                <when>2017-06-22T00:35:08.000Z</when>
            </TimeStamp>
            <styleUrl>#stylesel_859</styleUrl>
            <Point id="geom_910">
                <coordinates>-111.77064514,40.35050583,0.0</coordinates>
            </Point>
        </Placemark>
        <Placemark id="feat_919">
            <name>2012-07-31T16:36:12.000Z</name>
            <TimeStamp id="time_610">
                <when>2017-06-22T00:35:08.000Z</when>
            </TimeStamp>
            <styleUrl>#stylesel_860</styleUrl>
            <Point id="geom_911">
                <coordinates>-111.76338196,40.35503387,0.0</coordinates>
            </Point>
        </Placemark>
        <Placemark id="feat_920">
            <name>2012-07-31T16:31:20.000Z</name>
            <TimeStamp id="time_611">
                <when>2017-06-22T00:35:08.000Z</when>
            </TimeStamp>
            <styleUrl>#stylesel_861</styleUrl>
            <Point id="geom_912">
                <coordinates>-111.82711029,40.38160706,0.0</coordinates>
            </Point>
        </Placemark>
        <Placemark id="feat_921">
            <name>2012-07-31T16:39:22.000Z</name>
            <TimeStamp id="time_612">
                <when>2017-06-22T00:35:08.000Z</when>
            </TimeStamp>
            <styleUrl>#stylesel_862</styleUrl>
            <Point id="geom_913">
                <coordinates>-111.74963379,40.36696625,0.0</coordinates>
            </Point>
        </Placemark>
        <Placemark id="feat_922">
            <name>2012-07-31T16:36:20.000Z</name>
            <TimeStamp id="time_613">
                <when>2017-06-22T00:35:08.000Z</when>
            </TimeStamp>
            <styleUrl>#stylesel_863</styleUrl>
            <Point id="geom_914">
                <coordinates>-111.76331329,40.35617447,0.0</coordinates>
            </Point>
        </Placemark>
        <Placemark id="feat_923">
            <name>2012-07-31T16:31:16.000Z</name>
            <TimeStamp id="time_614">
                <when>2017-06-22T00:35:08.000Z</when>
            </TimeStamp>
            <styleUrl>#stylesel_864</styleUrl>
            <Point id="geom_915">
                <coordinates>-111.82833099,40.38231277,0.0</coordinates>
            </Point>
        </Placemark>
        <Placemark id="feat_924">
            <name>2012-07-31T16:37:01.000Z</name>
            <TimeStamp id="time_615">
                <when>2017-06-22T00:35:08.000Z</when>
            </TimeStamp>
            <styleUrl>#stylesel_865</styleUrl>
            <Point id="geom_916">
                <coordinates>-111.75809479,40.36069107,0.0</coordinates>
            </Point>
        </Placemark>
        <Placemark id="feat_925">
            <name>2012-07-31T16:39:31.000Z</name>
            <TimeStamp id="time_616">
                <when>2017-06-22T00:35:08.000Z</when>
            </TimeStamp>
            <styleUrl>#stylesel_866</styleUrl>
            <Point id="geom_917">
                <coordinates>-111.74966431,40.3679657,0.0</coordinates>
            </Point>
        </Placemark>
        <Placemark id="feat_926">
            <name>2012-07-31T16:39:41.000Z</name>
            <TimeStamp id="time_617">
                <when>2017-06-22T00:35:08.000Z</when>
            </TimeStamp>
            <styleUrl>#stylesel_867</styleUrl>
            <Point id="geom_918">
                <coordinates>-111.74962616,40.36897278,0.0</coordinates>
            </Point>
        </Placemark>
        <Placemark id="feat_927">
            <name>2012-07-31T16:36:56.000Z</name>
            <TimeStamp id="time_618">
                <when>2017-06-22T00:35:08.000Z</when>
            </TimeStamp>
            <styleUrl>#stylesel_868</styleUrl>
            <Point id="geom_919">
                <coordinates>-111.75914001,40.36040497,0.0</coordinates>
            </Point>
        </Placemark>
    </Document>
</kml>
