<?xml version="1.0" encoding="UTF-8"?>
<kml xmlns="http://www.opengis.net/kml/2.2" xmlns:gx="http://www.google.com/kml/ext/2.2">
    <Document id="feat_460">
        <Style id="stylesel_401">
            <IconStyle id="substyle_401">
                <colorMode>normal</colorMode>
                <scale>1</scale>
                <heading>0</heading>
                <Icon id="link_401">
                    <href>wifi4.png</href>
                </Icon>
            </IconStyle>
        </Style>
        <Style id="stylesel_402">
            <IconStyle id="substyle_402">
                <colorMode>normal</colorMode>
                <scale>1</scale>
                <heading>0</heading>
                <Icon id="link_402">
                    <href>wifi4.png</href>
                </Icon>
            </IconStyle>
        </Style>
        <Style id="stylesel_403">
            <IconStyle id="substyle_403">
                <colorMode>normal</colorMode>
                <scale>1</scale>
                <heading>0</heading>
                <Icon id="link_403">
                    <href>wifi4.png</href>
                </Icon>
            </IconStyle>
        </Style>
        <Style id="stylesel_404">
            <IconStyle id="substyle_404">
                <colorMode>normal</colorMode>
                <scale>1</scale>
                <heading>0</heading>
                <Icon id="link_404">
                    <href>wifi4.png</href>
                </Icon>
            </IconStyle>
        </Style>
        <Style id="stylesel_405">
            <IconStyle id="substyle_405">
                <colorMode>normal</colorMode>
                <scale>1</scale>
                <heading>0</heading>
                <Icon id="link_405">
                    <href>wifi4.png</href>
                </Icon>
            </IconStyle>
        </Style>
        <Placemark id="feat_461">
            <name>XHS-7066463F</name>
            <description>2017-03-23T16:40:26.000Z</description>
            <styleUrl>#stylesel_401</styleUrl>
            <Point id="geom_401">
                <coordinates>-111.93876648,40.59195328,0.0</coordinates>
            </Point>
        </Placemark>
        <Placemark id="feat_462">
            <name>K44JODVQ</name>
            <description>2015-04-23T20:45:23.000Z</description>
            <styleUrl>#stylesel_402</styleUrl>
            <Point id="geom_402">
                <coordinates>-111.93869781,40.59296036,0.0</coordinates>
            </Point>
        </Placemark>
        <Placemark id="feat_463">
            <name>K44JODVQ</name>
            <description>2015-04-23T20:45:31.000Z</description>
            <styleUrl>#stylesel_403</styleUrl>
            <Point id="geom_403">
                <coordinates>-111.93870544,40.59470367,0.0</coordinates>
            </Point>
        </Placemark>
        <Placemark id="feat_464">
            <name>XHS-7066463F</name>
            <description>2017-03-27T16:49:40.000Z</description>
            <styleUrl>#stylesel_404</styleUrl>
            <Point id="geom_404">
                <coordinates>-111.93881989,40.59127045,0.0</coordinates>
            </Point>
        </Placemark>
        <Placemark id="feat_465">
            <name>XHS-7066463F</name>
            <description>2017-03-28T16:29:24.000Z</description>
            <styleUrl>#stylesel_405</styleUrl>
            <Point id="geom_405">
                <coordinates>-111.93876648,40.59185028,0.0</coordinates>
            </Point>
        </Placemark>
    </Document>
</kml>
