<?xml version="1.0" encoding="UTF-8"?>
<kml xmlns="http://www.opengis.net/kml/2.2" xmlns:gx="http://www.google.com/kml/ext/2.2">
    <Document id="feat_260">
        <Style id="stylesel_234">
            <IconStyle id="substyle_234">
                <colorMode>normal</colorMode>
                <scale>1</scale>
                <heading>0</heading>
                <Icon id="link_234">
                    <href>wifi4.png</href>
                </Icon>
            </IconStyle>
        </Style>
        <Style id="stylesel_235">
            <IconStyle id="substyle_235">
                <colorMode>normal</colorMode>
                <scale>1</scale>
                <heading>0</heading>
                <Icon id="link_235">
                    <href>wifi4.png</href>
                </Icon>
            </IconStyle>
        </Style>
        <Style id="stylesel_236">
            <IconStyle id="substyle_236">
                <colorMode>normal</colorMode>
                <scale>1</scale>
                <heading>0</heading>
                <Icon id="link_236">
                    <href>wifi4.png</href>
                </Icon>
            </IconStyle>
        </Style>
        <Style id="stylesel_237">
            <IconStyle id="substyle_237">
                <colorMode>normal</colorMode>
                <scale>1</scale>
                <heading>0</heading>
                <Icon id="link_237">
                    <href>wifi4.png</href>
                </Icon>
            </IconStyle>
        </Style>
        <Style id="stylesel_238">
            <IconStyle id="substyle_238">
                <colorMode>normal</colorMode>
                <scale>1</scale>
                <heading>0</heading>
                <Icon id="link_238">
                    <href>wifi4.png</href>
                </Icon>
            </IconStyle>
        </Style>
        <Style id="stylesel_239">
            <IconStyle id="substyle_239">
                <colorMode>normal</colorMode>
                <scale>1</scale>
                <heading>0</heading>
                <Icon id="link_239">
                    <href>wifi4.png</href>
                </Icon>
            </IconStyle>
        </Style>
        <Placemark id="feat_261">
            <name>XHS-D1829B82</name>
            <description>2017-03-25T17:02:58.000Z</description>
            <styleUrl>#stylesel_234</styleUrl>
            <Point id="geom_234">
                <coordinates>-111.76386261,40.40585327,0.0</coordinates>
            </Point>
        </Placemark>
        <Placemark id="feat_262">
            <name>XHS-D1829B82</name>
            <description>2017-03-25T17:02:48.000Z</description>
            <styleUrl>#stylesel_235</styleUrl>
            <Point id="geom_235">
                <coordinates>-111.76443481,40.40589523,0.0</coordinates>
            </Point>
        </Placemark>
        <Placemark id="feat_263">
            <description>2014-08-28T18:38:04.000Z</description>
            <styleUrl>#stylesel_236</styleUrl>
            <Point id="geom_236">
                <coordinates>-111.76366425,40.40500259,0.0</coordinates>
            </Point>
        </Placemark>
        <Placemark id="feat_264">
            <name>XHS-D1829B82</name>
            <description>2017-02-15T21:30:05.000Z</description>
            <styleUrl>#stylesel_237</styleUrl>
            <Point id="geom_237">
                <coordinates>-111.76426697,40.40573883,0.0</coordinates>
            </Point>
        </Placemark>
        <Placemark id="feat_265">
            <name>XHS-D1829B82</name>
            <description>2017-02-15T21:29:23.000Z</description>
            <styleUrl>#stylesel_238</styleUrl>
            <Point id="geom_238">
                <coordinates>-111.76486969,40.4061203,0.0</coordinates>
            </Point>
        </Placemark>
        <Placemark id="feat_266">
            <name>XHS-D1829B82</name>
            <description>2017-02-15T21:29:40.000Z</description>
            <styleUrl>#stylesel_239</styleUrl>
            <Point id="geom_239">
                <coordinates>-111.76423645,40.40572357,0.0</coordinates>
            </Point>
        </Placemark>
    </Document>
</kml>
