<?xml version="1.0" encoding="UTF-8"?>
<kml xmlns="http://www.opengis.net/kml/2.2" xmlns:gx="http://www.google.com/kml/ext/2.2">
    <Document id="feat_69">
        <Style id="stylesel_67">
            <IconStyle id="substyle_67">
                <colorMode>normal</colorMode>
                <scale>1</scale>
                <heading>0</heading>
                <Icon id="link_67">
                    <href>wifi4.png</href>
                </Icon>
            </IconStyle>
        </Style>
        <Style id="stylesel_68">
            <IconStyle id="substyle_68">
                <colorMode>normal</colorMode>
                <scale>1</scale>
                <heading>0</heading>
                <Icon id="link_68">
                    <href>wifi4.png</href>
                </Icon>
            </IconStyle>
        </Style>
        <Style id="stylesel_69">
            <IconStyle id="substyle_69">
                <colorMode>normal</colorMode>
                <scale>1</scale>
                <heading>0</heading>
                <Icon id="link_69">
                    <href>wifi4.png</href>
                </Icon>
            </IconStyle>
        </Style>
        <Style id="stylesel_70">
            <IconStyle id="substyle_70">
                <colorMode>normal</colorMode>
                <scale>1</scale>
                <heading>0</heading>
                <Icon id="link_70">
                    <href>wifi4.png</href>
                </Icon>
            </IconStyle>
        </Style>
        <Style id="stylesel_71">
            <IconStyle id="substyle_71">
                <colorMode>normal</colorMode>
                <scale>1</scale>
                <heading>0</heading>
                <Icon id="link_71">
                    <href>wifi4.png</href>
                </Icon>
            </IconStyle>
        </Style>
        <Style id="stylesel_72">
            <IconStyle id="substyle_72">
                <colorMode>normal</colorMode>
                <scale>1</scale>
                <heading>0</heading>
                <Icon id="link_72">
                    <href>wifi4.png</href>
                </Icon>
            </IconStyle>
        </Style>
        <Style id="stylesel_73">
            <IconStyle id="substyle_73">
                <colorMode>normal</colorMode>
                <scale>1</scale>
                <heading>0</heading>
                <Icon id="link_73">
                    <href>wifi4.png</href>
                </Icon>
            </IconStyle>
        </Style>
        <Style id="stylesel_74">
            <IconStyle id="substyle_74">
                <colorMode>normal</colorMode>
                <scale>1</scale>
                <heading>0</heading>
                <Icon id="link_74">
                    <href>wifi4.png</href>
                </Icon>
            </IconStyle>
        </Style>
        <Style id="stylesel_75">
            <IconStyle id="substyle_75">
                <colorMode>normal</colorMode>
                <scale>1</scale>
                <heading>0</heading>
                <Icon id="link_75">
                    <href>wifi4.png</href>
                </Icon>
            </IconStyle>
        </Style>
        <Style id="stylesel_76">
            <IconStyle id="substyle_76">
                <colorMode>normal</colorMode>
                <scale>1</scale>
                <heading>0</heading>
                <Icon id="link_76">
                    <href>wifi4.png</href>
                </Icon>
            </IconStyle>
        </Style>
        <Style id="stylesel_77">
            <IconStyle id="substyle_77">
                <colorMode>normal</colorMode>
                <scale>1</scale>
                <heading>0</heading>
                <Icon id="link_77">
                    <href>wifi4.png</href>
                </Icon>
            </IconStyle>
        </Style>
        <Style id="stylesel_78">
            <IconStyle id="substyle_78">
                <colorMode>normal</colorMode>
                <scale>1</scale>
                <heading>0</heading>
                <Icon id="link_78">
                    <href>wifi4.png</href>
                </Icon>
            </IconStyle>
        </Style>
        <Style id="stylesel_79">
            <IconStyle id="substyle_79">
                <colorMode>normal</colorMode>
                <scale>1</scale>
                <heading>0</heading>
                <Icon id="link_79">
                    <href>wifi4.png</href>
                </Icon>
            </IconStyle>
        </Style>
        <Style id="stylesel_80">
            <IconStyle id="substyle_80">
                <colorMode>normal</colorMode>
                <scale>1</scale>
                <heading>0</heading>
                <Icon id="link_80">
                    <href>wifi4.png</href>
                </Icon>
            </IconStyle>
        </Style>
        <Style id="stylesel_81">
            <IconStyle id="substyle_81">
                <colorMode>normal</colorMode>
                <scale>1</scale>
                <heading>0</heading>
                <Icon id="link_81">
                    <href>wifi4.png</href>
                </Icon>
            </IconStyle>
        </Style>
        <Style id="stylesel_82">
            <IconStyle id="substyle_82">
                <colorMode>normal</colorMode>
                <scale>1</scale>
                <heading>0</heading>
                <Icon id="link_82">
                    <href>wifi4.png</href>
                </Icon>
            </IconStyle>
        </Style>
        <Style id="stylesel_83">
            <IconStyle id="substyle_83">
                <colorMode>normal</colorMode>
                <scale>1</scale>
                <heading>0</heading>
                <Icon id="link_83">
                    <href>wifi4.png</href>
                </Icon>
            </IconStyle>
        </Style>
        <Style id="stylesel_84">
            <IconStyle id="substyle_84">
                <colorMode>normal</colorMode>
                <scale>1</scale>
                <heading>0</heading>
                <Icon id="link_84">
                    <href>wifi4.png</href>
                </Icon>
            </IconStyle>
        </Style>
        <Style id="stylesel_85">
            <IconStyle id="substyle_85">
                <colorMode>normal</colorMode>
                <scale>1</scale>
                <heading>0</heading>
                <Icon id="link_85">
                    <href>wifi4.png</href>
                </Icon>
            </IconStyle>
        </Style>
        <Style id="stylesel_86">
            <IconStyle id="substyle_86">
                <colorMode>normal</colorMode>
                <scale>1</scale>
                <heading>0</heading>
                <Icon id="link_86">
                    <href>wifi4.png</href>
                </Icon>
            </IconStyle>
        </Style>
        <Style id="stylesel_87">
            <IconStyle id="substyle_87">
                <colorMode>normal</colorMode>
                <scale>1</scale>
                <heading>0</heading>
                <Icon id="link_87">
                    <href>wifi4.png</href>
                </Icon>
            </IconStyle>
        </Style>
        <Style id="stylesel_88">
            <IconStyle id="substyle_88">
                <colorMode>normal</colorMode>
                <scale>1</scale>
                <heading>0</heading>
                <Icon id="link_88">
                    <href>wifi4.png</href>
                </Icon>
            </IconStyle>
        </Style>
        <Style id="stylesel_89">
            <IconStyle id="substyle_89">
                <colorMode>normal</colorMode>
                <scale>1</scale>
                <heading>0</heading>
                <Icon id="link_89">
                    <href>wifi4.png</href>
                </Icon>
            </IconStyle>
        </Style>
        <Style id="stylesel_90">
            <IconStyle id="substyle_90">
                <colorMode>normal</colorMode>
                <scale>1</scale>
                <heading>0</heading>
                <Icon id="link_90">
                    <href>wifi4.png</href>
                </Icon>
            </IconStyle>
        </Style>
        <Style id="stylesel_91">
            <IconStyle id="substyle_91">
                <colorMode>normal</colorMode>
                <scale>1</scale>
                <heading>0</heading>
                <Icon id="link_91">
                    <href>wifi4.png</href>
                </Icon>
            </IconStyle>
        </Style>
        <Style id="stylesel_92">
            <IconStyle id="substyle_92">
                <colorMode>normal</colorMode>
                <scale>1</scale>
                <heading>0</heading>
                <Icon id="link_92">
                    <href>wifi4.png</href>
                </Icon>
            </IconStyle>
        </Style>
        <Style id="stylesel_93">
            <IconStyle id="substyle_93">
                <colorMode>normal</colorMode>
                <scale>1</scale>
                <heading>0</heading>
                <Icon id="link_93">
                    <href>wifi4.png</href>
                </Icon>
            </IconStyle>
        </Style>
        <Style id="stylesel_94">
            <IconStyle id="substyle_94">
                <colorMode>normal</colorMode>
                <scale>1</scale>
                <heading>0</heading>
                <Icon id="link_94">
                    <href>wifi4.png</href>
                </Icon>
            </IconStyle>
        </Style>
        <Style id="stylesel_95">
            <IconStyle id="substyle_95">
                <colorMode>normal</colorMode>
                <scale>1</scale>
                <heading>0</heading>
                <Icon id="link_95">
                    <href>wifi4.png</href>
                </Icon>
            </IconStyle>
        </Style>
        <Style id="stylesel_96">
            <IconStyle id="substyle_96">
                <colorMode>normal</colorMode>
                <scale>1</scale>
                <heading>0</heading>
                <Icon id="link_96">
                    <href>wifi4.png</href>
                </Icon>
            </IconStyle>
        </Style>
        <Style id="stylesel_97">
            <IconStyle id="substyle_97">
                <colorMode>normal</colorMode>
                <scale>1</scale>
                <heading>0</heading>
                <Icon id="link_97">
                    <href>wifi4.png</href>
                </Icon>
            </IconStyle>
        </Style>
        <Style id="stylesel_98">
            <IconStyle id="substyle_98">
                <colorMode>normal</colorMode>
                <scale>1</scale>
                <heading>0</heading>
                <Icon id="link_98">
                    <href>wifi4.png</href>
                </Icon>
            </IconStyle>
        </Style>
        <Style id="stylesel_99">
            <IconStyle id="substyle_99">
                <colorMode>normal</colorMode>
                <scale>1</scale>
                <heading>0</heading>
                <Icon id="link_99">
                    <href>wifi4.png</href>
                </Icon>
            </IconStyle>
        </Style>
        <Style id="stylesel_100">
            <IconStyle id="substyle_100">
                <colorMode>normal</colorMode>
                <scale>1</scale>
                <heading>0</heading>
                <Icon id="link_100">
                    <href>wifi4.png</href>
                </Icon>
            </IconStyle>
        </Style>
        <Style id="stylesel_101">
            <IconStyle id="substyle_101">
                <colorMode>normal</colorMode>
                <scale>1</scale>
                <heading>0</heading>
                <Icon id="link_101">
                    <href>wifi4.png</href>
                </Icon>
            </IconStyle>
        </Style>
        <Style id="stylesel_102">
            <IconStyle id="substyle_102">
                <colorMode>normal</colorMode>
                <scale>1</scale>
                <heading>0</heading>
                <Icon id="link_102">
                    <href>wifi4.png</href>
                </Icon>
            </IconStyle>
        </Style>
        <Style id="stylesel_103">
            <IconStyle id="substyle_103">
                <colorMode>normal</colorMode>
                <scale>1</scale>
                <heading>0</heading>
                <Icon id="link_103">
                    <href>wifi4.png</href>
                </Icon>
            </IconStyle>
        </Style>
        <Style id="stylesel_104">
            <IconStyle id="substyle_104">
                <colorMode>normal</colorMode>
                <scale>1</scale>
                <heading>0</heading>
                <Icon id="link_104">
                    <href>wifi4.png</href>
                </Icon>
            </IconStyle>
        </Style>
        <Style id="stylesel_105">
            <IconStyle id="substyle_105">
                <colorMode>normal</colorMode>
                <scale>1</scale>
                <heading>0</heading>
                <Icon id="link_105">
                    <href>wifi4.png</href>
                </Icon>
            </IconStyle>
        </Style>
        <Style id="stylesel_106">
            <IconStyle id="substyle_106">
                <colorMode>normal</colorMode>
                <scale>1</scale>
                <heading>0</heading>
                <Icon id="link_106">
                    <href>wifi4.png</href>
                </Icon>
            </IconStyle>
        </Style>
        <Style id="stylesel_107">
            <IconStyle id="substyle_107">
                <colorMode>normal</colorMode>
                <scale>1</scale>
                <heading>0</heading>
                <Icon id="link_107">
                    <href>wifi4.png</href>
                </Icon>
            </IconStyle>
        </Style>
        <Style id="stylesel_108">
            <IconStyle id="substyle_108">
                <colorMode>normal</colorMode>
                <scale>1</scale>
                <heading>0</heading>
                <Icon id="link_108">
                    <href>wifi4.png</href>
                </Icon>
            </IconStyle>
        </Style>
        <Style id="stylesel_109">
            <IconStyle id="substyle_109">
                <colorMode>normal</colorMode>
                <scale>1</scale>
                <heading>0</heading>
                <Icon id="link_109">
                    <href>wifi4.png</href>
                </Icon>
            </IconStyle>
        </Style>
        <Style id="stylesel_110">
            <IconStyle id="substyle_110">
                <colorMode>normal</colorMode>
                <scale>1</scale>
                <heading>0</heading>
                <Icon id="link_110">
                    <href>wifi4.png</href>
                </Icon>
            </IconStyle>
        </Style>
        <Style id="stylesel_111">
            <IconStyle id="substyle_111">
                <colorMode>normal</colorMode>
                <scale>1</scale>
                <heading>0</heading>
                <Icon id="link_111">
                    <href>wifi4.png</href>
                </Icon>
            </IconStyle>
        </Style>
        <Style id="stylesel_112">
            <IconStyle id="substyle_112">
                <colorMode>normal</colorMode>
                <scale>1</scale>
                <heading>0</heading>
                <Icon id="link_112">
                    <href>wifi4.png</href>
                </Icon>
            </IconStyle>
        </Style>
        <Style id="stylesel_113">
            <IconStyle id="substyle_113">
                <colorMode>normal</colorMode>
                <scale>1</scale>
                <heading>0</heading>
                <Icon id="link_113">
                    <href>wifi4.png</href>
                </Icon>
            </IconStyle>
        </Style>
        <Placemark id="feat_70">
            <name>XHS-FFB6FD1C</name>
            <description>2016-10-19T04:50:51.000Z</description>
            <styleUrl>#stylesel_67</styleUrl>
            <Point id="geom_67">
                <coordinates>-111.83068085,40.7479744,0.0</coordinates>
            </Point>
        </Placemark>
        <Placemark id="feat_71">
            <name>XHS-FFB6FD1C</name>
            <description>2016-09-17T03:38:00.000Z</description>
            <styleUrl>#stylesel_68</styleUrl>
            <Point id="geom_68">
                <coordinates>-111.83068085,40.74769974,0.0</coordinates>
            </Point>
        </Placemark>
        <Placemark id="feat_72">
            <name>XHS-FFB6FD1C</name>
            <description>2017-05-26T21:36:22.000Z</description>
            <styleUrl>#stylesel_69</styleUrl>
            <Point id="geom_69">
                <coordinates>-111.83047485,40.74890137,0.0</coordinates>
            </Point>
        </Placemark>
        <Placemark id="feat_73">
            <name>XHS-FFB6FD1C</name>
            <description>2016-09-03T00:45:12.000Z</description>
            <styleUrl>#stylesel_70</styleUrl>
            <Point id="geom_70">
                <coordinates>-111.83048248,40.74924469,0.0</coordinates>
            </Point>
        </Placemark>
        <Placemark id="feat_74">
            <name>XHS-FFB6FD1C</name>
            <description>2017-03-23T21:26:23.000Z</description>
            <styleUrl>#stylesel_71</styleUrl>
            <Point id="geom_71">
                <coordinates>-111.83067322,40.74819183,0.0</coordinates>
            </Point>
        </Placemark>
        <Placemark id="feat_75">
            <name>XHS-FFB6FD1C</name>
            <description>2016-07-28T15:27:56.000Z</description>
            <styleUrl>#stylesel_72</styleUrl>
            <Point id="geom_72">
                <coordinates>-111.83043671,40.74869919,0.0</coordinates>
            </Point>
        </Placemark>
        <Placemark id="feat_76">
            <name>XHS-FFB6FD1C</name>
            <description>2016-09-17T02:40:17.000Z</description>
            <styleUrl>#stylesel_73</styleUrl>
            <Point id="geom_73">
                <coordinates>-111.82839203,40.74305344,0.0</coordinates>
            </Point>
        </Placemark>
        <Placemark id="feat_77">
            <name>XHS-FFB6FD1C</name>
            <description>2016-07-01T23:31:52.000Z</description>
            <styleUrl>#stylesel_74</styleUrl>
            <Point id="geom_74">
                <coordinates>-111.83046722,40.74921036,0.0</coordinates>
            </Point>
        </Placemark>
        <Placemark id="feat_78">
            <name>XHS-FFB6FD1C</name>
            <description>2016-10-08T21:13:42.000Z</description>
            <styleUrl>#stylesel_75</styleUrl>
            <Point id="geom_75">
                <coordinates>-111.83058167,40.74584579,0.0</coordinates>
            </Point>
        </Placemark>
        <Placemark id="feat_79">
            <name>XHS-FFB6FD1C</name>
            <description>2016-10-08T21:13:27.000Z</description>
            <styleUrl>#stylesel_76</styleUrl>
            <Point id="geom_76">
                <coordinates>-111.83070374,40.74848938,0.0</coordinates>
            </Point>
        </Placemark>
        <Placemark id="feat_80">
            <name>XHS-FFB6FD1C</name>
            <description>2016-10-08T21:13:35.000Z</description>
            <styleUrl>#stylesel_77</styleUrl>
            <Point id="geom_77">
                <coordinates>-111.83070374,40.74707031,0.0</coordinates>
            </Point>
        </Placemark>
        <Placemark id="feat_81">
            <name>XHS-FFB6FD1C</name>
            <description>2016-09-10T23:41:04.000Z</description>
            <styleUrl>#stylesel_78</styleUrl>
            <Point id="geom_78">
                <coordinates>-111.83072662,40.7477417,0.0</coordinates>
            </Point>
        </Placemark>
        <Placemark id="feat_82">
            <name>XHS-FFB6FD1C</name>
            <description>2017-04-07T18:58:45.000Z</description>
            <styleUrl>#stylesel_79</styleUrl>
            <Point id="geom_79">
                <coordinates>-111.830513,40.74907684,0.0</coordinates>
            </Point>
        </Placemark>
        <Placemark id="feat_83">
            <name>XHS-FFB6FD1C</name>
            <description>2016-09-10T23:41:17.000Z</description>
            <styleUrl>#stylesel_80</styleUrl>
            <Point id="geom_80">
                <coordinates>-111.8303833,40.74529648,0.0</coordinates>
            </Point>
        </Placemark>
        <Placemark id="feat_84">
            <name>XHS-FFB6FD1C</name>
            <description>2016-09-10T23:41:11.000Z</description>
            <styleUrl>#stylesel_81</styleUrl>
            <Point id="geom_81">
                <coordinates>-111.83068848,40.74637604,0.0</coordinates>
            </Point>
        </Placemark>
        <Placemark id="feat_85">
            <name>XHS-FFB6FD1C</name>
            <description>2016-07-04T04:28:35.000Z</description>
            <styleUrl>#stylesel_82</styleUrl>
            <Point id="geom_82">
                <coordinates>-111.83075714,40.74769974,0.0</coordinates>
            </Point>
        </Placemark>
        <Placemark id="feat_86">
            <name>XHS-FFB6FD1C</name>
            <description>2017-03-23T14:15:53.000Z</description>
            <styleUrl>#stylesel_83</styleUrl>
            <Point id="geom_83">
                <coordinates>-111.83055878,40.7488327,0.0</coordinates>
            </Point>
        </Placemark>
        <Placemark id="feat_87">
            <name>XHS-FFB6FD1C</name>
            <description>2016-09-17T03:37:54.000Z</description>
            <styleUrl>#stylesel_84</styleUrl>
            <Point id="geom_84">
                <coordinates>-111.83068085,40.74872208,0.0</coordinates>
            </Point>
        </Placemark>
        <Placemark id="feat_88">
            <name>XHS-FFB6FD1C</name>
            <description>2016-10-19T04:50:45.000Z</description>
            <styleUrl>#stylesel_85</styleUrl>
            <Point id="geom_85">
                <coordinates>-111.83068085,40.7490921,0.0</coordinates>
            </Point>
        </Placemark>
        <Placemark id="feat_89">
            <name>XHS-FFB6FD1C</name>
            <description>2016-10-08T19:25:31.000Z</description>
            <styleUrl>#stylesel_86</styleUrl>
            <Point id="geom_86">
                <coordinates>-111.83048248,40.74962616,0.0</coordinates>
            </Point>
        </Placemark>
        <Placemark id="feat_90">
            <name>XHS-FFB6FD1C</name>
            <description>2016-04-24T03:48:39.000Z</description>
            <styleUrl>#stylesel_87</styleUrl>
            <Point id="geom_87">
                <coordinates>-111.83049011,40.74988556,0.0</coordinates>
            </Point>
        </Placemark>
        <Placemark id="feat_91">
            <name>XHS-FFB6FD1C</name>
            <description>2016-06-09T19:39:17.000Z</description>
            <styleUrl>#stylesel_88</styleUrl>
            <Point id="geom_88">
                <coordinates>-111.83054352,40.74857712,0.0</coordinates>
            </Point>
        </Placemark>
        <Placemark id="feat_92">
            <name>XHS-FFB6FD1C</name>
            <description>2016-07-26T15:28:34.000Z</description>
            <styleUrl>#stylesel_89</styleUrl>
            <Point id="geom_89">
                <coordinates>-111.83046722,40.74879074,0.0</coordinates>
            </Point>
        </Placemark>
        <Placemark id="feat_93">
            <name>XHS-FFB6FD1C</name>
            <description>2016-04-24T03:48:31.000Z</description>
            <styleUrl>#stylesel_90</styleUrl>
            <Point id="geom_90">
                <coordinates>-111.83045959,40.74866486,0.0</coordinates>
            </Point>
        </Placemark>
        <Placemark id="feat_94">
            <name>XHS-FFB6FD1C</name>
            <description>2016-07-04T00:55:43.000Z</description>
            <styleUrl>#stylesel_91</styleUrl>
            <Point id="geom_91">
                <coordinates>-111.83040619,40.74900055,0.0</coordinates>
            </Point>
        </Placemark>
        <Placemark id="feat_95">
            <name>XHS-FFB6FD1C</name>
            <description>2016-07-13T04:23:58.000Z</description>
            <styleUrl>#stylesel_92</styleUrl>
            <Point id="geom_92">
                <coordinates>-111.83059692,40.74834442,0.0</coordinates>
            </Point>
        </Placemark>
        <Placemark id="feat_96">
            <name>XHS-FFB6FD1C</name>
            <description>2016-10-02T04:04:37.000Z</description>
            <styleUrl>#stylesel_93</styleUrl>
            <Point id="geom_93">
                <coordinates>-111.83068085,40.74750137,0.0</coordinates>
            </Point>
        </Placemark>
        <Placemark id="feat_97">
            <name>XHS-FFB6FD1C</name>
            <description>2016-10-19T00:11:57.000Z</description>
            <styleUrl>#stylesel_94</styleUrl>
            <Point id="geom_94">
                <coordinates>-111.83061218,40.74847031,0.0</coordinates>
            </Point>
        </Placemark>
        <Placemark id="feat_98">
            <name>XHS-FFB6FD1C</name>
            <description>2016-10-02T04:04:31.000Z</description>
            <styleUrl>#stylesel_95</styleUrl>
            <Point id="geom_95">
                <coordinates>-111.83069611,40.74868774,0.0</coordinates>
            </Point>
        </Placemark>
        <Placemark id="feat_99">
            <name>XHS-FFB6FD1C</name>
            <description>2016-10-19T00:12:09.000Z</description>
            <styleUrl>#stylesel_96</styleUrl>
            <Point id="geom_96">
                <coordinates>-111.83061218,40.74949265,0.0</coordinates>
            </Point>
        </Placemark>
        <Placemark id="feat_100">
            <name>XHS-FFB6FD1C</name>
            <description>2016-07-29T15:32:35.000Z</description>
            <styleUrl>#stylesel_97</styleUrl>
            <Point id="geom_97">
                <coordinates>-111.83049011,40.74838638,0.0</coordinates>
            </Point>
        </Placemark>
        <Placemark id="feat_101">
            <name>XHS-FFB6FD1C</name>
            <description>2016-10-08T19:25:21.000Z</description>
            <styleUrl>#stylesel_98</styleUrl>
            <Point id="geom_98">
                <coordinates>-111.83048248,40.74856567,0.0</coordinates>
            </Point>
        </Placemark>
        <Placemark id="feat_102">
            <name>XHS-FFB6FD1C</name>
            <description>2016-05-26T23:58:02.000Z</description>
            <styleUrl>#stylesel_99</styleUrl>
            <Point id="geom_99">
                <coordinates>-111.83065796,40.7480545,0.0</coordinates>
            </Point>
        </Placemark>
        <Placemark id="feat_103">
            <name>XHS-FFB6FD1C</name>
            <description>2016-07-28T17:56:01.000Z</description>
            <styleUrl>#stylesel_100</styleUrl>
            <Point id="geom_100">
                <coordinates>-111.83071899,40.74866486,0.0</coordinates>
            </Point>
        </Placemark>
        <Placemark id="feat_104">
            <name>XHS-FFB6FD1C</name>
            <description>2016-09-17T02:40:40.000Z</description>
            <styleUrl>#stylesel_101</styleUrl>
            <Point id="geom_101">
                <coordinates>-111.83057404,40.74606323,0.0</coordinates>
            </Point>
        </Placemark>
        <Placemark id="feat_105">
            <name>XHS-FFB6FD1C</name>
            <description>2017-03-23T21:26:30.000Z</description>
            <styleUrl>#stylesel_102</styleUrl>
            <Point id="geom_102">
                <coordinates>-111.83069611,40.74691391,0.0</coordinates>
            </Point>
        </Placemark>
        <Placemark id="feat_106">
            <name>XHS-FFB6FD1C</name>
            <description>2016-09-12T04:30:56.000Z</description>
            <styleUrl>#stylesel_103</styleUrl>
            <Point id="geom_103">
                <coordinates>-111.83046722,40.74966812,0.0</coordinates>
            </Point>
        </Placemark>
        <Placemark id="feat_107">
            <name>XHS-FFB6FD1C</name>
            <description>2016-09-12T04:31:02.000Z</description>
            <styleUrl>#stylesel_104</styleUrl>
            <Point id="geom_104">
                <coordinates>-111.83045959,40.75079346,0.0</coordinates>
            </Point>
        </Placemark>
        <Placemark id="feat_108">
            <name>XHS-FFB6FD1C</name>
            <description>2016-09-12T04:31:10.000Z</description>
            <styleUrl>#stylesel_105</styleUrl>
            <Point id="geom_105">
                <coordinates>-111.8312912,40.75211334,0.0</coordinates>
            </Point>
        </Placemark>
        <Placemark id="feat_109">
            <name>XHS-FFB6FD1C</name>
            <description>2016-10-09T03:10:24.000Z</description>
            <styleUrl>#stylesel_106</styleUrl>
            <Point id="geom_106">
                <coordinates>-111.83061218,40.74720383,0.0</coordinates>
            </Point>
        </Placemark>
        <Placemark id="feat_110">
            <name>XHS-FFB6FD1C</name>
            <description>2016-07-27T23:43:55.000Z</description>
            <styleUrl>#stylesel_107</styleUrl>
            <Point id="geom_107">
                <coordinates>-111.83068085,40.74939346,0.0</coordinates>
            </Point>
        </Placemark>
        <Placemark id="feat_111">
            <name>XHS-FFB6FD1C</name>
            <description>2016-06-09T19:39:25.000Z</description>
            <styleUrl>#stylesel_108</styleUrl>
            <Point id="geom_108">
                <coordinates>-111.83055878,40.74967957,0.0</coordinates>
            </Point>
        </Placemark>
        <Placemark id="feat_112">
            <name>XHS-FFB6FD1C</name>
            <description>2016-07-13T04:24:06.000Z</description>
            <styleUrl>#stylesel_109</styleUrl>
            <Point id="geom_109">
                <coordinates>-111.83062744,40.74719238,0.0</coordinates>
            </Point>
        </Placemark>
        <Placemark id="feat_113">
            <name>XHS-FFB6FD1C</name>
            <description>2016-10-09T03:10:16.000Z</description>
            <styleUrl>#stylesel_110</styleUrl>
            <Point id="geom_110">
                <coordinates>-111.83065796,40.74852371,0.0</coordinates>
            </Point>
        </Placemark>
        <Placemark id="feat_114">
            <name>XHS-FFB6FD1C</name>
            <description>2016-04-24T01:27:44.000Z</description>
            <styleUrl>#stylesel_111</styleUrl>
            <Point id="geom_111">
                <coordinates>-111.83070374,40.74885178,0.0</coordinates>
            </Point>
        </Placemark>
        <Placemark id="feat_115">
            <name>XHS-FFB6FD1C</name>
            <description>2016-09-10T23:40:58.000Z</description>
            <styleUrl>#stylesel_112</styleUrl>
            <Point id="geom_112">
                <coordinates>-111.83071136,40.74897766,0.0</coordinates>
            </Point>
        </Placemark>
        <Placemark id="feat_116">
            <name>XHS-FFB6FD1C</name>
            <description>2016-07-04T04:28:27.000Z</description>
            <styleUrl>#stylesel_113</styleUrl>
            <Point id="geom_113">
                <coordinates>-111.83073425,40.74885559,0.0</coordinates>
            </Point>
        </Placemark>
    </Document>
</kml>
