<?xml version="1.0" encoding="UTF-8"?>
<kml xmlns="http://www.opengis.net/kml/2.2" xmlns:gx="http://www.google.com/kml/ext/2.2">
    <Document id="feat_273">
        <Style id="stylesel_243">
            <IconStyle id="substyle_243">
                <colorMode>normal</colorMode>
                <scale>1</scale>
                <heading>0</heading>
                <Icon id="link_243">
                    <href>wifi4.png</href>
                </Icon>
            </IconStyle>
        </Style>
        <Style id="stylesel_244">
            <IconStyle id="substyle_244">
                <colorMode>normal</colorMode>
                <scale>1</scale>
                <heading>0</heading>
                <Icon id="link_244">
                    <href>wifi4.png</href>
                </Icon>
            </IconStyle>
        </Style>
        <Style id="stylesel_245">
            <IconStyle id="substyle_245">
                <colorMode>normal</colorMode>
                <scale>1</scale>
                <heading>0</heading>
                <Icon id="link_245">
                    <href>wifi4.png</href>
                </Icon>
            </IconStyle>
        </Style>
        <Style id="stylesel_246">
            <IconStyle id="substyle_246">
                <colorMode>normal</colorMode>
                <scale>1</scale>
                <heading>0</heading>
                <Icon id="link_246">
                    <href>wifi4.png</href>
                </Icon>
            </IconStyle>
        </Style>
        <Style id="stylesel_247">
            <IconStyle id="substyle_247">
                <colorMode>normal</colorMode>
                <scale>1</scale>
                <heading>0</heading>
                <Icon id="link_247">
                    <href>wifi4.png</href>
                </Icon>
            </IconStyle>
        </Style>
        <Style id="stylesel_248">
            <IconStyle id="substyle_248">
                <colorMode>normal</colorMode>
                <scale>1</scale>
                <heading>0</heading>
                <Icon id="link_248">
                    <href>wifi4.png</href>
                </Icon>
            </IconStyle>
        </Style>
        <Style id="stylesel_249">
            <IconStyle id="substyle_249">
                <colorMode>normal</colorMode>
                <scale>1</scale>
                <heading>0</heading>
                <Icon id="link_249">
                    <href>wifi4.png</href>
                </Icon>
            </IconStyle>
        </Style>
        <Style id="stylesel_250">
            <IconStyle id="substyle_250">
                <colorMode>normal</colorMode>
                <scale>1</scale>
                <heading>0</heading>
                <Icon id="link_250">
                    <href>wifi4.png</href>
                </Icon>
            </IconStyle>
        </Style>
        <Style id="stylesel_251">
            <IconStyle id="substyle_251">
                <colorMode>normal</colorMode>
                <scale>1</scale>
                <heading>0</heading>
                <Icon id="link_251">
                    <href>wifi4.png</href>
                </Icon>
            </IconStyle>
        </Style>
        <Style id="stylesel_252">
            <IconStyle id="substyle_252">
                <colorMode>normal</colorMode>
                <scale>1</scale>
                <heading>0</heading>
                <Icon id="link_252">
                    <href>wifi4.png</href>
                </Icon>
            </IconStyle>
        </Style>
        <Style id="stylesel_253">
            <IconStyle id="substyle_253">
                <colorMode>normal</colorMode>
                <scale>1</scale>
                <heading>0</heading>
                <Icon id="link_253">
                    <href>wifi4.png</href>
                </Icon>
            </IconStyle>
        </Style>
        <Style id="stylesel_254">
            <IconStyle id="substyle_254">
                <colorMode>normal</colorMode>
                <scale>1</scale>
                <heading>0</heading>
                <Icon id="link_254">
                    <href>wifi4.png</href>
                </Icon>
            </IconStyle>
        </Style>
        <Style id="stylesel_255">
            <IconStyle id="substyle_255">
                <colorMode>normal</colorMode>
                <scale>1</scale>
                <heading>0</heading>
                <Icon id="link_255">
                    <href>wifi4.png</href>
                </Icon>
            </IconStyle>
        </Style>
        <Style id="stylesel_256">
            <IconStyle id="substyle_256">
                <colorMode>normal</colorMode>
                <scale>1</scale>
                <heading>0</heading>
                <Icon id="link_256">
                    <href>wifi4.png</href>
                </Icon>
            </IconStyle>
        </Style>
        <Style id="stylesel_257">
            <IconStyle id="substyle_257">
                <colorMode>normal</colorMode>
                <scale>1</scale>
                <heading>0</heading>
                <Icon id="link_257">
                    <href>wifi4.png</href>
                </Icon>
            </IconStyle>
        </Style>
        <Style id="stylesel_258">
            <IconStyle id="substyle_258">
                <colorMode>normal</colorMode>
                <scale>1</scale>
                <heading>0</heading>
                <Icon id="link_258">
                    <href>wifi4.png</href>
                </Icon>
            </IconStyle>
        </Style>
        <Style id="stylesel_259">
            <IconStyle id="substyle_259">
                <colorMode>normal</colorMode>
                <scale>1</scale>
                <heading>0</heading>
                <Icon id="link_259">
                    <href>wifi4.png</href>
                </Icon>
            </IconStyle>
        </Style>
        <Style id="stylesel_260">
            <IconStyle id="substyle_260">
                <colorMode>normal</colorMode>
                <scale>1</scale>
                <heading>0</heading>
                <Icon id="link_260">
                    <href>wifi4.png</href>
                </Icon>
            </IconStyle>
        </Style>
        <Placemark id="feat_274">
            <name>XHS-8CE44534</name>
            <description>2017-03-04T21:57:34.000Z</description>
            <styleUrl>#stylesel_243</styleUrl>
            <Point id="geom_243">
                <coordinates>-111.87963104,40.38446808,0.0</coordinates>
            </Point>
        </Placemark>
        <Placemark id="feat_275">
            <name>XHS-8CE44534</name>
            <description>2016-03-04T04:55:54.000Z</description>
            <styleUrl>#stylesel_244</styleUrl>
            <Point id="geom_244">
                <coordinates>-111.87577057,40.38453674,0.0</coordinates>
            </Point>
        </Placemark>
        <Placemark id="feat_276">
            <name>XHS-8CE44534</name>
            <description>2016-03-04T04:55:35.000Z</description>
            <styleUrl>#stylesel_245</styleUrl>
            <Point id="geom_245">
                <coordinates>-111.87678528,40.38408661,0.0</coordinates>
            </Point>
        </Placemark>
        <Placemark id="feat_277">
            <name>XHS-8CE44534</name>
            <description>2016-03-04T04:59:46.000Z</description>
            <styleUrl>#stylesel_246</styleUrl>
            <Point id="geom_246">
                <coordinates>-111.87680817,40.38228607,0.0</coordinates>
            </Point>
        </Placemark>
        <Placemark id="feat_278">
            <name>XHS-8CE44534</name>
            <description>2016-03-04T04:59:22.000Z</description>
            <styleUrl>#stylesel_247</styleUrl>
            <Point id="geom_247">
                <coordinates>-111.87677002,40.38450623,0.0</coordinates>
            </Point>
        </Placemark>
        <Placemark id="feat_279">
            <name>XHS-8CE44534</name>
            <description>2016-03-04T04:59:36.000Z</description>
            <styleUrl>#stylesel_248</styleUrl>
            <Point id="geom_248">
                <coordinates>-111.87683105,40.38337708,0.0</coordinates>
            </Point>
        </Placemark>
        <Placemark id="feat_280">
            <name>XHS-8CE44534</name>
            <description>2017-03-04T21:55:11.000Z</description>
            <styleUrl>#stylesel_249</styleUrl>
            <Point id="geom_249">
                <coordinates>-111.87715149,40.38461304,0.0</coordinates>
            </Point>
        </Placemark>
        <Placemark id="feat_281">
            <name>XHS-8CE44534</name>
            <description>2017-03-04T21:54:39.000Z</description>
            <styleUrl>#stylesel_250</styleUrl>
            <Point id="geom_250">
                <coordinates>-111.87827301,40.38394547,0.0</coordinates>
            </Point>
        </Placemark>
        <Placemark id="feat_282">
            <name>XHS-8CE44534</name>
            <description>2017-03-04T21:55:43.000Z</description>
            <styleUrl>#stylesel_251</styleUrl>
            <Point id="geom_251">
                <coordinates>-111.87854004,40.38495636,0.0</coordinates>
            </Point>
        </Placemark>
        <Placemark id="feat_283">
            <name>XHS-8CE44534</name>
            <description>2017-03-04T21:55:21.000Z</description>
            <styleUrl>#stylesel_252</styleUrl>
            <Point id="geom_252">
                <coordinates>-111.87757874,40.38488007,0.0</coordinates>
            </Point>
        </Placemark>
        <Placemark id="feat_284">
            <name>XHS-8CE44534</name>
            <description>2017-03-04T21:54:38.000Z</description>
            <styleUrl>#stylesel_253</styleUrl>
            <Point id="geom_253">
                <coordinates>-111.87815857,40.38394165,0.0</coordinates>
            </Point>
        </Placemark>
        <Placemark id="feat_285">
            <name>XHS-8CE44534</name>
            <description>2017-03-04T21:57:21.000Z</description>
            <styleUrl>#stylesel_254</styleUrl>
            <Point id="geom_254">
                <coordinates>-111.87859344,40.3846817,0.0</coordinates>
            </Point>
        </Placemark>
        <Placemark id="feat_286">
            <name>XHS-8CE44534</name>
            <description>2017-03-04T21:55:01.000Z</description>
            <styleUrl>#stylesel_255</styleUrl>
            <Point id="geom_255">
                <coordinates>-111.87717438,40.38455963,0.0</coordinates>
            </Point>
        </Placemark>
        <Placemark id="feat_287">
            <name>XHS-8CE44534</name>
            <description>2017-03-04T21:55:37.000Z</description>
            <styleUrl>#stylesel_256</styleUrl>
            <Point id="geom_256">
                <coordinates>-111.87847137,40.38455582,0.0</coordinates>
            </Point>
        </Placemark>
        <Placemark id="feat_288">
            <name>XHS-8CE44534</name>
            <description>2017-03-04T21:54:17.000Z</description>
            <styleUrl>#stylesel_257</styleUrl>
            <Point id="geom_257">
                <coordinates>-111.87824249,40.3839035,0.0</coordinates>
            </Point>
        </Placemark>
        <Placemark id="feat_289">
            <name>XHS-8CE44534</name>
            <description>2017-03-04T21:57:18.000Z</description>
            <styleUrl>#stylesel_258</styleUrl>
            <Point id="geom_258">
                <coordinates>-111.87857056,40.38488007,0.0</coordinates>
            </Point>
        </Placemark>
        <Placemark id="feat_290">
            <name>XHS-8CE44534</name>
            <description>2017-03-04T21:56:58.000Z</description>
            <styleUrl>#stylesel_259</styleUrl>
            <Point id="geom_259">
                <coordinates>-111.87741089,40.38556671,0.0</coordinates>
            </Point>
        </Placemark>
        <Placemark id="feat_291">
            <name>XHS-8CE44534</name>
            <description>2017-03-04T21:54:12.000Z</description>
            <styleUrl>#stylesel_260</styleUrl>
            <Point id="geom_260">
                <coordinates>-111.87895966,40.38391876,0.0</coordinates>
            </Point>
        </Placemark>
    </Document>
</kml>
