<?xml version="1.0" encoding="UTF-8"?>
<kml xmlns="http://www.opengis.net/kml/2.2" xmlns:gx="http://www.google.com/kml/ext/2.2">
    <Document id="feat_213">
        <Style id="stylesel_193">
            <IconStyle id="substyle_193">
                <colorMode>normal</colorMode>
                <scale>1</scale>
                <heading>0</heading>
                <Icon id="link_193">
                    <href>wifi4.png</href>
                </Icon>
            </IconStyle>
        </Style>
        <Style id="stylesel_194">
            <IconStyle id="substyle_194">
                <colorMode>normal</colorMode>
                <scale>1</scale>
                <heading>0</heading>
                <Icon id="link_194">
                    <href>wifi4.png</href>
                </Icon>
            </IconStyle>
        </Style>
        <Style id="stylesel_195">
            <IconStyle id="substyle_195">
                <colorMode>normal</colorMode>
                <scale>1</scale>
                <heading>0</heading>
                <Icon id="link_195">
                    <href>wifi4.png</href>
                </Icon>
            </IconStyle>
        </Style>
        <Placemark id="feat_214">
            <name>XHS-C067CFAF</name>
            <description>2017-06-24T00:44:17.000Z</description>
            <styleUrl>#stylesel_193</styleUrl>
            <Point id="geom_193">
                <coordinates>-111.49752045,40.64529419,0.0</coordinates>
            </Point>
        </Placemark>
        <Placemark id="feat_215">
            <name>XHS-C067CFAF</name>
            <description>2016-08-09T18:02:05.000Z</description>
            <styleUrl>#stylesel_194</styleUrl>
            <Point id="geom_194">
                <coordinates>-111.49752808,40.64515305,0.0</coordinates>
            </Point>
        </Placemark>
        <Placemark id="feat_216">
            <name>XHS-C067CFAF</name>
            <description>2017-06-24T00:44:16.000Z</description>
            <styleUrl>#stylesel_195</styleUrl>
            <Point id="geom_195">
                <coordinates>-111.49750519,40.64521027,0.0</coordinates>
            </Point>
        </Placemark>
    </Document>
</kml>
